<?xml version="1.0" encoding="UTF-8" standalone="no"?>
<svg
   xmlns:dc="http://purl.org/dc/elements/1.1/"
   xmlns:cc="http://creativecommons.org/ns#"
   xmlns:rdf="http://www.w3.org/1999/02/22-rdf-syntax-ns#"
   xmlns:svg="http://www.w3.org/2000/svg"
   xmlns="http://www.w3.org/2000/svg"
   xmlns:xlink="http://www.w3.org/1999/xlink"
   xmlns:sodipodi="http://sodipodi.sourceforge.net/DTD/sodipodi-0.dtd"
   xmlns:inkscape="http://www.inkscape.org/namespaces/inkscape"
   id="svg2"
   version="1.1"
   inkscape:version="1.0 (4035a4fb49, 2020-05-01)"
   width="2481"
   height="3503"
   sodipodi:docname="E24P01.svg">
  <metadata
     id="metadata8">
    <rdf:RDF>
      <cc:Work
         rdf:about="">
        <dc:format>image/svg+xml</dc:format>
        <dc:type
           rdf:resource="http://purl.org/dc/dcmitype/StillImage" />
        <dc:title />
      </cc:Work>
    </rdf:RDF>
  </metadata>
  <defs
     id="defs6">
    <filter
       style="color-interpolation-filters:sRGB"
       id="filter4375-4-1-1-1-9"
       inkscape:label="deevad outline effect">
      <feFlood
         id="feFlood4377-7-9-0-8-1"
         flood-opacity="1"
         flood-color="rgb(0,0,0)"
         result="flood" />
      <feComposite
         id="feComposite4379-3-8-8-2-77"
         in2="SourceGraphic"
         in="flood"
         operator="in"
         result="composite1" />
      <feMorphology
         id="feMorphology4393-1-0-49-8-9"
         operator="dilate"
         radius="4"
         result="result3" />
      <feComposite
         id="feComposite4385-9-5-7-0-8"
         in2="result3"
         in="SourceGraphic"
         operator="over"
         result="composite2" />
    </filter>
  </defs>
  <sodipodi:namedview
     pagecolor="#ffffff"
     bordercolor="#666666"
     borderopacity="1"
     objecttolerance="10"
     gridtolerance="10"
     guidetolerance="10"
     inkscape:pageopacity="0"
     inkscape:pageshadow="2"
     inkscape:window-width="1920"
     inkscape:window-height="1056"
     id="namedview4"
     showgrid="false"
     inkscape:zoom="0.42359308"
     inkscape:cx="1229.7554"
     inkscape:cy="2587.7141"
     inkscape:window-x="1920"
     inkscape:window-y="0"
     inkscape:window-maximized="1"
     inkscape:current-layer="layer1"
     inkscape:snap-global="false"
     inkscape:document-rotation="0" />
  <g
     inkscape:groupmode="layer"
     id="layer2"
     inkscape:label="artwork"
     sodipodi:insensitive="true">
    <image
       sodipodi:absref="C:\Users\stero\Documents\Kernewek\Pepper and Carrot\webcomics\ep24_The-Unity-Tree\lang\gfx_Pepper-and-Carrot_by-David-Revoy_E24P01.png"
       xlink:href="../gfx_Pepper-and-Carrot_by-David-Revoy_E24P01.png"
       width="2481"
       height="3503"
       id="image10"
       x="0"
       y="0" />
  </g>
  <g
     inkscape:groupmode="layer"
     id="layer3"
     inkscape:label="speechbubbles">
    <path
       style="fill:#ffffff;fill-rule:evenodd;stroke:none;stroke-width:1.18304px;stroke-linecap:butt;stroke-linejoin:miter;stroke-opacity:1"
       d="m 513.94317,446.44811 c 40.99444,10.92757 78.05054,17.72151 65.45221,-27.60232 72.56279,61.53387 62.15368,19.39152 73.63373,4.60034 43.14123,43.46733 80.26075,37.27293 112.49599,-9.20071 18.22305,67.03602 56.35653,34.55661 89.99671,24.53539 -0.0829,18.85159 -9.26714,40.46826 89.99685,29.13585 -28.38215,17.02623 -38.96882,32.48279 24.5446,41.40359 -44.11929,13.68965 -68.34883,28.25647 -20.45389,46.00406 -25.44382,25.85401 -8.426,41.21896 26.59,52.1378 -81.98704,1.51206 -92.63391,4.02319 -79.48053,17.42327 -69.80316,-27.55049 -49.17809,-4.80774 -43.24234,16.31294 -32.48932,-12.11585 -56.50316,-40.75285 -114.54129,-3.06684 -17.26125,-12.5074 -33.17231,-28.30434 -71.5884,10.73422 -2.70999,-34.05235 -30.79692,-32.77134 -71.58838,-13.80116 -10.75899,-31.93479 -51.15927,-15.72045 -94.08756,4.60045 35.03928,-31.16903 37.57838,-57.20824 -30.68072,-72.07296 66.1488,-17.83094 54.10368,-32.21352 28.63533,-46.00396 25.16191,-12.96789 41.56776,-27.09412 -24.54457,-52.13789 38.65425,3.89339 79.81202,8.91299 38.86226,-23.00207 z"
       id="path4582"
       inkscape:connector-curvature="0"
       sodipodi:nodetypes="ccccccccccccccccccc" />
    <path
       style="color:#000000;display:inline;overflow:visible;visibility:visible;fill:#ffffff;fill-opacity:1;fill-rule:nonzero;stroke:none;stroke-width:0.99999994px;marker:none;enable-background:accumulate"
       d="m 1120.4405,700.1743 c -32.2265,-17.97546 -75.6905,-29.21797 -94.8601,-55.01638 l -18.7309,38.20697 c -21.19647,-1.31166 -26.2338,-14.07539 -36.75813,-22.95055 l -18.52445,25.72405 C 902.21848,682.47077 878.08971,666.613 844.32571,653.77368 l -19.93547,22.60875 c 41.44339,8.00317 86.22663,23.6167 121.36515,31.70826 l 22.07602,-17.34663 c 14.0695,3.48337 27.30829,7.5971 36.83679,14.52656 l 23.5694,-31.97386 z"
       id="path4032"
       inkscape:connector-curvature="0"
       sodipodi:nodetypes="cccccccccccc" />
    <path
       style="color:#000000;display:inline;overflow:visible;visibility:visible;fill:#ffffff;fill-opacity:1;fill-rule:nonzero;stroke:none;stroke-width:0.99999994px;marker:none;enable-background:accumulate"
       d="m 1373.3502,1868.2437 c 6.6851,-9.6035 35.5763,-37.7572 31.3268,-2.86 46.4175,-40.2666 78.7953,-19.5262 111.971,-2.2535 11.4973,-12.4731 16.0323,-33.3022 45.1957,-24.5731 -1.9873,-14.0664 9.629,-22.0812 33.3836,-24.6967 -29.027,-12.0387 -33.2191,-21.179 24.6468,-23.0767 -42.759,-6.3379 -82.4984,-13.2357 -27.1003,-37.773 -15.6687,-2.7585 -57.3593,18.2946 -27.5245,-55.0444 -31.1129,20.7342 -62.2582,30.3971 -90.297,-24.8989 -14.441,18.5866 -33.3418,29.9721 -60.9951,-1.4146 -10.1201,18.985 -49.1487,15.6954 -62.7522,9.8432 25.1172,25.8757 21.8709,39.5499 -17.5185,36.7247 58.9158,48.3718 6.4035,35.5263 -5.8106,44.3362 49.1464,20.3406 23.3399,34.5624 11.3904,50.4926 58.9887,8.1069 35.1654,33.0527 34.0839,55.1942 z"
       id="path3549-3"
       inkscape:connector-curvature="0"
       sodipodi:nodetypes="ccccccccccccccc" />
    <path
       style="color:#000000;display:inline;overflow:visible;visibility:visible;fill:#ffffff;fill-opacity:1;fill-rule:nonzero;stroke:none;stroke-width:1.06737px;marker:none;enable-background:accumulate"
       d="m 1290.8358,1948.0036 c 5.83,-75.8195 96.886,-136.0769 300.6017,-119.3503 109.1212,8.9596 247.0583,11.5576 239.7833,122.6433 -7.2748,111.0853 -199.3575,109.9946 -236.0863,112.1526 -36.7293,2.1584 -236.9923,-2.3501 -270.7364,-40.5729 -21.1237,-23.9266 -33.9925,-51.3744 -33.5623,-74.8727 z"
       id="path4546-6"
       inkscape:connector-curvature="0"
       sodipodi:nodetypes="cssssc" />
    <path
       style="color:#000000;display:inline;overflow:visible;visibility:visible;fill:#ffffff;fill-opacity:1;fill-rule:nonzero;stroke:none;stroke-width:1px;marker:none;enable-background:accumulate"
       d="m 1725.1844,1861.3342 c 6.612,11.2759 86.9477,-29.2003 85.8796,-32.4046 0,0 27.5174,7.7754 31.5141,6.9248 1.9994,-6.4636 4.2729,-17.2204 4.2729,-17.2204 l 43.1705,1.271 -34.6999,8.0734 0.1804,21.2585 -36.6531,-7.0896 c -19.044,13.242 -51.208,25.1719 -50.7716,40.3619 z"
       id="path4448"
       inkscape:connector-curvature="0"
       sodipodi:nodetypes="cccccccccc" />
    <path
       style="color:#000000;display:inline;overflow:visible;visibility:visible;fill:#ffffff;fill-opacity:1;fill-rule:nonzero;stroke:none;stroke-width:1.04498px;marker:none;enable-background:accumulate"
       d="m 28.465726,3123.3098 c 53.51548,10.2099 49.009143,47.5152 34.441343,60.3936 59.882241,-46.0049 97.955471,-31.5682 67.468701,14.6866 104.14054,-63.4916 86.11215,-10.2642 78.47297,18.2334 49.60399,-60.5241 83.5104,-38.7498 103.81893,-1.4442 0.4974,-38.7109 63.57256,-40.868 83.71277,-13.9721 26.13088,-66.8064 53.26402,-46.1993 103.19128,-29.6676 -37.91975,-25.1142 -66.60186,-47.1516 35.2604,-79.2881 -54.59486,9.3062 -76.68614,-14.1474 17.16909,-40.1227 -93.05494,-1.2486 -99.59794,-37.5683 -0.78351,-54.5709 -95.97774,0.1241 -93.71786,-24.3501 -49.91604,-55.677 -67.37053,8.7449 -84.14999,-20.0903 -21.24143,-66.2578 -105.429,41.5353 -110.63781,15.888 -103.59987,-37.6115 -59.48198,58.5799 -54.57375,31.2865 -66.47958,-24.2178 -12.54512,40.8052 -44.81685,71.2968 -111.46643,23.6608 10.2689,26.5194 10.79778,55.5077 -80.24728,25.2477 48.7215,31.8874 16.94588,73.7579 -124.998659,73.0463 66.228644,21.0707 145.377569,65.6789 54.535462,72.2564 36.32564,6.9303 45.844394,26.3257 43.683589,42.1132 -16.361324,5.0771 -38.095246,9.9919 -66.15887,14.7644 52.915215,14.3397 86.492998,32.7732 3.137134,58.4273 z"
       id="path3549-3-7"
       inkscape:connector-curvature="0"
       sodipodi:nodetypes="ccccccccccccccccccccc" />
    <path
       style="fill:#ffffff;stroke:none;stroke-width:1"
       d="m 1312.0471,2636.6402 c 24.8572,-23.3618 23.0898,-34.098 20.1693,-46.0928 -2.9204,-11.9949 -6.7783,-22.4564 -2.996,-29.6912 3.7822,-7.2345 11.9314,-13.7504 18.5182,-17.7105 6.5867,-3.9602 0.6895,-11.8462 0.1992,-20.4782 -0.4905,-8.632 11.6694,-54.4912 11.6694,-54.4912 0,0 15.4128,29.8223 17.3984,40.7257 1.9857,10.9032 2.7616,14.8752 2.4762,19.5352 -0.2855,4.6599 -2.4809,16.1126 -8.3834,22.0982 -5.9026,5.9855 -13.8607,8.5198 -19.1677,11.9592 -5.307,3.4394 -4.2207,13.2301 -3.7625,22.963 0.4583,9.7331 -0.6146,16.9839 -10.2491,30.0137 -8.2583,11.169 -25.872,21.1689 -25.872,21.1689 z"
       id="path3023-2"
       inkscape:connector-curvature="0"
       sodipodi:nodetypes="csssscssssssc" />
    <path
       style="color:#000000;display:inline;overflow:visible;visibility:visible;fill:#ffffff;fill-opacity:1;fill-rule:nonzero;stroke:none;stroke-width:0.99999994px;marker:none;enable-background:accumulate"
       d="m 1316.0029,3034.7179 c 5.2109,-36.069 14.5234,-83.1655 -40.179,-91.5576 2.7742,1.4246 74.681,-16.1526 71.113,92.3401 -3.568,108.4926 -13.868,120.9339 -13.868,120.9339 z"
       id="path4064"
       inkscape:connector-curvature="0"
       sodipodi:nodetypes="ccscc" />
    <path
       style="color:#000000;display:inline;overflow:visible;visibility:visible;fill:#ffffff;fill-opacity:1;fill-rule:nonzero;stroke:none;stroke-width:1.04685px;marker:none;enable-background:accumulate"
       d="m 1065.4586,3290.1446 c -1.2212,-65.946 38.7375,-105.8909 46.3989,-111.3757 69.1487,-49.5015 284.5449,-31.2066 322.3518,2.9308 31.7467,27.8441 39.073,46.8951 35.4098,71.8082 -3.6631,24.9129 -23.1997,90.859 -68.3777,109.9102 -45.1779,19.051 -150.1864,27.8439 -205.1329,13.1891 -54.9463,-14.6546 -135.5342,-29.3092 -130.6499,-86.4626 z"
       id="path3517"
       inkscape:connector-curvature="0"
       sodipodi:nodetypes="cscsccc" />
    <path
       style="color:#000000;display:inline;overflow:visible;visibility:visible;fill:#ffffff;fill-opacity:1;fill-rule:nonzero;stroke:none;stroke-width:1px;marker:none;enable-background:accumulate"
       d="m 1146.2027,3115.7233 c -1.1746,-31.62 21.3289,-64.5566 33.0747,-74.6749 11.7461,-10.1185 83.0232,-20.0204 110.0387,-20.0204 27.0155,0 141.3233,5.6137 161.2914,28.3802 19.9679,22.7664 43.087,39.919 30.1666,77.863 -12.9206,37.9439 -93.9671,56.916 -111.586,60.7103 -17.6188,3.7944 -68.1262,6.324 -84.5704,5.0593 -16.4443,-1.2649 -141.9387,-25.4606 -138.415,-77.3175 z"
       id="path3357"
       inkscape:connector-curvature="0"
       inkscape:transform-center-x="-251.35553"
       inkscape:transform-center-y="-147.27939"
       sodipodi:nodetypes="ccsscccc" />
    <path
       style="fill:#ffffff;fill-rule:evenodd;stroke:none;stroke-width:0.99999988px;stroke-linecap:butt;stroke-linejoin:miter;stroke-opacity:1"
       d="m 1146.2648,2478.7083 c 8.9148,-23.8569 32.9214,-41.9579 59.049,-54.0414 12.4339,-5.8338 26.6461,-10.1089 41.1894,-8.9844 14.448,0.6719 28.5601,4.6835 43.1678,3.2901 17.7627,-0.4602 35.8372,-2.4681 53.3959,0.401 15.609,3.1306 31.6907,4.752 47.7982,4.846 11.3633,-1.9871 21.7614,3.3092 31.9096,6.4769 9.1104,3.4218 18.4159,7.0119 26.0681,12.3048 7.05,7.4302 15.4914,13.8943 22.6237,21.2583 4.6669,4.0258 4.2185,9.5866 4.0035,14.7331 -0.6061,10.5387 -1.6325,21.2437 -5.4423,31.3969 -2.2798,6.4459 -10.7065,8.5792 -17.1814,11.5412 -15.3207,6.2528 -31.5892,10.9944 -46.2109,18.3527 -14.4858,3.7677 -29.8803,2.0054 -44.7362,1.436 -12.4483,-1.1215 -24.9706,-2.6855 -37.5258,-1.3813 -15.9798,0.9544 -31.9111,3.4258 -47.9482,3.1093 -20.0899,-2.1722 -39.3306,-7.5207 -58.7995,-11.8111 -17.4671,-3.7817 -33.387,-10.8926 -48.6624,-18.4995 -8.1596,-4.3197 -16.7975,-9.3407 -19.6772,-17.3014 -2.3606,-5.4816 -2.9168,-11.3511 -3.0213,-17.1272 z"
       id="path4365"
       inkscape:connector-curvature="0" />
    <path
       style="color:#000000;display:inline;overflow:visible;visibility:visible;fill:#ffffff;fill-opacity:1;fill-rule:nonzero;stroke:none;stroke-width:1.01579px;marker:none;enable-background:accumulate"
       d="m 2429.7019,2354.1744 c -224.3275,5.735 -421.0693,-1.8853 -549.5442,-3.1779 1.0386,29.6995 -26.5775,22.6129 -52.7219,7.8152 20.8144,59.1261 -13.7031,63.7388 -65.9912,35.586 52.7757,58.9775 -0.1697,50.4622 -65.1117,12.8209 62.6207,58.7612 111.3346,113.6458 -11.5399,78.0338 72.81,38.9082 105.3328,57.6318 38.6365,77.2916 64.9022,22.7714 52.858,51.152 -11.9529,55.209 116.2544,35.27 34.2549,51.98 -13.2139,63.6353 131.148,19.2644 44.6007,44.5131 -26.4344,92.2854 82.1559,-14.6803 160.8289,-32.698 77.6128,30.705 149.0651,-36.9466 104.4988,-7.0154 21.9727,54.3293 47.1318,-18.5077 170.677,-48.1976 134.3293,0.2167 60.16,-30.6064 35.1296,11.1264 30.6772,35.6455 7.8759,-8.0442 33.6347,-56.1806 42.0537,-23.5806 15.3474,-23.529 28.2947,-18.9506 26.6579,14.341 13.2373,-19.3439 44.4245,-39.9227 33.1599,0.7675 19.6089,-40.7144 24.4224,-7.4419 15.0368,25.1298 49.0232,-63.2948 56.1092,-66.4173 60.5951,4.349 20.4618,-39.8452 44.9704,-80.5144 84.9659,-12.5028 0.052,-22.6093 7.0211,-60.926 72.3622,8.5638 -26.308,-71.509 38.1416,-57.6258 65.4351,11.0945 -33.3096,-87.5883 9.6736,-128.0605 63.7804,-36.4861 5.32,-120.2343 30.6741,-431.4465 29.2346,-532.0719 z"
       id="path4024"
       inkscape:connector-curvature="0"
       sodipodi:nodetypes="cccccccccccccccccccccccc" />
    <path
       style="fill:#ffffff;fill-rule:evenodd;stroke:none;stroke-width:0.99999994px;stroke-linecap:butt;stroke-linejoin:miter;stroke-opacity:1"
       d="m 2320.0189,2966.9466 -102.8737,31.1414 30.781,-65.8394 -54.3109,13.511 73.467,-174.0894 -83.4186,10.4305 -22.2012,199.1888 46.5569,-15.7553 -28.3923,68.2411 z"
       id="path5002"
       inkscape:connector-curvature="0"
       sodipodi:nodetypes="cccccccccc" />
    <text
       xml:space="preserve"
       style="font-style:normal;font-variant:normal;font-weight:normal;font-stretch:normal;line-height:0%;font-family:Lavi;-inkscape-font-specification:Lavi;letter-spacing:0px;word-spacing:0px;fill:#ffffff;fill-opacity:1;stroke:#000000;stroke-width:0.576256;stroke-miterlimit:4;stroke-dasharray:none;stroke-opacity:1;filter:url(#filter4375-4-1-1-1-9)"
       x="787.65729"
       y="1584.5073"
       id="text4580"
       transform="matrix(0.47590856,-0.23101257,-0.08785973,0.61214035,2033.4196,1281.2253)"><tspan
         sodipodi:role="line"
         id="tspan4582"
         x="787.65729"
         y="1584.5073"
         style="font-size:70px;line-height:1.25;letter-spacing:5.6281px;fill:#ffffff;stroke-width:0.576256;stroke-miterlimit:4;stroke-dasharray:none"><tspan
           style="font-size:61.4673px"
           id="tspan896">PAFF</tspan><tspan
           style="font-size:80.4001px;letter-spacing:5.6281px;fill:#ffffff;stroke-width:0.576256;stroke-miterlimit:4;stroke-dasharray:none"
           id="tspan4617">!</tspan></tspan></text>
    <path
       style="fill:#ffffff;fill-rule:evenodd;stroke:none;stroke-width:1.20785px;stroke-linecap:butt;stroke-linejoin:miter;stroke-opacity:1"
       d="m 557.0685,683.32985 c 73.23084,-15.76041 63.07293,21.65987 56.27376,56.93815 51.47864,-46.71166 75.25679,-31.98266 84.41069,15.1835 45.7872,-66.66823 80.68961,-33.11559 116.87631,-11.38762 1.39351,-32.76444 22.82527,-49.55478 106.05443,-17.08145 -43.83453,-47.36147 -39.02632,-76.8855 54.10938,-74.01958 -84.23437,-17.11543 -83.11335,-45.11785 -30.30126,-79.7134 -61.78473,28.81212 -101.5183,33.13118 -88.73941,-20.87733 -62.10064,53.32253 -71.06555,20.11214 -82.2463,-9.48969 -25.82089,61.98389 -61.36044,43.85804 -99.5613,3.79587 1.02947,38.62894 -13.89224,61.27212 -82.24628,30.36702 11.70618,28.05931 45.95194,66.76128 -34.63002,51.24433 43.17242,16.50002 58.63179,34.18547 0,55.0402 z"
       id="path907"
       inkscape:connector-curvature="0"
       sodipodi:nodetypes="ccccccccccccc" />
  </g>
  <g
     inkscape:groupmode="layer"
     id="layer1"
     inkscape:label="txt"
     style="display:inline">
    <path
       style="color:#000000;display:inline;overflow:visible;visibility:visible;fill:#ffffff;fill-opacity:1;fill-rule:nonzero;stroke:none;stroke-width:1px;marker:none;enable-background:accumulate"
       d="m 643.30092,3062.9957 c -16.45129,42.7371 -57.34368,52.6864 -79.08413,59.0603 -3.49561,-4.6209 -10.29733,-21.207 -10.29733,-21.207 0,0 -73.99284,20.9972 -91.7304,22.9324 -17.73755,1.9353 -27.60488,-25.996 -27.60488,-25.996 -1.49889,4.9963 104.15858,-3.83 127.4154,-18.4787 8.90084,13.0355 10.12822,16.304 14.99068,21.2359 13.47897,-4.7946 53.36319,-19.1261 66.31066,-37.5469 z"
       id="path4456"
       inkscape:connector-curvature="0"
       sodipodi:nodetypes="cccscccc" />
    <text
       xml:space="preserve"
       style="font-style:normal;font-variant:normal;font-weight:normal;font-stretch:normal;line-height:0%;font-family:Lavi;-inkscape-font-specification:Lavi;text-align:center;letter-spacing:0px;word-spacing:0px;text-anchor:middle;fill:#000000;fill-opacity:1;stroke:none"
       x="720.86694"
       y="514.9978"
       id="text4246"><tspan
         sodipodi:role="line"
         style="font-size:45px;line-height:1.25"
         x="720.86694"
         y="514.9978"
         id="tspan837">Ty a vynn</tspan><tspan
         sodipodi:role="line"
         style="font-size:45px;line-height:1.25"
         x="720.86694"
         y="571.2478"
         id="tspan74">Gwedhen Unyans?</tspan></text>
    <text
       xml:space="preserve"
       style="font-style:normal;font-variant:normal;font-weight:normal;font-stretch:normal;line-height:0%;font-family:Lavi;-inkscape-font-specification:Lavi;text-align:center;letter-spacing:0px;word-spacing:0px;text-anchor:middle;fill:#000000;fill-opacity:1;stroke:none"
       x="1575.9264"
       y="1919.9833"
       id="text4246-7"><tspan
         sodipodi:role="line"
         style="font-size:45px;line-height:1.25"
         x="1575.9264"
         y="1919.9833"
         id="tspan85">Gwraghes a Chaosah </tspan><tspan
         sodipodi:role="line"
         style="font-size:45px;line-height:1.25"
         x="1575.9264"
         y="1976.2333"
         id="tspan91">on! Ny wren nyni </tspan><tspan
         sodipodi:role="line"
         style="font-size:45px;line-height:1.25"
         x="1575.9264"
         y="2032.4833"
         id="tspan87">hemma!</tspan></text>
    <text
       xml:space="preserve"
       style="font-style:normal;font-variant:normal;font-weight:normal;font-stretch:normal;line-height:0%;font-family:Lavi;-inkscape-font-specification:Lavi;text-align:center;letter-spacing:0px;word-spacing:0px;text-anchor:middle;fill:#000000;fill-opacity:1;stroke:none"
       x="283.52304"
       y="2971"
       id="text4246-7-6"><tspan
         sodipodi:role="line"
         style="font-size:45px;line-height:1.25"
         x="283.52304"
         y="2971"
         id="tspan102">Y tal dhis fogella </tspan><tspan
         sodipodi:role="line"
         style="font-size:45px;line-height:1.25"
         x="283.52304"
         y="3027.25"
         id="tspan106">war studhya dha </tspan><tspan
         sodipodi:role="line"
         style="font-size:45px;line-height:1.25"
         x="283.52304"
         y="3083.5"
         id="tspan110">&quot;Husow a </tspan><tspan
         sodipodi:role="line"
         style="font-size:45px;line-height:1.25"
         x="283.52304"
         y="3139.75"
         id="tspan118">Dhiswrians&quot;!</tspan></text>
    <text
       xml:space="preserve"
       style="font-style:normal;font-variant:normal;font-weight:normal;font-stretch:normal;line-height:0%;font-family:Lavi;-inkscape-font-specification:Lavi;text-align:center;letter-spacing:0px;word-spacing:0px;text-anchor:middle;fill:#000000;fill-opacity:1;stroke:none"
       x="1309.3973"
       y="2493.7979"
       id="text4246-7-6-2"><tspan
         sodipodi:role="line"
         style="font-size:45px;line-height:1.25"
         x="1309.3973"
         y="2493.7979"
         id="tspan1069-6">Diswrians?</tspan></text>
    <text
       xml:space="preserve"
       style="font-style:normal;font-variant:normal;font-weight:normal;font-stretch:normal;line-height:0%;font-family:Lavi;-inkscape-font-specification:Lavi;text-align:center;letter-spacing:0px;word-spacing:0px;text-anchor:middle;fill:#000000;fill-opacity:1;stroke:none"
       x="1313.0408"
       y="3092.3787"
       id="text4246-7-6-2-0"><tspan
         sodipodi:role="line"
         style="font-size:45px;line-height:1.25"
         x="1313.0408"
         y="3092.3787"
         id="tspan4434">Dhe'n seson</tspan><tspan
         sodipodi:role="line"
         style="font-size:45px;line-height:1.25"
         x="1313.0408"
         y="3148.6287"
         id="tspan122">ma?</tspan></text>
    <text
       xml:space="preserve"
       style="font-style:normal;font-variant:normal;font-weight:normal;font-stretch:normal;line-height:0%;font-family:Lavi;-inkscape-font-specification:Lavi;text-align:center;letter-spacing:0px;word-spacing:0px;text-anchor:middle;fill:#000000;fill-opacity:1;stroke:none"
       x="1278.27"
       y="3233.5964"
       id="text4246-7-6-2-0-5"><tspan
         sodipodi:role="line"
         style="font-size:45px;line-height:1.25"
         x="1278.27"
         y="3233.5964"
         id="tspan4447">Prag na dhyskir </tspan><tspan
         sodipodi:role="line"
         style="font-size:45px;line-height:1.25"
         x="1278.27"
         y="3289.8464"
         id="tspan129">husow a wrians </tspan><tspan
         sodipodi:role="line"
         style="font-size:45px;line-height:1.25"
         x="1278.27"
         y="3346.0964"
         id="tspan131">y'ga le?</tspan></text>
    <text
       xml:space="preserve"
       style="font-style:normal;font-variant:normal;font-weight:normal;font-stretch:normal;line-height:0%;font-family:Lavi;-inkscape-font-specification:Lavi;text-align:center;letter-spacing:0px;word-spacing:0px;text-anchor:middle;fill:#000000;fill-opacity:1;stroke:none;stroke-width:1.6;stroke-miterlimit:4;stroke-dasharray:none"
       x="2091.9304"
       y="2421.3547"
       id="text4246-7-6-2-04"><tspan
         sodipodi:role="line"
         style="font-size:45px;line-height:1.25;stroke:none;stroke-width:1.6;stroke-miterlimit:4;stroke-dasharray:none"
         x="2091.9304"
         y="2421.3547"
         id="tspan4986">Yma nessa konsel</tspan><tspan
         sodipodi:role="line"
         style="font-size:45px;line-height:1.25;stroke:none;stroke-width:1.6;stroke-miterlimit:4;stroke-dasharray:none"
         x="2091.9304"
         y="2477.6047"
         id="tspan144">an Teyr Loor ow nesa</tspan><tspan
         sodipodi:role="line"
         style="font-size:45px;line-height:1.25;stroke:none;stroke-width:1.6;stroke-miterlimit:4;stroke-dasharray:none"
         x="2091.9304"
         y="2533.8547"
         id="tspan167">ha'th apposyansow ynwedh.</tspan><tspan
         sodipodi:role="line"
         style="font-size:45px;line-height:1.25;stroke:none;stroke-width:1.6;stroke-miterlimit:4;stroke-dasharray:none"
         x="2091.9304"
         y="2590.1047"
         id="tspan142">Dysk! <tspan
   style="font-weight:bold"
   id="tspan146">Dysk! DYSK!!!</tspan></tspan><tspan
         sodipodi:role="line"
         style="font-size:45px;line-height:1.25;stroke:#000000;stroke-width:1.6;stroke-miterlimit:4;stroke-dasharray:none;stroke-opacity:1"
         x="2091.9304"
         y="2646.3547"
         id="tspan4456">HA HEDH TREYLYA</tspan><tspan
         sodipodi:role="line"
         style="font-size:45px;line-height:1.25;stroke:#000000;stroke-width:1.6;stroke-miterlimit:4;stroke-dasharray:none;stroke-opacity:1"
         x="2091.9304"
         y="2702.6047"
         id="tspan153">DHA ATTENDYANS WAR-TU</tspan><tspan
         sodipodi:role="line"
         style="font-size:45px;line-height:1.25;stroke:#000000;stroke-width:1.6;stroke-miterlimit:4;stroke-dasharray:none;stroke-opacity:1"
         x="2091.9304"
         y="2758.8547"
         id="tspan155">HA'N TYBYANSOW</tspan><tspan
         sodipodi:role="line"
         style="font-size:45px;line-height:1.25;stroke:#000000;stroke-width:1.6;stroke-miterlimit:4;stroke-dasharray:none;stroke-opacity:1"
         x="2091.9304"
         y="2815.1047"
         id="tspan157">GOCKI MA!!!</tspan></text>
    <flowRoot
       xml:space="preserve"
       id="flowRoot862"
       style="font-style:normal;font-variant:normal;font-weight:normal;font-stretch:normal;font-size:0.666667px;line-height:318%;font-family:Neuropolitical;-inkscape-font-specification:Neuropolitical;text-align:center;letter-spacing:0px;word-spacing:0px;writing-mode:lr-tb;text-anchor:middle;fill:#000000;fill-opacity:1;stroke:none;stroke-width:1px;stroke-linecap:butt;stroke-linejoin:miter;stroke-opacity:1"><flowRegion
         id="flowRegion864"><rect
           id="rect866"
           width="103.5"
           height="5.75"
           x="1181.625"
           y="3275.875" /></flowRegion><flowPara
         id="flowPara868" /></flowRoot>
    <text
       xml:space="preserve"
       style="font-style:normal;font-variant:normal;font-weight:normal;font-stretch:normal;font-size:14.7168px;line-height:0%;font-family:Lavi;-inkscape-font-specification:Lavi;text-align:center;letter-spacing:0px;word-spacing:0px;text-anchor:middle;fill:#000000;fill-opacity:1;stroke:none;stroke-width:1"
       x="874.75085"
       y="676.29504"
       id="text4246-36"
       transform="skewX(-9.9961078)"><tspan
         sodipodi:role="line"
         style="font-size:55.188px;line-height:1.25;stroke-width:1"
         x="874.75085"
         y="676.29504"
         id="tspan837-3">Omma?!?</tspan></text>
    <text
       xml:space="preserve"
       style="font-style:normal;font-variant:normal;font-weight:normal;font-stretch:normal;font-size:19.0489px;line-height:0%;font-family:Lavi;-inkscape-font-specification:Lavi;text-align:center;letter-spacing:0px;word-spacing:0px;text-anchor:middle;fill:#000000;fill-opacity:1;stroke:none;stroke-width:2;stroke-miterlimit:4;stroke-dasharray:none"
       x="1711.0228"
       y="1822.5054"
       id="text4246-3"
       transform="matrix(1.0148714,0,-0.1559129,0.98534652,0,0)"><tspan
         sodipodi:role="line"
         style="font-size:71.4334px;line-height:1.25;stroke:#000000;stroke-width:2;stroke-miterlimit:4;stroke-dasharray:none;stroke-opacity:1"
         x="1711.0228"
         y="1822.5054"
         id="tspan4252-6">NA!</tspan></text>
  </g>
</svg>
