<?xml version="1.0" encoding="UTF-8" standalone="no"?>
<!-- Created with Inkscape (http://www.inkscape.org/) -->

<svg
   xmlns:dc="http://purl.org/dc/elements/1.1/"
   xmlns:cc="http://creativecommons.org/ns#"
   xmlns:rdf="http://www.w3.org/1999/02/22-rdf-syntax-ns#"
   xmlns:svg="http://www.w3.org/2000/svg"
   xmlns="http://www.w3.org/2000/svg"
   xmlns:xlink="http://www.w3.org/1999/xlink"
   xmlns:sodipodi="http://sodipodi.sourceforge.net/DTD/sodipodi-0.dtd"
   xmlns:inkscape="http://www.inkscape.org/namespaces/inkscape"
   id="svg2"
   version="1.1"
   inkscape:version="0.92.2 (5c3e80d, 2017-08-06)"
   width="2481"
   height="3503"
   sodipodi:docname="Pepper-and-Carrot_by-David-Revoy_E17P01.svg"
   enable-background="new"
   inkscape:export-filename="E:\Users\jamesmichael\Downloads\Compressed\eps\peppercarrot_ep17_translation-master\peppercarrot_ep17_translation-master\ph\Pepper-and-Carrot_by-David-Revoy_E17P01.png"
   inkscape:export-xdpi="98.181801"
   inkscape:export-ydpi="98.181801">
  <metadata
     id="metadata8">
    <rdf:RDF>
      <cc:Work
         rdf:about="">
        <dc:format>image/svg+xml</dc:format>
        <dc:type
           rdf:resource="http://purl.org/dc/dcmitype/StillImage" />
        <dc:title />
      </cc:Work>
    </rdf:RDF>
  </metadata>
  <defs
     id="defs6">
    <filter
       style="color-interpolation-filters:sRGB"
       id="filter4375-4-1-1-1"
       inkscape:label="deevad outline effect">
      <feFlood
         id="feFlood4377-7-9-0-8"
         flood-opacity="1"
         flood-color="rgb(0,0,0)"
         result="flood" />
      <feComposite
         id="feComposite4379-3-8-8-2"
         in2="SourceGraphic"
         in="flood"
         operator="in"
         result="composite1" />
      <feMorphology
         id="feMorphology4393-1-0-49-8"
         operator="dilate"
         radius="4"
         result="result3" />
      <feComposite
         id="feComposite4385-9-5-7-0"
         in2="result3"
         in="SourceGraphic"
         operator="over"
         result="composite2" />
    </filter>
    <filter
       style="color-interpolation-filters:sRGB;"
       inkscape:label="Drop Shadow"
       id="filter9360"
       x="-0.010065595"
       width="1.0201312"
       y="-0.059915605"
       height="1.1198312">
      <feFlood
         flood-opacity="0.498039"
         flood-color="rgb(0,0,0)"
         result="flood"
         id="feFlood9350" />
      <feComposite
         in="flood"
         in2="SourceGraphic"
         operator="in"
         result="composite1"
         id="feComposite9352" />
      <feGaussianBlur
         in="composite1"
         stdDeviation="3.1190507"
         result="blur"
         id="feGaussianBlur9354" />
      <feOffset
         dx="0.1"
         dy="0.1"
         result="offset"
         id="feOffset9356" />
      <feComposite
         in="SourceGraphic"
         in2="offset"
         operator="over"
         result="fbSourceGraphic"
         id="feComposite9358" />
      <feColorMatrix
         result="fbSourceGraphicAlpha"
         in="fbSourceGraphic"
         values="0 0 0 -1 0 0 0 0 -1 0 0 0 0 -1 0 0 0 0 1 0"
         id="feColorMatrix9362" />
      <feFlood
         id="feFlood9364"
         flood-opacity="0.498039"
         flood-color="rgb(0,0,0)"
         result="flood"
         in="fbSourceGraphic" />
      <feComposite
         in2="fbSourceGraphic"
         id="feComposite9366"
         in="flood"
         operator="in"
         result="composite1" />
      <feGaussianBlur
         id="feGaussianBlur9368"
         in="composite1"
         stdDeviation="2.6"
         result="blur" />
      <feOffset
         id="feOffset9370"
         dx="0.1"
         dy="0.1"
         result="offset" />
      <feComposite
         in2="offset"
         id="feComposite9372"
         in="fbSourceGraphic"
         operator="over"
         result="fbSourceGraphic" />
      <feColorMatrix
         result="fbSourceGraphicAlpha"
         in="fbSourceGraphic"
         values="0 0 0 -1 0 0 0 0 -1 0 0 0 0 -1 0 0 0 0 1 0"
         id="feColorMatrix9374" />
      <feFlood
         id="feFlood9376"
         flood-opacity="0.498039"
         flood-color="rgb(0,0,0)"
         result="flood"
         in="fbSourceGraphic" />
      <feComposite
         in2="fbSourceGraphic"
         id="feComposite9378"
         in="flood"
         operator="in"
         result="composite1" />
      <feGaussianBlur
         id="feGaussianBlur9380"
         in="composite1"
         stdDeviation="2.6"
         result="blur" />
      <feOffset
         id="feOffset9382"
         dx="-0.1"
         dy="-0.1"
         result="offset" />
      <feComposite
         in2="offset"
         id="feComposite9384"
         in="fbSourceGraphic"
         operator="over"
         result="fbSourceGraphic" />
      <feColorMatrix
         result="fbSourceGraphicAlpha"
         in="fbSourceGraphic"
         values="0 0 0 -1 0 0 0 0 -1 0 0 0 0 -1 0 0 0 0 1 0"
         id="feColorMatrix9386" />
      <feFlood
         id="feFlood9388"
         flood-opacity="0.498039"
         flood-color="rgb(0,0,0)"
         result="flood"
         in="fbSourceGraphic" />
      <feComposite
         in2="fbSourceGraphic"
         id="feComposite9390"
         in="flood"
         operator="in"
         result="composite1" />
      <feGaussianBlur
         id="feGaussianBlur9392"
         in="composite1"
         stdDeviation="2.6"
         result="blur" />
      <feOffset
         id="feOffset9394"
         dx="-0.1"
         dy="-0.1"
         result="offset" />
      <feComposite
         in2="offset"
         id="feComposite9396"
         in="fbSourceGraphic"
         operator="over"
         result="fbSourceGraphic" />
      <feColorMatrix
         result="fbSourceGraphicAlpha"
         in="fbSourceGraphic"
         values="0 0 0 -1 0 0 0 0 -1 0 0 0 0 -1 0 0 0 0 1 0"
         id="feColorMatrix9398" />
      <feFlood
         id="feFlood9400"
         flood-opacity="0.498039"
         flood-color="rgb(0,0,0)"
         result="flood"
         in="fbSourceGraphic" />
      <feComposite
         in2="fbSourceGraphic"
         id="feComposite9402"
         in="flood"
         operator="in"
         result="composite1" />
      <feGaussianBlur
         id="feGaussianBlur9404"
         in="composite1"
         stdDeviation="1"
         result="blur" />
      <feOffset
         id="feOffset9406"
         dx="-0.1"
         dy="-0.1"
         result="offset" />
      <feComposite
         in2="offset"
         id="feComposite9408"
         in="fbSourceGraphic"
         operator="over"
         result="composite2" />
    </filter>
    <filter
       inkscape:collect="always"
       style="color-interpolation-filters:sRGB"
       id="filter9483"
       x="-0.1150112"
       width="1.2300224"
       y="-0.1474478"
       height="1.2948956">
      <feGaussianBlur
         inkscape:collect="always"
         stdDeviation="18.198288"
         id="feGaussianBlur9485" />
    </filter>
    <filter
       inkscape:collect="always"
       style="color-interpolation-filters:sRGB"
       id="filter9578"
       x="-0.0055919972"
       width="1.011184"
       y="-0.033286447"
       height="1.0665729">
      <feGaussianBlur
         inkscape:collect="always"
         stdDeviation="1.7328059"
         id="feGaussianBlur9580" />
    </filter>
    <mask
       maskUnits="userSpaceOnUse"
       id="mask9642">
      <text
         xml:space="preserve"
         style="font-style:normal;font-variant:normal;font-weight:normal;font-stretch:normal;font-size:7.74335957px;line-height:0%;font-family:Lavi;-inkscape-font-specification:Lavi;letter-spacing:0px;word-spacing:0px;opacity:0.98000004;fill:#000000;fill-opacity:1;stroke:#000000;stroke-width:0.99236238;stroke-miterlimit:4;stroke-dasharray:none;stroke-opacity:1;filter:url(#filter9578)"
         id="text9668"
         transform="matrix(0.66350701,0.21837112,-0.64697508,0.9327653,2706.7784,-63.807826)"
         clip-path="none"><textPath
           xlink:href="#path4893"
           id="textPath9666"
           style="font-size:45.16959763px;line-height:1.25;fill:#ffffff"><tspan
   style="font-size:40.02815247px"
   id="tspan9652"><tspan
     style="letter-spacing:6px"
     id="tspan9644" /><tspan
     style="font-size:32px;letter-spacing:6px;word-spacing:0.02px"
     id="tspan9648"><tspan
   style="font-size:24px;letter-spacing:6px;word-spacing:0.02px"
   id="tspan9646"
   dx="0.029999999">w</tspan>w</tspan><tspan
     style="letter-spacing:6px;word-spacing:0.02px"
     id="tspan9650">wo</tspan></tspan><tspan
   id="tspan9656"
   style="font-size:51.88060379px;letter-spacing:1px"
   dx="0 0 0 -0.029999999"><tspan
   style="letter-spacing:1px;word-spacing:0.02px"
   id="tspan9654">ooO</tspan>O</tspan><tspan
   style="font-size:64.72076416px;letter-spacing:1px"
   id="tspan9658">sSh</tspan><tspan
   id="tspan9660"
   style="font-size:85.33333588px;letter-spacing:1px">H</tspan><tspan
   id="tspan9662"
   style="font-size:96px;letter-spacing:1px">H</tspan><tspan
   style="font-size:79.53633118px;letter-spacing:1px"
   id="tspan9664"> !</tspan></textPath></text>
    </mask>
  </defs>
  <sodipodi:namedview
     pagecolor="#ffffff"
     bordercolor="#666666"
     borderopacity="1"
     objecttolerance="10"
     gridtolerance="10"
     guidetolerance="10"
     inkscape:pageopacity="0"
     inkscape:pageshadow="2"
     inkscape:window-width="1366"
     inkscape:window-height="705"
     id="namedview4"
     showgrid="false"
     inkscape:zoom="0.2630065"
     inkscape:cx="1075.0427"
     inkscape:cy="2121.9485"
     inkscape:window-x="-8"
     inkscape:window-y="-8"
     inkscape:window-maximized="1"
     inkscape:current-layer="layer1" />
  <g
     inkscape:groupmode="layer"
     id="layer2"
     inkscape:label="artwork"
     sodipodi:insensitive="true">
    <image
       sodipodi:absref="E:\Users\jamesmichael\Downloads\Compressed\eps\peppercarrot_ep17_translation-master\peppercarrot_ep17_translation-master\ph\../gfx_Pepper-and-Carrot_by-David-Revoy_E17P01.png"
       xlink:href="../gfx_Pepper-and-Carrot_by-David-Revoy_E17P01.png"
       width="2481"
       height="3503"
       id="image10"
       x="0"
       y="0" />
  </g>
  <g
     inkscape:groupmode="layer"
     id="layer3"
     inkscape:label="speechbubbles">
    <path
       style="fill:#ffffff;stroke:none;stroke-width:0.98885864"
       d="m 1953.3409,2316.5608 c 3.3817,-96.3896 14.5634,-153.3224 45.1632,-211.9094 26.2874,-50.3303 166.6359,-46.1319 206.2991,-27.3623 29.0266,13.7361 86.336,53.2315 88.6721,139.9202 2.2201,82.3808 9.5663,261.1317 -14.3693,314.2343 -25.2561,56.0327 -180.0365,39.476 -237.672,21.8777 -77.0358,-23.5218 -85.2551,-163.2476 -88.0931,-236.7605 z"
       id="path3021"
       inkscape:connector-curvature="0"
       sodipodi:nodetypes="csssssc" />
    <path
       style="color:#000000;display:inline;overflow:visible;visibility:visible;fill:#ffffff;fill-opacity:1;fill-rule:nonzero;stroke:none;stroke-width:0.97609013px;marker:none;enable-background:accumulate"
       d="m 1912.991,2451.9672 c 27.5745,49.9296 51.1947,52.5978 56.6261,50.7807 5.4313,-1.817 54.6201,-70.5511 76.3503,-28.2404 21.7303,42.3106 -12.1684,-66.4101 -12.1684,-66.4101 l -14.1683,86.9227 c 0,0 -29.2306,-34.9287 -44.0364,-37.0706 -14.8057,-2.1416 -29.6657,14.7127 -37.7198,10.5684 -8.054,-4.1442 -15.5362,-3.0941 -24.8835,-16.5507 z"
       id="path4018"
       inkscape:connector-curvature="0"
       sodipodi:nodetypes="cssccssc" />
    <path
       style="fill:#ffffff;fill-rule:evenodd;stroke:none;stroke-width:1.11201131"
       d="m 945.41987,1906.0714 c 29.38257,18.5031 55.94233,30.007 46.91253,-46.7378 52.0091,104.1925 44.5485,32.8347 52.7767,7.7896 30.9212,73.6012 57.5265,63.1124 80.6309,-15.5791 13.0613,113.5088 40.3935,58.5129 64.5047,41.5447 -0.059,31.9204 -6.6421,68.5229 64.5048,49.3343 -20.3426,28.8295 -27.9307,55.0015 17.5921,70.1067 -31.6221,23.1798 -48.9886,47.8451 -14.6601,77.8963 -18.2367,43.7774 -6.0393,69.7941 19.0583,88.2825 -58.7638,2.5602 -44.6122,26.6446 -35.1845,49.3343 -50.031,-46.6499 -57.0308,-27.9731 -52.7765,7.7896 -23.2867,-20.5152 -40.4984,-69.0049 -82.0971,-5.193 -12.3717,-21.1781 -23.7759,-47.9264 -51.3104,18.1758 -1.9424,-57.6591 -22.0736,-55.4901 -51.3107,-23.3689 -7.7115,-54.0737 -36.66819,-26.6186 -67.43682,7.7898 25.11424,-52.777 10.43434,-72.2195 -23.16882,-125.8298 35.62626,-43.4644 15.20742,-43.1694 9.91724,-74.1043 18.03466,-21.9578 41.57904,-45.8771 -5.80664,-88.2825 27.70523,6.5926 57.20485,15.0919 27.85431,-38.9482 z"
       id="path4582"
       inkscape:connector-curvature="0"
       sodipodi:nodetypes="ccccccccccccccccccc" />
    <path
       style="color:#000000;display:inline;overflow:visible;visibility:visible;fill:#ffffff;fill-opacity:1;fill-rule:nonzero;stroke:none;stroke-width:1.14418507px;marker:none;enable-background:accumulate"
       d="m 1231.6358,2163.3379 c 15.5461,11.5675 50.503,25.7954 73.317,26.7974 -24.3816,13.2641 -25.4459,29.1942 -42.5612,39.924 14.4684,6.6392 69.9872,28.4129 102.8625,21.4915 -83.9158,20.1782 -150.1327,8.8655 -169.4614,-5.3836 22.1794,-15.7421 30.3461,-31.1001 41.9423,-39.4724 4.6754,-21.8793 -48.664,-13.0456 -49.4448,-12.8754 z"
       id="path5066"
       inkscape:connector-curvature="0"
       sodipodi:nodetypes="cccccccc"
       inkscape:transform-center-x="21.320042"
       inkscape:transform-center-y="61.586854" />
    <path
       style="color:#000000;display:inline;overflow:visible;visibility:visible;fill:#ffffff;fill-opacity:1;fill-rule:nonzero;stroke:none;stroke-width:0.99430841px;marker:none;enable-background:accumulate"
       d="m 604.84621,2238.1317 c -23.51332,-23.3793 -31.74296,-45.0886 -29.39154,-58.4482 2.35131,-13.3595 23.51321,-81.8274 49.37774,-90.1773 25.86463,-8.3498 92.87735,-18.3693 108.16103,-10.0197 15.28369,8.3497 58.7832,63.4582 58.7832,91.8472 0,28.3892 -8.22963,83.4975 -31.74296,100.1968 -23.51322,16.6996 -126.97164,26.7193 -155.18747,-33.3988 z"
       id="path3349"
       inkscape:connector-curvature="0" />
    <path
       style="fill:#ffffff;stroke:none;stroke-width:1.21307647"
       d="m 555.8089,2383.9932 c -0.73209,-30.9324 22.89456,-116.5097 124.15899,-106.6639 101.26442,9.8459 132.5143,45.0812 134.7257,100.1002 3.49837,87.0383 -50.1398,108.1277 -126.78753,111.5164 -79.01553,3.4935 -127.77588,-26.7141 -132.09716,-104.9527 z"
       id="path3280"
       inkscape:connector-curvature="0"
       sodipodi:nodetypes="csssc" />
    <path
       style="fill:#ffffff;stroke:none"
       d="m 462.7487,2323.4218 c 19.54312,23.3799 27.8615,17.4813 37.10761,9.6978 9.24609,-7.7835 17.24434,-16.2258 23.0997,-13.9259 5.85539,2.3001 11.36723,10.3556 14.79931,17.3132 3.4321,6.9575 9.3438,2.994 16.07856,-0.5744 6.73479,-3.5684 43.2244,-10.0681 43.2244,-10.0681 0,0 -22.57858,29.6369 -31.0169,35.8681 -8.43834,6.2309 -11.50973,8.5673 -15.17309,9.7994 -3.66342,1.232 -12.74208,2.3755 -17.72582,-3.0266 -4.98374,-5.4019 -7.3681,-14.5768 -10.32818,-20.0976 -2.95996,-5.5207 -11.05253,-6.3898 -18.65118,-2.486 -7.59863,3.9039 -25.24054,9.1542 -32.47234,-0.9969 -7.2318,-10.1511 -8.94207,-21.503 -8.94207,-21.503 z"
       id="path3023"
       inkscape:connector-curvature="0"
       sodipodi:nodetypes="csssscssssssc" />
    <path
       style="fill:#ffffff;fill-rule:evenodd;stroke:none;stroke-width:1.11201131"
       d="m 943.77108,1763.5055 c 21.48907,30.5516 2.65792,50.2018 -12.36132,68.4882 5.29018,30.9349 25.70829,30.6392 -9.91797,74.1036 33.60316,53.6103 48.28221,73.053 23.16797,125.83 30.76863,-34.4084 59.72604,-61.8627 67.43754,-7.789 29.2371,-32.1212 49.3681,-34.2919 51.3105,23.3672 27.5345,-66.1022 38.9389,-39.3539 51.3106,-18.1758 41.5987,-63.8119 58.8109,-15.3219 82.0976,5.1933 -4.2543,-35.7627 2.7444,-54.4389 52.7754,-7.789 -9.4277,-22.6897 -23.5783,-46.7738 35.1855,-49.334 -25.0976,-18.4884 -37.2952,-44.5058 -19.0585,-88.2832 -34.3286,-30.0512 -16.962,-54.7167 14.6601,-77.8965 -33.3506,-11.0663 -38.1792,-28.0756 -30.3867,-47.7148 z"
       id="path4852"
       inkscape:connector-curvature="0" />
  </g>
  <g
     inkscape:groupmode="layer"
     id="layer1"
     inkscape:label="txt">
    <text
       xml:space="preserve"
       style="font-style:normal;font-variant:normal;font-weight:normal;font-stretch:normal;line-height:0%;font-family:Lavi;-inkscape-font-specification:Lavi;text-align:center;letter-spacing:0px;word-spacing:0px;text-anchor:middle;fill:#000000;fill-opacity:1;stroke:none"
       x="684.38007"
       y="2212.8169"
       id="text4246"><tspan
         sodipodi:role="line"
         style="font-size:45px;line-height:1"
         x="684.38007"
         y="2212.8169"
         id="tspan4146">Pepper</tspan><tspan
         sodipodi:role="line"
         style="font-size:45px;line-height:1"
         x="684.38007"
         y="2257.8169"
         id="tspan4786">...</tspan><tspan
         sodipodi:role="line"
         style="font-size:45px;line-height:1"
         x="692.29022"
         y="2302.8169"
         id="tspan3330"> </tspan><tspan
         sodipodi:role="line"
         style="font-size:45px;line-height:1"
         x="692.29022"
         y="2347.8169"
         id="tspan4780">Wag </tspan><tspan
         sodipodi:role="line"
         style="font-size:45px;line-height:1"
         x="692.29022"
         y="2392.8169"
         id="tspan4788">kang </tspan><tspan
         sodipodi:role="line"
         style="font-size:45px;line-height:1"
         x="684.38007"
         y="2437.8169"
         id="tspan4782">umalis...</tspan></text>
    <text
       xml:space="preserve"
       style="font-style:normal;font-variant:normal;font-weight:normal;font-stretch:normal;line-height:0%;font-family:Lavi;-inkscape-font-specification:Lavi;text-align:center;letter-spacing:0px;word-spacing:0px;text-anchor:middle;fill:#000000;fill-opacity:1;stroke:#000000;stroke-width:2.65554738;stroke-miterlimit:4;stroke-dasharray:none;stroke-opacity:1"
       x="1103.4865"
       y="1886.189"
       id="text4246-7"><tspan
         sodipodi:role="line"
         style="font-style:normal;font-variant:normal;font-weight:bold;font-stretch:normal;font-size:65px;line-height:1.25;font-family:Lavi;-inkscape-font-specification:'Lavi Bold';stroke:#000000;stroke-width:2.65554738;stroke-miterlimit:4;stroke-dasharray:none;stroke-opacity:1"
         x="1103.4865"
         y="1886.189"
         id="tspan4859">HINDE!</tspan><tspan
         sodipodi:role="line"
         style="font-style:normal;font-variant:normal;font-weight:bold;font-stretch:normal;font-size:49.79151154px;line-height:1.25;font-family:Lavi;-inkscape-font-specification:'Lavi Bold';stroke:#000000;stroke-width:2.65554738;stroke-miterlimit:4;stroke-dasharray:none;stroke-opacity:1"
         x="1103.4865"
         y="1911.4095"
         id="tspan4867" /><tspan
         sodipodi:role="line"
         style="font-style:normal;font-variant:normal;font-weight:bold;font-stretch:normal;font-size:49.79151154px;line-height:1.25;font-family:Lavi;-inkscape-font-specification:'Lavi Bold';fill:none;stroke:none;stroke-width:2.65554738;stroke-miterlimit:4;stroke-dasharray:none;stroke-opacity:1"
         x="1103.4865"
         y="1953.5133"
         id="tspan4869">.</tspan><tspan
         sodipodi:role="line"
         style="font-style:normal;font-variant:normal;font-weight:bold;font-stretch:normal;font-size:49.79151154px;line-height:1.25;font-family:Lavi;-inkscape-font-specification:'Lavi Bold';stroke:#000000;stroke-width:2.65554738;stroke-miterlimit:4;stroke-dasharray:none;stroke-opacity:1;letter-spacing:3.99px"
         x="1103.4865"
         y="2015.7527"
         id="tspan4848"
         dx="0.86000001">Aalis na</tspan><tspan
         sodipodi:role="line"
         style="font-style:normal;font-variant:normal;font-weight:bold;font-stretch:normal;font-size:49.79151154px;line-height:1.25;font-family:Lavi;-inkscape-font-specification:'Lavi Bold';stroke:#000000;stroke-width:2.65554738;stroke-miterlimit:4;stroke-dasharray:none;stroke-opacity:1"
         x="1103.4865"
         y="2077.9922"
         id="tspan4850">AKO!!</tspan></text>
    <text
       xml:space="preserve"
       style="font-style:normal;font-variant:normal;font-weight:normal;font-stretch:normal;line-height:0%;font-family:Lavi;-inkscape-font-specification:Lavi;text-align:center;letter-spacing:0px;word-spacing:0px;text-anchor:middle;fill:#000000;fill-opacity:1;stroke:none"
       x="2134.7527"
       y="2348.5093"
       id="text4246-9"><tspan
         sodipodi:role="line"
         style="font-size:45px;line-height:1.25"
         x="2134.7527"
         y="2351.9971"
         id="tspan3342" /></text>
    <flowRoot
       xml:space="preserve"
       id="flowRoot4810"
       style="font-style:normal;font-weight:normal;font-size:40px;line-height:1.25;font-family:sans-serif;letter-spacing:0px;word-spacing:0px;fill:#000000;fill-opacity:1;stroke:none"
       transform="translate(30.4175,5.7032816)"><flowRegion
         id="flowRegion4812"><rect
           id="rect4814"
           width="330.79028"
           height="414.43817"
           x="1935.3134"
           y="2124.707" /></flowRegion><flowPara
         id="flowPara4816"
         style="font-style:normal;font-variant:normal;font-weight:normal;font-stretch:normal;font-family:Lavi;-inkscape-font-specification:Lavi;text-align:center;text-anchor:middle">Wala </flowPara><flowPara
         id="flowPara4818"
         style="font-style:normal;font-variant:normal;font-weight:normal;font-stretch:normal;font-family:Lavi;-inkscape-font-specification:Lavi;text-align:center;text-anchor:middle">naman akong natututunan</flowPara><flowPara
         id="flowPara4820"
         style="font-style:normal;font-variant:normal;font-weight:normal;font-stretch:normal;font-family:Lavi;-inkscape-font-specification:Lavi;text-align:center;text-anchor:middle">di ba?!</flowPara><flowPara
         id="flowPara4824"
         style="font-style:normal;font-variant:normal;font-weight:normal;font-stretch:normal;font-family:Lavi;-inkscape-font-specification:Lavi;text-align:center;text-anchor:middle">Pupunta na </flowPara><flowPara
         style="font-style:normal;font-variant:normal;font-weight:normal;font-stretch:normal;font-family:Lavi;-inkscape-font-specification:Lavi;text-align:center;text-anchor:middle"
         id="flowPara4841">lang ako </flowPara><flowPara
         style="font-style:normal;font-variant:normal;font-weight:normal;font-stretch:normal;font-family:Lavi;-inkscape-font-specification:Lavi;text-align:center;text-anchor:middle"
         id="flowPara4842">sa mga </flowPara><flowPara
         style="font-style:normal;font-variant:normal;font-weight:normal;font-stretch:normal;font-family:Lavi;-inkscape-font-specification:Lavi;text-align:center;text-anchor:middle"
         id="flowPara4840">Bruha ng Ah!</flowPara></flowRoot>    <text
       xml:space="preserve"
       style="font-style:normal;font-weight:normal;font-size:40px;line-height:1.25;font-family:sans-serif;letter-spacing:0px;word-spacing:0px;fill:#000000;fill-opacity:1;stroke:none"
       x="1326.9634"
       y="2164.6299"
       id="text4846"><tspan
         sodipodi:role="line"
         id="tspan4844"
         x="1326.9634"
         y="2164.6299" /></text>
    <path
       style="fill:none;stroke:none;stroke-width:1px;stroke-linecap:butt;stroke-linejoin:miter;stroke-opacity:1"
       d="m 543.0876,3231.4562 c 39.11576,123.8616 326.91116,153.8469 755.4833,-41.6726"
       id="path4893"
       inkscape:connector-curvature="0"
       sodipodi:nodetypes="cc" />
    <ellipse
       ry="135.92819"
       rx="192.96101"
       cy="3192.092"
       cx="1170.0509"
       id="ellipse5559"
       style="opacity:0.83499995;fill:#ffffff;fill-opacity:1;fill-rule:nonzero;stroke:none;stroke-width:10.11401558;stroke-linecap:round;stroke-miterlimit:4;stroke-dasharray:none;stroke-opacity:1;filter:url(#filter9483)"
       transform="matrix(1.4598037,-0.28726353,0.14383778,0.87283227,-1230.9736,814.01068)"
       mask="url(#mask9642)" />
    <ellipse
       mask="url(#mask9642)"
       transform="matrix(1.4598037,-0.28726353,0.14383778,0.87283227,-1230.9736,814.01068)"
       style="opacity:0.83499995;fill:#ffffff;fill-opacity:1;fill-rule:nonzero;stroke:none;stroke-width:10.11401558;stroke-linecap:round;stroke-miterlimit:4;stroke-dasharray:none;stroke-opacity:1;filter:url(#filter9483)"
       id="ellipse9670"
       cx="1170.0509"
       cy="3192.092"
       rx="192.96101"
       ry="135.92819" />
  </g>
</svg>
