<?xml version="1.0" encoding="UTF-8" standalone="no"?>
<svg
   xmlns:dc="http://purl.org/dc/elements/1.1/"
   xmlns:cc="http://creativecommons.org/ns#"
   xmlns:rdf="http://www.w3.org/1999/02/22-rdf-syntax-ns#"
   xmlns:svg="http://www.w3.org/2000/svg"
   xmlns="http://www.w3.org/2000/svg"
   xmlns:xlink="http://www.w3.org/1999/xlink"
   xmlns:sodipodi="http://sodipodi.sourceforge.net/DTD/sodipodi-0.dtd"
   xmlns:inkscape="http://www.inkscape.org/namespaces/inkscape"
   sodipodi:docname="E37P05.svg"
   height="3503"
   width="2481"
   inkscape:version="1.0 (4035a4fb49, 2020-05-01)"
   version="1.1"
   id="svg2">
  <metadata
     id="metadata8">
    <rdf:RDF>
      <cc:Work
         rdf:about="">
        <dc:format>image/svg+xml</dc:format>
        <dc:type
           rdf:resource="http://purl.org/dc/dcmitype/StillImage" />
        <dc:title />
      </cc:Work>
    </rdf:RDF>
  </metadata>
  <defs
     id="defs6">
    <filter
       height="1"
       width="1"
       x="0"
       y="0"
       id="filter4265-7"
       style="color-interpolation-filters:sRGB"
       inkscape:menu-tooltip="Horizontal rippling of edges"
       inkscape:menu="Distort"
       inkscape:label="Magmah-FX">
      <feTurbulence
         id="feTurbulence4267-7"
         baseFrequency="0.002 0.107"
         numOctaves="1" />
      <feColorMatrix
         id="feColorMatrix4269-1"
         result="result91"
         values="5 0 0 0 0 0 0 0 0 0 0 0 0 0 0 0 0 0 4 0 " />
      <feDisplacementMap
         id="feDisplacementMap4271-2"
         in2="result91"
         in="SourceGraphic"
         scale="14.3"
         xChannelSelector="R"
         yChannelSelector="A" />
    </filter>
    <filter
       height="1.2512429"
       width="1.0668836"
       y="-0.12562146"
       x="-0.033441791"
       id="filter4751"
       inkscape:label="Magmah-spell-glow"
       style="color-interpolation-filters:sRGB">
      <feFlood
         id="feFlood4753"
         result="flood"
         flood-color="rgb(255,255,255)"
         flood-opacity="1" />
      <feComposite
         id="feComposite4755"
         result="composite1"
         operator="in"
         in2="SourceGraphic"
         in="flood" />
      <feGaussianBlur
         id="feGaussianBlur4757"
         result="blur"
         stdDeviation="5.4"
         in="composite1" />
      <feOffset
         id="feOffset4759"
         result="offset"
         dy="0"
         dx="0" />
      <feComposite
         id="feComposite4761"
         result="composite2"
         operator="over"
         in2="offset"
         in="SourceGraphic" />
    </filter>
    <filter
       height="1"
       width="1"
       x="0"
       y="0"
       id="filter4265-7-5"
       style="color-interpolation-filters:sRGB"
       inkscape:menu-tooltip="Horizontal rippling of edges"
       inkscape:menu="Distort"
       inkscape:label="Magmah-FX">
      <feTurbulence
         id="feTurbulence4267-7-3"
         baseFrequency="0.002 0.107"
         numOctaves="1" />
      <feColorMatrix
         id="feColorMatrix4269-1-5"
         result="result91"
         values="5 0 0 0 0 0 0 0 0 0 0 0 0 0 0 0 0 0 4 0 " />
      <feDisplacementMap
         id="feDisplacementMap4271-2-6"
         in2="result91"
         in="SourceGraphic"
         scale="14.3"
         xChannelSelector="R"
         yChannelSelector="A" />
    </filter>
  </defs>
  <sodipodi:namedview
     inkscape:document-rotation="0"
     inkscape:deskcolor="#d1d1d1"
     inkscape:showpageshadow="0"
     inkscape:pagecheckerboard="0"
     inkscape:current-layer="layer1"
     inkscape:window-maximized="1"
     inkscape:window-y="-8"
     inkscape:window-x="-8"
     inkscape:cy="3021.096"
     inkscape:cx="1199.7626"
     inkscape:zoom="0.46"
     showgrid="false"
     id="namedview4"
     inkscape:window-height="715"
     inkscape:window-width="1366"
     inkscape:pageshadow="2"
     inkscape:pageopacity="0"
     guidetolerance="10"
     gridtolerance="10"
     objecttolerance="10"
     borderopacity="1"
     bordercolor="#666666"
     pagecolor="#ffffff" />
  <g
     sodipodi:insensitive="true"
     inkscape:label="artwork"
     id="layer2"
     inkscape:groupmode="layer">
    <image
       sodipodi:absref="D:\Pepper&amp;Carrot translation\ep37_The-Tears-of-the-Phoenix\lang\gfx_Pepper-and-Carrot_by-David-Revoy_E37P05.png"
       xlink:href="../gfx_Pepper-and-Carrot_by-David-Revoy_E37P05.png"
       y="0"
       x="0"
       id="image10"
       height="3503"
       width="2481" />
  </g>
  <g
     style="display:inline"
     inkscape:label="speechbubbles"
     id="layer3"
     inkscape:groupmode="layer">
    <path
       sodipodi:nodetypes="csssc"
       inkscape:connector-curvature="0"
       id="path3280-81"
       d="m 398.28776,328.05131 c -32.50907,0.87745 -64.87308,8.371 -94.36813,22.08176 -19.79361,11.41744 -30.2288,37.57841 -22.27663,59.25867 5.18949,14.84132 17.74323,26.07636 31.87482,32.32604 24.15804,11.55249 51.26524,14.65106 77.7238,15.65341 26.4149,0.9798 53.02587,0.5484 79.16333,-3.70855 17.03013,-3.36159 33.61514,-10.74126 46.32952,-22.73243 11.4226,-10.95627 18.99687,-26.80807 17.45011,-42.85162 -1.14125,-12.02368 -8.2502,-22.76664 -17.6153,-30.09633 -9.83995,-7.70344 -21.48745,-12.65095 -33.07922,-17.07836 -27.20294,-9.84809 -56.42709,-12.8829 -85.2023,-12.85259 z"
       style="fill:#ffffff;stroke:none;stroke-width:0.75896" />
    <path
       sodipodi:nodetypes="csssc"
       inkscape:connector-curvature="0"
       id="path3280-81-3"
       d="M 339.75781 240.44336 C 316.76682 241.59346 293.35873 243.73316 271.79149 252.3479 C 261.04266 256.56779 250.57807 263.17755 244.69984 273.41776 C 236.67359 286.63596 235.41939 304.26229 243.15686 317.89554 C 250.33906 330.05605 263.57624 337.74013 277.2832 340.10938 C 302.49359 345.87739 328.25165 348.6627 353.9245 351.44115 C 382.54722 353.18337 411.89595 348.71169 437.84365 336.18651 C 448.11578 330.86655 457.14717 322.1337 460.67966 310.89345 C 465.82522 296.53591 462.54628 279.11265 451.45945 268.39097 C 444.09492 261.38539 434.68407 257.12625 425.46638 253.14042 C 408.77591 246.38017 390.85196 243.35064 373.01797 241.54703 C 361.9629 240.55842 350.85195 240.33192 339.75781 240.44336 z "
       style="display:inline;fill:#ffffff;stroke:none;stroke-width:0.75896" />
    <path
       sodipodi:nodetypes="csssc"
       inkscape:connector-curvature="0"
       id="path5026-3"
       d="m 2008.1113,336.89625 c -75.2066,0.4032 -151.248,3.95063 -223.4218,17.20117 -35.5564,6.72756 -70.2994,17.43112 -94.5313,34.63217 -24.271,18.36893 -36.8765,42.61091 -30.6427,65.82116 6.931,15.83934 27.2864,28.43486 50.4847,36.70839 35.3173,13.0978 76.842,18.49468 117.6501,21.78427 55.7434,4.15229 111.88,6.12785 167.9907,7.49974 82.6339,1.14677 167.0259,-1.34532 245.7737,-17.45712 32.326,-6.63967 64.1575,-15.43343 89.8685,-29.0333 13.9513,-7.50521 26.3667,-17.12306 28.4896,-28.54004 2.3782,-11.48224 -2.0411,-23.05447 -8.2468,-33.88515 -10.8716,-17.93958 -32.5446,-33.45793 -60.2682,-43.17381 -42.5948,-15.52127 -92.0598,-22.80648 -141.1151,-27.04106 -47.0138,-3.95826 -94.6099,-4.67078 -142.0314,-4.51642 z"
       style="color:#000000;display:inline;overflow:visible;visibility:visible;fill:#ffffff;fill-opacity:1;fill-rule:nonzero;stroke:none;stroke-width:1.55478px;marker:none;enable-background:accumulate" />
    <path
       sodipodi:nodetypes="zssssz"
       inkscape:connector-curvature="0"
       id="path4040-40"
       d="m 1535.6319,803.03525 c -37.6201,0.69729 -75.1415,7.62987 -105.9226,20.51542 -13.8418,5.71186 -25.2583,13.328 -33.7429,21.92436 -20.272,20.37585 -24.6233,46.37745 -9.2301,68.34554 12.3866,17.69487 38.6395,31.36288 68.8825,37.87303 33.8811,8.01982 70.6757,10.23189 106.8668,10.98893 36.2661,0.58118 73.1774,0.23624 108.3279,-5.64991 23.4647,-4.23902 45.831,-12.12422 60.1417,-24.12089 17.2156,-13.75966 24.7136,-31.0355 25.1748,-47.96317 0.2112,-16.64384 -7.7183,-33.73323 -25.5832,-46.83305 -19.1734,-14.38422 -47.4087,-23.86683 -77.1568,-28.43263 -33.9028,-5.43526 -69.2602,-6.243 -104.1933,-6.65113 -4.5214,-0.0368 -9.0434,-0.0331 -13.5648,0.006 z"
       style="color:#000000;display:inline;overflow:visible;visibility:visible;fill:#ffffff;fill-opacity:1;fill-rule:nonzero;stroke:none;stroke-width:0.740222px;marker:none;enable-background:accumulate" />
    <path
       inkscape:connector-curvature="0"
       id="path4456-3"
       d="m 496.15677,1011.893 c 34.73321,-33.49717 31.89314,-53.50347 31.44376,-68.11357 -4.7651,-0.9949 -12.85059,-4.2577 -12.85059,-4.2577 0,0 1.90835,-28.8086 -1.17233,-39.94541 -3.08071,-11.13686 -17.53582,-8.20897 -17.53582,-8.20897 0,0 -5.18065,55.93348 -10.00914,67.69208 13.18767,2.2293 19.31591,4.9084 24.41808,3.8748 3.16059,8.1805 -2.4061,36.7502 -14.29396,48.95877 z"
       style="color:#000000;display:inline;overflow:visible;visibility:visible;fill:#ffffff;fill-opacity:1;fill-rule:nonzero;stroke:none;stroke-width:0.999998px;marker:none;enable-background:accumulate" />
    <path
       sodipodi:nodetypes="cssssc"
       inkscape:connector-curvature="0"
       id="path4546-6-21"
       d="m 1078.4917,2253.569 c 4.4548,-40.5133 66.8008,-70.7201 230.3571,-64.6743 87.6094,3.2379 187.0583,4.9592 181.5484,64.2977 -5.5103,59.3386 -148.4128,59.1848 -177.8859,60.8535 -29.4733,1.6696 -183.1997,-3.0734 -210.3968,-22.9798 -17.0247,-12.4607 -23.8983,-24.9609 -23.6228,-37.4971 z"
       style="color:#000000;display:inline;overflow:visible;visibility:visible;fill:#ffffff;fill-opacity:1;fill-rule:nonzero;stroke:none;stroke-width:0.563724px;marker:none;enable-background:accumulate" />
    <path
       sodipodi:nodetypes="cssssc"
       inkscape:connector-curvature="0"
       id="path4546-6-21-2"
       d="m 647.53789,2049.2552 c -34.93997,0.3926 -70.73125,7.4111 -96.57811,22.4529 -28.04088,17.405 -43.27794,41.6299 -46.7043,65.9351 -5.87392,29.8958 9.74947,61.0535 41.4391,83.7725 19.65758,12.0446 46.17912,17.9993 71.46246,23.9679 41.52316,9.4011 87.17846,11.1261 130.42998,5.7377 31.47947,-3.3267 62.9867,-11.1696 85.18986,-25.8838 18.18873,-12.3092 25.6925,-29.1568 28.16025,-45.4533 2.8163,-20.0458 0.28431,-40.233 -4.09276,-60.1176 -3.89784,-15.3317 -12.97445,-30.7271 -30.81277,-41.9424 -16.04983,-10.4074 -38.00085,-16.2055 -60.0143,-19.9371 -25.17283,-4.2374 -51.17607,-6.1596 -77.08317,-7.6693 -13.7719,-0.6449 -27.58546,-0.9445 -41.39624,-0.8626 z"
       style="color:#000000;display:inline;overflow:visible;visibility:visible;fill:#ffffff;fill-opacity:1;fill-rule:nonzero;stroke:none;stroke-width:0.711864px;marker:none;enable-background:accumulate" />
    <path
       sodipodi:nodetypes="cssssc"
       inkscape:connector-curvature="0"
       id="path4546-6-21-1"
       d="m 445.44522,1891.8214 c -30.57448,0.458 -61.67269,0.3899 -91.35713,6.9468 -17.42307,3.8275 -34.31836,11.1331 -45.06678,22.877 -12.53542,13.4569 -14.39261,31.7265 -8.1219,47.363 2.94976,7.2554 7.40583,14.1865 13.35284,20.2045 6.47446,6.4078 15.39446,11.3153 25.46795,13.4659 28.99423,7.9396 59.9204,9.8352 90.3889,10.6323 31.88851,0.6161 63.81364,-0.2099 95.61366,-2.1211 26.84713,-1.909 53.9993,-5.3538 78.71628,-14.1974 14.9509,-5.5625 29.12806,-13.9771 36.31293,-26.0223 10.00823,-16.6531 7.37921,-38.0358 -8.19972,-52.0549 -12.50557,-10.7548 -30.57781,-15.9643 -48.21146,-19.13 -29.13261,-5.1343 -59.08242,-6.0466 -88.79202,-7.2578 -16.68705,-0.5722 -33.40006,-1.0847 -50.10355,-0.706 z"
       style="color:#000000;display:inline;overflow:visible;visibility:visible;fill:#ffffff;fill-opacity:1;fill-rule:nonzero;stroke:none;stroke-width:0.989883px;marker:none;enable-background:accumulate" />
    <path
       sodipodi:nodetypes="cssssc"
       inkscape:connector-curvature="0"
       id="path4546-6-21-1-9"
       d="m 467.2813,2035.4963 c 3.45611,-51.5823 51.82698,-90.0424 178.7214,-82.3448 67.97156,4.1225 145.12853,6.3142 140.85355,81.8654 -4.27506,75.5513 -115.14534,75.3556 -138.01197,77.4802 -22.8667,2.1257 -142.13466,-3.9132 -163.23543,-29.2585 -13.20864,-15.8654 -18.54142,-31.7809 -18.32755,-47.7423 z"
       style="color:#000000;display:inline;overflow:visible;visibility:visible;fill:#ffffff;fill-opacity:1;fill-rule:nonzero;stroke:none;stroke-width:0.720902px;marker:none;enable-background:accumulate" />
    <path
       sodipodi:nodetypes="cssssc"
       inkscape:connector-curvature="0"
       id="path4546-6-21-1-9-4"
       d="m 1332.7033,1899.2603 c -34.2161,0.4979 -69.4536,3.4378 -100.8776,18.6676 -15.5498,7.6255 -29.9364,21.203 -33.5548,39.2961 -2.4964,18.0388 9.1563,35.4891 24.3016,43.3441 15.5893,8.0752 33.18,9.9172 50.0639,13.3122 58.8247,9.6434 118.7994,13.6403 178.1965,7.9027 20.8106,-2.3246 42.3403,-6.2184 60.2121,-18.2135 11.2561,-7.8258 19.195,-20.6513 20.6518,-34.7122 2.2126,-16.1745 -3.6176,-34.3094 -17.4022,-43.2107 -17.6487,-12.4374 -39.3813,-15.3128 -60.0019,-18.3515 -36.1905,-4.7727 -72.6653,-6.8504 -109.1128,-7.9708 -4.1585,-0.075 -8.3174,-0.085 -12.4766,-0.064 z"
       style="color:#000000;display:inline;overflow:visible;visibility:visible;fill:#ffffff;fill-opacity:1;fill-rule:nonzero;stroke:none;stroke-width:1.1971px;marker:none;enable-background:accumulate" />
    <path
       sodipodi:nodetypes="cssssc"
       inkscape:connector-curvature="0"
       id="path4546-6-21-1-9-4-7"
       d="m 1211.4121,1985.7482 c -53.0958,0.5355 -107.0398,1.7431 -158.1913,11.224 -18.2917,4.1385 -31.9724,13.7998 -38.9005,24.6864 -11.5081,16.5014 -9.9075,36.8821 8.0348,51.5002 10.5416,8.4937 27.2075,13.4408 44.2266,15.1568 22.4643,2.9682 45.2651,4.9676 68.1131,6.4613 41.1451,2.3611 82.5096,1.2202 123.7381,0.611 59.021,-0.2414 118.179,1.4945 177.0663,-1.7354 22.0022,-1.1064 44.1134,-2.3179 65.6782,-5.2681 28.4454,-5.4167 50.6257,-21.9603 51.7082,-40.217 1.5277,-14.9799 -10.2925,-29.8414 -29.2788,-39.268 -24.3783,-12.9575 -56.5991,-18.9159 -88.2416,-21.2612 -41.9293,-2.844 -84.084,0.5429 -126.1112,-0.5873 -32.614,-0.4252 -65.2111,-1.5134 -97.8419,-1.3027 z"
       style="color:#000000;display:inline;overflow:visible;visibility:visible;fill:#ffffff;fill-opacity:1;fill-rule:nonzero;stroke:none;stroke-width:0.749479px;marker:none;enable-background:accumulate" />
    <path
       sodipodi:nodetypes="cssssc"
       inkscape:connector-curvature="0"
       id="path4546-6-21-1-9-4-7-8"
       d="m 1024.6811,3066.8417 c 5.4176,-41.6532 58.5225,-70.7879 194.2263,-59.2238 72.6902,6.1939 155.2864,11.2087 148.1948,72.2502 -7.0918,61.0415 -125.876,56.2289 -150.4468,56.9907 -24.571,0.7627 -152.1586,-9.1373 -173.9243,-30.561 -13.625,-13.4105 -18.8097,-26.5311 -18.05,-39.4561 z"
       style="color:#000000;display:inline;overflow:visible;visibility:visible;fill:#ffffff;fill-opacity:1;fill-rule:nonzero;stroke:none;stroke-width:1.1157px;marker:none;enable-background:accumulate" />
    <path
       sodipodi:nodetypes="cssssc"
       inkscape:connector-curvature="0"
       id="path4546-6-21-1-9-4-7-8-4"
       d="m 2203.114,3192.8201 c 1.6004,-29.4598 24.0001,-51.4252 82.7628,-47.029 31.4764,2.3544 67.2066,3.6062 65.2269,46.7553 -1.9798,43.1489 -53.3219,43.0372 -63.9111,44.2506 -10.5891,1.2141 -65.82,-2.2349 -75.5915,-16.7102 -6.1167,-9.061 -8.5862,-18.1508 -8.4871,-27.2667 z"
       style="color:#000000;display:inline;overflow:visible;visibility:visible;fill:#ffffff;fill-opacity:1;fill-rule:nonzero;stroke:none;stroke-width:0.624175px;marker:none;enable-background:accumulate" />
    <path
       inkscape:connector-curvature="0"
       id="path3072-56-6"
       d="m 1365.1675,2406.6662 c -35.7282,-19.4322 -47.354,-28.3515 -44.071,-75.6186 3.2834,-47.2663 -14.2412,-48.0483 -14.2412,-48.0483 l -19.1468,25.8436 c 0,0 -0.01,101.2711 77.459,97.8233 z"
       style="color:#000000;display:inline;overflow:visible;visibility:visible;fill:#ffffff;fill-opacity:1;fill-rule:nonzero;stroke:none;stroke-width:1px;marker:none;enable-background:accumulate" />
    <path
       sodipodi:nodetypes="csczc"
       inkscape:connector-curvature="0"
       id="path3072-56-6-7"
       d="m 1468.6848,2848.0015 c 26.25,171.1132 -108.5575,232.9592 -156.9646,205.9986 -41.3932,-23.0541 -36.6132,25.372 -36.6132,25.372 0,0 -184.8377,-79.9742 -48.5243,-12.9007 136.3134,67.0735 295.373,-29.4851 242.1021,-218.4699 z"
       style="color:#000000;display:inline;overflow:visible;visibility:visible;fill:#ffffff;fill-opacity:1;fill-rule:nonzero;stroke:none;stroke-width:1px;marker:none;enable-background:accumulate" />
    <path
       sodipodi:nodetypes="cssssc"
       inkscape:connector-curvature="0"
       id="path4546-3"
       d="m 1605.7395,765.3864 c -36.824,0.47235 -73.5849,1.95744 -110.4098,2.44725 -15.9351,0.33952 -32.0407,0.0143 -47.7296,1.91617 -21.2976,2.35782 -42.3506,7.26062 -58.1788,15.84411 -16.9932,9.52391 -25.5378,24.07777 -19.5561,37.34326 6.9361,17.20337 32.7339,31.23932 63.1101,35.01926 31.3574,5.02211 64.009,6.48106 96.3549,7.99613 42.5947,1.47939 85.7515,1.83779 127.8155,-2.82801 25.6267,-2.93313 51.4763,-6.89077 73.8358,-14.79929 18.3377,-7.07092 28.3531,-19.73478 28.2376,-32.10581 1.0385,-11.79681 -5.9621,-24.26342 -21.8782,-32.25091 -17.7019,-9.32824 -41.4131,-13.991 -64.9087,-16.22253 -22.018,-2.08154 -44.4102,-2.47011 -66.6927,-2.35963 z"
       style="color:#000000;display:inline;overflow:visible;visibility:visible;fill:#ffffff;fill-opacity:1;fill-rule:nonzero;stroke:none;stroke-width:0.980584px;marker:none;enable-background:accumulate" />
    <path
       sodipodi:nodetypes="ccscccsscc"
       inkscape:connector-curvature="0"
       id="path4538-7-1"
       d="m 2177.6835,3278.2468 c 19.412,3.2287 21.8531,2.1451 26.087,-6.1508 4.2336,-8.2965 7.4345,-21.3989 24.2674,-27.0612 16.8328,-5.6629 26.4772,-1.2243 33.0349,1.2943 -1.1679,-11.6566 8.131,-31.9623 0.9277,-37.4845 -7.2032,-5.5223 17.0343,2.8574 17.0343,2.8574 0,0 12.1095,28.3527 3.5098,41.2194 -8.5996,12.8666 -35.9866,3.6351 -48.1953,5.9287 -12.2087,2.2936 -17.7187,20.2054 -26.9698,23.8183 -9.2511,3.6136 -20.9523,-1.0637 -29.696,-4.4216 z"
       style="color:#000000;display:inline;overflow:visible;visibility:visible;fill:#ffffff;fill-opacity:1;fill-rule:nonzero;stroke:none;stroke-width:0.999998px;marker:none;enable-background:accumulate" />
    <path
       sodipodi:nodetypes="cssssssc"
       inkscape:connector-curvature="0"
       id="path4324-2"
       d="m 585.56816,2326.3986 c 63.64415,46.5419 99.6802,37.8628 99.27382,22.0538 -0.73279,-28.5061 -23.68426,-45.5161 -20.14693,-49.7569 56.87331,-68.1838 45.61583,-44.4564 42.02712,-78.3168 -3.58863,-33.8596 -32.82515,9.9982 -43.47048,25.9957 -10.64526,15.9984 -23.23393,28.0821 -24.13067,46.0989 -0.89678,18.0167 30.31994,32.2197 26.20251,52.3883 -4.11738,20.1676 -79.75537,-18.463 -79.75537,-18.463 z"
       style="fill:#ffffff;fill-rule:evenodd;stroke:none;stroke-width:0.989952px;stroke-linecap:butt;stroke-linejoin:miter;stroke-opacity:1" />
    <path
       sodipodi:nodetypes="csccccc"
       inkscape:connector-curvature="0"
       id="path1085"
       d="m 1641.3607,1592.1712 c 22.6649,-9.5896 43.3488,-24.3392 44.2472,-33.5648 0.8985,-9.2259 -11.1673,-38.3407 15.3399,-36.3802 44.753,7.0521 59.1413,-17.435 71.8681,-40.1028 -10.4456,44.0867 -37.326,59.8862 -66.9409,56.1082 -20.4331,0.5043 27.1628,20.802 -14.1238,65.6767 -34.0791,18.4121 -50.3905,-11.7371 -50.3905,-11.7371 z"
       style="fill:#ffffff;fill-rule:evenodd;stroke:none;stroke-width:1px;stroke-linecap:butt;stroke-linejoin:miter;stroke-opacity:1" />
    <path
       sodipodi:nodetypes="cscsccsssssscccc"
       inkscape:connector-curvature="0"
       id="path1090"
       d="m 602.38281,413.81836 c -16.46145,0.69234 -32.53906,10.64863 -39.37482,25.82696 -1.5098,2.80001 -5.28273,3.60587 -7.9531,2.02233 -5.98863,-2.1906 -11.2243,-5.98508 -17.1572,-8.31055 -9.42582,-4.50612 -18.97461,-9.76783 -29.57769,-10.58241 -9.00662,0.914 -17.21994,8.38612 -18.31844,17.45517 0.90457,4.28518 5.9133,5.81752 9.78437,5.505 14.04596,1.22391 26.26568,8.99968 37.96354,16.2261 7.48461,4.90408 17.2879,7.91388 25.94154,4.3397 8.81339,-3.63103 14.02032,-12.22106 18.30372,-20.27104 3.62722,-6.5902 7.0618,-13.9609 13.65799,-18.08996 6.18392,-3.01805 13.32935,-0.5356 18.89819,2.69485 6.80555,3.74446 18.82609,7.48219 26.68995,6.1183 5.30212,-0.83429 11.53306,0.83552 40.82961,-10.13109 -31.99063,6.29792 -54.18708,-2.32452 -64.55229,-8.18195 -4.64584,-2.56145 -9.72444,-4.75296 -15.13537,-4.62141 z"
       style="display:inline;fill:#ffffff;fill-rule:evenodd;stroke:none;stroke-width:1px;stroke-linecap:butt;stroke-linejoin:miter;stroke-opacity:1" />
    <path
       sodipodi:nodetypes="cscsccsssssscccccc"
       inkscape:connector-curvature="0"
       id="path1090-9"
       d="M 1625.418 466.90625 C 1612.0296 468.05669 1600.6809 475.89314 1589.1047 481.96002 C 1577.2422 488.16075 1563.5466 492.69448 1550.0693 489.96764 C 1538.0016 487.27935 1527.6215 480.13903 1517.6992 473.09375 C 1521.5283 479.40068 1527.3763 484.07983 1532.5324 489.23897 C 1541.1831 496.94692 1551.4816 504.06972 1563.3955 504.87422 C 1577.2358 505.53934 1590.0515 499.39127 1602.5815 494.37342 C 1612.7509 490.23199 1623.7962 486.15497 1634.9336 488.22656 C 1645.8893 490.69075 1654.3641 499.24587 1659.7272 508.75128 C 1672.7036 527.45365 1695.8256 537.6909 1718.3123 537.14832 C 1737.1421 536.74205 1754.9275 528.8727 1770.4917 518.7486 C 1779.1013 513.17743 1787.5712 507.29593 1795.2732 500.51271 C 1798.8516 497.03281 1802.5266 492.98578 1803.4483 487.9342 C 1803.5105 480.172 1796.5693 473.92283 1789.2489 472.74416 C 1773.8624 467.98571 1756.1022 475.94404 1748.5063 489.94418 C 1739.2705 502.25507 1725.8041 512.37871 1710.1779 514.22257 C 1696.5327 515.99102 1682.4153 508.72485 1675.4957 496.9129 C 1668.8313 487.95783 1662.207 478.06895 1651.705 473.27791 C 1643.6585 469.01484 1634.5498 466.62374 1625.418 466.90625 z "
       style="display:inline;fill:#ffffff;fill-rule:evenodd;stroke:none;stroke-width:1px;stroke-linecap:butt;stroke-linejoin:miter;stroke-opacity:1" />
    <path
       sodipodi:nodetypes="csssc"
       inkscape:connector-curvature="0"
       id="path3280-8-3"
       d="m 1531.0226,1552.7644 c -19.527,0.08 -39.1567,-0.048 -58.5002,2.2665 -21.9311,2.5897 -43.6385,7.4599 -62.9714,15.7703 -20.5553,8.8168 -37.5897,22.9637 -44.8673,40.0259 -3.4952,7.9479 -4.0648,16.5929 -1.2748,24.714 4.8501,14.9443 19.0996,27.9103 37.613,34.4913 21.6568,8.8358 46.8446,10.8555 71.1224,10.7609 46.9502,1.2301 93.988,1.6949 140.9094,-0.3855 27.3178,-1.0654 55.385,-3.4444 80.1376,-12.8027 17.3715,-6.6708 31.7614,-18.8611 35.2075,-33.5475 6.281,-24.0569 -11.2819,-49.8656 -39.871,-61.3248 -25.5276,-10.9658 -54.925,-15.2469 -83.8188,-17.8056 -24.4548,-2.0642 -49.1041,-2.2833 -73.6864,-2.1628 z"
       style="display:inline;fill:#ffffff;stroke:none;stroke-width:0.822573" />
    <path
       inkscape:connector-curvature="0"
       id="path1299"
       d="m 355.80362,774.13577 c -35.97828,1.65896 -72.13838,2.46449 -107.77067,7.34764 -15.92662,2.85827 -32.39227,6.38444 -45.5233,14.95391 -11.32124,9.65403 -19.23774,21.71892 -26.29165,33.82974 -6.05006,13.62178 -4.48153,28.62605 -0.84672,42.55226 2.60326,12.83648 8.57755,25.92068 20.68374,34.4404 12.52427,9.94879 27.98797,18.49241 45.52466,19.57464 16.80002,1.11524 33.65516,-0.21691 50.47324,0.42351 79.26828,0.12491 158.77513,0.66478 237.69391,-6.5868 12.83211,-1.71608 24.95689,-8.11289 31.42347,-17.8073 7.31114,-8.82176 15.54892,-18.08698 16.3582,-29.26878 0.91057,-10.50563 0.057,-21.04716 0.0951,-31.56778 -0.28103,-6.76394 0.37916,-13.70092 -1.81641,-20.28422 -2.53797,-7.66868 -8.43402,-14.17472 -15.47139,-19.3022 -14.36811,-11.24974 -33.29874,-17.52303 -52.47755,-19.79954 -34.02345,-5.45269 -68.64,-7.84998 -103.23671,-8.26007 -16.27038,-0.27802 -32.54506,-0.25777 -48.81792,-0.24541 z"
       style="fill:#ffffff;fill-rule:evenodd;stroke:none;stroke-width:1.08616px;stroke-linecap:butt;stroke-linejoin:miter;stroke-opacity:1" />
    <path
       sodipodi:nodetypes="scccsscccss"
       inkscape:connector-curvature="0"
       id="path3023-0"
       d="m 1684.1923,1059.4963 c 10.8195,-11.5712 12.6153,-27.6824 8.3349,-36.5519 -14.3352,-19.07 -23.666,-31.1287 -18.9556,-59.0775 1.8899,-10.6227 -10.6134,-54.69 -10.6134,-54.69 0,0 -18.8784,35.0095 -23.1768,48.4387 -4.2987,13.4308 -0.8577,8.5167 -1.1091,14.2481 -0.2509,5.73 5.2504,24.4274 10.1452,33.8185 9.1181,15.8303 33.4249,28.4532 20.0415,48.0454 -29.2938,37.8208 6.5931,83.639 50.3342,32.8542 -61.0177,33.4873 -47.1285,-14.1159 -35.0011,-27.0855 z"
       style="display:inline;fill:#ffffff;stroke:none;stroke-width:1" />
    <path
       sodipodi:nodetypes="cccccccccccc"
       inkscape:connector-curvature="0"
       id="path4584-8"
       d="m 463.94149,1909.1524 c -28.8926,-1.9628 -70.7911,12.0344 -46.4898,52.4279 -53.0586,-26.4704 -127.5213,-35.9738 -145.041,8.1212 -2.9485,-53.932 -38.5111,-39.2875 -67.8631,-26.3004 27.9346,-22.1424 -23.4398,-33.052 -50.9437,-33.5284 56.996,-47.8017 26.119,-61.7102 2.7943,-78.5323 57.4315,11.386 42.9826,-14.3734 49.4459,-29.3254 49.812,32.1764 85.2527,23.2921 112.648,-8.5788 15.1349,16.5395 20.6066,51.4042 73.5776,-3.81 -18.8313,46.9564 7.2124,41.3921 49.0134,17.387 -6.2541,15.9892 -45.124,41.0794 21.271,36.7994 -41.1448,16.1299 -49.3548,36.7253 1.5874,65.3398 z"
       style="display:inline;fill:#ffffff;fill-rule:evenodd;stroke:none;stroke-width:1px;stroke-linecap:butt;stroke-linejoin:miter;stroke-opacity:1" />
    <path
       sodipodi:nodetypes="ccccccccccc"
       inkscape:connector-curvature="0"
       id="path1099"
       d="m 1088.4402,1861.1551 c 12.6082,4.62 30.6985,12.1275 32.8912,20.213 2.1928,8.0848 13.7047,23.1004 9.8674,36.3833 -3.8373,13.2822 -14.8011,26.5651 -25.2166,34.0733 -10.4157,7.5075 -30.1504,13.2822 -42.7587,14.4376 -12.6083,1.1553 -44.9513,-6.9301 -54.2706,-4.6201 -9.3192,2.31 -43.30683,3.4647 -60.30065,-2.31 -16.99383,-5.7755 -36.1804,-27.1432 -38.92135,-40.4262 -2.74096,-13.2829 9.31917,-39.848 11.51191,-46.7781 2.1928,-6.9308 11.51198,-9.2409 11.51198,-9.2409 26.0186,-3.9635 117.34611,-7.6933 155.68541,-1.7319 z"
       style="fill:#ffffff;fill-rule:evenodd;stroke:none;stroke-width:0.999993px;stroke-linecap:butt;stroke-linejoin:miter;stroke-opacity:1" />
    <path
       sodipodi:nodetypes="cccccccccccccccccccc"
       inkscape:connector-curvature="0"
       id="path3549-3-7-5"
       d="m 1422.9495,2227.8588 c 10.0648,-21.2883 60.2411,-23.0324 78.4347,-18.6876 -35.8332,-23.8542 -33.7133,-38.6554 16.8677,-40.9108 -82.2192,-43.0069 -13.4386,-36.452 0.8058,-47.328 -65.6109,-14.8522 -34.8616,-33.2412 -22.0128,-51.5627 -76.3255,-0.6943 -49.6995,-30.0577 -51.6147,-53.4639 -7.085,10.9771 -39.7009,44.384 -39.4782,7.1568 -52.4858,35.4734 -114.599,58.364 -115.9681,-3.7926 -22.0919,31.2499 -43.1172,44.4482 -39.4783,7.1568 -53.1236,48.4611 -97.4625,30.9645 -142.2788,17.2172 -12.7867,14.6299 -15.4342,37.1188 -53.8706,31.8156 4.6223,14.5152 -9.0101,24.4792 -38.8719,30.3777 38.755,8.7978 45.4838,17.8447 -27.92387,27.5138 55.39427,0.9879 106.99127,2.9588 40.09217,36.0854 20.3635,0.8204 70.3265,-26.8263 43.2379,54.1826 36.5379,-25.9104 74.7768,-40.196 118.7051,14.1799 23.7334,-27.1267 63.0239,-40.5279 77.9034,-6.6068 6.8317,-14.4502 32.1246,-19.865 53.3759,-20.5069 7.8839,5.7492 15.9107,13.5548 24.1713,23.7802 15.6264,-21.4425 38.021,-35.9145 77.9033,-6.6067 z"
       style="color:#000000;display:inline;overflow:visible;visibility:visible;fill:#ffffff;fill-opacity:1;fill-rule:nonzero;stroke:none;stroke-width:1px;marker:none;enable-background:accumulate" />
    <path
       sodipodi:nodetypes="zsssssz"
       inkscape:connector-curvature="0"
       id="path3330-06"
       d="m 1233.0056,3100.5033 c -51.303,0.6592 -103.1994,1.4989 -153.1467,8.6529 -19.1359,2.9318 -37.8018,8.9158 -48.1318,18.5778 -15.2141,13.6683 -15.9315,31.3369 -4.9216,45.9801 10.1684,14.184 30.3317,26.6321 56.6262,31.8866 34.5845,6.8924 71.8486,7.1122 108.1648,7.3575 20.7017,0.059 41.3964,0.3534 62.0941,0.54 58.5932,0.3394 117.4459,-1.9571 174.8708,-8.6001 14.7204,-2.0388 29.3694,-6.3439 37.2945,-13.7728 10.9868,-9.4167 15.0042,-20.6325 18.2937,-31.5176 2.2786,-9.8024 -0.8839,-20.2533 -11.3384,-28.4287 -15.2874,-13.0078 -41.4642,-21.337 -68.8161,-23.9179 -29.6699,-3.1778 -60.0379,-2.8615 -90.0133,-4.532 -26.9486,-1.1247 -53.9255,-2.3951 -80.9762,-2.2258 z"
       style="color:#000000;display:inline;overflow:visible;visibility:visible;fill:#ffffff;fill-opacity:1;fill-rule:nonzero;stroke:none;stroke-width:0.875301px;marker:none;enable-background:accumulate" />
    <path
       sodipodi:nodetypes="zsssssz"
       inkscape:connector-curvature="0"
       id="path3330-06-3"
       d="m 1276.5393,3175.9785 c -48.6799,0.6131 -97.923,1.3941 -145.3164,8.0485 -18.1575,2.7271 -35.8691,8.2931 -45.6709,17.2803 -14.4362,12.7135 -15.1169,29.1482 -4.67,42.7686 9.6485,13.1934 28.781,24.7721 53.7309,29.6595 32.8163,6.4111 68.1751,6.6155 102.6344,6.8436 19.6432,0.054 39.2799,0.3288 58.9192,0.5023 55.5975,0.3158 111.441,-1.8203 165.9298,-7.9995 13.9678,-1.8963 27.8677,-5.9007 35.3877,-12.8108 10.4251,-8.759 14.237,-19.1914 17.3583,-29.3162 2.1621,-9.1177 -0.8387,-18.8388 -10.7586,-26.4431 -14.5058,-12.0993 -39.3441,-19.8468 -65.2976,-22.2474 -28.1529,-2.9558 -56.9682,-2.6616 -85.4109,-4.2155 -25.5709,-1.0461 -51.1684,-2.2278 -76.8359,-2.0703 z"
       style="color:#000000;display:inline;overflow:visible;visibility:visible;fill:#ffffff;fill-opacity:1;fill-rule:nonzero;stroke:none;stroke-width:0.974757px;marker:none;enable-background:accumulate" />
    <path
       sodipodi:nodetypes="ccccccccccccccc"
       inkscape:connector-curvature="0"
       id="path3549-3-8"
       d="m 1039.2669,1903.8172 c 12.9493,3.5313 53.5872,20.5771 12.2952,22.1787 58.4932,34.8788 42.1807,72.286 34.7936,80.3376 16.1722,-2.9028 46.5457,6.9602 41.217,29.266 15.5796,-3.3105 28.124,3.9847 37.959,20.7427 5.4751,-22.5128 14.7633,-26.7531 33.5882,14.6671 -5.0222,-31.6407 -8.5325,-61.1815 35.5765,-24.5631 -1.3396,-11.6529 -37.505,-38.8648 55.2875,-27.1762 -32.7571,-19.6367 -52.8115,-40.7758 2.6164,-68.3558 -25.4958,-7.917 -44.0058,-20.0077 -15.9196,-44.1161 -24.7104,-4.752 -32.1598,-33.2989 -29.3536,-43.8776 -22.4857,21.5457 -39.1208,21.0346 -47.2071,-7.7103 -38.5962,48.8917 -38.9502,9.3578 -52.5793,1.7385 -9.2198,38.1114 -32.9734,21.426 -54.7012,14.9485 7.6586,43.5652 -27.838,29.7409 -53.5726,31.92 z"
       style="color:#000000;display:inline;overflow:visible;visibility:visible;fill:#ffffff;fill-opacity:1;fill-rule:nonzero;stroke:none;stroke-width:1px;marker:none;enable-background:accumulate" />
    <path
       sodipodi:nodetypes="ccccccccccccccccccccccc"
       inkscape:connector-curvature="0"
       id="path4367-3"
       d="m 907.57193,889.81119 c -8.81473,0.86734 -15.44501,7.06793 -20.26405,13.30501 -4.38673,5.15329 -12.18285,6.20817 -18.93807,6.08783 -9.23044,0.22173 -16.93619,6.16177 -21.71485,12.8845 -2.79904,3.55077 -3.63246,8.00224 -3.37801,12.27282 -0.51833,6.67297 -6.21459,11.93324 -6.9703,18.52713 0.16443,6.3875 6.74215,10.535 8.11843,16.59892 1.43482,4.5169 2.25566,9.9862 6.986,12.7515 6.65345,3.1882 14.91216,-0.2253 21.38499,3.5487 4.65552,2.9316 8.61494,6.6895 13.1783,9.748 4.79525,3.46691 10.36477,6.0294 16.36506,7.2675 13.65218,3.3373 27.92208,0.9185 41.40962,-1.867 18.61674,-3.5707 37.62058,-5.4628 56.65035,-5.6211 5.6369,-0.3583 10.5284,-3.1437 15.0536,-5.9562 5.1629,-2.8443 11.4202,-4.4438 17.431,-3.1727 6.2475,0.7524 13.1542,2.4968 19.052,-0.3939 7.8685,-4.7571 11.0864,-13.1958 15.4998,-20.35492 3.5252,-6.1287 7.4785,-12.97344 5.784,-20.0904 -2.3671,-5.88049 -9.3328,-8.27678 -14.1478,-12.17595 -8.161,-7.58527 -7.1646,-19.54532 -14.7985,-27.42615 -7.3569,-7.78732 -19.197,-10.83932 -30.2106,-10.57648 -8.5491,0.18336 -16.81456,2.5898 -24.52014,5.78799 -5.76397,1.83563 -12.92195,1.6179 -17.47365,-2.47125 -4.52053,-3.22883 -9.99753,-6.67829 -16.08581,-5.53162 -8.48076,0.94699 -15.92603,6.65075 -24.75611,5.44371 -8.62181,-1.16006 -14.6027,-8.87024 -23.65526,-8.58594 z"
       style="display:inline;fill:#ffffff;fill-opacity:1;fill-rule:evenodd;stroke:none;stroke-width:1px;stroke-linecap:butt;stroke-linejoin:miter;stroke-opacity:1" />
    <path
       sodipodi:nodetypes="cscsssssccsssccsccccc"
       inkscape:connector-curvature="0"
       id="path5058"
       d="m 919.98446,956.58587 c 0.43094,17.40692 10.57354,33.58462 24.60304,43.46733 4.0486,3.4474 7.8177,7.2049 11.522,11.0151 -9.5441,6.7343 -21.8739,8.4934 -30.6973,16.3868 -3.0033,7.8153 2.0786,16.9291 9.5442,19.9766 7.9011,4.1347 17.5508,5.3387 23.9324,12.0527 5.8472,7.0001 1.9231,19.0861 -6.6504,21.789 -11.2727,5.778 -17.9502,20.1486 -13.5426,32.3069 4.131,10.8528 14.5875,18.0402 25.4452,21.0937 5.2942,1.6139 10.7387,2.647 16.1286,3.8787 -10.8778,-5.5071 -22.4207,-11.1561 -29.8066,-21.25 -5.866,-8.2804 -2.1755,-21.8742 7.6733,-25.1751 6.0663,-1.8597 13.149,-3.1903 17.0207,-8.7544 8.1822,-11.235 4.0413,-29.3207 -8.5309,-35.4929 -6.8306,-3.5643 -14.777,-5.4022 -20.3877,-10.9819 -1.6954,-3.9526 2.6275,-8.2401 6.5884,-7.513 7.4263,-1.7714 15.8041,-2.1777 21.7723,-7.5012 4.4591,-5.1824 3.2488,-13.2448 -0.7338,-18.3354 -8.0405,-15.38991 -15.424,-31.12291 -23.8906,-46.28913 -6.1584,-1.4328 -12.5406,-0.9451 -18.79,-1.6404 -3.7393,-0.2117 -7.4785,-0.4233 -11.21781,-0.635 0.006,0.5339 0.0117,1.0677 0.0176,1.6016 z"
       style="display:inline;color:#000000;overflow:visible;visibility:visible;fill:#ffffff;fill-opacity:1;fill-rule:nonzero;stroke:none;stroke-width:1px;marker:none;enable-background:accumulate" />
  </g>
  <g
     style="display:inline"
     inkscape:label="txt"
     id="layer1"
     inkscape:groupmode="layer">
    <text
       id="text4246-70-2-2-2-7-4-9-6"
       y="308.57437"
       x="352.83478"
       style="font-style:normal;font-variant:normal;font-weight:normal;font-stretch:normal;font-size:45.3333px;line-height:125%;font-family:'Xiaolai SC';-inkscape-font-specification:'Xiaolai SC';text-align:center;letter-spacing:0px;word-spacing:0px;text-anchor:middle;fill:#000000;fill-opacity:1;stroke:none"
       xml:space="preserve"><tspan
         id="tspan9933-2-7"
         y="308.57437"
         x="352.83478"
         style="font-style:normal;font-variant:normal;font-weight:normal;font-stretch:normal;font-size:45.3333px;font-family:'Xiaolai SC';-inkscape-font-specification:'Xiaolai SC'"
         sodipodi:role="line">嗯…</tspan></text>
    <text
       id="text4246-70-2-2-2-7-4-9"
       y="407.0365"
       x="415.25522"
       style="font-style:normal;font-variant:normal;font-weight:normal;font-stretch:normal;font-size:45.3333px;line-height:125%;font-family:'Xiaolai SC';-inkscape-font-specification:'Xiaolai SC';text-align:center;letter-spacing:0px;word-spacing:0px;text-anchor:middle;fill:#000000;fill-opacity:1;stroke:none"
       xml:space="preserve"><tspan
         id="tspan9933-2"
         y="407.0365"
         x="415.25522"
         style="font-style:normal;font-variant:normal;font-weight:normal;font-stretch:normal;font-size:45.3333px;font-family:'Xiaolai SC';-inkscape-font-specification:'Xiaolai SC'"
         sodipodi:role="line">原来如此…</tspan></text>
    <text
       id="text4246-70-2-2-2-7-4-9-7"
       y="408.10446"
       x="2006.8893"
       style="font-style:normal;font-variant:normal;font-weight:normal;font-stretch:normal;font-size:45.3333px;line-height:125%;font-family:'Xiaolai SC';-inkscape-font-specification:'Xiaolai SC';text-align:center;letter-spacing:0px;word-spacing:0px;text-anchor:middle;fill:#000000;fill-opacity:1;stroke:none"
       xml:space="preserve"><tspan
         id="tspan701"
         y="408.10446"
         x="2006.8893"
         style="font-style:normal;font-variant:normal;font-weight:normal;font-stretch:normal;font-size:45.3333px;font-family:'Xiaolai SC';-inkscape-font-specification:'Xiaolai SC'"
         sodipodi:role="line">    …你来此地找我，</tspan><tspan
         id="tspan138"
         y="464.77109"
         x="2006.8893"
         style="font-style:normal;font-variant:normal;font-weight:normal;font-stretch:normal;font-size:45.3333px;font-family:'Xiaolai SC';-inkscape-font-specification:'Xiaolai SC'"
         sodipodi:role="line">可是想求神凰泪来治愈此伤？</tspan></text>
    <text
       id="text4246-70-2-2-2-7-4-9-9"
       y="838.33826"
       x="391.04419"
       style="font-style:normal;font-variant:normal;font-weight:normal;font-stretch:normal;font-size:45.3333px;line-height:125%;font-family:'Xiaolai SC';-inkscape-font-specification:'Xiaolai SC';text-align:center;letter-spacing:0px;word-spacing:0px;text-anchor:middle;fill:#000000;fill-opacity:1;stroke:none"
       xml:space="preserve"><tspan
         id="tspan12869"
         y="838.33826"
         x="391.04419"
         style="font-style:normal;font-variant:normal;font-weight:normal;font-stretch:normal;font-size:45.3333px;font-family:'Xiaolai SC';-inkscape-font-specification:'Xiaolai SC'"
         sodipodi:role="line">是！</tspan><tspan
         id="tspan144"
         y="895.00488"
         x="391.04419"
         style="font-style:normal;font-variant:normal;font-weight:normal;font-stretch:normal;font-size:45.3333px;font-family:'Xiaolai SC';-inkscape-font-specification:'Xiaolai SC'"
         sodipodi:role="line">这是唯一的解药。</tspan></text>
    <text
       id="text4246-70-2-2-2-7-4-9-9-3"
       y="960.59735"
       x="952.45361"
       style="font-style:normal;font-variant:normal;font-weight:normal;font-stretch:normal;font-size:45.3333px;line-height:125%;font-family:'Xiaolai SC';-inkscape-font-specification:'Xiaolai SC';text-align:center;letter-spacing:0px;word-spacing:0px;text-anchor:middle;display:inline;fill:#000000;fill-opacity:1;stroke:none"
       xml:space="preserve"><tspan
         id="tspan12869-7"
         y="960.59735"
         x="952.45361"
         style="font-style:normal;font-variant:normal;font-weight:normal;font-stretch:normal;font-size:45.3333px;font-family:'Xiaolai SC';-inkscape-font-specification:'Xiaolai SC'"
         sodipodi:role="line">唉！</tspan></text>
    <text
       id="text4246-70-2-2-2-7-4-9-9-6-6"
       y="827.2207"
       x="1567.6672"
       style="font-style:normal;font-variant:normal;font-weight:normal;font-stretch:normal;font-size:45.3333px;line-height:125%;font-family:'Xiaolai SC';-inkscape-font-specification:'Xiaolai SC';text-align:center;letter-spacing:0px;word-spacing:0px;text-anchor:middle;fill:#000000;fill-opacity:1;stroke:none"
       xml:space="preserve"><tspan
         id="tspan30961-6"
         y="827.2207"
         x="1567.6672"
         style="font-style:normal;font-variant:normal;font-weight:normal;font-stretch:normal;font-size:45.3333px;font-family:'Xiaolai SC';-inkscape-font-specification:'Xiaolai SC'"
         sodipodi:role="line">那你等什么呢？</tspan></text>
    <text
       id="text4246-70-2-2-2-7-4-9-9-6"
       y="920.06738"
       x="1571.4744"
       style="font-style:normal;font-variant:normal;font-weight:normal;font-stretch:normal;font-size:45.3333px;line-height:125%;font-family:'Xiaolai SC';-inkscape-font-specification:'Xiaolai SC';text-align:center;letter-spacing:0px;word-spacing:0px;text-anchor:middle;fill:#000000;fill-opacity:1;stroke:none"
       xml:space="preserve"><tspan
         id="tspan35611"
         y="920.06738"
         x="1571.4744"
         style="font-style:normal;font-variant:normal;font-weight:normal;font-stretch:normal;font-size:45.3333px;font-family:'Xiaolai SC';-inkscape-font-specification:'Xiaolai SC'"
         sodipodi:role="line">赶紧让我哭啊！</tspan></text>
    <text
       id="text4246-70-2-2-2-7-4-9-9-6-5"
       y="1638.8534"
       x="1552.2095"
       style="font-style:normal;font-variant:normal;font-weight:normal;font-stretch:normal;font-size:45.3333px;line-height:125%;font-family:'Xiaolai SC';-inkscape-font-specification:'Xiaolai SC';text-align:center;letter-spacing:0px;word-spacing:0px;text-anchor:middle;fill:#000000;fill-opacity:1;stroke:none"
       xml:space="preserve"><tspan
         id="tspan29603"
         y="1638.8534"
         x="1552.2095"
         style="font-style:normal;font-variant:normal;font-weight:normal;font-stretch:normal;font-size:45.3333px;font-family:'Xiaolai SC';-inkscape-font-specification:'Xiaolai SC'"
         sodipodi:role="line">我给你一分钟！</tspan></text>
    <text
       id="text4246-70-2-2-2-7-4-9-9-6-1"
       y="1889.1261"
       x="311.79352"
       style="font-style:normal;font-variant:normal;font-weight:normal;font-stretch:normal;font-size:55.9581px;line-height:125%;font-family:'Xiaolai SC';-inkscape-font-specification:'Xiaolai SC';text-align:center;letter-spacing:0px;word-spacing:0px;text-anchor:middle;fill:#000000;fill-opacity:1;stroke:none;stroke-width:1"
       xml:space="preserve"><tspan
         id="tspan40668"
         y="1889.1261"
         x="311.79352"
         style="font-style:normal;font-variant:normal;font-weight:normal;font-stretch:normal;font-size:55.9581px;font-family:'Xiaolai SC';-inkscape-font-specification:'Xiaolai SC';stroke-width:1"
         sodipodi:role="line">什么？！</tspan></text>
    <text
       id="text4246-70-2-2-2-7-4-9-9-6-1-2-2"
       y="1972.0665"
       x="472.64255"
       style="font-style:normal;font-variant:normal;font-weight:normal;font-stretch:normal;font-size:49.2216px;line-height:125%;font-family:'Xiaolai SC';-inkscape-font-specification:'Xiaolai SC';text-align:center;letter-spacing:0px;word-spacing:0px;text-anchor:middle;fill:#000000;fill-opacity:1;stroke:none;stroke-width:1"
       xml:space="preserve"><tspan
         id="tspan40438"
         y="1972.0665"
         x="472.64255"
         style="font-style:normal;font-variant:normal;font-weight:normal;font-stretch:normal;font-size:49.2216px;font-family:'Xiaolai SC';-inkscape-font-specification:'Xiaolai SC';stroke-width:1"
         sodipodi:role="line">让您哭？！</tspan></text>
    <text
       id="text4246-70-2-2-2-7-4-9-9-6-1-2"
       y="2051.8123"
       x="630.26239"
       style="font-style:normal;font-variant:normal;font-weight:normal;font-stretch:normal;font-size:45.3333px;line-height:125%;font-family:'Xiaolai SC';-inkscape-font-specification:'Xiaolai SC';text-align:center;letter-spacing:0px;word-spacing:0px;text-anchor:middle;fill:#000000;fill-opacity:1;stroke:none"
       xml:space="preserve"><tspan
         id="tspan53928"
         y="2051.8123"
         x="630.26239"
         style="font-style:normal;font-variant:normal;font-weight:normal;font-stretch:normal;font-size:45.3333px;font-family:'Xiaolai SC';-inkscape-font-specification:'Xiaolai SC'"
         sodipodi:role="line">我还以为要…</tspan></text>
    <text
       transform="scale(0.98652379,1.0136603)"
       id="text4246-70-2-2-2-7-4-9-9-6-1-2-27"
       y="2096.0139"
       x="697.59381"
       style="font-style:normal;font-variant:normal;font-weight:normal;font-stretch:normal;font-size:49.2681px;line-height:125%;font-family:'Xiaolai SC';-inkscape-font-specification:'Xiaolai SC';text-align:center;letter-spacing:0px;word-spacing:0px;text-anchor:middle;fill:#000000;fill-opacity:1;stroke:none;stroke-width:1"
       xml:space="preserve"><tspan
         id="tspan1134"
         y="2096.0139"
         x="697.59381"
         style="font-style:normal;font-variant:normal;font-weight:normal;font-stretch:normal;font-size:49.2681px;font-family:'Xiaolai SC';-inkscape-font-specification:'Xiaolai SC';stroke-width:1"
         sodipodi:role="line">而且就</tspan><tspan
         id="tspan164"
         y="2157.5991"
         x="697.59381"
         style="font-style:normal;font-variant:normal;font-weight:normal;font-stretch:normal;font-size:49.2681px;font-family:'Xiaolai SC';-inkscape-font-specification:'Xiaolai SC';stroke-width:1"
         sodipodi:role="line">只有一分钟？！</tspan></text>
    <text
       id="text4246-70-2-2-2-7-4-9-9-6-1-2-3"
       y="1923.8359"
       x="1004.8005"
       style="font-style:normal;font-variant:normal;font-weight:normal;font-stretch:normal;font-size:48.1157px;line-height:125%;font-family:'Xiaolai SC';-inkscape-font-specification:'Xiaolai SC';text-align:center;letter-spacing:0px;word-spacing:0px;text-anchor:middle;fill:#000000;fill-opacity:1;stroke:none;stroke-width:1"
       xml:space="preserve"><tspan
         id="tspan44044-5"
         y="1923.8359"
         x="1004.8005"
         style="font-style:normal;font-variant:normal;font-weight:normal;font-stretch:normal;font-size:48.1157px;font-family:'Xiaolai SC';-inkscape-font-specification:'Xiaolai SC';stroke-width:1"
         sodipodi:role="line">呃…</tspan></text>
    <text
       id="text4246-70-2-2-2-7-4-9-9-6-1-2-3-9-6"
       y="1953.7235"
       x="1187.4293"
       style="font-style:normal;font-variant:normal;font-weight:normal;font-stretch:normal;font-size:51.9425px;line-height:125%;font-family:'Xiaolai SC';-inkscape-font-specification:'Xiaolai SC';text-align:center;letter-spacing:0px;word-spacing:0px;text-anchor:middle;fill:#000000;fill-opacity:1;stroke:none;stroke-width:1"
       xml:space="preserve"><tspan
         id="tspan62775-6"
         y="1953.7235"
         x="1187.4293"
         style="font-style:normal;font-variant:normal;font-weight:normal;font-stretch:normal;font-size:51.9425px;font-family:'Xiaolai SC';-inkscape-font-specification:'Xiaolai SC';stroke-width:1"
         sodipodi:role="line">好吧！</tspan></text>
    <text
       id="text4246-70-2-2-2-7-4-9-9-6-1-2-3-9-6-0"
       y="1972.0564"
       x="1377.374"
       style="font-style:normal;font-variant:normal;font-weight:normal;font-stretch:normal;font-size:40.5417px;line-height:125%;font-family:'Xiaolai SC';-inkscape-font-specification:'Xiaolai SC';text-align:center;letter-spacing:0px;word-spacing:0px;text-anchor:middle;fill:#000000;fill-opacity:1;stroke:none;stroke-width:1"
       xml:space="preserve"><tspan
         id="tspan62775-6-2"
         y="1972.0564"
         x="1377.374"
         style="font-style:normal;font-variant:normal;font-weight:normal;font-stretch:normal;font-size:40.5417px;font-family:'Xiaolai SC';-inkscape-font-specification:'Xiaolai SC';stroke-width:1"
         sodipodi:role="line">那个，那个…</tspan></text>
    <text
       id="text4246-70-2-2-2-7-4-9-9-6-1-2-3-9"
       y="2055.957"
       x="1282.2168"
       style="font-style:normal;font-variant:normal;font-weight:normal;font-stretch:normal;font-size:45.3333px;line-height:125%;font-family:'Xiaolai SC';-inkscape-font-specification:'Xiaolai SC';text-align:center;letter-spacing:0px;word-spacing:0px;text-anchor:middle;fill:#000000;fill-opacity:1;stroke:none"
       xml:space="preserve"><tspan
         id="tspan85354"
         y="2055.957"
         x="1282.2168"
         style="font-style:normal;font-variant:normal;font-weight:normal;font-stretch:normal;font-size:45.3333px;font-family:'Xiaolai SC';-inkscape-font-specification:'Xiaolai SC'"
         sodipodi:role="line">嗯…世界大饥荒！</tspan></text>
    <text
       id="text4246-70-2-2-2-7-4-9-9-6-1-2-3-9-2"
       y="2124.8665"
       x="1287.0123"
       style="font-style:normal;font-variant:normal;font-weight:normal;font-stretch:normal;font-size:45.3333px;line-height:125%;font-family:'Xiaolai SC';-inkscape-font-specification:'Xiaolai SC';text-align:center;letter-spacing:0px;word-spacing:0px;text-anchor:middle;fill:#000000;fill-opacity:1;stroke:none"
       xml:space="preserve"><tspan
         id="tspan62775-9"
         y="2124.8665"
         x="1287.0123"
         style="font-style:normal;font-variant:normal;font-weight:normal;font-stretch:normal;font-size:45.3333px;font-family:'Xiaolai SC';-inkscape-font-specification:'Xiaolai SC'"
         sodipodi:role="line">呃，不不不不！</tspan></text>
    <text
       id="text4246-70-2-2-2-7-4-9-9-6-1-2-3-9-2-2"
       y="2184.5332"
       x="1278.1663"
       style="font-style:normal;font-variant:normal;font-weight:normal;font-stretch:normal;font-size:45.3333px;line-height:125%;font-family:'Xiaolai SC';-inkscape-font-specification:'Xiaolai SC';text-align:center;letter-spacing:0px;word-spacing:0px;text-anchor:middle;fill:#000000;fill-opacity:1;stroke:none"
       xml:space="preserve"><tspan
         id="tspan62775-9-6"
         y="2184.5332"
         x="1278.1663"
         style="font-style:normal;font-variant:normal;font-weight:normal;font-stretch:normal;font-size:45.3333px;font-family:'Xiaolai SC';-inkscape-font-specification:'Xiaolai SC'"
         sodipodi:role="line">有更惨的：</tspan></text>
    <text
       id="text4246-70-2-2-2-7-4-9-9-6-1-2-3-9-2-7-6"
       y="2271.707"
       x="1298.1764"
       style="font-style:normal;font-variant:normal;font-weight:normal;font-stretch:normal;font-size:45.3333px;line-height:125%;font-family:'Xiaolai SC';-inkscape-font-specification:'Xiaolai SC';text-align:center;letter-spacing:0px;word-spacing:0px;text-anchor:middle;fill:#000000;fill-opacity:1;stroke:none"
       xml:space="preserve"><tspan
         id="tspan70880-2"
         y="2271.707"
         x="1298.1764"
         style="font-style:normal;font-variant:normal;font-weight:normal;font-stretch:normal;font-size:45.3333px;font-family:'Xiaolai SC';-inkscape-font-specification:'Xiaolai SC'"
         sodipodi:role="line">您失去了至亲。</tspan></text>
    <text
       id="text4246-70-2-2-2-7-4-9-9-6-1-2-3-9-2-7"
       y="3074.136"
       x="1190.9478"
       style="font-style:normal;font-variant:normal;font-weight:normal;font-stretch:normal;font-size:45.3333px;line-height:125%;font-family:'Xiaolai SC';-inkscape-font-specification:'Xiaolai SC';text-align:center;letter-spacing:0px;word-spacing:0px;text-anchor:middle;fill:#000000;fill-opacity:1;stroke:none"
       xml:space="preserve"><tspan
         id="tspan70880"
         y="3074.136"
         x="1190.9478"
         style="font-style:normal;font-variant:normal;font-weight:normal;font-stretch:normal;font-size:45.3333px;font-family:'Xiaolai SC';-inkscape-font-specification:'Xiaolai SC'"
         sodipodi:role="line">不伤心么？</tspan></text>
    <text
       id="text4246-70-2-2-2-7-4-9-9-6-1-2-3-9-2-7-9"
       y="3172.1897"
       x="1258.7228"
       style="font-style:normal;font-variant:normal;font-weight:normal;font-stretch:normal;font-size:45.3333px;line-height:125%;font-family:'Xiaolai SC';-inkscape-font-specification:'Xiaolai SC';text-align:center;letter-spacing:0px;word-spacing:0px;text-anchor:middle;fill:#000000;fill-opacity:1;stroke:none"
       xml:space="preserve"><tspan
         id="tspan80607"
         y="3172.1897"
         x="1258.7228"
         style="font-style:normal;font-variant:normal;font-weight:normal;font-stretch:normal;font-size:45.3333px;font-family:'Xiaolai SC';-inkscape-font-specification:'Xiaolai SC'"
         sodipodi:role="line">抛弃的宠物？</tspan></text>
    <text
       id="text4246-70-2-2-2-7-4-9-9-6-1-2-3-9-2-7-9-1"
       y="3245.772"
       x="1286.7667"
       style="font-style:normal;font-variant:normal;font-weight:normal;font-stretch:normal;font-size:30.5428px;line-height:125%;font-family:'Xiaolai SC';-inkscape-font-specification:'Xiaolai SC';text-align:center;letter-spacing:0px;word-spacing:0px;text-anchor:middle;fill:#000000;fill-opacity:1;stroke:none;stroke-width:0.999999"
       xml:space="preserve"><tspan
         id="tspan115521"
         y="3245.772"
         x="1286.7667"
         style="font-style:normal;font-variant:normal;font-weight:normal;font-stretch:normal;font-size:30.5428px;font-family:'Xiaolai SC';-inkscape-font-specification:'Xiaolai SC';stroke-width:0.999999"
         sodipodi:role="line">哎，被抛弃的宠物多可怜啊…</tspan></text>
    <text
       id="text4246-70-2-2-2-7-4-9-9-6-1-2-3-9-2-7-9-5"
       y="3193.1409"
       x="2282.5342"
       style="font-style:normal;font-variant:normal;font-weight:normal;font-stretch:normal;font-size:45.3333px;line-height:125%;font-family:'Xiaolai SC';-inkscape-font-specification:'Xiaolai SC';text-align:center;letter-spacing:0px;word-spacing:0px;text-anchor:middle;fill:#000000;fill-opacity:1;stroke:none;"
       xml:space="preserve"><tspan
         id="tspan80607-3"
         y="3193.1409"
         x="2282.5342"
         style="font-size:45.3333px;-inkscape-font-specification:'Xiaolai SC';font-family:'Xiaolai SC';font-weight:normal;font-style:normal;font-stretch:normal;font-variant:normal;"
         sodipodi:role="line">...</tspan></text>
  </g>
</svg>
