<?xml version="1.0" encoding="UTF-8" standalone="no"?>
<!-- Created with Inkscape (http://www.inkscape.org/) -->

<svg
   id="svg2"
   version="1.1"
   inkscape:version="1.1.1 (3bf5ae0d25, 2021-09-20, custom)"
   width="2481"
   height="3503"
   sodipodi:docname="E36P11.svg"
   xmlns:inkscape="http://www.inkscape.org/namespaces/inkscape"
   xmlns:sodipodi="http://sodipodi.sourceforge.net/DTD/sodipodi-0.dtd"
   xmlns:xlink="http://www.w3.org/1999/xlink"
   xmlns="http://www.w3.org/2000/svg"
   xmlns:svg="http://www.w3.org/2000/svg"
   xmlns:rdf="http://www.w3.org/1999/02/22-rdf-syntax-ns#"
   xmlns:cc="http://creativecommons.org/ns#"
   xmlns:dc="http://purl.org/dc/elements/1.1/">
  <metadata
     id="metadata8">
    <rdf:RDF>
      <cc:Work
         rdf:about="">
        <dc:format>image/svg+xml</dc:format>
        <dc:type
           rdf:resource="http://purl.org/dc/dcmitype/StillImage" />
        <dc:title />
      </cc:Work>
    </rdf:RDF>
  </metadata>
  <defs
     id="defs6" />
  <sodipodi:namedview
     pagecolor="#1e1e1e"
     bordercolor="#111111"
     borderopacity="1"
     objecttolerance="10"
     gridtolerance="10"
     guidetolerance="10"
     inkscape:pageopacity="0"
     inkscape:pageshadow="2"
     inkscape:window-width="1888"
     inkscape:window-height="1146"
     id="namedview4"
     showgrid="false"
     inkscape:zoom="0.46000001"
     inkscape:cx="1063.0434"
     inkscape:cy="1855.4347"
     inkscape:window-x="32"
     inkscape:window-y="0"
     inkscape:window-maximized="1"
     inkscape:current-layer="layer1"
     inkscape:pagecheckerboard="0"
     inkscape:snap-global="false" />
  <g
     inkscape:groupmode="layer"
     id="layer2"
     inkscape:label="artwork"
     sodipodi:insensitive="true">
    <image
       xlink:href="../gfx_Pepper-and-Carrot_by-David-Revoy_E36P11.png"
       y="0"
       x="0"
       id="image10"
       height="3503.4727"
       width="2481" />
  </g>
  <g
     inkscape:groupmode="layer"
     id="layer3"
     inkscape:label="speechbubbles"
     style="display:inline">
    <path
       style="color:#000000;display:inline;overflow:visible;visibility:visible;fill:#ffffff;fill-opacity:1;fill-rule:nonzero;stroke:none;stroke-width:0.61793px;marker:none;enable-background:accumulate"
       d="m 373.07038,284.06079 c -35.30593,20.05472 -78.38772,16.42162 -117.75394,15.47259 -41.10589,-3.22537 -89.97165,-15.61313 -108.56368,-54.8271 -17.3638,-36.32029 2.03029,-81.58145 39.10727,-98.53996 34.01783,-15.90221 73.13302,-17.48192 110.30503,-18.22506 48.26324,1.09448 101.2766,30.28053 108.75699,79.21144 4.07231,28.64225 -9.19752,58.24893 -31.85167,76.90809 z"
       id="path4040-40"
       inkscape:connector-curvature="0"
       sodipodi:nodetypes="zssssz" />
    <path
       style="color:#000000;display:inline;overflow:visible;visibility:visible;fill:#ffffff;fill-opacity:1;fill-rule:nonzero;stroke:none;stroke-width:0.861293px;marker:none;enable-background:accumulate"
       d="m 621.58316,105.88672 c -25.28107,0.48289 -51.13999,1.99485 -74.90548,10.55273 -17.82399,6.28483 -33.84945,17.59434 -43.35719,32.88401 -9.97501,15.11503 -14.09753,32.66921 -16.64317,49.9598 -3.46993,20.5909 -5.04759,42.02901 1.06324,62.34728 9.37805,29.028 37.27437,51.93542 69.49658,58.49046 42.15961,10.88095 87.38151,13.37614 130.22275,4.25676 24.56651,-5.64189 48.42541,-15.47968 67.45798,-30.96068 12.83271,-11.91714 18.88507,-28.63021 20.25376,-45.0154 2.75287,-25.0214 3.30261,-50.80265 -4.46801,-75.17205 -7.39835,-22.85714 -27.20762,-41.60583 -51.2598,-50.51416 -18.66746,-7.20666 -38.64512,-10.9992 -58.54541,-14.11157 -12.99413,-1.87992 -26.156,-2.85024 -39.31525,-2.71718 z"
       id="path3365-90"
       inkscape:connector-curvature="0"
       sodipodi:nodetypes="csssssc" />
    <path
       style="color:#000000;display:inline;overflow:visible;visibility:visible;fill:#ffffff;fill-opacity:1;fill-rule:nonzero;stroke:none;stroke-width:1.11303px;marker:none;enable-background:accumulate"
       d="m 841.7647,253.23429 c 0.78779,-53.37318 16.13361,-103.84716 152.1711,-102.10038 102.0016,1.30895 129.1652,42.43199 131.4251,96.38138 1.5927,38.01967 -53.5909,73.2116 -141.22776,71.34686 -83.76403,-1.78194 -136.2426,-24.9245 -142.36844,-65.62786 z"
       id="path5026-3"
       inkscape:connector-curvature="0"
       sodipodi:nodetypes="csssc" />
    <path
       style="color:#000000;display:inline;overflow:visible;visibility:visible;fill:#ffffff;fill-opacity:1;fill-rule:nonzero;stroke:none;stroke-width:1.06703px;marker:none;enable-background:accumulate"
       d="m 958.1944,309.83323 c -43.34053,0.0194 -52.18434,75.22752 -14.63328,128.2568 -16.5114,-21.59304 -72.61174,-61.13455 -7.77479,-172.66812 29.32893,-50.45175 14.74185,29.39163 14.74185,29.39163 z"
       id="path4035-4"
       inkscape:connector-curvature="0"
       sodipodi:nodetypes="ccscc" />
    <path
       style="color:#000000;display:inline;overflow:visible;visibility:visible;fill:#ffffff;fill-opacity:1;fill-rule:nonzero;stroke:none;stroke-width:0.964544px;marker:none;enable-background:accumulate"
       d="m 987.15522,1125.0787 c -31.88065,0.9195 -64.21261,6.2075 -91.99051,18.841 -19.77846,9.9112 -32.48532,26.7787 -37.61769,44.409 -9.57963,30.917 -12.90189,63.3432 -6.20919,94.8388 2.84266,12.8519 7.1416,25.6603 14.67919,37.3564 5.01513,7.3933 12.6863,13.7088 22.17672,17.6677 12.87014,5.9582 26.80246,10.3536 40.7165,14.577 27.52499,7.6427 56.7831,10.4113 85.78796,11.9658 13.7062,0.6631 27.4456,-0.6055 40.7814,-3.0621 17.4226,-3.1706 34.3548,-7.8831 50.7059,-13.5122 21.5724,-7.9542 41.7743,-19.6471 53.9362,-35.9536 11.8858,-15.8726 15.7177,-34.4176 17.483,-52.4884 2.5068,-23.4782 1.569,-47.7156 -8.6187,-70.1222 -9.306,-19.8004 -28.7317,-36.6607 -53.3424,-45.5273 -28.6621,-10.8402 -60.52,-14.7984 -91.8636,-17.7205 -12.1562,-1.0002 -24.40101,-1.5204 -36.62478,-1.2694 z"
       id="path3365-90-4"
       inkscape:connector-curvature="0"
       sodipodi:nodetypes="csssssc" />
    <path
       style="fill:#ffffff;fill-rule:evenodd;stroke:none;stroke-width:1.18884px;stroke-linecap:butt;stroke-linejoin:miter;stroke-opacity:1"
       d="m 1022.9535,1132.3467 c -7.0579,-18.4075 1.4646,-58.4739 28.7582,-72.4342 -20.0938,4.5574 -50.5407,19.6541 -55.30482,46.5586 -7.4355,41.9896 24.81682,27.8537 24.81682,27.8537 z"
       id="path4248"
       inkscape:connector-curvature="0"
       sodipodi:nodetypes="ccscc" />
    <path
       style="color:#000000;display:inline;overflow:visible;visibility:visible;fill:#ffffff;fill-opacity:1;fill-rule:nonzero;stroke:none;stroke-width:1.57949px;marker:none;enable-background:accumulate"
       d="m 1795.1266,1162.7593 c -59.0414,1.2504 -117.8817,5.9054 -176.549,11.2584 -25.6894,2.707 -52.3762,6.0999 -74.6029,17.743 -33.9115,17.7334 -56.2757,49.96 -55.7047,83.0804 -1.2421,24.6175 3.5848,50.5164 20.8351,71.2422 18.6645,22.045 49.4189,35.77 81.2581,40.4528 43.9995,7.5176 88.9981,9.6759 133.3057,15.6091 70.2543,7.7288 140.3448,17.021 211.1032,21.1463 68.7855,2.339 137.4423,-8.3822 202.4123,-26.3977 27.7058,-6.9604 56.157,-14.8978 78.3227,-30.7916 21.3065,-15.0794 33.5453,-37.7544 34.8136,-60.6448 2.7784,-22.744 0.7395,-46.4268 -10.2914,-67.638 -10.0645,-17.5971 -28.685,-31.4705 -50.4507,-38.992 -30.7712,-11.8597 -64.474,-16.9804 -97.5814,-22.4383 -58.6286,-8.7229 -118.3282,-10.846 -177.7928,-11.6758 -39.6865,-0.8502 -79.3715,-2.036 -119.0778,-1.954 z"
       id="path4546-6-5"
       inkscape:connector-curvature="0"
       sodipodi:nodetypes="cssssc" />
    <path
       style="color:#000000;display:inline;overflow:visible;visibility:visible;fill:#ffffff;fill-opacity:1;fill-rule:nonzero;stroke:none;stroke-width:1.03296px;marker:none;enable-background:accumulate"
       d="m 1703.2374,1378.7198 c -15.9172,0.7686 -32.0339,1.5531 -47.5633,6.4878 -19.5961,6.7228 -38.0145,21.5376 -48.1408,43.0811 -6.9999,15.3973 -7.381,34.7592 -0.4799,49.9925 7.5134,17.3844 21.4596,29.2546 35.9784,37.5218 23.6702,13.303 50.2016,17.0248 76.1854,19.2006 31.481,2.4153 63.0953,1.7256 94.6482,2.3266 59.672,0.3822 119.392,1.051 179.0709,-2.7314 22.8964,-1.8246 45.9303,-4.3611 68.2659,-11.3215 16.5412,-5.5469 33.0635,-14.8541 44.2688,-30.9849 12.298,-18.2228 14.8338,-44.8387 5.9959,-65.318 -7.4301,-18.297 -21.9397,-31.6625 -38.2531,-37.2899 -34.7888,-14.7003 -72.5396,-19.0046 -109.4696,-14.3817 -22.7176,2.5405 -45.5117,6.3149 -68.3129,4.5964 -25.6606,-1.2172 -51.287,-3.4825 -77.009,-3.1143 -37.0738,-0.3109 -74.1645,0.9637 -111.2459,1.7698 -1.313,0.055 -2.626,0.1102 -3.939,0.1654 z"
       id="path4546-6-5-7-9"
       inkscape:connector-curvature="0"
       sodipodi:nodetypes="cssssc" />
    <path
       style="color:#000000;display:inline;overflow:visible;visibility:visible;fill:#ffffff;fill-opacity:1;fill-rule:nonzero;stroke:none;stroke-width:1.16782px;marker:none;enable-background:accumulate"
       d="m 1834.6759,1063.9074 c -58.4661,16.7056 -74.2086,55.188 -42.9987,96.676 31.21,41.487 10.2962,43.1429 10.2962,43.1429 l -38.5277,-15.376 c 0,0 -61.7873,-122.5503 71.2302,-124.4429 z"
       id="path3072-56"
       inkscape:connector-curvature="0"
       sodipodi:nodetypes="ccccc" />
    <path
       style="color:#000000;display:inline;overflow:visible;visibility:visible;fill:#ffffff;fill-opacity:1;fill-rule:nonzero;stroke:none;stroke-width:0.531213px;marker:none;enable-background:accumulate"
       d="m 158.48854,1627.5134 c 13.03968,-13.7787 173.89537,-23.5914 211.05478,7.571 25.89645,21.7169 15.90638,63.3637 -6.29018,74.2047 -22.19657,10.8417 -129.36004,13.8952 -159.81775,8.3737 -27.38917,-4.9645 -56.13819,-15.6511 -57.65388,-44.0939 -0.6186,-11.6083 -0.33265,-32.2773 12.70703,-46.0555 z"
       id="path4040-5"
       inkscape:connector-curvature="0"
       sodipodi:nodetypes="zssssz" />
    <path
       style="color:#000000;display:inline;overflow:visible;visibility:visible;fill:#ffffff;fill-opacity:1;fill-rule:nonzero;stroke:none;stroke-width:0.745672px;marker:none;enable-background:accumulate"
       d="m 236.91446,1711.5657 c 16.51368,-21.4382 220.22416,-36.7057 267.28351,11.7796 32.79572,33.7892 20.14411,98.5872 -7.96599,115.4547 -28.11014,16.8685 -163.82386,21.6194 -202.39603,13.0286 -34.68613,-7.7241 -71.0944,-24.3514 -73.0139,-68.6054 -0.78338,-18.0614 -0.42127,-50.2201 16.09241,-71.6575 z"
       id="path4040-5-3"
       inkscape:connector-curvature="0"
       sodipodi:nodetypes="zssssz" />
    <path
       style="color:#000000;display:inline;overflow:visible;visibility:visible;fill:#ffffff;fill-opacity:1;fill-rule:nonzero;stroke:none;stroke-width:0.855677px;marker:none;enable-background:accumulate"
       d="m 467.32955,1948.136 c 13.3495,-41.5666 52.33232,-60.4288 7.51958,-104.8642 -33.47159,-33.1897 12.91326,-29.7973 12.91326,-29.7973 0,0 5.02259,-41.3782 24.01835,27.0751 18.99576,68.4534 -9.8869,64.3755 -44.45119,107.5864 z"
       id="path3072-6"
       inkscape:connector-curvature="0"
       sodipodi:nodetypes="csczc" />
    <path
       style="fill:#ffffff;stroke:none;stroke-width:1.06637"
       d="m 631.47322,1730.1201 c -11.29958,-76.5007 71.30508,-115.1924 132.06278,-112.723 89.401,-8.7008 179.84335,-5.3418 268.9502,4.4695 66.9623,10.7781 109.8595,94.2417 72.3835,156.3201 -42.4802,64.3363 -125.83303,56.6219 -191.48957,62.9721 -76.39616,1.7482 -156.24655,-0.035 -227.90451,-30.4452 -28.30437,-16.6843 -46.86757,-47.7754 -54.0024,-80.5935 z"
       id="path3286-6"
       inkscape:connector-curvature="0"
       sodipodi:nodetypes="csssssssc" />
    <path
       style="fill:#ffffff;stroke:none;stroke-width:0.958593"
       d="m 619.09524,1872.0651 c -12.017,-58.1283 75.83221,-87.5277 140.44739,-85.6514 95.07706,-6.6112 191.26159,-4.059 286.02567,3.3961 71.2137,8.1896 116.8344,71.6086 76.9792,118.7782 -45.1773,48.8853 -133.82209,43.0236 -203.64715,47.8487 -81.24651,1.3284 -166.16665,-0.026 -242.37411,-23.1335 -30.1014,-12.6773 -49.84318,-36.3016 -57.431,-61.2381 z"
       id="path3286-6-7"
       inkscape:connector-curvature="0"
       sodipodi:nodetypes="csssssssc" />
    <path
       style="fill:#ffffff;stroke:none;stroke-width:0.705121"
       d="m 735.46062,1979.5338 c -3.40147,-39.7296 69.2348,-59.8236 120.18964,-58.5411 75.96218,-4.5186 151.83754,-2.7742 226.07304,2.3212 55.5147,5.5975 84.9621,48.9432 48.4515,81.1827 -40.9041,33.4123 -110.4628,29.4057 -166.24658,32.7037 -64.4579,0.9079 -131.54182,-0.018 -189.44143,-15.8113 -22.49664,-8.6647 -35.6412,-24.8115 -39.02617,-41.8552 z"
       id="path3286-6-7-4"
       inkscape:connector-curvature="0"
       sodipodi:nodetypes="csssssssc" />
    <path
       style="fill:#ffffff;stroke:none;stroke-width:0.755494"
       d="m 1556.1078,2263.7186 c -40.5776,0.9856 -81.571,1.4285 -121.3541,8.2171 -23.4836,5.0646 -46.516,14.6572 -60.3222,30.3859 -12.0378,15.0743 -10.4346,34.6485 0.032,49.9505 8.638,14.5227 26.7065,25.5007 47.2516,28.7663 46.3375,10.8118 95.2925,11.8471 143.394,11.8441 44.0679,-0.2085 88.1393,-2.118 131.9173,-5.9578 24.2957,-2.6624 49.3393,-8.0568 67.8913,-20.8645 22.4519,-15.4056 32.2393,-41.4194 21.0864,-63.0951 -7.7078,-14.8343 -25.3174,-25.8059 -45.0785,-30.5955 -20.8526,-5.1627 -43.0509,-4.7949 -64.6804,-6.0981 -39.6502,-1.8463 -79.3882,-3.227 -119.119,-2.5776 -0.3394,0.011 -0.6788,0.016 -1.0182,0.025 z"
       id="path3286-6-7-4-2-5"
       inkscape:connector-curvature="0"
       sodipodi:nodetypes="csssssssc" />
    <path
       style="display:inline;fill:#ffffff;stroke:none;stroke-width:0.943985"
       d="m 1579.0844,2347.1671 c -39.4151,1.5841 -79.2343,2.2958 -117.8777,13.2072 -22.8111,8.1401 -45.1837,23.5584 -58.5944,48.8388 -11.693,24.2288 -10.1357,55.6901 0.031,80.2849 8.3906,23.3421 25.9415,40.9868 45.8981,46.2355 45.0101,17.3778 92.5628,19.0418 139.2864,19.037 42.8056,-0.3351 85.6146,-3.4043 128.1386,-9.5758 23.5997,-4.2793 47.926,-12.9496 65.9466,-33.5354 21.8088,-24.7612 31.3157,-66.5728 20.4824,-101.4119 -7.4871,-23.843 -24.5921,-41.4775 -43.7874,-49.1757 -20.2552,-8.298 -41.8176,-7.7069 -62.8275,-9.8014 -38.5145,-2.9675 -77.1142,-5.1868 -115.707,-4.143 -0.3295,0.018 -0.6592,0.026 -0.9889,0.04 z"
       id="path3286-6-7-4-2-5-3"
       inkscape:connector-curvature="0"
       sodipodi:nodetypes="csssssssc" />
    <path
       style="color:#000000;display:inline;overflow:visible;visibility:visible;fill:#ffffff;fill-opacity:1;fill-rule:nonzero;stroke:none;stroke-width:1.03365px;marker:none;enable-background:accumulate"
       d="m 1111.656,1972.2827 c -8.1997,41.8065 59.3043,70.6591 115.2035,48.7714 -22.9931,10.09 -81.6027,63.8105 -171.9044,-28.8625 -40.8476,-41.9203 41.4313,-16.5735 41.4313,-16.5735 z"
       id="path4035-4-5"
       inkscape:connector-curvature="0"
       sodipodi:nodetypes="ccscc" />
    <path
       style="color:#000000;display:inline;overflow:visible;visibility:visible;fill:#ffffff;fill-opacity:1;fill-rule:nonzero;stroke:none;stroke-width:1.14715px;marker:none;enable-background:accumulate"
       d="m 1640.0206,2360.0065 c 85.321,-69.4317 155.0537,-160.9776 126.0876,-275.9291 50.0818,114.8531 -29.8722,233.4391 -50.2498,258.0963 -21.5049,26.0213 -75.8378,17.8328 -75.8378,17.8328 z"
       id="path4008-7"
       inkscape:connector-curvature="0"
       sodipodi:nodetypes="ccsc" />
    <path
       style="color:#000000;display:inline;overflow:visible;visibility:visible;fill:#ffffff;fill-opacity:1;fill-rule:nonzero;stroke:none;stroke-width:0.877476px;marker:none;enable-background:accumulate"
       d="m 2010.6149,2481.5298 c 2.1024,-54.303 38.0713,-94.2785 133.4707,-84.7482 51.1011,5.1058 109.084,8.2785 106.5959,87.8248 -2.488,79.5464 -85.7779,78.0975 -102.9356,80.0803 -17.1575,1.9828 -106.8119,-5.7151 -122.9057,-32.6526 -10.0744,-16.8627 -14.2332,-33.6902 -14.2253,-50.5043 z"
       id="path4546-6-89"
       inkscape:connector-curvature="0"
       sodipodi:nodetypes="cssssc" />
    <path
       style="fill:#ffffff;fill-rule:evenodd;stroke:none;stroke-width:1px;stroke-linecap:butt;stroke-linejoin:miter;stroke-opacity:1"
       d="m 2127.4405,2420.4639 c 0,0 -20.8561,-32.9672 -21.8804,-43.1562 -1.0243,-10.189 2.4576,-31.6896 11.9397,-43.6552 -22.2118,19.0145 -28.0641,35.9803 -27.9104,44.0276 0.1532,8.0482 12.5159,40.8376 12.5159,40.8376 z"
       id="path1367"
       inkscape:connector-curvature="0"
       inkscape:transform-center-x="-1.8067567"
       inkscape:transform-center-y="-52.12792"
       sodipodi:nodetypes="cscscc" />
    <path
       style="color:#000000;display:inline;overflow:visible;visibility:visible;fill:#ffffff;fill-opacity:1;fill-rule:nonzero;stroke:none;stroke-width:0.820562px;marker:none;enable-background:accumulate"
       d="m 345.9322,2715.5269 c -48.55175,0.4511 -97.88496,1.8227 -144.79401,16.0393 -23.14713,7.3625 -45.12512,21.6254 -58.04395,43.151 -11.61924,19.3641 -14.70183,44.7538 -5.20575,65.6838 8.39845,19.3886 26.4968,33.5069 46.55087,37.9086 26.96883,8.0656 54.81023,12.4393 82.577,16.4216 74.84885,9.7975 151.26498,9.4313 225.59388,-4.5604 20.96399,-4.0889 42.06321,-10.7408 59.2732,-24.1629 13.83462,-10.4988 24.98881,-25.5422 28.54775,-43.08 6.07265,-26.7779 -2.47968,-57.439 -23.78613,-74.7356 -15.43967,-12.4228 -34.97904,-17.3774 -53.8909,-20.996 -31.59735,-5.7855 -63.69563,-7.6744 -95.66451,-9.9689 -20.3652,-1.1359 -40.76104,-1.7788 -61.15745,-1.7005 z"
       id="path4546-7"
       inkscape:connector-curvature="0"
       sodipodi:nodetypes="cssssc" />
    <path
       style="color:#000000;display:inline;overflow:visible;visibility:visible;fill:#ffffff;fill-opacity:1;fill-rule:nonzero;stroke:none;stroke-width:1.18985px;marker:none;enable-background:accumulate"
       d="m 311.97576,2844.3032 c -38.2485,0.7779 -76.92681,5.8613 -110.89053,24.5157 -20.84149,11.7663 -39.50286,30.2836 -49.11909,55.9453 -9.18002,23.8504 -11.19917,53.1437 -2.33757,79.6718 5.63843,17.4615 14.50938,34.0155 26.3833,46.694 12.0964,11.0431 26.57553,16.3967 40.57227,21.4891 30.42292,10.324 61.47871,14.7972 92.33229,18.4169 24.09998,2.5941 48.2252,4.5535 72.23077,4.7189 20.82296,-0.5192 41.55963,-2.0518 62.0826,-4.8103 28.08368,-4.1101 56.08189,-11.8866 79.90806,-28.8905 16.62163,-12.121 30.67916,-30.4028 35.83606,-53.8153 5.08881,-22.6557 3.38892,-47.823 -3.04311,-71.1984 -6.15079,-21.1383 -18.9157,-39.9264 -34.971,-51.7614 -22.68049,-17.3436 -48.783,-24.2869 -74.12152,-29.2178 -31.57612,-5.967 -63.21435,-7.9393 -94.80008,-10.7004 -13.38172,-0.8646 -26.74801,-1.2584 -40.06245,-1.0576 z"
       id="path4546-6-5-4"
       inkscape:connector-curvature="0"
       sodipodi:nodetypes="cssssc" />
    <path
       style="color:#000000;display:inline;overflow:visible;visibility:visible;fill:#ffffff;fill-opacity:1;fill-rule:nonzero;stroke:none;stroke-width:0.94912px;marker:none;enable-background:accumulate"
       d="m 570.40008,2788.5105 c 0.70291,-20.5931 2.79564,-98.204 79.29359,-67.917 -12.96153,-15.3177 -101.3034,-57.4847 -117.55274,67.9555 -4.05901,31.3344 6.93857,21.4416 13.2428,23.8225 6.30431,2.3809 25.01635,-23.861 25.01635,-23.861 z"
       id="path4064-5"
       inkscape:connector-curvature="0"
       sodipodi:nodetypes="ccszc" />
    <path
       style="fill:#ffffff;stroke:none;stroke-width:0.711521"
       d="m 1431.0679,2662.0831 c -52.9953,0.8683 -106.2222,2.828 -158.5678,12.965 -19.7569,3.9825 -39.9545,9.0963 -57.0886,21.4917 -9.8897,7.1614 -18.163,17.1925 -23.4413,29.1055 -8.9548,19.2609 -12.2854,41.512 -11.1021,63.1276 1.412,21.2964 8.792,42.6653 22.8006,57.3567 14.769,15.945 34.2307,24.7523 53.6337,30.7221 25.9843,7.7521 52.9312,9.9058 79.6701,11.3818 38.789,1.7343 77.6163,0.56 116.4073,-0.4481 43.5175,-1.5951 87.383,-4.8306 129.6624,-17.3804 20.0486,-6.2478 40.1293,-14.7577 56.3969,-29.8369 10.483,-10.0535 18.6429,-24.1051 19.9819,-39.8705 1.713,-15.1631 0.3933,-30.5834 -2.2013,-45.514 -4.3531,-21.1837 -15.3191,-40.7227 -31.0616,-53.3229 -19.1764,-16.2389 -42.577,-24.2343 -65.7417,-29.5998 -34.4961,-7.7746 -69.7649,-9.6675 -104.8528,-10.2644 -8.1656,-0.1115 -16.3307,-0.069 -24.4957,0.087 z"
       id="path3280-8-0"
       inkscape:connector-curvature="0"
       sodipodi:nodetypes="csssc" />
    <path
       style="color:#000000;display:inline;overflow:visible;visibility:visible;fill:#ffffff;fill-opacity:1;fill-rule:nonzero;stroke:none;stroke-width:1px;marker:none;enable-background:accumulate"
       d="m 1190.5649,2938.1193 c 71.9512,20.8726 126.9981,-3.0998 138.6013,-80.4717 29.2254,-33.921 39.4944,-8.1295 39.4944,-8.1295 0,0 9.6333,15.8558 9.2,26.1866 -1.6876,40.2341 -97.4111,114.3526 -187.2957,62.4146 z"
       id="path3072-7"
       inkscape:connector-curvature="0"
       sodipodi:nodetypes="cccsc" />
    <path
       style="fill:#ffffff;fill-rule:evenodd;stroke:none;stroke-width:1px;stroke-linecap:butt;stroke-linejoin:miter;stroke-opacity:1"
       d="m 611.87816,457.91854 c -12.3953,-22.626 4.8341,-35.579 4.6846,-49.244 -0.1543,-14.107 -33.2797,-25.956 -34.0153,-39.032 -0.7356,-13.076 20.5032,-26.957 19.032,-47.388 -1.4712,-20.432 -25.011,-24.518 -22.8041,-0.818 2.2069,23.701 -15.6571,27.839 -11.7699,46.584 6.483,31.261 30.8848,30.638 38.523,39.431 5.057,5.822 -4.6847,18.594 -2.4778,32.487 2.2069,13.894 8.8275,17.98 8.8275,17.98 z"
       id="path4272-2"
       inkscape:connector-curvature="0"
       sodipodi:nodetypes="csssssssc" />
    <path
       style="display:inline;fill:#ffffff;stroke:none;stroke-width:0.877336"
       d="M 395.5572,452.67668 C 407.56611,407.77396 413.32098,333.81277 360.54542,296.86263 333.08948,277.6397 320.11233,262.96148 320.11233,262.96148 l 22.24546,-19.14958 c 105.35115,77.35453 72.21397,163.85407 53.19941,208.86478 z"
       id="path3063-1-0"
       inkscape:connector-curvature="0"
       sodipodi:nodetypes="csccc" />
  </g>
  <g
     inkscape:groupmode="layer"
     id="layer1"
     inkscape:label="txt">
    <text
       id="text4246-4-2-7"
       y="201.95047"
       x="275.25223"
       style="font-style:normal;font-variant:normal;font-weight:normal;font-stretch:normal;line-height:0%;font-family:Lavi;-inkscape-font-specification:Lavi;text-align:center;letter-spacing:0px;word-spacing:0px;text-anchor:middle;fill:#000000;fill-opacity:1;stroke:none"
       xml:space="preserve"><tspan
         y="201.95047"
         x="275.25223"
         style="font-size:45px;line-height:1.25;fill:#000000"
         sodipodi:role="line"
         id="tspan1032">Kaj je pa</tspan><tspan
         y="258.20047"
         x="275.25223"
         style="font-size:45px;line-height:1.25;fill:#000000"
         sodipodi:role="line"
         id="tspan23621">z njo?</tspan></text>
    <text
       id="text4246-4-2-7-3"
       y="176.08881"
       x="630.43268"
       style="font-style:normal;font-variant:normal;font-weight:normal;font-stretch:normal;line-height:0%;font-family:Lavi;-inkscape-font-specification:Lavi;text-align:center;letter-spacing:0px;word-spacing:0px;text-anchor:middle;fill:#000000;fill-opacity:1;stroke:none"
       xml:space="preserve"><tspan
         y="176.08881"
         x="630.43268"
         style="font-size:45px;line-height:1.25;fill:#000000"
         sodipodi:role="line"
         id="tspan3727">Pepper?</tspan><tspan
         y="232.33881"
         x="630.43268"
         style="font-size:45px;line-height:1.25;fill:#000000"
         sodipodi:role="line"
         id="tspan2068">je vse v</tspan><tspan
         y="288.58881"
         x="630.43268"
         style="font-size:45px;line-height:1.25;fill:#000000"
         sodipodi:role="line"
         id="tspan2273">redu?</tspan></text>
    <text
       id="text4246-4-2-7-3-5"
       y="211.3609"
       x="988.16614"
       style="font-style:normal;font-variant:normal;font-weight:normal;font-stretch:normal;line-height:0%;font-family:Lavi;-inkscape-font-specification:Lavi;text-align:center;letter-spacing:0px;word-spacing:0px;text-anchor:middle;fill:#000000;fill-opacity:1;stroke:none"
       xml:space="preserve"><tspan
         y="211.3609"
         x="988.16614"
         style="font-size:45px;line-height:1.25;fill:#000000"
         sodipodi:role="line"
         id="tspan3538">Ja, v</tspan><tspan
         y="267.6109"
         x="988.16614"
         style="font-size:45px;line-height:1.25;fill:#000000"
         sodipodi:role="line"
         id="tspan32695">redu sem.</tspan></text>
    <text
       id="text4246-4-2-7-3-5-2"
       y="1191.657"
       x="1013.2092"
       style="font-style:normal;font-variant:normal;font-weight:normal;font-stretch:normal;line-height:0%;font-family:Lavi;-inkscape-font-specification:Lavi;text-align:center;letter-spacing:0px;word-spacing:0px;text-anchor:middle;fill:#000000;fill-opacity:1;stroke:none"
       xml:space="preserve"><tspan
         y="1191.657"
         x="1013.2092"
         style="font-size:45px;line-height:1.25;fill:#000000"
         sodipodi:role="line"
         id="tspan4444">Samo</tspan><tspan
         y="1247.907"
         x="1013.2092"
         style="font-size:45px;line-height:1.25;fill:#000000"
         sodipodi:role="line"
         id="tspan36386">nečesa sem</tspan><tspan
         y="1304.157"
         x="1013.2092"
         style="font-size:45px;line-height:1.25;fill:#000000"
         sodipodi:role="line"
         id="tspan36388">se zavedla.</tspan></text>
    <text
       id="text4246-4-2-7-3-5-2-2"
       y="1246.3602"
       x="1869.7491"
       style="font-style:normal;font-variant:normal;font-weight:normal;font-stretch:normal;line-height:0%;font-family:Lavi;-inkscape-font-specification:Lavi;text-align:center;letter-spacing:0px;word-spacing:0px;text-anchor:middle;fill:#000000;fill-opacity:1;stroke:none"
       xml:space="preserve"><tspan
         y="1246.3602"
         x="1869.7491"
         style="font-size:45px;line-height:1.25;fill:#000000"
         sodipodi:role="line"
         id="tspan6243">Vse kar se je zgodilo je posredno</tspan><tspan
         y="1302.6102"
         x="1869.7491"
         style="font-size:45px;line-height:1.25;fill:#000000"
         sodipodi:role="line"
         id="tspan44499">ali neposredno posledica mojih</tspan><tspan
         y="1358.8602"
         x="1869.7491"
         style="font-size:45px;line-height:1.25;fill:#000000"
         sodipodi:role="line"
         id="tspan44501">dejanj, mojih odločitev...</tspan></text>
    <text
       id="text4246-4-2-7-3-5-2-2-6"
       y="1432.9945"
       x="1862.4454"
       style="font-style:normal;font-variant:normal;font-weight:normal;font-stretch:normal;line-height:0%;font-family:Lavi;-inkscape-font-specification:Lavi;text-align:center;letter-spacing:0px;word-spacing:0px;text-anchor:middle;fill:#000000;fill-opacity:1;stroke:none"
       xml:space="preserve"><tspan
         y="1432.9945"
         x="1862.4454"
         style="font-style:normal;font-variant:normal;font-weight:normal;font-stretch:normal;font-size:45px;line-height:1.25;font-family:Lavi;-inkscape-font-specification:Lavi;fill:#000000"
         sodipodi:role="line"
         id="tspan48292">...z drugimi besedami, </tspan><tspan
         y="1489.2445"
         x="1862.4454"
         style="font-style:normal;font-variant:normal;font-weight:bold;font-stretch:normal;font-size:45px;line-height:1.25;font-family:Lavi;-inkscape-font-specification:Lavi;fill:#000000"
         sodipodi:role="line"
         id="tspan16620">moja verižna reakcija!</tspan></text>
    <text
       id="text4246-4-2-7-3-5-2-2-6-7-2"
       y="1679.4132"
       x="256.14807"
       style="font-style:normal;font-variant:normal;font-weight:normal;font-stretch:normal;line-height:0%;font-family:Lavi;-inkscape-font-specification:Lavi;text-align:center;letter-spacing:0px;word-spacing:0px;text-anchor:middle;fill:#000000;fill-opacity:1;stroke:none"
       xml:space="preserve"><tspan
         y="1679.4132"
         x="256.14807"
         style="font-style:normal;font-variant:normal;font-weight:normal;font-stretch:normal;font-size:45px;line-height:1.25;font-family:Lavi;-inkscape-font-specification:Lavi;fill:#000000"
         sodipodi:role="line"
         id="tspan104696-2-8">Resno?</tspan></text>
    <text
       id="text4246-4-2-7-3-5-2-2-6-7-2-9"
       y="1754.9077"
       x="375.17328"
       style="font-style:normal;font-variant:normal;font-weight:normal;font-stretch:normal;line-height:0%;font-family:Lavi;-inkscape-font-specification:Lavi;text-align:center;letter-spacing:0px;word-spacing:0px;text-anchor:middle;fill:#000000;fill-opacity:1;stroke:none"
       xml:space="preserve"><tspan
         y="1754.9077"
         x="375.17328"
         style="font-style:normal;font-variant:normal;font-weight:normal;font-stretch:normal;font-size:45px;line-height:1.25;font-family:Lavi;-inkscape-font-specification:Lavi;fill:#000000"
         sodipodi:role="line"
         id="tspan7189">To moraš</tspan><tspan
         y="1811.1577"
         x="375.17328"
         style="font-style:normal;font-variant:normal;font-weight:normal;font-stretch:normal;font-size:45px;line-height:1.25;font-family:Lavi;-inkscape-font-specification:Lavi;fill:#000000"
         sodipodi:role="line"
         id="tspan56511">pa razložiti.</tspan></text>
    <text
       id="text4246-4-2-7-3-5-2-2-6-7-2-9-3"
       y="1678.6013"
       x="880.10266"
       style="font-style:normal;font-variant:normal;font-weight:normal;font-stretch:normal;line-height:0%;font-family:Lavi;-inkscape-font-specification:Lavi;text-align:center;letter-spacing:0px;word-spacing:0px;text-anchor:middle;fill:#000000;fill-opacity:1;stroke:none"
       xml:space="preserve"><tspan
         y="1678.6013"
         x="880.10266"
         style="font-style:normal;font-variant:normal;font-weight:normal;font-stretch:normal;font-size:45px;line-height:1.25;font-family:Lavi;-inkscape-font-specification:Lavi;fill:#000000"
         sodipodi:role="line"
         id="tspan7970">Dovolj klepetanja,</tspan><tspan
         y="1734.8513"
         x="880.10266"
         style="font-style:normal;font-variant:normal;font-weight:normal;font-stretch:normal;font-size:45px;line-height:1.25;font-family:Lavi;-inkscape-font-specification:Lavi;fill:#000000"
         sodipodi:role="line"
         id="tspan61986">nahajamo se sredi</tspan><tspan
         y="1791.1013"
         x="880.10266"
         style="font-style:normal;font-variant:normal;font-weight:normal;font-stretch:normal;font-size:45px;line-height:1.25;font-family:Lavi;-inkscape-font-specification:Lavi;fill:#000000"
         sodipodi:role="line"
         id="tspan61988">bojnega polja.</tspan></text>
    <text
       id="text4246-4-2-7-3-5-2-2-6-7-2-9-3-2"
       y="1860.6285"
       x="877.28369"
       style="font-style:normal;font-variant:normal;font-weight:normal;font-stretch:normal;line-height:0%;font-family:Lavi;-inkscape-font-specification:Lavi;text-align:center;letter-spacing:0px;word-spacing:0px;text-anchor:middle;fill:#000000;fill-opacity:1;stroke:none"
       xml:space="preserve"><tspan
         y="1860.6285"
         x="877.28369"
         style="font-style:normal;font-variant:normal;font-weight:normal;font-stretch:normal;font-size:45px;line-height:1.25;font-family:Lavi;-inkscape-font-specification:Lavi;fill:#000000"
         sodipodi:role="line"
         id="tspan9110">O tem lahko govorimo</tspan><tspan
         y="1916.8785"
         x="877.28369"
         style="font-style:normal;font-variant:normal;font-weight:normal;font-stretch:normal;font-size:45px;line-height:1.25;font-family:Lavi;-inkscape-font-specification:Lavi;fill:#000000"
         sodipodi:role="line"
         id="tspan75460">med letenjem.</tspan></text>
    <text
       id="text4246-4-2-7-3-5-2-2-6-7-2-9-3-2-9"
       y="1992.5411"
       x="941.3606"
       style="font-style:normal;font-variant:normal;font-weight:normal;font-stretch:normal;line-height:0%;font-family:Lavi;-inkscape-font-specification:Lavi;text-align:center;letter-spacing:0px;word-spacing:0px;text-anchor:middle;fill:#000000;fill-opacity:1;stroke:none"
       xml:space="preserve"><tspan
         y="1992.5411"
         x="941.3606"
         style="font-style:normal;font-variant:normal;font-weight:normal;font-stretch:normal;font-size:45px;line-height:1.25;font-family:Lavi;-inkscape-font-specification:Lavi;fill:#000000"
         sodipodi:role="line"
         id="tspan184397-7">Prisedi, Pepper!</tspan></text>
    <text
       id="text4246-4-2-7-3-5-2-2-6-7-2-9-3-2-9-8"
       y="2332.7295"
       x="1582.4803"
       style="font-style:normal;font-variant:normal;font-weight:normal;font-stretch:normal;line-height:0%;font-family:Lavi;-inkscape-font-specification:Lavi;text-align:center;letter-spacing:0px;word-spacing:0px;text-anchor:middle;fill:#000000;fill-opacity:1;stroke:none"
       xml:space="preserve"><tspan
         y="2332.7295"
         x="1582.4803"
         style="font-style:normal;font-variant:normal;font-weight:normal;font-stretch:normal;font-size:45px;line-height:1.25;font-family:Lavi;-inkscape-font-specification:Lavi;fill:#000000"
         sodipodi:role="line"
         id="tspan189870">Torreya ima prav.</tspan></text>
    <text
       id="text4246-4-2-7-3-5-2-2-6-7-2-9-3-2-9-8-3"
       y="2411.9482"
       x="1600.494"
       style="font-style:normal;font-variant:normal;font-weight:normal;font-stretch:normal;line-height:0%;font-family:Lavi;-inkscape-font-specification:Lavi;text-align:center;letter-spacing:0px;word-spacing:0px;text-anchor:middle;fill:#000000;fill-opacity:1;stroke:none"
       xml:space="preserve"><tspan
         y="2411.9482"
         x="1600.494"
         style="font-style:normal;font-variant:normal;font-weight:normal;font-stretch:normal;font-size:45px;line-height:1.25;font-family:Lavi;-inkscape-font-specification:Lavi;fill:#000000"
         sodipodi:role="line"
         id="tspan97393">Moramo v</tspan><tspan
         y="2468.1982"
         x="1600.494"
         style="font-style:normal;font-variant:normal;font-weight:normal;font-stretch:normal;font-size:45px;line-height:1.25;font-family:Lavi;-inkscape-font-specification:Lavi;fill:#000000"
         sodipodi:role="line"
         id="tspan11708">Qualicity, ne glede</tspan><tspan
         y="2524.4482"
         x="1600.494"
         style="font-style:normal;font-variant:normal;font-weight:normal;font-stretch:normal;font-size:45px;line-height:1.25;font-family:Lavi;-inkscape-font-specification:Lavi;fill:#000000"
         sodipodi:role="line"
         id="tspan88708">na vse.</tspan></text>
    <text
       id="text4246-4-2-7-3-5-2-2-6-7-2-9-3-2-9-8-5"
       y="2464.9375"
       x="2133.2007"
       style="font-style:normal;font-variant:normal;font-weight:normal;font-stretch:normal;line-height:0%;font-family:Lavi;-inkscape-font-specification:Lavi;text-align:center;letter-spacing:0px;word-spacing:0px;text-anchor:middle;fill:#000000;fill-opacity:1;stroke:none"
       xml:space="preserve"><tspan
         y="2464.9375"
         x="2133.2007"
         style="font-style:normal;font-variant:normal;font-weight:normal;font-stretch:normal;font-size:45px;line-height:1.25;font-family:Lavi;-inkscape-font-specification:Lavi;fill:#000000"
         sodipodi:role="line"
         id="tspan11756">Samo</tspan><tspan
         y="2521.1875"
         x="2133.2007"
         style="font-style:normal;font-variant:normal;font-weight:normal;font-stretch:normal;font-size:45px;line-height:1.25;font-family:Lavi;-inkscape-font-specification:Lavi;fill:#000000"
         sodipodi:role="line"
         id="tspan82578">trenutek.</tspan></text>
    <text
       id="text4246-4-2-7-3-5-2-2-6-7-2-9-3-2-9-8-5-1"
       y="2788.8777"
       x="360.77002"
       style="font-style:normal;font-variant:normal;font-weight:normal;font-stretch:normal;line-height:0%;font-family:Lavi;-inkscape-font-specification:Lavi;text-align:center;letter-spacing:0px;word-spacing:0px;text-anchor:middle;fill:#000000;fill-opacity:1;stroke:none"
       xml:space="preserve"><tspan
         y="2788.8777"
         x="360.77002"
         style="font-style:normal;font-variant:normal;font-weight:normal;font-stretch:normal;font-size:45px;line-height:1.25;font-family:Lavi;-inkscape-font-specification:Lavi;fill:#000000"
         sodipodi:role="line"
         id="tspan13620">Wasabijina vojska</tspan><tspan
         y="2845.1277"
         x="360.77002"
         style="font-style:normal;font-variant:normal;font-weight:normal;font-stretch:normal;font-size:45px;line-height:1.25;font-family:Lavi;-inkscape-font-specification:Lavi;fill:#000000"
         sodipodi:role="line"
         id="tspan95090">gre v protinapad.</tspan></text>
    <text
       id="text4246-4-2-7-3-5-2-2-6-7-2-9-3-2-9-8-5-1-3"
       y="2929.7461"
       x="356.60092"
       style="font-style:normal;font-variant:normal;font-weight:normal;font-stretch:normal;line-height:0%;font-family:Lavi;-inkscape-font-specification:Lavi;text-align:center;letter-spacing:0px;word-spacing:0px;text-anchor:middle;fill:#000000;fill-opacity:1;stroke:none"
       xml:space="preserve"><tspan
         y="2929.7461"
         x="356.60092"
         style="font-style:normal;font-variant:normal;font-weight:normal;font-stretch:normal;font-size:45px;line-height:1.25;font-family:Lavi;-inkscape-font-specification:Lavi;fill:#000000"
         sodipodi:role="line"
         id="tspan15733">Ne moremo kar</tspan><tspan
         y="2985.9961"
         x="356.60092"
         style="font-style:normal;font-variant:normal;font-weight:normal;font-stretch:normal;font-size:45px;line-height:1.25;font-family:Lavi;-inkscape-font-specification:Lavi;fill:#000000"
         sodipodi:role="line"
         id="tspan92433">pustiti da se med</tspan><tspan
         y="3042.2461"
         x="356.60092"
         style="font-style:normal;font-variant:normal;font-weight:normal;font-stretch:normal;font-size:45px;line-height:1.25;font-family:Lavi;-inkscape-font-specification:Lavi;fill:#000000"
         sodipodi:role="line"
         id="tspan134231">seboj pobijejo.</tspan></text>
    <text
       id="text4246-4-2-7-3-5-2-2-6-7-2-9-3-2-9-8-5-1-3-6"
       y="2729.9871"
       x="1420.3344"
       style="font-style:normal;font-variant:normal;font-weight:normal;font-stretch:normal;line-height:0%;font-family:Lavi;-inkscape-font-specification:Lavi;text-align:center;letter-spacing:0px;word-spacing:0px;text-anchor:middle;fill:#000000;fill-opacity:1;stroke:none"
       xml:space="preserve"><tspan
         y="2729.9871"
         x="1420.3344"
         style="font-style:normal;font-variant:normal;font-weight:normal;font-stretch:normal;font-size:45px;line-height:1.25;font-family:Lavi;-inkscape-font-specification:Lavi;fill:#000000"
         sodipodi:role="line"
         id="tspan12211">Čutim da je moja</tspan><tspan
         y="2786.2371"
         x="1420.3344"
         style="font-style:normal;font-variant:normal;font-weight:normal;font-stretch:normal;font-size:45px;line-height:1.25;font-family:Lavi;-inkscape-font-specification:Lavi;fill:#000000"
         sodipodi:role="line"
         id="tspan99019">odgovornost da</tspan><tspan
         y="2842.4871"
         x="1420.3344"
         style="font-style:normal;font-variant:normal;font-weight:normal;font-stretch:normal;font-size:45px;line-height:1.25;font-family:Lavi;-inkscape-font-specification:Lavi;fill:#000000"
         sodipodi:role="line"
         id="tspan117143">zaključim to bitko!</tspan></text>
  </g>
</svg>
