<?xml version="1.0" encoding="UTF-8" standalone="no"?>
<!-- Created with Inkscape (http://www.inkscape.org/) -->

<svg
   xmlns:dc="http://purl.org/dc/elements/1.1/"
   xmlns:cc="http://creativecommons.org/ns#"
   xmlns:rdf="http://www.w3.org/1999/02/22-rdf-syntax-ns#"
   xmlns:svg="http://www.w3.org/2000/svg"
   xmlns="http://www.w3.org/2000/svg"
   xmlns:xlink="http://www.w3.org/1999/xlink"
   xmlns:sodipodi="http://sodipodi.sourceforge.net/DTD/sodipodi-0.dtd"
   xmlns:inkscape="http://www.inkscape.org/namespaces/inkscape"
   id="svg2"
   version="1.1"
   inkscape:version="0.91 r13725"
   width="2481"
   height="3503"
   sodipodi:docname="Pepper-and-Carrot_by-David-Revoy_E01P01.svg"
   enable-background="new">
  <metadata
     id="metadata8">
    <rdf:RDF>
      <cc:Work
         rdf:about="">
        <dc:format>image/svg+xml</dc:format>
        <dc:type
           rdf:resource="http://purl.org/dc/dcmitype/StillImage" />
        <dc:title />
      </cc:Work>
    </rdf:RDF>
  </metadata>
  <defs
     id="defs6">
    <filter
       inkscape:collect="always"
       id="filter4386">
      <feBlend
         inkscape:collect="always"
         mode="screen"
         in2="BackgroundImage"
         id="feBlend4388" />
    </filter>
  </defs>
  <sodipodi:namedview
     pagecolor="#ffffff"
     bordercolor="#666666"
     borderopacity="1"
     objecttolerance="10"
     gridtolerance="10"
     guidetolerance="10"
     inkscape:pageopacity="0"
     inkscape:pageshadow="2"
     inkscape:window-width="1366"
     inkscape:window-height="705"
     id="namedview4"
     showgrid="false"
     inkscape:zoom="0.44204852"
     inkscape:cx="1242.9319"
     inkscape:cy="600.10877"
     inkscape:window-x="-8"
     inkscape:window-y="-8"
     inkscape:window-maximized="1"
     inkscape:current-layer="layer3"
     inkscape:snap-global="false">
    <inkscape:grid
       type="xygrid"
       id="grid4282" />
  </sodipodi:namedview>
  <flowRoot
     xml:space="preserve"
     id="flowRoot2987"
     style="font-style:normal;font-variant:normal;font-weight:normal;font-stretch:normal;font-size:8.52000046px;line-height:125%;font-family:Lavi;-inkscape-font-specification:Lavi;letter-spacing:0px;word-spacing:0px;fill:#000000;fill-opacity:1;stroke:none;stroke-width:1px;stroke-linecap:butt;stroke-linejoin:miter;stroke-opacity:1"
     transform="translate(115.9055,-3836.3941)"><flowRegion
       id="flowRegion2989"><rect
         id="rect2991"
         width="721.75812"
         height="55.156185"
         x="723.17682"
         y="3883.7747"
         style="font-style:normal;font-variant:normal;font-weight:normal;font-stretch:normal;font-family:Lavi;-inkscape-font-specification:Lavi" /></flowRegion><flowPara
       id="flowPara2993" /></flowRoot>  <g
     inkscape:groupmode="layer"
     id="layer1"
     inkscape:label="artwork"
     style="display:inline"
     sodipodi:insensitive="true">
    <image
       sodipodi:absref="G:\Pepper And Carrot\Translation\peppercarrot_ep01_translation-master\el\..\gfx_Pepper-and-Carrot_by-David-Revoy_E01P01.png"
       xlink:href="../gfx_Pepper-and-Carrot_by-David-Revoy_E01P01.png"
       width="2481"
       height="3503"
       id="image3084"
       x="0"
       y="0" />
  </g>
  <g
     inkscape:groupmode="layer"
     id="layer2"
     inkscape:label="speechbubble"
     style="opacity:0.70232556;display:inline">
    <path
       style="fill:#dfffd4;fill-opacity:1;stroke:none"
       d="m 1057.308,302.60198 c 0,-34.7181 33.763,-82.7108 199.3626,-84.753 165.5996,-2.0423 223.4791,42.8871 225.0868,79.6474 1.6077,36.7604 -78.7804,75.563 -204.1859,72.4996 -125.4054,-3.0634 -217.0481,-15.3168 -220.2635,-67.394 z"
       id="path3071"
       inkscape:connector-curvature="0"
       sodipodi:nodetypes="csssc" />
    <path
       style="color:#000000;display:inline;overflow:visible;visibility:visible;fill:#dfffd4;fill-opacity:1;fill-rule:nonzero;stroke:none;stroke-width:1px;marker:none;enable-background:accumulate"
       d="m 1300.3447,347.32718 c 0,0 16.2155,4.7664 29.7286,17.874 13.513,13.1076 67.565,39.3228 55.4033,103.6691 20.2695,-71.4959 -20.2694,-95.3279 -28.3773,-107.2439 -8.1079,-11.916 -22.9722,-32.1732 -22.9722,-32.1732 z"
       id="path3073"
       inkscape:connector-curvature="0"
       sodipodi:nodetypes="cscscc" />
    <path
       style="color:#000000;display:inline;overflow:visible;visibility:visible;fill:#dfffd4;fill-opacity:1;fill-rule:nonzero;stroke:none;stroke-width:1px;marker:none;enable-background:accumulate"
       d="m 1093.4909,1440.7765 c -1.6861,-60.0668 119.7114,-136.748 204.0152,-129.0798 84.3038,7.668 170.2937,61.3448 185.4684,100.9634 15.1747,39.6186 67.4429,113.7436 -183.7823,129.0798 -87.6761,3.8341 -212.4456,-40.8965 -205.7013,-100.9634 z"
       id="path3097"
       inkscape:connector-curvature="0"
       sodipodi:nodetypes="csscc" />
    <path
       style="color:#000000;display:inline;overflow:visible;visibility:visible;fill:#dfffd4;fill-opacity:1;fill-rule:nonzero;stroke:none;stroke-width:1px;marker:none;enable-background:accumulate"
       d="m 1412.2063,1504.1821 c 15.0738,38.3695 24.6661,42.4806 49.3323,43.8509 9.5924,-1.3703 20.5551,6.8517 17.8144,21.9254 16.4441,-23.2957 -6.813,-31.5255 -17.7758,-37.0068 -10.9627,-5.4815 -16.5523,-6.1473 -22.0337,-33.5541 -5.4814,-27.4068 -27.3372,4.7846 -27.3372,4.7846 z"
       id="path3105"
       inkscape:connector-curvature="0"
       sodipodi:nodetypes="cccssc" />
    <flowRoot
       xml:space="preserve"
       id="flowRoot3115"
       style="font-style:normal;font-weight:normal;font-size:40px;line-height:125%;font-family:Sans;letter-spacing:0px;word-spacing:0px;fill:#000000;fill-opacity:1;stroke:none"
       transform="matrix(0.71,0,0,0.71,243.39553,-267.67143)"><flowRegion
         id="flowRegion3117"><rect
           id="rect3119"
           width="639.91162"
           height="234.82996"
           x="419.75854"
           y="1171.8798" /></flowRegion><flowPara
         id="flowPara3121" /></flowRoot>    <text
       xml:space="preserve"
       style="font-style:normal;font-variant:normal;font-weight:normal;font-stretch:expanded;font-size:53.25px;line-height:100%;font-family:Pecita;-inkscape-font-specification:'Pecita Expanded';text-align:center;letter-spacing:0px;word-spacing:0px;writing-mode:lr-tb;text-anchor:middle;fill:#000000;fill-opacity:1;stroke:none"
       x="1758.5477"
       y="3716.5884"
       id="text3937"
       sodipodi:linespacing="100%"><tspan
         sodipodi:role="line"
         id="tspan3939"
         x="1758.5477"
         y="3716.5884" /></text>
    <text
       xml:space="preserve"
       style="font-style:normal;font-variant:normal;font-weight:normal;font-stretch:expanded;font-size:53.25px;line-height:100%;font-family:Pecita;-inkscape-font-specification:'Pecita Expanded';text-align:center;letter-spacing:0px;word-spacing:0px;writing-mode:lr-tb;text-anchor:middle;fill:#000000;fill-opacity:1;stroke:none"
       x="1913.8259"
       y="3550.5322"
       id="text3971"
       sodipodi:linespacing="100%"><tspan
         sodipodi:role="line"
         id="tspan3973"
         x="1913.8259"
         y="3550.5322" /></text>
  </g>
  <g
     inkscape:groupmode="layer"
     id="layer3"
     inkscape:label="txt"
     style="display:inline;opacity:1">
    <flowRoot
       xml:space="preserve"
       id="flowRoot4133"
       style="font-style:normal;font-variant:normal;font-weight:normal;font-stretch:normal;font-size:12px;line-height:125%;font-family:Arial;-inkscape-font-specification:Arial;letter-spacing:0.00204969px;word-spacing:0px;display:inline;fill:#d0a273;fill-opacity:1;stroke:#d0a273;stroke-width:1;stroke-opacity:1"
       transform="matrix(2.5383209,-2.080859,0.65725432,4.9138947,-2501.4472,-2326.8374)"><flowRegion
         id="flowRegion4135"
         style="stroke-width:1"><rect
           id="rect4137"
           width="122.07606"
           height="106.53911"
           x="1125.3193"
           y="1078.5308"
           style="letter-spacing:0.00204969px;fill:#d0a273;fill-opacity:1;stroke:#d0a273;stroke-width:1;stroke-opacity:1" /></flowRegion><flowPara
         id="flowPara4139"
         style="font-style:normal;font-variant:normal;font-weight:normal;font-stretch:normal;font-size:12.21404076px;line-height:125%;font-family:FreeSans;-inkscape-font-specification:FreeSans;text-align:start;letter-spacing:0.00204969px;word-spacing:0.00204969px;writing-mode:lr-tb;text-anchor:start;fill:#d0a273;fill-opacity:1;stroke:#d0a273;stroke-width:1.06872857;stroke-miterlimit:4;stroke-dasharray:none;stroke-opacity:1">σσς</flowPara></flowRoot>    <flowRoot
       xml:space="preserve"
       id="flowRoot4133-6"
       style="font-style:normal;font-variant:normal;font-weight:normal;font-stretch:normal;font-size:12px;line-height:125%;font-family:Arial;-inkscape-font-specification:Arial;letter-spacing:0.00204969px;word-spacing:0px;display:inline;fill:#d0a273;fill-opacity:1;stroke:#d0a273;stroke-width:1.16579425;stroke-opacity:1"
       transform="matrix(2.0707435,-1.7739035,0.50514841,4.4852558,-1741.098,-2237.6281)"><flowRegion
         id="flowRegion4135-2"
         style="stroke-width:1.16579425"><rect
           id="rect4137-1"
           width="122.07606"
           height="106.53911"
           x="1125.3193"
           y="1078.5308"
           style="letter-spacing:0.00204969px;fill:#d0a273;fill-opacity:1;stroke:#d0a273;stroke-width:1.16579425;stroke-opacity:1" /></flowRegion><flowPara
         id="flowPara4139-2"
         style="font-style:normal;font-variant:normal;font-weight:normal;font-stretch:normal;font-size:12.45917606px;line-height:125%;font-family:FreeSans;-inkscape-font-specification:FreeSans;text-align:start;letter-spacing:0.00204969px;word-spacing:0.00204969px;writing-mode:lr-tb;text-anchor:start;fill:#d0a273;fill-opacity:1;stroke:#d0a273;stroke-width:1.24591756;stroke-miterlimit:4;stroke-dasharray:none;stroke-opacity:1">σσς</flowPara></flowRoot>    <flowRoot
       xml:space="preserve"
       id="flowRoot4133-6-9"
       style="font-style:normal;font-variant:normal;font-weight:normal;font-stretch:expanded;font-size:11.99996185px;line-height:125%;font-family:Pecita;-inkscape-font-specification:'Pecita, Expanded';text-align:start;letter-spacing:0.00204969px;word-spacing:0px;writing-mode:lr-tb;text-anchor:start;display:inline;fill:#daa761;fill-opacity:1;stroke:#daa761;stroke-width:1.08239222;stroke-miterlimit:4;stroke-dasharray:none;stroke-opacity:1"
       transform="matrix(3.6577871,0.45174194,-1.6752829,5.9861697,-905.3262,-3998.2552)"><flowRegion
         id="flowRegion4135-2-9"
         style="stroke-width:1.01278496"><rect
           id="rect4137-1-7"
           width="51.856533"
           height="24.039366"
           x="1125.3193"
           y="1078.5308"
           style="font-style:normal;font-variant:normal;font-weight:normal;font-stretch:expanded;font-size:11.99996185px;line-height:125%;font-family:Pecita;-inkscape-font-specification:'Pecita, Expanded';text-align:start;letter-spacing:0.00204969px;writing-mode:lr-tb;text-anchor:start;fill:#daa761;fill-opacity:1;stroke:#daa761;stroke-width:1.08239222;stroke-miterlimit:4;stroke-dasharray:none;stroke-opacity:1" /></flowRegion><flowPara
         id="flowPara4139-2-8"
         style="font-style:normal;font-variant:normal;font-weight:normal;font-stretch:expanded;font-size:11.99996185px;line-height:125%;font-family:Pecita;-inkscape-font-specification:'Pecita, Expanded';text-align:start;letter-spacing:0.00204969px;word-spacing:0.00204969px;writing-mode:lr-tb;text-anchor:start;fill:#daa761;fill-opacity:1;stroke:#daa761;stroke-width:1.08239222;stroke-miterlimit:4;stroke-dasharray:none;stroke-opacity:1"><flowSpan
   style="font-size:9.19212385px"
   id="flowSpan3396"><flowSpan
   style="font-size:11.81844495px"
   id="flowSpan3398">Μ</flowSpan>Π</flowSpan><flowSpan
   style="font-size:7.8789633px"
   id="flowSpan3394">ΛΟ</flowSpan><flowSpan
   style="font-size:9.19212385px"
   id="flowSpan3392">Υ</flowSpan>Π</flowPara></flowRoot>    <text
       xml:space="preserve"
       style="font-style:normal;font-variant:normal;font-weight:normal;font-stretch:expanded;font-size:53.25px;line-height:100%;font-family:Pecita;-inkscape-font-specification:'Pecita Expanded';text-align:center;letter-spacing:0px;word-spacing:0px;writing-mode:lr-tb;text-anchor:middle;fill:#000000;fill-opacity:1;stroke:none"
       x="1266.3336"
       y="293.81778"
       id="text3129"
       sodipodi:linespacing="100%"><tspan
         sodipodi:role="line"
         id="tspan3131"
         x="1266.3336"
         y="293.81778"
         style="font-style:normal;font-variant:normal;font-weight:normal;font-stretch:expanded;font-size:53.25px;line-height:100%;font-family:Pecita;-inkscape-font-specification:'Pecita Expanded';text-align:center;writing-mode:lr-tb;text-anchor:middle;fill:#3c4036;fill-opacity:1">Kαι... η τελευταία</tspan><tspan
         sodipodi:role="line"
         x="1266.3336"
         y="347.06778"
         id="tspan3133"
         style="font-style:normal;font-variant:normal;font-weight:normal;font-stretch:expanded;font-size:53.25px;line-height:100%;font-family:Pecita;-inkscape-font-specification:'Pecita Expanded';text-align:center;writing-mode:lr-tb;text-anchor:middle;fill:#3c4036;fill-opacity:1">πινελιά</tspan></text>
    <text
       xml:space="preserve"
       style="font-style:normal;font-variant:normal;font-weight:normal;font-stretch:expanded;font-size:53.25px;line-height:100%;font-family:Pecita;-inkscape-font-specification:'Pecita Expanded';text-align:center;letter-spacing:0px;word-spacing:0px;writing-mode:lr-tb;text-anchor:middle;opacity:0.98999999;fill:#000000;fill-opacity:1;stroke:none"
       x="1294.531"
       y="1379.9908"
       id="text3905"
       sodipodi:linespacing="100%"><tspan
         sodipodi:role="line"
         id="tspan3907"
         x="1294.531"
         y="1379.9908"
         style="fill:#3c4036;fill-opacity:1">...Μμμ</tspan><tspan
         sodipodi:role="line"
         x="1307.0635"
         y="1433.2408"
         id="tspan3909"
         style="fill:#3c4036;fill-opacity:1">μάλλον δεν ειναι </tspan><tspan
         sodipodi:role="line"
         x="1294.531"
         y="1486.4908"
         id="tspan3911"
         style="fill:#3c4036;fill-opacity:1">αρκετά δυνατό</tspan></text>
    <flowRoot
       xml:space="preserve"
       id="flowRoot3913"
       style="font-style:normal;font-variant:normal;font-weight:normal;font-stretch:expanded;font-size:75px;line-height:100%;font-family:Pecita;-inkscape-font-specification:'Pecita Expanded';text-align:center;letter-spacing:0px;word-spacing:0px;writing-mode:lr-tb;text-anchor:middle;fill:#000000;fill-opacity:1;stroke:none"
       transform="matrix(0.71,0,0,0.71,243.39553,-267.67143)"><flowRegion
         id="flowRegion3915"><rect
           id="rect3917"
           width="512.22278"
           height="218.68506"
           x="1203.5035"
           y="2277.0483" /></flowRegion><flowPara
         id="flowPara3919" /></flowRoot>    <flowRoot
       xml:space="preserve"
       id="flowRoot3921"
       style="font-style:normal;font-variant:normal;font-weight:normal;font-stretch:expanded;font-size:75px;line-height:100%;font-family:Pecita;-inkscape-font-specification:'Pecita Expanded';text-align:center;letter-spacing:0px;word-spacing:0px;writing-mode:lr-tb;text-anchor:middle;fill:#000000;fill-opacity:1;stroke:none"
       transform="matrix(0.71,0,0,0.71,243.39553,-267.67143)"><flowRegion
         id="flowRegion3923"><rect
           id="rect3925"
           width="290.60208"
           height="211.34695"
           x="1458.8811"
           y="2326.9497" /></flowRegion><flowPara
         id="flowPara3927" /></flowRoot>    <flowRoot
       xml:space="preserve"
       id="flowRoot3929"
       style="font-style:normal;font-variant:normal;font-weight:normal;font-stretch:expanded;font-size:75px;line-height:100%;font-family:Pecita;-inkscape-font-specification:'Pecita Expanded';text-align:center;letter-spacing:0px;word-spacing:0px;writing-mode:lr-tb;text-anchor:middle;fill:#000000;fill-opacity:1;stroke:none"
       transform="matrix(0.71,0,0,0.71,243.39553,-267.67143)"><flowRegion
         id="flowRegion3931"><rect
           id="rect3933"
           width="579.73645"
           height="306.74643"
           x="1169.7467"
           y="2233.0178" /></flowRegion><flowPara
         id="flowPara3935" /></flowRoot>    <text
       xml:space="preserve"
       style="font-style:normal;font-variant:normal;font-weight:normal;font-stretch:expanded;font-size:53.25px;line-height:100%;font-family:Pecita;-inkscape-font-specification:'Pecita Expanded';text-align:center;letter-spacing:0px;word-spacing:0px;writing-mode:lr-tb;text-anchor:middle;fill:#000000;fill-opacity:1;stroke:none"
       x="521.9234"
       y="7354.8696"
       id="text4023"
       sodipodi:linespacing="100%"><tspan
         sodipodi:role="line"
         id="tspan4025"
         x="521.9234"
         y="7354.8696" /></text>
    <flowRoot
       xml:space="preserve"
       id="flowRoot4133-6-9-6"
       style="font-style:normal;font-variant:normal;font-weight:normal;font-stretch:normal;font-size:12px;line-height:125%;font-family:Arial;-inkscape-font-specification:Arial;letter-spacing:0.00204969px;word-spacing:0px;display:inline;fill:#daa761;fill-opacity:1;stroke:#daa761;stroke-width:1.08239222;stroke-miterlimit:4;stroke-dasharray:none;stroke-opacity:1"
       transform="matrix(3.3142769,-1.6522339,2.5792918,6.1597571,-5596.71,-1770.5508)"><flowRegion
         id="flowRegion4135-2-9-2"
         style="stroke-width:1.01278496"><rect
           id="rect4137-1-7-0"
           width="65.484375"
           height="22.381136"
           x="1125.3193"
           y="1078.5308"
           style="letter-spacing:0.00204969px;fill:#daa761;fill-opacity:1;stroke:#daa761;stroke-width:1.08239222;stroke-miterlimit:4;stroke-dasharray:none;stroke-opacity:1" /></flowRegion><flowPara
         id="flowPara4139-2-8-4"
         style="font-style:normal;font-variant:normal;font-weight:normal;font-stretch:expanded;font-size:11.99996185px;line-height:125%;font-family:Pecita;-inkscape-font-specification:'Pecita, Expanded';text-align:start;letter-spacing:0.00204969px;word-spacing:0.00204969px;writing-mode:lr-tb;text-anchor:start;fill:#daa761;fill-opacity:1;stroke:#daa761;stroke-width:1.08239222;stroke-miterlimit:4;stroke-dasharray:none;stroke-opacity:1">Μ<flowSpan
   style="font-size:9.56202268px"
   id="flowSpan3400">Π<flowSpan
   style="font-size:8.3038618px"
   id="flowSpan3404">Λ</flowSpan>ΟΥ</flowSpan>Π</flowPara></flowRoot>  </g>
</svg>
