<?xml version="1.0" encoding="UTF-8" standalone="no"?>
<!-- Created with Inkscape (http://www.inkscape.org/) -->

<svg
   xmlns:dc="http://purl.org/dc/elements/1.1/"
   xmlns:cc="http://creativecommons.org/ns#"
   xmlns:rdf="http://www.w3.org/1999/02/22-rdf-syntax-ns#"
   xmlns:svg="http://www.w3.org/2000/svg"
   xmlns="http://www.w3.org/2000/svg"
   xmlns:xlink="http://www.w3.org/1999/xlink"
   xmlns:sodipodi="http://sodipodi.sourceforge.net/DTD/sodipodi-0.dtd"
   xmlns:inkscape="http://www.inkscape.org/namespaces/inkscape"
   id="svg2"
   version="1.1"
   inkscape:version="0.92.2 (5c3e80d, 2017-08-06)"
   width="2481"
   height="3503"
   sodipodi:docname="E21P02.svg"
   inkscape:export-filename="E:\Users\jamesmichael\Downloads\Compressed\eps\ep21_The-Magic-Contest_lang-pack\lang\ph\E21P02.png"
   inkscape:export-xdpi="96"
   inkscape:export-ydpi="96">
  <sodipodi:namedview
     pagecolor="#ffffff"
     bordercolor="#666666"
     inkscape:pageopacity="0"
     inkscape:pageshadow="2"
     inkscape:window-width="1813"
     inkscape:window-height="955"
     id="namedview70"
     showgrid="false"
     inkscape:zoom="0.28284271"
     inkscape:cx="1412.4623"
     inkscape:cy="678.33671"
     inkscape:current-layer="layer1"
     inkscape:snap-grids="false"
     inkscape:snap-to-guides="false" />
  <metadata
     id="metadata8">
    <rdf:RDF>
      <cc:Work
         rdf:about="">
        <dc:format>image/svg+xml</dc:format>
        <dc:type
           rdf:resource="http://purl.org/dc/dcmitype/StillImage" />
        <dc:title />
      </cc:Work>
    </rdf:RDF>
  </metadata>
  <defs
     id="defs6">
    <filter
       style="color-interpolation-filters:sRGB"
       id="filter4375-4-1-1-1-9"
       inkscape:label="deevad outline effect">
      <feFlood
         id="feFlood4377-7-9-0-8-1"
         flood-opacity="1"
         flood-color="rgb(0,0,0)"
         result="flood" />
      <feComposite
         id="feComposite4379-3-8-8-2-77"
         in2="SourceGraphic"
         in="flood"
         operator="in"
         result="composite1" />
      <feMorphology
         id="feMorphology4393-1-0-49-8-9"
         operator="dilate"
         radius="4"
         result="result3" />
      <feComposite
         id="feComposite4385-9-5-7-0-8"
         in2="result3"
         in="SourceGraphic"
         operator="over"
         result="composite2" />
    </filter>
    <filter
       inkscape:collect="always"
       style="color-interpolation-filters:sRGB"
       id="filter4210"
       x="-0.0015578248"
       width="1.0031157"
       y="-0.0045528179"
       height="1.0091056">
      <feGaussianBlur
         inkscape:collect="always"
         stdDeviation="0.2079876"
         id="feGaussianBlur4212" />
    </filter>
    <filter
       inkscape:collect="always"
       style="color-interpolation-filters:sRGB"
       id="filter4218"
       x="-0.0015404148"
       width="1.0030808"
       y="-0.0047074384"
       height="1.0094149">
      <feGaussianBlur
         inkscape:collect="always"
         stdDeviation="0.19873465"
         id="feGaussianBlur4220" />
    </filter>
    <filter
       inkscape:collect="always"
       style="color-interpolation-filters:sRGB"
       id="filter4202"
       x="-0.0016505915"
       width="1.0033011"
       y="-0.0039833132"
       height="1.0079666">
      <feGaussianBlur
         inkscape:collect="always"
         stdDeviation="0.11736083"
         id="feGaussianBlur4204" />
    </filter>
    <filter
       inkscape:collect="always"
       style="color-interpolation-filters:sRGB"
       id="filter4202-2"
       x="-0.0016505915"
       width="1.0033011"
       y="-0.0039833132"
       height="1.0079666">
      <feGaussianBlur
         inkscape:collect="always"
         stdDeviation="0.11736083"
         id="feGaussianBlur4204-9" />
    </filter>
    <filter
       inkscape:collect="always"
       style="color-interpolation-filters:sRGB"
       id="filter4325"
       x="-0.003899595"
       width="1.0077991"
       y="-0.012803033"
       height="1.0256062">
      <feGaussianBlur
         inkscape:collect="always"
         stdDeviation="0.3730953"
         id="feGaussianBlur4327" />
    </filter>
    <filter
       inkscape:collect="always"
       style="color-interpolation-filters:sRGB"
       id="filter4369"
       x="-0.0062486199"
       width="1.0124972"
       y="-0.023161722"
       height="1.0463234">
      <feGaussianBlur
         inkscape:collect="always"
         stdDeviation="0.69985892"
         id="feGaussianBlur4371" />
    </filter>
    <filter
       inkscape:collect="always"
       style="color-interpolation-filters:sRGB"
       id="filter4369-7"
       x="-0.0062486199"
       width="1.0124972"
       y="-0.023161722"
       height="1.0463234">
      <feGaussianBlur
         inkscape:collect="always"
         stdDeviation="0.69985892"
         id="feGaussianBlur4371-9" />
    </filter>
    <filter
       inkscape:collect="always"
       style="color-interpolation-filters:sRGB"
       id="filter5074"
       x="-0.0062617821"
       width="1.0125236"
       y="-0.0038915393"
       height="1.0077831">
      <feGaussianBlur
         inkscape:collect="always"
         stdDeviation="1.0452523"
         id="feGaussianBlur5076" />
    </filter>
    <clipPath
       clipPathUnits="userSpaceOnUse"
       id="clipPath5095">
      <path
         sodipodi:nodetypes="cssssssc"
         inkscape:connector-curvature="0"
         id="path5097"
         d="m 2093.7384,358.27116 c 74.3038,5.0267 137.8852,38.5055 151.8281,76.9743 13.9429,38.4689 8.1668,358.1608 -8.7902,382.6978 -16.9571,24.5368 -28.7626,61.88704 -156.113,53.8458 -127.3505,-8.0413 -156.7437,-53.47606 -161.9752,-99.3758 -0.5692,-4.99442 -1.2463,-12.96254 -1.9356,-23.23889 -5.6459,-84.16525 -12.118,-323.16457 33.0308,-351.39011 28.3417,-17.71831 60.8236,-39.5277 143.9551,-39.5131 z"
         style="color:#000000;display:inline;overflow:visible;visibility:visible;opacity:1;fill:#f5f6ee;fill-opacity:1;fill-rule:nonzero;stroke:none;stroke-width:1.2460798px;marker:none;enable-background:accumulate" />
    </clipPath>
    <filter
       inkscape:collect="always"
       style="color-interpolation-filters:sRGB"
       id="filter5396"
       x="-0.0071170211"
       width="1.014234"
       y="-0.0072849367"
       height="1.0145699">
      <feGaussianBlur
         inkscape:collect="always"
         stdDeviation="1.556601"
         id="feGaussianBlur5398" />
    </filter>
    <clipPath
       clipPathUnits="userSpaceOnUse"
       id="clipPath5429">
      <path
         clip-path="none"
         sodipodi:nodetypes="cssssc"
         inkscape:connector-curvature="0"
         id="path5431"
         d="m 1305.8415,1991.8275 c 5.9837,-106.9288 56.1726,-181.4937 182.5047,-151.175 67.6702,16.2401 144.6074,29.4975 136.6291,186.2035 -7.9784,156.7061 -128.9304,160.6821 -151.8681,162.5257 -22.9379,1.8439 -135.8772,-7.2843 -155.7029,-62.394 -12.4105,-34.4976 -12.5601,-101.9751 -11.5628,-135.1602 z"
         style="color:#000000;display:inline;overflow:visible;visibility:visible;opacity:1;fill:#ffffff;fill-opacity:1;fill-rule:nonzero;stroke:none;stroke-width:1.20067358px;marker:none;enable-background:accumulate" />
    </clipPath>
  </defs>
  <sodipodi:namedview
     pagecolor="#ffffff"
     bordercolor="#666666"
     borderopacity="1"
     objecttolerance="10"
     gridtolerance="10"
     guidetolerance="10"
     inkscape:pageopacity="0"
     inkscape:pageshadow="2"
     inkscape:window-width="1920"
     inkscape:window-height="1025"
     id="namedview4"
     showgrid="false"
     inkscape:zoom="1.1172693"
     inkscape:cx="1252.2428"
     inkscape:cy="2693.0536"
     inkscape:window-x="0"
     inkscape:window-y="26"
     inkscape:window-maximized="1"
     inkscape:current-layer="layer1" />
  <g
     inkscape:groupmode="layer"
     id="layer2"
     inkscape:label="artwork"
     sodipodi:insensitive="true">
    <image
       sodipodi:absref="E:\Users\jamesmichael\Downloads\Compressed\eps\ep21_The-Magic-Contest_lang-pack\lang\ph\../gfx_Pepper-and-Carrot_by-David-Revoy_E21P02.png"
       xlink:href="../gfx_Pepper-and-Carrot_by-David-Revoy_E21P02.png"
       width="2481"
       height="3503"
       id="image10"
       x="0"
       y="0" />
  </g>
  <g
     inkscape:groupmode="layer"
     id="layer3"
     inkscape:label="speechbubbles"
     style="display:inline">
    <path
       style="color:#000000;display:inline;overflow:visible;visibility:visible;fill:#ffffff;fill-opacity:1;fill-rule:nonzero;stroke:none;stroke-width:1.09165311px;marker:none;enable-background:accumulate"
       d="m 273.45876,579.80406 c 5.14371,-134.97062 29.16458,-213.23619 137.76127,-189.96114 58.17025,12.46727 143.42862,-1.13958 136.57037,196.56979 -6.85831,197.70912 -111.01569,180.30701 -130.7333,185.30845 -19.71761,5.00163 -112.83927,0.41823 -129.88171,-66.46109 -10.66817,-41.86462 -14.57391,-83.66911 -13.71663,-125.45601 z"
       id="path4546-6"
       inkscape:connector-curvature="0"
       sodipodi:nodetypes="cssssc" />
    <path
       style="color:#000000;display:inline;overflow:visible;visibility:visible;opacity:1;fill:#f5f6ee;fill-opacity:1;fill-rule:nonzero;stroke:none;stroke-width:1.51246238px;marker:none;enable-background:accumulate;filter:url(#filter5074)"
       d="m 2105.0377,289.43468 c 87.3923,6.29649 162.1735,48.23231 178.5724,96.41865 16.399,48.18647 9.6054,448.63521 -10.3386,479.37046 -19.944,30.735 -33.829,77.52029 -183.612,67.4477 -64.4665,-4.33524 -96.1134,-22.71777 -113.9906,-46.77627 0,0 2.0545,-9.95244 1.0015,-15.67345 -5.0765,-27.58109 -17.9269,-50.53279 -25.3687,-74.84555 -1.8415,-6.01627 -18.2596,-48.94067 -27.4673,-51.64825 -8.0306,-2.36146 -14.3167,4.61302 -28.5246,6.86745 -3.8005,-79.06357 -6.2231,-213.60073 5.6073,-308.02621 24.2109,-7.50949 59.1454,-28.53891 73.699,-43.53601 52.327,-49.15691 35.2657,-71.44442 39.4128,-101.32496 23.9459,-4.70478 52.089,-8.28084 91.0088,-8.27356 z"
       id="path4010-7"
       inkscape:connector-curvature="0"
       sodipodi:nodetypes="cssscsssccccc"
       clip-path="url(#clipPath5095)" />
    <path
       style="color:#000000;display:inline;overflow:visible;visibility:visible;fill:#ffffff;fill-opacity:1;fill-rule:nonzero;stroke:none;stroke-width:1.29077947px;marker:none;enable-background:accumulate"
       d="m 565.76176,417.02727 c -3.03091,20.95982 -7.12545,33.25164 -19.77758,47.63706 -3.72353,3.96727 -7.98857,7.66322 -13.46735,9.45569 -6.70756,0.27229 -14.63728,-5.19748 -20.00922,-11.76608 -8.23373,-9.17727 -14.28699,-20.92732 -24.84188,-27.6647 -7.72906,-4.75043 -14.09118,-2.16728 -19.83826,-0.60907 -14.4376,4.32514 -27.46335,11.10341 -43.5895,12.54634 -17.52023,2.9806 -36.7506,4.61139 -57.86187,-3.35281 -8.35821,-3.28317 -17.12368,-7.81095 -24.26422,-15.09789 -18.86457,-18.14726 21.91294,34.67584 24.26422,15.09789 2.84068,-11.80649 -14.20124,-9.43614 0,0 7.52715,4.88958 13.31436,10.2905 15.84345,17.80649 7.04811,13.99438 -1.4556,-56.00499 12.27181,-50.03921 11.32411,5.09336 22.68255,6.89802 32.48367,5.70384 15.34709,2.46889 24.93501,-6.16333 36.04068,-11.1469 5.14373,-2.17797 -21.7753,61.36442 -14.97153,62.61322 10.26583,4.15298 50.43241,-50.55021 55.94143,-41.14884 5.88629,9.64419 11.83362,21.08679 22.23431,27.10468 7.0412,5.0052 10.94758,-0.61888 15.28202,-2.61229 10.51551,-6.34777 16.30185,-14.94646 24.25979,-34.52739 z"
       id="path4496"
       inkscape:connector-curvature="0"
       sodipodi:nodetypes="ccccccccccccccccccccc" />
    <path
       style="color:#000000;display:inline;overflow:visible;visibility:visible;fill:#f5f6ee;fill-opacity:1;fill-rule:nonzero;stroke:none;stroke-width:0.67849731px;marker:none;enable-background:accumulate"
       d="m 1864.5603,666.88136 c 107.7547,83.13562 132.5328,2.3596 119.4319,-73.28618 -13.1006,-75.64577 -26.568,-55.70506 -26.568,-55.70506 l -2.3159,18.8549 c 2.0024,-17.14489 9.7027,135.31934 -90.548,110.13634 z"
       id="path3541"
       inkscape:connector-curvature="0"
       sodipodi:nodetypes="csccc" />
    <path
       sodipodi:nodetypes="ccsccccc"
       inkscape:connector-curvature="0"
       id="path5349"
       d="m 1098.2215,2032.6191 c 7.4596,-108.9034 45.7906,-197.0992 138.2076,-235.4375 36.5512,65.6964 38.5194,80.83 82.5379,78.4077 147.124,-8.0964 169.3792,-34.9368 202.993,-74.2251 24.7324,-24.595 101.0557,27.1509 101.0557,27.1509 l -1.7193,469.8363 -502.3735,9.1996 c 0,0 -22.6805,-221.1333 -20.7014,-274.9319 z"
       style="color:#000000;display:inline;overflow:visible;visibility:visible;opacity:1;fill:#ffffff;fill-opacity:1;fill-rule:nonzero;stroke:none;stroke-width:2.15355015px;marker:none;filter:url(#filter5396);enable-background:accumulate"
       clip-path="url(#clipPath5429)" />
    <path
       style="color:#000000;display:inline;overflow:visible;visibility:visible;fill:#ffffff;fill-opacity:1;fill-rule:nonzero;stroke:none;stroke-width:1px;marker:none;enable-background:accumulate"
       d="m 1296.3269,1924.4356 c -13.3191,71.4578 0.7546,67.2408 9.5146,67.3919 5.0185,-9.4032 14.4331,-25.2473 14.4331,-25.2473 0,0 14.6633,5.8545 23.8983,0.5252 9.2347,-5.3287 22.0076,-40.3115 22.0076,-40.3115 0,0 -31.4912,5.8009 -33.6935,-4.6417 -13.59,26.0625 -16.9481,31.6303 -21.1234,41.8486 -7.622,5.6996 -19.1707,-15.0547 -15.0367,-39.5652 z"
       id="path4456"
       inkscape:connector-curvature="0"
       sodipodi:nodetypes="cccscccc"
       inkscape:transform-center-x="20"
       inkscape:transform-center-y="116.68956" />
    <path
       style="fill:#ffffff;fill-rule:evenodd;stroke:none;stroke-width:0.81235194"
       d="m 1289.7397,2124.8483 c 17.1843,16.0418 27.4506,15.7885 30.5032,-1.456 8.9375,16.587 14.1032,12.6407 18.3888,3.9053 43.6866,19.6187 70.162,12.0546 96.2324,3.851 -10.7101,24.087 12.8434,23.7694 28.8932,28.7965 -30.9041,6.9439 -10.6973,8.3951 23.7712,8.3137 -40.0147,7.5818 -42.9751,11.4451 -12.1456,11.9179 -25.2031,6.4798 -34.5735,13.5526 -25.7445,21.3066 -22.7606,16.8898 10.2466,20.8747 25.2288,29.0306 -26.4523,5.3477 -26.7802,12.4909 -18.779,20.2066 -11.0316,4.6297 -27.2614,8.6727 -2.3726,17.3566 -21.8753,3.874 -5.9343,8.0095 -1.6146,12.0647 -12.8365,-4.4235 -15.7622,4.98 -7.288,30.2874 -7.1885,-9.5193 -15.7545,-8.1468 -25.9464,6.0808 -12.5679,-14.1959 -26.1546,-13.1048 -40.2762,-3.9825 -23.0125,-15.6141 -42.982,3.0037 -63.7109,13.08 9.003,-18.0901 7.8435,-31.9582 -24.5695,-32.8414 23.4171,-28.1595 9.907,-23.2602 -1.9197,-19.868 29.1881,-18.5034 2.685,-15.6763 -7.2345,-19.201 34.4236,-47.5508 -3.5428,-43.2216 -24.5742,-51.0293 43.3881,-6.8164 26.0424,-15.063 8.4454,-23.3156 36.8748,-2.2977 25.8416,-7.2524 15.81,-12.1517 15.8613,-1.862 20.1914,-7.7567 8.9744,-19.089 13.5056,7.6974 15.4603,2.2027 -0.072,-23.2632 z"
       id="path4289"
       inkscape:connector-curvature="0"
       sodipodi:nodetypes="cccccccccccccccccccccccc" />
    <path
       style="color:#000000;display:inline;overflow:visible;visibility:visible;fill:#ffffff;fill-opacity:1;fill-rule:nonzero;stroke:none;stroke-width:1.17356718px;marker:none;enable-background:accumulate"
       d="m 1971.4678,1248.4478 c 4.1269,-73.3172 38.7413,-124.4437 125.8702,-103.6555 46.6709,11.1353 99.7331,20.2257 94.2306,127.6731 -5.5025,107.4476 -88.9209,110.174 -104.7407,111.438 -15.8197,1.2644 -93.7121,-4.9944 -107.3854,-42.7812 -8.5593,-23.6536 -8.6626,-69.9206 -7.9747,-92.6744 z"
       id="path4546-6-6-7"
       inkscape:connector-curvature="0"
       sodipodi:nodetypes="cssssc" />
    <path
       style="display:inline;fill:#ffffff;fill-opacity:1;stroke:none;stroke-width:1.39915597"
       d="m 1940.9972,2119.3946 c -2.2769,-45.7934 12.8251,-68.5735 26.5755,-79.3646 17.4266,-13.6762 143.1405,-28.9188 158.3105,9.4133 13.9712,35.3027 23.8975,100.2066 -17.8203,132.2676 -41.718,32.0608 -111.3422,14.4996 -123.194,8.6704 -11.8516,-5.8293 -41.5014,-21.4381 -43.8717,-70.9867 z"
       id="path3659-8"
       inkscape:connector-curvature="0"
       sodipodi:nodetypes="cssssc" />
    <path
       style="color:#000000;display:inline;overflow:visible;visibility:visible;fill:#ffffff;fill-opacity:1;fill-rule:nonzero;stroke:none;stroke-width:1px;marker:none;enable-background:accumulate"
       d="m 2023.71,2129.0472 c 0.3856,-31.752 -21.3304,-64.1917 -32.5323,-69.3608 -11.2018,-5.1692 49.8903,6.7173 65.5334,65.5673 15.6432,58.8498 -25.2443,31.1505 -25.2443,31.1505 z"
       id="path4035"
       inkscape:connector-curvature="0" />
    <path
       style="color:#000000;display:inline;overflow:visible;visibility:visible;opacity:1;fill:#f5f6ee;fill-opacity:1;fill-rule:nonzero;stroke:none;stroke-width:0.97559661px;marker:none;enable-background:accumulate"
       d="m 758.71722,688.97788 c 41.72436,2.15425 101.52592,23.56061 101.52592,23.56061 l 9.81797,52.94481 29.75859,95.63957 c 0,0 -4.31098,132.7627 -12.91141,142.26063 -15.19686,16.7827 -25.77714,42.3294 -139.90902,36.8293 -114.13196,-5.5 -140.47425,-36.5764 -145.16274,-67.97081 -0.51012,-3.41607 -1.11693,-8.86609 -1.73469,-15.89489 -5.05987,-57.56718 -20.86019,-202.28748 29.60232,-240.34313 22.46965,-16.9452 54.51032,-27.03608 129.01306,-27.02609 z"
       id="path5097-3"
       inkscape:connector-curvature="0"
       sodipodi:nodetypes="ccccsssssc" />
    <path
       style="display:inline;fill:#ffffff;fill-rule:evenodd;stroke:none"
       d="m 1325.5661,2273.2868 c 26.5283,-15.6897 27.5294,-25.9378 1.9129,-30.5118 26.2398,-7.4271 20.9797,-12.9232 8.3725,-17.9687 35.4983,-41.7689 27.6491,-68.812 18.7802,-95.5087 34.9123,12.8097 37.607,-10.6787 47.3573,-26.2179 6.3163,31.3992 11.2296,11.4015 15.7516,-22.9377 6.0512,40.5304 11.4834,43.8226 16.3514,13.1573 6.384,25.6795 15.7965,35.6417 28.6897,27.5372 22.4254,24.1724 32.8879,-8.3496 47.2168,-22.5472 4.5069,26.8231 15.2443,27.7849 27.9681,20.5015 5.5012,11.3996 9.4164,27.9246 25.8773,3.9067 2.8995,22.1331 11.2894,6.623 17.9922,2.6811 -8.4063,12.3922 5.3924,16.1426 44.7318,9.9525 -15.3364,6.3135 -14.4192,14.9676 5.6817,26.3843 -23.1201,11.2557 -23.304,24.8856 -11.4385,39.7625 -26.6679,21.5328 -1.2583,43.0788 11.157,64.6216 -26.091,-10.576 -47.1789,-10.6543 -52.8799,21.5517 -39.3467,-25.8285 -33.7724,-11.9362 -30.2463,0.1453 -23.9946,-30.7179 -23.299,-4.0684 -29.9557,5.4983 -67.1316,-38.5157 -65.7136,-0.3148 -80.3321,19.939 -4.4415,-43.8224 -19.2258,-27.2787 -34.0531,-10.4853 1.501,-36.9331 -7.4641,-26.3842 -16.2106,-16.828 -0.673,-15.964 -8.9866,-20.8012 -27.6024,-10.6364 13.4378,-12.7676 5.4079,-15.2032 -35.1219,-1.9973 z"
       id="path4289-4"
       inkscape:connector-curvature="0"
       sodipodi:nodetypes="cccccccccccccccccccccccc" />
  </g>
  <g
     inkscape:groupmode="layer"
     id="layer1"
     inkscape:label="txt"
     style="display:inline">
    <text
       xml:space="preserve"
       style="font-style:normal;font-variant:normal;font-weight:normal;font-stretch:normal;line-height:0%;font-family:Lavi;-inkscape-font-specification:Lavi;text-align:center;letter-spacing:0px;word-spacing:0px;text-anchor:middle;fill:#000000;fill-opacity:1;stroke:none;opacity:0.762;"
       x="404.31949"
       y="486.82101"
       id="text4246-2"><tspan
         sodipodi:role="line"
         style="font-size:45px;line-height:1.25;"
         x="412.22964"
         y="486.82101"
         id="tspan4035">Sigurado </tspan><tspan
         sodipodi:role="line"
         style="font-size:45px;line-height:1.25;"
         x="412.22964"
         y="543.07098"
         id="tspan4828">na ba kayo </tspan><tspan
         sodipodi:role="line"
         style="font-size:45px;line-height:1.25;"
         x="412.22964"
         y="599.32098"
         id="tspan4826">hindi kayo </tspan><tspan
         sodipodi:role="line"
         style="font-size:45px;line-height:1.25;"
         x="412.22964"
         y="655.57098"
         id="tspan4830">sasama </tspan><tspan
         sodipodi:role="line"
         style="font-size:45px;line-height:1.25;"
         x="404.31949"
         y="711.82098"
         id="tspan4832">samin?</tspan></text>
    <text
       xml:space="preserve"
       style="font-style:normal;font-variant:normal;font-weight:normal;font-stretch:normal;line-height:0%;font-family:Lavi;-inkscape-font-specification:Lavi;text-align:center;letter-spacing:0px;word-spacing:0px;text-anchor:middle;opacity:0.81300001;fill:#000000;fill-opacity:1;stroke:none"
       x="752.96326"
       y="776.79181"
       id="text4246-2-3"><tspan
         sodipodi:role="line"
         style="font-size:45px;line-height:1.25"
         x="760.87341"
         y="776.79181"
         id="tspan4042">Oo. </tspan><tspan
         sodipodi:role="line"
         style="font-size:45px;line-height:1.25"
         x="760.87341"
         y="833.04181"
         id="tspan4854">Wala naman </tspan><tspan
         sodipodi:role="line"
         style="font-size:45px;line-height:1.25"
         x="760.87341"
         y="889.29181"
         id="tspan5284">kaming </tspan><tspan
         sodipodi:role="line"
         style="font-size:45px;line-height:1.25"
         x="760.87341"
         y="945.54181"
         id="tspan5286">gagawin </tspan><tspan
         sodipodi:role="line"
         style="font-size:45px;line-height:1.25"
         x="752.96326"
         y="1001.7918"
         id="tspan5288">don</tspan></text>
    <text
       xml:space="preserve"
       style="font-style:normal;font-variant:normal;font-weight:normal;font-stretch:normal;line-height:0%;font-family:Lavi;-inkscape-font-specification:Lavi;text-align:center;letter-spacing:0px;word-spacing:0px;text-anchor:middle;display:inline;opacity:0.6;fill:#000000;fill-opacity:1;stroke:none;filter:url(#filter4210)"
       x="1174.0292"
       y="1085.962"
       id="text4246-5"
       transform="matrix(0.81617603,-0.24118584,0.17851212,0.94169981,224.67399,68.479077)"><tspan
         sodipodi:role="line"
         style="font-style:normal;font-variant:normal;font-weight:normal;font-stretch:normal;font-size:45.00812149px;line-height:1.25;font-family:Fondamento;-inkscape-font-specification:Fondamento;stroke:#000000;stroke-width:3.39352751;stroke-miterlimit:4;stroke-dasharray:none;stroke-opacity:1"
         x="1174.0292"
         y="1085.962"
         id="tspan4217">The KOMONAN</tspan><tspan
         sodipodi:role="line"
         style="font-style:normal;font-variant:normal;font-weight:normal;font-stretch:normal;font-size:45.00812149px;line-height:1.25;font-family:Fondamento;-inkscape-font-specification:Fondamento;stroke:#000000;stroke-width:3.39352751;stroke-miterlimit:4;stroke-dasharray:none;stroke-opacity:1"
         x="1179.5233"
         y="1142.2222"
         id="tspan4207"> </tspan><tspan
         sodipodi:role="line"
         style="font-style:normal;font-variant:normal;font-weight:normal;font-stretch:normal;font-size:45.00812149px;line-height:1.25;font-family:Fondamento;-inkscape-font-specification:Fondamento;stroke:#000000;stroke-width:3.39352751;stroke-miterlimit:4;stroke-dasharray:none;stroke-opacity:1"
         x="1179.5233"
         y="1198.4823"
         id="tspan4209"> </tspan></text>
    <text
       xml:space="preserve"
       style="font-style:normal;font-variant:normal;font-weight:normal;font-stretch:normal;line-height:0%;font-family:Lavi;-inkscape-font-specification:Lavi;text-align:center;letter-spacing:0px;word-spacing:0px;text-anchor:middle;display:inline;opacity:0.6;fill:#000000;fill-opacity:1;stroke:#000000;stroke-width:0.70955449;stroke-miterlimit:4;stroke-dasharray:none;stroke-opacity:1;filter:url(#filter4218)"
       x="1294.5164"
       y="1174.9954"
       id="text4246-5-1"
       transform="matrix(0.90128293,-0.29766095,0.18223745,1.0493431,1.1649977,-1.1610996)"><tspan
         sodipodi:role="line"
         style="font-style:normal;font-variant:normal;font-weight:normal;font-stretch:normal;font-size:15.4427948px;line-height:1.25;font-family:Fondamento;-inkscape-font-specification:Fondamento;stroke:#000000;stroke-width:0.70955449;stroke-miterlimit:4;stroke-dasharray:none;stroke-opacity:1"
         x="1294.5164"
         y="1174.9954"
         id="tspan4222">BAGONG MAGIC ARENA NAGBUKAS NA!</tspan><tspan
         sodipodi:role="line"
         style="font-style:normal;font-variant:normal;font-weight:normal;font-stretch:normal;font-size:15.4427948px;line-height:1.25;font-family:Fondamento;-inkscape-font-specification:Fondamento;stroke:#000000;stroke-width:0.70955449;stroke-miterlimit:4;stroke-dasharray:none;stroke-opacity:1"
         x="1294.5164"
         y="1194.2988"
         id="tspan5140">Opening Ceremony Ngayong Araw !</tspan></text>
    <text
       xml:space="preserve"
       style="font-style:normal;font-variant:normal;font-weight:normal;font-stretch:normal;line-height:0%;font-family:Lavi;-inkscape-font-specification:Lavi;text-align:start;letter-spacing:0px;word-spacing:0px;text-anchor:start;display:inline;opacity:0.6;fill:#000000;fill-opacity:1;stroke:#000000;stroke-width:0.49537376;stroke-miterlimit:4;stroke-dasharray:none;stroke-opacity:1;filter:url(#filter4202)"
       x="1131.04"
       y="1300.7131"
       id="text4246-5-1-3"
       transform="matrix(0.90128293,-0.29766095,0.18223745,1.0493431,-7.5113366,-34.506415)"><tspan
         sodipodi:role="line"
         style="font-style:normal;font-variant:normal;font-weight:normal;font-stretch:normal;font-size:9.33333302px;line-height:1;font-family:Fondamento;-inkscape-font-specification:Fondamento;text-align:start;text-anchor:start;stroke:#000000;stroke-width:0.49537376;stroke-miterlimit:4;stroke-dasharray:none;stroke-opacity:1"
         x="1131.04"
         y="1300.7131"
         id="tspan4048">MGA RESIDENTE, NANGANGAMBA</tspan><tspan
         sodipodi:role="line"
         style="font-style:normal;font-variant:normal;font-weight:normal;font-stretch:normal;font-size:10.78135014px;line-height:1.25;font-family:Fondamento;-inkscape-font-specification:Fondamento;text-align:start;text-anchor:start;stroke:#000000;stroke-width:0.49537376;stroke-miterlimit:4;stroke-dasharray:none;stroke-opacity:1"
         x="1131.04"
         y="1312.4467"
         id="tspan5196"><tspan
   style="font-size:9.33333302px;line-height:1"
   id="tspan5198">SA KANILANG BUWIS</tspan> </tspan></text>
    <text
       xml:space="preserve"
       style="font-style:normal;font-variant:normal;font-weight:normal;font-stretch:normal;line-height:0%;font-family:Fondamento;-inkscape-font-specification:'Fondamento, Normal';text-align:start;letter-spacing:0px;word-spacing:0px;writing-mode:lr-tb;text-anchor:start;display:inline;opacity:0.6;fill:#000000;fill-opacity:1;stroke:#000000;stroke-width:0.49537376;stroke-miterlimit:4;stroke-dasharray:none;stroke-opacity:1;filter:url(#filter4202-2)"
       x="1131.04"
       y="1300.7131"
       id="text4246-5-1-3-1"
       transform="matrix(0.81172816,-0.30643117,0.16412967,0.92516231,159.42486,188.83996)"><tspan
         sodipodi:role="line"
         x="1131.04"
         y="1303.4358"
         style="font-size:10.78128147px;line-height:1.25"
         id="tspan5218" /><tspan
         sodipodi:role="line"
         x="1131.04"
         y="1309.8976"
         style="font-size:10.78128147px;line-height:1.25"
         id="tspan5222">TICKETS SOLD OUT: </tspan><tspan
         sodipodi:role="line"
         x="1131.04"
         y="1323.3741"
         style="font-size:10.78128147px;line-height:1.25"
         id="tspan5226">MAGIC CONTEST,</tspan><tspan
         sodipodi:role="line"
         x="1131.04"
         y="1336.8508"
         style="font-size:10.78128147px;line-height:1.25"
         id="tspan5224">TULOY NA TULOY NA!</tspan><tspan
         sodipodi:role="line"
         x="1131.04"
         y="1343.8656"
         style="font-size:10.78128147px;line-height:1.25"
         id="tspan5216" /></text>
    <text
       xml:space="preserve"
       style="font-style:normal;font-variant:normal;font-weight:normal;font-stretch:normal;line-height:0%;font-family:Lavi;-inkscape-font-specification:Lavi;text-align:start;letter-spacing:0px;word-spacing:0px;text-anchor:start;display:inline;opacity:0.6;fill:#000000;fill-opacity:1;stroke:#000000;stroke-width:0.49537376;stroke-miterlimit:4;stroke-dasharray:none;stroke-opacity:1;filter:url(#filter4325)"
       x="1131.04"
       y="1300.7131"
       id="text4246-5-1-3-6"
       transform="matrix(0.7407423,0.32265096,0.201955,1.3268708,-205.87775,-1377.971)"><tspan
         sodipodi:role="line"
         style="font-style:normal;font-variant:normal;font-weight:normal;font-stretch:normal;font-size:10.78135014px;line-height:1.25;font-family:Fondamento;-inkscape-font-specification:Fondamento;text-align:start;text-anchor:start;stroke:#000000;stroke-width:0.49537376;stroke-miterlimit:4;stroke-dasharray:none;stroke-opacity:1"
         x="1131.04"
         y="1300.7131"
         id="tspan4196-6">TENSIONS SA POLITICAL SA LUPAIN NG AH</tspan></text>
    <text
       xml:space="preserve"
       style="font-style:normal;font-variant:normal;font-weight:normal;font-stretch:normal;line-height:0%;font-family:Lavi;-inkscape-font-specification:Lavi;text-align:start;letter-spacing:0px;word-spacing:0px;text-anchor:start;display:inline;opacity:0.6;fill:#000000;fill-opacity:1;stroke:#000000;stroke-width:0.49537376;stroke-miterlimit:4;stroke-dasharray:none;stroke-opacity:1;filter:url(#filter4369)"
       x="1131.04"
       y="1300.7131"
       id="text4246-5-1-3-6-1"
       transform="matrix(0.7407423,0.2965061,0.201955,1.3197427,-161.60175,-1088.8437)"><tspan
         sodipodi:role="line"
         style="font-style:normal;font-variant:normal;font-weight:normal;font-stretch:normal;font-size:10.78135014px;line-height:1.25;font-family:Fondamento;-inkscape-font-specification:Fondamento;text-align:start;text-anchor:start;stroke:#000000;stroke-width:0.49537376;stroke-miterlimit:4;stroke-dasharray:none;stroke-opacity:1"
         x="1131.04"
         y="1300.7131"
         id="tspan4196-6-8">LUPAIN NG AH 80% ANG  SAKOP NA TERITORY0</tspan></text>
    <text
       xml:space="preserve"
       style="font-style:normal;font-variant:normal;font-weight:normal;font-stretch:normal;line-height:0%;font-family:Lavi;-inkscape-font-specification:Lavi;text-align:start;letter-spacing:0px;word-spacing:0px;text-anchor:start;display:inline;opacity:0.6;fill:#000000;fill-opacity:1;stroke:#000000;stroke-width:0.49537376;stroke-miterlimit:4;stroke-dasharray:none;stroke-opacity:1;filter:url(#filter4369-7)"
       x="1131.04"
       y="1300.7131"
       id="text4246-5-1-3-6-1-2"
       transform="matrix(0.45709154,0.19808295,0.12462083,0.91251868,299.48835,-366.52798)"><tspan
         sodipodi:role="line"
         style="font-style:normal;font-variant:normal;font-weight:normal;font-stretch:normal;font-size:10.78135014px;line-height:1.25;font-family:Fondamento;-inkscape-font-specification:Fondamento;text-align:start;text-anchor:start;stroke:#000000;stroke-width:0.49537376;stroke-miterlimit:4;stroke-dasharray:none;stroke-opacity:1"
         x="1131.04"
         y="1300.7131"
         id="tspan4196-6-8-0">YOU HAVE EXCELLENT VISION! </tspan></text>
    <text
       xml:space="preserve"
       style="font-style:normal;font-variant:normal;font-weight:normal;font-stretch:normal;line-height:0%;font-family:Lavi;-inkscape-font-specification:Lavi;text-align:center;letter-spacing:0px;word-spacing:0px;text-anchor:middle;fill:#000000;fill-opacity:1;stroke:none"
       x="1457.9824"
       y="1933.0157"
       id="text4246-2-3-1"><tspan
         sodipodi:role="line"
         style="font-size:45px;line-height:1.25"
         x="1465.8926"
         y="1933.0157"
         id="tspan4064">Salamat </tspan><tspan
         sodipodi:role="line"
         style="font-size:45px;line-height:1.25"
         x="1465.8926"
         y="1989.2657"
         id="tspan5314">sa pagpayag </tspan><tspan
         sodipodi:role="line"
         style="font-size:45px;line-height:1.25"
         x="1457.9824"
         y="2045.5156"
         id="tspan5312">sakin mag-</tspan><tspan
         sodipodi:role="line"
         style="font-size:45px;line-height:1.25"
         x="1457.9824"
         y="2101.7656"
         id="tspan5324">participate!</tspan></text>
    <text
       xml:space="preserve"
       style="font-style:normal;font-variant:normal;font-weight:normal;font-stretch:normal;line-height:0%;font-family:Lavi;-inkscape-font-specification:Lavi;text-align:center;letter-spacing:0px;word-spacing:0px;text-anchor:middle;fill:#000000;fill-opacity:1;stroke:none"
       x="1450.2612"
       y="2202.9883"
       id="text4246-2-3-1-0"><tspan
         sodipodi:role="line"
         style="font-size:45px;line-height:1.25;stroke:#000000;stroke-width:1.20000005;stroke-miterlimit:4;stroke-dasharray:none;stroke-opacity:1"
         x="1450.2612"
         y="2202.9883"
         id="tspan4452">Mananalo ako!</tspan><tspan
         sodipodi:role="line"
         style="font-size:45px;line-height:1.25;stroke:#000000;stroke-width:1.20000005;stroke-miterlimit:4;stroke-dasharray:none;stroke-opacity:1"
         x="1450.2612"
         y="2259.2383"
         id="tspan5328">Peksman!</tspan></text>
    <text
       xml:space="preserve"
       style="font-style:normal;font-variant:normal;font-weight:normal;font-stretch:normal;line-height:0%;font-family:Lavi;-inkscape-font-specification:'Lavi, Normal';text-align:center;letter-spacing:0px;word-spacing:0px;writing-mode:lr-tb;text-anchor:middle;fill:#000000;fill-opacity:1;stroke:none"
       x="2084.0112"
       y="1274.4883"
       id="text4246-2-3-1-5"><tspan
         sodipodi:role="line"
         x="2084.0112"
         y="1274.4883"
         id="tspan4066"
         style="font-size:45px;line-height:1.25">Ba-bye!</tspan><tspan
         sodipodi:role="line"
         x="2084.0112"
         y="1293.0219"
         style="font-size:45px;line-height:1.25"
         id="tspan5433" /><tspan
         sodipodi:role="line"
         x="2084.0112"
         y="1330.068"
         style="font-size:45px;line-height:1.25;fill:#ff55dd"
         id="tspan5435">♥</tspan></text>
    <text
       xml:space="preserve"
       style="font-style:normal;font-variant:normal;font-weight:normal;font-stretch:normal;line-height:0%;font-family:Lavi;-inkscape-font-specification:Lavi;text-align:center;letter-spacing:0px;word-spacing:0px;text-anchor:middle;fill:#000000;fill-opacity:1;stroke:none"
       x="2038.8628"
       y="2122.2102"
       id="text4246-2-3-6"><tspan
         sodipodi:role="line"
         style="font-size:45px;line-height:1.25"
         x="2038.8628"
         y="2122.2102"
         id="tspan4187-2">...</tspan></text>
    <text
       xml:space="preserve"
       style="font-style:normal;font-variant:normal;font-weight:normal;font-stretch:normal;line-height:0%;font-family:Lavi;-inkscape-font-specification:Lavi;letter-spacing:0px;word-spacing:0px;fill:#000000;fill-opacity:1;stroke:#000000;stroke-width:0.99236238;stroke-miterlimit:4;stroke-dasharray:none;stroke-opacity:1;filter:url(#filter4375-4-1-1-1-9)"
       x="787.65729"
       y="1584.5073"
       id="text4580"
       transform="matrix(0.66983444,-0.42899526,0.00573176,0.82056131,1671.7153,441.03315)"><tspan
         sodipodi:role="line"
         id="tspan4582"
         x="787.65729"
         y="1584.5073"
         style="font-size:70px;line-height:1.25;fill:#ffffff"><tspan
           style="font-size:80.40014648px"
           id="tspan4617">blam!</tspan></tspan></text>
    <flowRoot
       xml:space="preserve"
       id="flowRoot4050"
       style="font-style:normal;font-variant:normal;font-weight:normal;font-stretch:normal;line-height:0.01%;font-family:sans-serif;-inkscape-font-specification:Clean;letter-spacing:0px;word-spacing:0px;fill:#000000;fill-opacity:1;stroke:none;stroke-width:1px;stroke-linecap:butt;stroke-linejoin:miter;stroke-opacity:1"><flowRegion
         id="flowRegion4052"
         style="font-family:sans-serif"><rect
           id="rect4054"
           width="1.5832587"
           height="22.165623"
           x="1378.2268"
           y="1077.4476"
           style="font-family:sans-serif" /></flowRegion><flowPara
         id="flowPara4056"
         style="font-size:6px;line-height:1.25;font-family:sans-serif"> </flowPara></flowRoot>    <text
       xml:space="preserve"
       style="font-style:normal;font-variant:normal;font-weight:normal;font-stretch:normal;line-height:0%;font-family:Lavi;-inkscape-font-specification:Lavi;text-align:center;letter-spacing:0px;word-spacing:0px;text-anchor:middle;display:inline;opacity:0.81300001;fill:#000000;fill-opacity:1;stroke:none"
       x="2081.3142"
       y="458.12592"
       id="text4246-2-3-3"><tspan
         sodipodi:role="line"
         style="font-size:45px;line-height:1.25"
         x="2081.3142"
         y="461.61371"
         id="tspan4042-4" /><tspan
         sodipodi:role="line"
         style="font-size:45px;line-height:1.25"
         x="2089.2244"
         y="499.33017"
         id="tspan4846-7">Sa Chaosah, </tspan><tspan
         sodipodi:role="line"
         style="font-size:45px;line-height:1.25"
         x="2081.3142"
         y="555.5802"
         id="tspan4842-8">tayo ang taga-</tspan><tspan
         sodipodi:role="line"
         style="font-size:45px;line-height:1.25"
         x="2089.2244"
         y="611.8302"
         id="tspan4850-7">salamangka, </tspan><tspan
         sodipodi:role="line"
         style="font-size:45px;line-height:1.25"
         x="2089.2244"
         y="668.0802"
         id="tspan4844-6">hindi ang </tspan><tspan
         sodipodi:role="line"
         style="font-size:45px;line-height:1.25"
         x="2081.3142"
         y="724.3302"
         id="tspan4852-0">taga-</tspan><tspan
         sodipodi:role="line"
         style="font-size:45px;line-height:1.25"
         x="2081.3142"
         y="780.5802"
         id="tspan4854-5">mamasid!</tspan></text>
  </g>
</svg>
