<?xml version="1.0" encoding="UTF-8" standalone="no"?>
<!-- Created with Inkscape (http://www.inkscape.org/) -->

<svg
   xmlns:dc="http://purl.org/dc/elements/1.1/"
   xmlns:cc="http://creativecommons.org/ns#"
   xmlns:rdf="http://www.w3.org/1999/02/22-rdf-syntax-ns#"
   xmlns:svg="http://www.w3.org/2000/svg"
   xmlns="http://www.w3.org/2000/svg"
   xmlns:xlink="http://www.w3.org/1999/xlink"
   xmlns:sodipodi="http://sodipodi.sourceforge.net/DTD/sodipodi-0.dtd"
   xmlns:inkscape="http://www.inkscape.org/namespaces/inkscape"
   id="svg2"
   version="1.1"
   inkscape:version="0.92.3 (2405546, 2018-03-11)"
   width="2646.3999"
   height="3736.5334"
   sodipodi:docname="E01P01.svg"
   style="enable-background:new">
  <metadata
     id="metadata8">
    <rdf:RDF>
      <cc:Work
         rdf:about="">
        <dc:format>image/svg+xml</dc:format>
        <dc:type
           rdf:resource="http://purl.org/dc/dcmitype/StillImage" />
        <dc:title />
      </cc:Work>
    </rdf:RDF>
  </metadata>
  <defs
     id="defs6">
    <filter
       inkscape:collect="always"
       id="filter4386">
      <feBlend
         inkscape:collect="always"
         mode="screen"
         in2="BackgroundImage"
         id="feBlend4388" />
    </filter>
  </defs>
  <sodipodi:namedview
     pagecolor="#ffffff"
     bordercolor="#666666"
     borderopacity="1"
     objecttolerance="10"
     gridtolerance="10"
     guidetolerance="10"
     inkscape:pageopacity="0"
     inkscape:pageshadow="2"
     inkscape:window-width="1366"
     inkscape:window-height="715"
     id="namedview4"
     showgrid="false"
     inkscape:zoom="0.26454665"
     inkscape:cx="1110.9247"
     inkscape:cy="2440.2781"
     inkscape:window-x="1592"
     inkscape:window-y="124"
     inkscape:window-maximized="1"
     inkscape:current-layer="layer3"
     inkscape:snap-global="false"
     showguides="true">
    <inkscape:grid
       type="xygrid"
       id="grid4282"
       originx="0"
       originy="0"
       spacingx="1.0666667"
       spacingy="1.0666667" />
  </sodipodi:namedview>
  <flowRoot
     xml:space="preserve"
     id="flowRoot2987"
     style="font-style:normal;font-variant:normal;font-weight:normal;font-stretch:normal;font-size:9.0880003px;line-height:0.01%;font-family:Lavi;-inkscape-font-specification:Lavi;letter-spacing:0px;word-spacing:0px;fill:#000000;fill-opacity:1;stroke:none;stroke-width:0.75733334px;stroke-linecap:butt;stroke-linejoin:miter;stroke-opacity:1"><flowRegion
       id="flowRegion2989"
       style="stroke-width:0.75733334px"><rect
         id="rect2991"
         width="769.87531"
         height="58.833263"
         x="896.12561"
         y="49.069839"
         style="font-style:normal;font-variant:normal;font-weight:normal;font-stretch:normal;font-family:Lavi;-inkscape-font-specification:Lavi;stroke-width:0.5735538px" /></flowRegion><flowPara
       id="flowPara2993"
       style="font-size:9.0880003px;line-height:1.25;stroke-width:0.75733334px"> </flowPara></flowRoot>  <g
     inkscape:groupmode="layer"
     id="layer1"
     inkscape:label="artwork"
     style="display:inline"
     sodipodi:insensitive="true">
    <image
       sodipodi:absref="G:\Aslan's Works &amp; Design Projects\2. Personal Projects\3. Translation Projects\Pepper &amp; Carrot Translation Project\Episode 1\lang\fa\../gfx_Pepper-and-Carrot_by-David-Revoy_E01P01.png"
       xlink:href="../gfx_Pepper-and-Carrot_by-David-Revoy_E01P01.png"
       width="2646.3999"
       height="3736.5334"
       id="image3084"
       x="0"
       y="0" />
  </g>
  <g
     inkscape:groupmode="layer"
     id="layer2"
     inkscape:label="speechbubble"
     style="display:inline;opacity:0.70232556">
    <path
       style="fill:#dfffd4;fill-opacity:1;stroke:none;stroke-width:1.06666672"
       d="m 1133.4974,309.62253 c 0,-53.20238 35.6575,-126.74683 210.5494,-129.87639 174.892,-3.12954 236.0192,65.72058 237.7171,122.05251 1.6981,56.33192 -83.2009,115.79339 -215.6434,111.09907 -132.4423,-4.69433 -229.2272,-23.47164 -232.6231,-103.27519 z"
       id="path3071"
       inkscape:connector-curvature="0"
       sodipodi:nodetypes="csssc" />
    <path
       style="color:#000000;display:inline;overflow:visible;visibility:visible;fill:#dfffd4;fill-opacity:1;fill-rule:nonzero;stroke:none;stroke-width:1.06666672px;marker:none;enable-background:accumulate"
       d="m 1388.1388,369.01282 c 0,0 17.2965,5.08416 31.7105,19.0656 14.4137,13.98144 72.0693,41.94432 59.0968,110.58035 21.6208,-76.26227 -21.6208,-101.68307 -30.2692,-114.39347 -8.6483,-12.7104 -24.5036,-34.31808 -24.5036,-34.31808 z"
       id="path3073"
       inkscape:connector-curvature="0"
       sodipodi:nodetypes="cscscc" />
    <path
       style="color:#000000;display:inline;overflow:visible;visibility:visible;fill:#dfffd4;fill-opacity:1;fill-rule:nonzero;stroke:none;stroke-width:1.06666672px;marker:none;enable-background:accumulate"
       d="m 1194.0821,1562.2882 c -1.7569,-77.9188 124.7368,-177.3897 212.5797,-167.4425 87.8427,9.9469 177.4425,79.5765 193.2541,130.9698 15.8119,51.3932 70.2744,147.5482 -191.4972,167.4424 -91.3566,4.9736 -221.3641,-53.0511 -214.3366,-130.9697 z"
       id="path3097"
       inkscape:connector-curvature="0"
       sodipodi:nodetypes="csscc" />
    <path
       style="color:#000000;display:inline;overflow:visible;visibility:visible;fill:#dfffd4;fill-opacity:1;fill-rule:nonzero;stroke:none;stroke-width:1.06666672px;marker:none;enable-background:accumulate"
       d="m 1508.6441,1611.6218 c 16.0787,40.9274 26.3105,45.3126 52.6211,46.7743 10.2319,-1.4617 21.9253,7.3084 19.002,23.387 17.5404,-24.8487 -7.2672,-33.6272 -18.9609,-39.4739 -11.6935,-5.8469 -17.6558,-6.5571 -23.5026,-35.791 -5.8468,-29.2339 -29.1596,5.1036 -29.1596,5.1036 z"
       id="path3105"
       inkscape:connector-curvature="0"
       sodipodi:nodetypes="cccssc" />
  </g>
  <g
     inkscape:groupmode="layer"
     id="layer3"
     inkscape:label="txt"
     style="display:inline">
    <flowRoot
       xml:space="preserve"
       id="flowRoot3063-8"
       style="color:#000000;font-style:normal;font-variant:normal;font-weight:normal;font-stretch:normal;line-height:0.01%;font-family:Arial;-inkscape-font-specification:Arial;letter-spacing:0px;word-spacing:0px;display:inline;overflow:visible;visibility:visible;fill:#3c4036;fill-opacity:1;fill-rule:nonzero;stroke:none;marker:none;enable-background:accumulate"
       transform="matrix(0.66750783,0,0,0.69833036,1088.5291,-36.870529)"><flowRegion
         id="flowRegion3065-8"><rect
           id="rect3067-6"
           width="626.03088"
           height="439.19324"
           x="92.642677"
           y="425.30325"
           style="color:#000000;font-size:72px;display:inline;overflow:visible;visibility:visible;fill:#3c4036;fill-opacity:1;fill-rule:nonzero;stroke:none;marker:none;enable-background:accumulate" /></flowRegion><flowPara
         style="color:#000000;font-style:normal;font-variant:normal;font-weight:normal;font-stretch:normal;font-size:124.98562622px;line-height:89.99999762%;font-family:Midan;-inkscape-font-specification:Midan;text-align:center;direction:rtl;text-anchor:middle;display:inline;overflow:visible;visibility:visible;fill:#3c4036;fill-opacity:1;fill-rule:nonzero;stroke:none;marker:none;enable-background:accumulate"
         id="flowPara3427">...اینم که از این.</flowPara></flowRoot>    <flowRoot
       xml:space="preserve"
       id="flowRoot3063-8-6"
       style="color:#000000;font-style:normal;font-variant:normal;font-weight:normal;font-stretch:normal;line-height:0.01%;font-family:Arial;-inkscape-font-specification:Arial;letter-spacing:0px;word-spacing:0px;display:inline;overflow:visible;visibility:visible;fill:#3c4036;fill-opacity:1;fill-rule:nonzero;stroke:none;marker:none;enable-background:accumulate"
       transform="matrix(0.66750783,0,0,0.69833036,1155.0142,1156.9121)"><flowRegion
         id="flowRegion3065-8-1"><rect
           id="rect3067-6-3"
           width="566.73425"
           height="367.89978"
           x="92.642677"
           y="425.30325"
           style="color:#000000;font-size:82.02182007px;line-height:94.99999881%;display:inline;overflow:visible;visibility:visible;fill:#3c4036;fill-opacity:1;fill-rule:nonzero;stroke:none;marker:none;enable-background:accumulate" /></flowRegion><flowPara
         style="color:#000000;font-style:normal;font-variant:normal;font-weight:normal;font-stretch:normal;font-size:101.5508194px;line-height:89.99999762%;font-family:Midan;-inkscape-font-specification:Midan;text-align:center;direction:rtl;text-anchor:middle;display:inline;overflow:visible;visibility:visible;fill:#3c4036;fill-opacity:1;fill-rule:nonzero;stroke:none;marker:none;enable-background:accumulate"
         id="flowPara3224">همممم...</flowPara><flowPara
         style="color:#000000;font-style:normal;font-variant:normal;font-weight:normal;font-stretch:normal;font-size:101.5508194px;line-height:89.99999762%;font-family:Midan;-inkscape-font-specification:Midan;text-align:center;direction:rtl;text-anchor:middle;display:inline;overflow:visible;visibility:visible;fill:#3c4036;fill-opacity:1;fill-rule:nonzero;stroke:none;marker:none;enable-background:accumulate"
         id="flowPara3490">شاید به اندازہ کافی </flowPara><flowPara
         style="color:#000000;font-style:normal;font-variant:normal;font-weight:normal;font-stretch:normal;font-size:101.5508194px;line-height:89.99999762%;font-family:Midan;-inkscape-font-specification:Midan;text-align:center;direction:rtl;text-anchor:middle;display:inline;overflow:visible;visibility:visible;fill:#3c4036;fill-opacity:1;fill-rule:nonzero;stroke:none;marker:none;enable-background:accumulate"
         id="flowPara3492">قوی نیست.</flowPara></flowRoot>    <flowRoot
       xml:space="preserve"
       id="flowRoot4133-6-9-4"
       style="font-style:normal;font-variant:normal;font-weight:normal;font-stretch:normal;line-height:0.01%;font-family:Arial;-inkscape-font-specification:Arial;letter-spacing:0.00204969px;word-spacing:0px;display:inline;fill:#daa761;fill-opacity:1;stroke:#daa761;stroke-width:1.09540486;stroke-miterlimit:4;stroke-dasharray:none;stroke-opacity:1"
       transform="matrix(2.6557545,-1.2197698,2.0134697,4.637528,-4158.4147,-338.20386)"><flowRegion
         id="flowRegion4135-2-9-3"
         style="stroke-width:1.09552455"><rect
           id="rect4137-1-7-1"
           width="71.852173"
           height="37.89312"
           x="1125.3193"
           y="1078.5308"
           style="letter-spacing:0.00204969px;fill:#daa761;fill-opacity:1;stroke:#daa761;stroke-width:1.09552455;stroke-opacity:1" /></flowRegion><flowPara
         id="flowPara4139-2-8-6"
         style="font-style:normal;font-variant:normal;font-weight:bold;font-stretch:normal;font-size:16.6517086px;line-height:125%;font-family:'XP Vosta';-inkscape-font-specification:'XP Vosta Bold';letter-spacing:0.00204969px;word-spacing:0.00204969px;direction:rtl;fill:#daa761;fill-opacity:1;stroke:none;stroke-width:1.09540486;stroke-miterlimit:4;stroke-dasharray:none;stroke-opacity:1">پووفف...</flowPara></flowRoot>    <flowRoot
       xml:space="preserve"
       id="flowRoot3429"
       style="font-style:normal;font-weight:normal;font-size:12.80000019px;line-height:0.01%;font-family:sans-serif;letter-spacing:0px;word-spacing:0px;fill:#000000;fill-opacity:1;stroke:none;stroke-width:1.06666672px;stroke-linecap:butt;stroke-linejoin:miter;stroke-opacity:1"><flowRegion
         id="flowRegion3431"
         style="stroke-width:1.06666672px"><rect
           id="rect3433"
           width="78.276649"
           height="131.50478"
           x="1083.3489"
           y="433.25864"
           style="stroke-width:1.13777781px" /></flowRegion><flowPara
         id="flowPara3435"
         style="font-size:42.66666794px;line-height:1.25;stroke-width:1.06666672px"> </flowPara></flowRoot>    <flowRoot
       xml:space="preserve"
       id="flowRoot4133-6"
       style="font-style:normal;font-variant:normal;font-weight:normal;font-stretch:normal;line-height:0.01%;font-family:Arial;-inkscape-font-specification:Arial;letter-spacing:0.00204969px;word-spacing:0px;display:inline;fill:#d0a273;fill-opacity:1;stroke:#d0a273;stroke-width:1;stroke-opacity:1"
       transform="matrix(2.7075423,-2.2195829,0.70107127,5.2414877,-3050.455,-2111.5101)"><flowRegion
         id="flowRegion4135-1"
         style="stroke-width:1"><rect
           id="rect4137-7"
           width="122.07606"
           height="106.53911"
           x="1125.3193"
           y="1078.5308"
           style="letter-spacing:0.00204969px;fill:#d0a273;fill-opacity:1;stroke:#d0a273;stroke-width:1;stroke-opacity:1" /></flowRegion><flowPara
         id="flowPara4139-5"
         style="font-style:normal;font-variant:normal;font-weight:bold;font-stretch:normal;font-size:16.12769508px;line-height:125%;font-family:'XP Vosta';-inkscape-font-specification:'XP Vosta Bold';letter-spacing:0.00204969px;word-spacing:0.00204969px;direction:rtl;fill:#d0a273;fill-opacity:1;stroke:none;stroke-width:1.06872857;stroke-miterlimit:4;stroke-dasharray:none;stroke-opacity:1">شش...</flowPara></flowRoot>    <flowRoot
       xml:space="preserve"
       id="flowRoot4133-6-0"
       style="font-style:normal;font-variant:normal;font-weight:normal;font-stretch:normal;line-height:0.01%;font-family:Arial;-inkscape-font-specification:Arial;letter-spacing:0.00204969px;word-spacing:0px;display:inline;fill:#d0a273;fill-opacity:1;stroke:#d0a273;stroke-width:1;stroke-opacity:1"
       transform="matrix(2.7075423,-2.2195829,0.70107127,5.2414877,-3044.3062,-2032.9835)"><flowRegion
         id="flowRegion4135-1-2"
         style="stroke-width:1"><rect
           id="rect4137-7-0"
           width="122.07606"
           height="106.53911"
           x="1125.3193"
           y="1078.5308"
           style="letter-spacing:0.00204969px;fill:#d0a273;fill-opacity:1;stroke:#d0a273;stroke-width:1;stroke-opacity:1" /></flowRegion><flowPara
         id="flowPara4139-5-8"
         style="font-style:normal;font-variant:normal;font-weight:bold;font-stretch:normal;font-size:16.12769508px;line-height:125%;font-family:'XP Vosta';-inkscape-font-specification:'XP Vosta Bold';letter-spacing:0.00204969px;word-spacing:0.00204969px;direction:rtl;fill:#d0a273;fill-opacity:1;stroke:none;stroke-width:1.06872857;stroke-miterlimit:4;stroke-dasharray:none;stroke-opacity:1">شش...</flowPara></flowRoot>    <flowRoot
       xml:space="preserve"
       id="flowRoot4133-6-9-4-8"
       style="font-style:normal;font-variant:normal;font-weight:normal;font-stretch:normal;line-height:0.01%;font-family:Arial;-inkscape-font-specification:Arial;letter-spacing:0.00204969px;word-spacing:0px;display:inline;fill:#daa761;fill-opacity:1;stroke:#daa761;stroke-width:1.09540486;stroke-miterlimit:4;stroke-dasharray:none;stroke-opacity:1"
       transform="matrix(2.6557545,-1.2197698,2.0134697,4.637528,-4019.8206,-317.52901)"><flowRegion
         id="flowRegion4135-2-9-3-9"
         style="stroke-width:1.09552455"><rect
           id="rect4137-1-7-1-5"
           width="71.852173"
           height="37.89312"
           x="1125.3193"
           y="1078.5308"
           style="letter-spacing:0.00204969px;fill:#daa761;fill-opacity:1;stroke:#daa761;stroke-width:1.09552455;stroke-opacity:1" /></flowRegion><flowPara
         id="flowPara4139-2-8-6-9"
         style="font-style:normal;font-variant:normal;font-weight:bold;font-stretch:normal;font-size:13.87642288px;line-height:125%;font-family:'XP Vosta';-inkscape-font-specification:'XP Vosta Bold';letter-spacing:0.00204969px;word-spacing:0.00204969px;direction:rtl;fill:#daa761;fill-opacity:1;stroke:none;stroke-width:1.09540486;stroke-miterlimit:4;stroke-dasharray:none;stroke-opacity:1">پووفف...</flowPara></flowRoot>  </g>
</svg>
