<?xml version="1.0" encoding="UTF-8" standalone="no"?>
<svg
   xmlns:dc="http://purl.org/dc/elements/1.1/"
   xmlns:cc="http://creativecommons.org/ns#"
   xmlns:rdf="http://www.w3.org/1999/02/22-rdf-syntax-ns#"
   xmlns:svg="http://www.w3.org/2000/svg"
   xmlns="http://www.w3.org/2000/svg"
   xmlns:xlink="http://www.w3.org/1999/xlink"
   xmlns:sodipodi="http://sodipodi.sourceforge.net/DTD/sodipodi-0.dtd"
   xmlns:inkscape="http://www.inkscape.org/namespaces/inkscape"
   id="svg2"
   version="1.1"
   inkscape:version="1.0.2-2 (e86c870879, 2021-01-15)"
   width="2481"
   height="3503"
   sodipodi:docname="E33P02.svg">
  <metadata
     id="metadata8">
    <rdf:RDF>
      <cc:Work
         rdf:about="">
        <dc:format>image/svg+xml</dc:format>
        <dc:type
           rdf:resource="http://purl.org/dc/dcmitype/StillImage" />
        <dc:title />
      </cc:Work>
    </rdf:RDF>
  </metadata>
  <defs
     id="defs6">
    <filter
       x="-0.15000001"
       width="1.3"
       y="-0.15000001"
       height="1.3"
       inkscape:menu-tooltip="Something like a water noise"
       inkscape:menu="Distort"
       inkscape:label="dark-magic-speech"
       id="filter3018-9-9"
       style="color-interpolation-filters:sRGB">
      <feTurbulence
         result="result1"
         baseFrequency="0.045999999999999999"
         type="fractalNoise"
         seed="0"
         numOctaves="5"
         id="feTurbulence3020-3-0" />
      <feGaussianBlur
         result="result2"
         stdDeviation="2"
         id="feGaussianBlur3022-77-9" />
      <feDisplacementMap
         in="SourceGraphic"
         xChannelSelector="R"
         yChannelSelector="B"
         scale="50"
         in2="result2"
         id="feDisplacementMap3024-6-9" />
    </filter>
    <filter
       inkscape:label="soundFX"
       id="filter4375-4-1-1-1-9-5-8-6"
       style="color-interpolation-filters:sRGB"
       width="1.1900001">
      <feFlood
         result="flood"
         flood-color="rgb(92,53,102)"
         flood-opacity="1"
         id="feFlood4377-7-9-0-8-1-7-3-7" />
      <feComposite
         result="composite1"
         operator="in"
         in="flood"
         in2="SourceGraphic"
         id="feComposite4379-3-8-8-2-77-4-1-5" />
      <feMorphology
         result="result3"
         radius="6.2000000000000002"
         operator="dilate"
         id="feMorphology4393-1-0-49-8-9-3-0-3" />
      <feComposite
         result="fbSourceGraphic"
         operator="over"
         in="SourceGraphic"
         in2="result3"
         id="feComposite4385-9-5-7-0-8-8-7-56" />
      <feColorMatrix
         id="feColorMatrix4544-2"
         values="0 0 0 -1 0 0 0 0 -1 0 0 0 0 -1 0 0 0 0 1 0"
         in="fbSourceGraphic"
         result="fbSourceGraphicAlpha" />
      <feTurbulence
         result="turbulence"
         baseFrequency="0.129 0.0050000000000000001"
         seed="37"
         numOctaves="3"
         type="fractalNoise"
         id="feTurbulence4546-9" />
      <feDisplacementMap
         result="fbSourceGraphic"
         xChannelSelector="B"
         yChannelSelector="A"
         scale="10"
         in="fbSourceGraphic"
         in2="turbulence"
         id="feDisplacementMap4548-1" />
      <feColorMatrix
         id="feColorMatrix4670-2"
         values="0 0 0 -1 0 0 0 0 -1 0 0 0 0 -1 0 0 0 0 1 0"
         in="fbSourceGraphic"
         result="fbSourceGraphicAlpha" />
      <feComposite
         result="composite1"
         operator="in"
         in="flood"
         in2="fbSourceGraphic"
         id="feComposite4674-0" />
      <feComposite
         result="composite2"
         operator="over"
         in="fbSourceGraphic"
         in2="composite1"
         id="feComposite4680-6" />
    </filter>
  </defs>
  <sodipodi:namedview
     pagecolor="#ffffff"
     bordercolor="#666666"
     borderopacity="1"
     objecttolerance="10"
     gridtolerance="10"
     guidetolerance="10"
     inkscape:pageopacity="0"
     inkscape:pageshadow="2"
     inkscape:window-width="1366"
     inkscape:window-height="745"
     id="namedview4"
     showgrid="false"
     inkscape:zoom="0.31901186"
     inkscape:cx="1392.6135"
     inkscape:cy="2744.8995"
     inkscape:window-x="-8"
     inkscape:window-y="-8"
     inkscape:window-maximized="1"
     inkscape:current-layer="layer1"
     inkscape:document-rotation="0"
     inkscape:snap-global="false" />
  <g
     inkscape:groupmode="layer"
     id="layer2"
     inkscape:label="artwork"
     sodipodi:insensitive="true">
    <image
       sodipodi:absref="C:\Users\quentinlipeck\Downloads\webcomics-master-ec7d62e6553c2c63bb1cf2e799ee31f9cb9ce5e2\webcomics-master-ec7d62e6553c2c63bb1cf2e799ee31f9cb9ce5e2\ep33_Spell-of-War\lang\gfx_Pepper-and-Carrot_by-David-Revoy_E33P02.png"
       xlink:href="../gfx_Pepper-and-Carrot_by-David-Revoy_E33P02.png"
       y="0"
       x="0"
       id="image10"
       height="3503"
       width="2481" />
  </g>
  <g
     inkscape:groupmode="layer"
     id="layer3"
     inkscape:label="speechbubbles"
     style="display:inline">
    <path
       sodipodi:nodetypes="ccccsccccsccccc"
       inkscape:connector-curvature="0"
       id="path1295-3"
       d="m 1603.617,2900.7968 c 0,0 -27.3248,-23.7569 -41.3688,-35.7472 -14.043,-11.9899 -28.5234,-25.421 -51.5926,-37.4265 30.8469,13.6257 44.5534,17.6378 44.5534,17.6378 0,0 -30.7119,-30.2731 -78.5901,-47.7633 -24.6028,-8.9877 -65.2442,-10.0982 -90.2001,-8.8673 26.2546,-6.1035 46.8033,-9.281 46.8033,-9.281 0,0 -69.5507,-19.6686 -108.0388,-13.863 -38.4889,5.8053 -80.704,1.2939 -115.0144,43.7789 42.5625,-51.8884 78.9921,-52.8998 114.7823,-56.3237 50.6472,-4.8449 140.4415,8.5514 168.78,16.1899 -33.3821,2.0473 -42.6052,4.1201 -42.6052,4.1201 0,0 25.4783,0.4116 69.4951,23.1451 44.0157,22.7334 95.6203,69.3559 101.4489,78.2848 5.8296,8.9291 -18.453,26.1154 -18.453,26.1154 z"
       style="fill:#0f0f0f;fill-opacity:1;fill-rule:evenodd;stroke:none;stroke-width:0.999996px;stroke-linecap:butt;stroke-linejoin:miter;stroke-opacity:1" />
    <path
       transform="matrix(0.93497009,0,0,0.90016842,1250.2766,2805.4742)"
       sodipodi:nodetypes="csssssc"
       inkscape:connector-curvature="0"
       id="path3986-45"
       d="m 428.67969,53.949219 c -42.9455,2.206213 -86.51838,3.637631 -128.08166,15.746955 -23.49333,7.328264 -39.45999,31.049046 -40.665,55.167646 -0.4046,7.7912 0.90221,15.53043 1.45739,23.28513 2.55016,24.46915 7.18432,49.1848 3.46855,73.79367 -2.90562,24.54702 -11.54303,48.37071 -11.16067,73.28696 1.42366,17.0493 13.4606,32.79899 29.80529,38.13413 16.48909,6.33013 34.43531,3.7008 51.61308,5.68997 37.57918,3.49927 74.04102,14.07558 111.45088,18.68977 29.17951,2.20449 57.43742,-6.92586 85.37626,-13.91984 18.95134,-4.82587 38.90136,-9.2127 54.64389,-21.52563 18.9388,-14.5978 29.08533,-38.76161 28.68769,-62.41517 -0.72272,-19.63423 -1.43002,-39.28001 -3.13477,-58.86133 -1.92634,-22.38361 -4.38235,-44.73495 -7.55434,-66.973 C 601.27593,116.90057 594.74506,99.315489 581.24955,87.563759 568.03119,76.555412 550.63768,72.710668 533.96349,70.713705 498.93504,64.873836 464.49354,53.733654 428.67969,53.949219 Z"
       style="color:#000000;display:inline;overflow:visible;visibility:visible;fill:#0f0f0f;fill-opacity:1;fill-rule:nonzero;stroke:none;stroke-width:1px;marker:none;filter:url(#filter3018-9-9);enable-background:accumulate" />
    <path
       sodipodi:nodetypes="ccccccccccccccccccccccccccc"
       inkscape:connector-curvature="0"
       id="path4508-2"
       d="m 1866.1903,1280.1298 c 27.4123,18.4361 2.393,35.4714 -32.1109,21.1251 35.9184,27.5168 16.0242,44.4292 -11.0673,43.4685 15.2121,19.1732 30.0794,37.549 -9.2265,71.1536 24.4571,-2.9887 26.0693,-9.592 42.2584,-1.3166 8.0996,5.7695 8.1479,19.5545 1.8174,28.0112 -0.9514,2.9465 32.8217,18.0449 25.5719,15.9902 11.1074,-15.4524 22.6741,-16.5627 35.6109,-9.6223 3.947,4.3374 -3.0748,22.0449 -9.1602,39.7852 13.6447,-17.0933 28.8877,-45.1105 49.0655,-33.567 6.3181,1.8574 13.6649,11.3305 14.0307,19.923 3.9924,-28.3283 72.6815,-42.7134 50.1985,-4.2265 36.5342,-26.3313 53.3781,-29.5985 83.0499,16.87 -1.6202,-19.0952 3.1909,-31.2264 16.1635,-33.0484 13.7101,-1.1155 31.7554,5.7952 48.1641,22.6849 -7.5272,-30.9755 8.0587,-46.4482 44.9908,-7.0416 -22.7821,-43.9688 24.852,-24.6897 36.8772,-13.6179 l 8.1406,5.2123 c -12.0214,-13.3869 -40.8493,-37.7508 -0.1072,-47.5971 -28.0388,-23.8557 1.8601,-25.3357 14.9649,-24.3845 -17.2377,-9.3773 -37.4355,-33.923 -7.1066,-47.7401 7.2406,-3.3442 14.8704,-4.9783 22.0395,-8.6193 -16.7297,-2.2315 -33.6492,-2.5869 -50.1708,-7.0701 -3.9973,-5.2618 0.9762,-12.8733 15.0425,-23.6261 -16.3935,3.1717 -23.1187,3.6339 -27.0087,-0.5993 -2.1593,-8.1731 1.6395,-16.7809 6.461,-21.6863 35.5017,-32.4945 -420.8626,-66.6191 -368.4891,-0.4609 z"
       style="display:inline;fill:#ffffff;fill-rule:evenodd;stroke:none;stroke-width:1px;stroke-linecap:butt;stroke-linejoin:miter;stroke-opacity:1" />
    <path
       sodipodi:nodetypes="zssssz"
       inkscape:connector-curvature="0"
       id="path4040-3"
       d="m 289.67527,1949.6613 c -36.79885,1.1299 -73.95,4.9774 -109.33805,18.0327 -11.34951,6.2308 -17.51983,20.3558 -23.05709,33.1735 -6.45543,15.0682 -9.17941,34.0275 -2.69888,49.7783 7.19457,17.976 22.20383,28.949 37.31423,34.8598 23.80409,9.7059 48.96576,12.9248 73.87681,15.0473 35.4022,2.6005 70.8981,2.1495 106.34095,1.3976 36.42191,-1.0076 72.86889,-2.7782 109.12968,-7.2242 15.73968,-2.1914 31.61252,-4.7447 46.71906,-10.7437 14.33602,-7.6838 25.31938,-26.1006 24.06824,-45.69 -0.67348,-22.2189 -12.53352,-41.9277 -27.52578,-53.5305 -19.35862,-15.8909 -42.8219,-21.0286 -65.43112,-25.3784 -56.0086,-10.5908 -112.89429,-9.767 -169.39805,-9.7224 z"
       style="color:#000000;display:inline;overflow:visible;visibility:visible;opacity:1;fill:#ffffff;fill-opacity:1;fill-rule:nonzero;stroke:none;stroke-width:0.662427px;marker:none;enable-background:accumulate" />
    <path
       sodipodi:nodetypes="zssssz"
       inkscape:connector-curvature="0"
       id="path4040-5"
       d="m 337.90664,2081.4233 c -54.38675,1.8584 -106.96745,13.033 -158.49827,25.5917 -24.53349,8.2799 -41.75164,27.8129 -50.03037,49.5108 -11.11746,28.4536 -10.45774,61.1719 2.51148,90.5006 11.45838,23.1836 34.86442,41.5914 61.52221,50.0157 30.75861,10.9319 63.49382,14.4773 95.67422,16.9997 52.53194,3.3765 104.83464,1.5466 157.20466,1.7437 30.08548,-0.2854 60.36984,0.1955 90.04086,-3.1812 30.11709,-4.4617 59.36564,-13.6835 83.87548,-29.1018 25.26595,-17.2246 39.55289,-45.5764 39.0224,-74.6508 0.23022,-27.1885 -9.12943,-55.5877 -29.0858,-77.7838 -18.56343,-19.679 -45.41866,-31.5065 -72.33344,-38.2966 -35.99546,-9.2006 -73.04526,-8.2702 -109.52243,-9.4778 -36.81515,-1.0807 -73.63702,-2.0512 -110.381,-1.8702 z"
       style="color:#000000;display:inline;overflow:visible;visibility:visible;opacity:1;fill:#ffffff;fill-opacity:1;fill-rule:nonzero;stroke:none;stroke-width:0.988354px;marker:none;enable-background:accumulate" />
    <path
       inkscape:connector-curvature="0"
       id="path3072-6"
       d="m 624.13281,2017.4941 c 7.88518,11.9538 14.91587,25.5164 14.63617,40.2108 -0.36106,15.5888 -8.81149,29.7901 -19.45505,40.6931 -12.17127,12.9287 -28.69751,21.4925 -38.60365,36.5715 -3.38773,4.3818 -5.55844,10.7494 -2.64656,15.9242 1.47567,3.2044 5.39218,4.0443 8.53129,3.0926 10.38429,-3.2204 21.30385,-4.4672 31.54171,-8.2051 15.31225,-16.9807 28.78775,-36.6953 33.7222,-59.3564 5.03094,-21.6253 -1.14003,-45.8981 -17.1672,-61.5342 -3.89901,-3.9477 -8.24271,-7.4293 -12.75617,-10.6465 0.73242,1.0834 1.46484,2.1667 2.19726,3.25 z"
       style="color:#000000;display:inline;overflow:visible;visibility:visible;fill:#ffffff;fill-opacity:1;fill-rule:nonzero;stroke:none;stroke-width:1px;marker:none;enable-background:accumulate"
       sodipodi:nodetypes="csccc" />
    <path
       inkscape:connector-curvature="0"
       id="path3278-12"
       d="m 940.24414,1389.5059 c -19.86263,1.4393 -40.26293,3.8207 -58.26172,12.9511 -18.57924,13.9082 -29.22506,36.7235 -30.64563,59.6256 -1.80835,18.2999 8.04058,37.574 24.7551,45.706 12.51375,6.3622 26.69495,7.7145 40.22969,10.6572 25.67643,4.9661 52.04925,6.5487 78.09921,3.999 20.77721,-1.6311 41.55681,-3.5807 62.15371,-6.7892 8.974,-1.8503 18.1794,-6.2514 22.7771,-14.5755 6.1196,-10.2692 8.068,-22.292 9.952,-33.9133 2.8463,-23.0435 -6.563,-47.4709 -24.7431,-62.0613 -4.1429,-3.3932 -8.9501,-5.9221 -14.1621,-7.2012 -10.1322,-2.6647 -20.6837,-2.7533 -31.0241,-4.094 -26.29164,-2.6216 -52.6926,-4.5223 -79.13016,-4.3044 z"
       style="display:inline;fill:#ffffff;stroke:none;stroke-width:0.999998" />
    <path
       sodipodi:nodetypes="zssssz"
       inkscape:connector-curvature="0"
       id="path4040-4-9"
       d="m 975.7593,1499.6109 c -17.34399,0.228 -34.85519,1.6612 -51.11976,5.6711 -15.98565,3.3913 -31.93153,7.9874 -43.88395,15.774 -9.97881,6.9079 -18.67372,15.0253 -21.81642,24.3407 -3.23783,11.6328 -4.17917,23.8681 1.35535,35.2858 5.19689,10.3634 17.68321,18.832 32.66986,23.8062 16.61464,5.6459 35.47065,7.7158 53.9841,9.0169 18.64772,1.2383 37.36825,2.0623 56.10762,2.4407 21.3871,0.3514 42.9465,-0.068 63.9974,-2.6804 13.5662,-1.8451 26.9588,-5.4669 36.8421,-11.8388 14.4024,-8.8855 23.5774,-20.8354 27.7616,-33.249 3.2079,-10.184 2.4496,-21.2042 -4.8581,-30.6317 -7.2439,-9.0447 -19.4469,-15.8927 -31.7646,-22.0835 -11.9154,-5.9386 -25.5176,-10.9383 -40.6131,-12.5353 -25.8767,-3.2255 -52.3904,-3.4272 -78.6621,-3.3167 z"
       style="color:#000000;display:inline;overflow:visible;visibility:visible;fill:#ffffff;fill-opacity:1;fill-rule:nonzero;stroke:none;stroke-width:0.724995px;marker:none;enable-background:accumulate" />
    <path
       inkscape:connector-curvature="0"
       id="path1082"
       d="m 983.56641,1540.9258 c -1.54733,-0.2856 -2.05258,1.3831 -1.09808,2.3984 6.90218,10.2571 11.32953,22.9594 9.29144,35.4258 -3.18525,16.1922 -9.80459,32.0595 -8.65454,48.8368 1.11911,13.9602 9.60256,26.2073 19.77957,35.3316 12.7705,11.6847 29.4582,19.7033 46.9627,19.9417 8.0219,-0.01 15.9545,-1.4957 23.8661,-2.677 2.0122,-0.3242 4.0201,-0.6741 6.0305,-1.0093 -21.3519,-1.0383 -42.6896,-10.0313 -57.063,-26.075 -7.9751,-11.2144 -9.1501,-25.6661 -7.8037,-38.9741 1.2287,-16.4415 5.3972,-33.1322 1.5972,-49.5368 -2.2772,-8.038 -5.4772,-16.8645 -13.1016,-21.291 -6.15616,-2.9998 -13.18911,-2.2768 -19.80659,-2.3711 z"
       style="display:inline;fill:#ffffff;fill-rule:evenodd;stroke:none;stroke-width:1px;stroke-linecap:butt;stroke-linejoin:miter;stroke-opacity:1" />
    <path
       sodipodi:nodetypes="ccsccccsccccc"
       inkscape:connector-curvature="0"
       id="path1295"
       d="m 1933.254,1410.8683 c -17.4616,22.7763 -39.3723,39.5766 -57.282,62.0022 0,0 -28.8441,38.6564 -40.2395,96.5112 -5.8554,29.7294 -3.0199,76.4916 0.4632,104.8789 -8.0432,-29.0428 -12.8817,-52.0472 -12.8817,-52.0472 0,0 -11.3274,83.0625 -2.3977,126.1749 8.9296,43.1135 8.8172,92.2603 50.7527,124.3161 -51.2796,-39.9049 -61.596,-93.6872 -67.0642,-134.2683 -13.5488,-100.5489 -5.0623,-156.4951 -0.7888,-190.2746 5.0241,37.9036 7.7845,48.1184 7.7845,48.1184 0,0 -2.0367,-29.2668 14.4986,-83.5927 16.5353,-54.3249 54.1065,-121.429 61.6856,-129.6345 7.5793,-8.2066 45.4693,27.8156 45.4693,27.8156 z"
       style="fill:#ffffff;fill-rule:evenodd;stroke:none;stroke-width:1px;stroke-linecap:butt;stroke-linejoin:miter;stroke-opacity:1" />
  </g>
  <g
     inkscape:groupmode="layer"
     id="layer1"
     inkscape:label="txt">
    <text
       id="text4246-5-6"
       y="2020.1208"
       x="350.19086"
       style="font-style:normal;font-variant:normal;font-weight:normal;font-stretch:normal;font-size:45px;line-height:0%;font-family:Lavi;-inkscape-font-specification:Lavi;text-align:center;letter-spacing:0px;word-spacing:0px;text-anchor:middle;fill:#000000;fill-opacity:1;stroke:none;stroke-width:0.88255"
       xml:space="preserve"
       inkscape:label="king"><tspan
         id="tspan439-5"
         y="2020.1208"
         x="350.19086"
         style="font-size:45px;line-height:1.25;stroke-width:0.88255"
         sodipodi:role="line">pona, jan lili pi </tspan><tspan
         y="2076.3708"
         x="350.19086"
         style="font-size:45px;line-height:1.25;stroke-width:0.88255"
         sodipodi:role="line"
         id="tspan65">wawa nasa o.</tspan></text>
    <text
       id="text4246-5-8"
       y="2163.6487"
       x="398.12106"
       style="font-style:normal;font-variant:normal;font-weight:normal;font-stretch:normal;font-size:45px;line-height:0%;font-family:Lavi;-inkscape-font-specification:Lavi;text-align:center;letter-spacing:0px;word-spacing:0px;text-anchor:middle;fill:#000000;fill-opacity:1;stroke:none;stroke-width:0.88255"
       xml:space="preserve"
       inkscape:label="kingB"><tspan
         y="2163.6487"
         x="398.12106"
         style="font-size:45px;line-height:1.25;stroke-width:0.88255"
         sodipodi:role="line"
         id="tspan864">sina sona e wawa pona </tspan><tspan
         y="2219.8987"
         x="398.12106"
         style="font-size:45px;line-height:1.25;stroke-width:0.88255"
         sodipodi:role="line"
         id="tspan71">tawa utala mi la, o pali </tspan><tspan
         y="2276.1487"
         x="398.12106"
         style="font-size:45px;line-height:1.25;stroke-width:0.88255"
         sodipodi:role="line"
         id="tspan73">lon tenpo ni taso!</tspan><tspan
         y="2304.2737"
         x="398.12106"
         style="font-size:45px;line-height:1.25;stroke-width:0.88255"
         sodipodi:role="line"
         id="tspan858" /></text>
    <text
       id="text4246-4-81"
       y="1471.1536"
       x="965.95917"
       style="font-style:normal;font-variant:normal;font-weight:normal;font-stretch:normal;line-height:0%;font-family:Lavi;-inkscape-font-specification:Lavi;text-align:center;letter-spacing:0px;word-spacing:0px;text-anchor:middle;fill:#000000;fill-opacity:1;stroke:none"
       xml:space="preserve"
       inkscape:label="pepper"><tspan
         id="tspan4466-1"
         y="1471.1536"
         x="965.95917"
         style="font-size:45px;line-height:1.25"
         sodipodi:role="line">mi sona!</tspan></text>
    <text
       id="text4246-4-2"
       y="1570.1165"
       x="999.05402"
       style="font-style:normal;font-variant:normal;font-weight:normal;font-stretch:normal;line-height:0%;font-family:Lavi;-inkscape-font-specification:Lavi;text-align:center;letter-spacing:0px;word-spacing:0px;text-anchor:middle;fill:#000000;fill-opacity:1;stroke:none"
       xml:space="preserve"
       inkscape:label="pepperB"><tspan
         y="1570.1165"
         x="999.05402"
         style="font-size:45px;line-height:1.25"
         sodipodi:role="line"
         id="tspan907">o lukin...</tspan></text>
    <text
       inkscape:label="soundfxA"
       xml:space="preserve"
       style="font-style:normal;font-variant:normal;font-weight:normal;font-stretch:normal;line-height:0%;font-family:Lavi;-inkscape-font-specification:Lavi;letter-spacing:0px;word-spacing:0px;fill:#ffffff;fill-opacity:1;stroke:#98b9ca;stroke-width:0.714935;stroke-miterlimit:4;stroke-dasharray:none;stroke-opacity:1;filter:url(#filter4375-4-1-1-1-9-5-8-6)"
       x="787.65729"
       y="1584.5073"
       id="text4580-6-0-06-7"
       transform="matrix(1.0019251,-0.40193321,-0.06372629,1.3310734,596.66821,487.07533)"><tspan
         sodipodi:role="line"
         id="tspan4582-1-1-2-0"
         x="787.65729"
         y="1584.5073"
         style="font-size:70px;line-height:1.25;fill:#ffffff;fill-opacity:1;stroke:#98b9ca;stroke-width:0.714935;stroke-opacity:1"><tspan
           style="font-size:93.1495px;fill:#ffffff;fill-opacity:1;stroke:#98b9ca;stroke-width:0.714935;stroke-opacity:1"
           id="tspan4315-8-6-9">Sssuno !</tspan><tspan
           style="font-size:114.732px;fill:#ffffff;fill-opacity:1;stroke:#98b9ca;stroke-width:0.714935;stroke-opacity:1"
           id="tspan4313-2-1-3">!</tspan></tspan></text>
    <text
       transform="matrix(0.95264897,0,-0.256133,1.0497046,0,0)"
       id="text4246-6-9-8-8"
       y="1288.725"
       x="2498.0679"
       style="font-style:normal;font-variant:normal;font-weight:normal;font-stretch:normal;font-size:12.7808px;line-height:0%;font-family:Lavi;-inkscape-font-specification:Lavi;text-align:center;letter-spacing:0px;word-spacing:0px;text-anchor:middle;fill:#000000;fill-opacity:1;stroke:none;stroke-width:2.4;stroke-miterlimit:4;stroke-dasharray:none;stroke-opacity:1"
       xml:space="preserve"
       inkscape:label="pepperC"><tspan
         id="tspan4395-0"
         y="1288.725"
         x="2498.0679"
         style="font-style:normal;font-variant:normal;font-weight:bold;font-stretch:normal;font-size:45.7425px;line-height:1.25;font-family:Lavi;-inkscape-font-specification:'Lavi Bold';stroke:none;stroke-width:2.4;stroke-miterlimit:4;stroke-dasharray:none;stroke-opacity:1"
         sodipodi:role="line">...E </tspan><tspan
         y="1345.9031"
         x="2498.0679"
         style="font-style:normal;font-variant:normal;font-weight:bold;font-stretch:normal;font-size:45.7425px;line-height:1.25;font-family:Lavi;-inkscape-font-specification:'Lavi Bold';stroke:none;stroke-width:2.4;stroke-miterlimit:4;stroke-dasharray:none;stroke-opacity:1"
         sodipodi:role="line"
         id="tspan945">PALI SULI MI!</tspan></text>
    <text
       transform="matrix(1.2585454,-0.51781675,-0.08004832,1.7148423,946.02626,2.1829806)"
       id="text4580-6-0-06-7-2"
       y="1584.5073"
       x="787.65729"
       style="font-style:normal;font-variant:normal;font-weight:normal;font-stretch:normal;line-height:0%;font-family:Lavi;-inkscape-font-specification:Lavi;letter-spacing:0px;word-spacing:0px;fill:#ffffff;fill-opacity:1;stroke:#98b9ca;stroke-width:0.562003;stroke-miterlimit:4;stroke-dasharray:none;stroke-opacity:1;filter:url(#filter4375-4-1-1-1-9-5-8-6)"
       xml:space="preserve"
       inkscape:label="soundfxB"><tspan
         style="font-size:70px;line-height:1.25;fill:#ffffff;fill-opacity:1;stroke:#98b9ca;stroke-width:0.562003;stroke-opacity:1"
         y="1584.5073"
         x="787.65729"
         id="tspan4582-1-1-2-0-3"
         sodipodi:role="line"><tspan
           id="tspan4315-8-6-9-7"
           style="font-size:93.1495px;fill:#ffffff;fill-opacity:1;stroke:#98b9ca;stroke-width:0.562003;stroke-opacity:1">Sssuno !</tspan><tspan
           id="tspan4313-2-1-3-5"
           style="font-size:114.732px;fill:#ffffff;fill-opacity:1;stroke:#98b9ca;stroke-width:0.562003;stroke-opacity:1">!</tspan></tspan></text>
    <text
       transform="scale(0.99830099,1.0017019)"
       id="text4180"
       y="2934.5144"
       x="1656.5211"
       style="font-style:normal;font-variant:normal;font-weight:normal;font-stretch:normal;line-height:0%;font-family:Lavi;-inkscape-font-specification:Lavi;text-align:center;letter-spacing:0px;word-spacing:0px;text-anchor:middle;opacity:1;fill:#ffffff;fill-opacity:1;stroke:none"
       xml:space="preserve"
       inkscape:label="magic"><tspan
         style="font-style:normal;font-variant:normal;font-weight:normal;font-stretch:normal;font-size:50.4467px;line-height:1.25;font-family:'Drukaatie burti';-inkscape-font-specification:'Drukaatie burti'"
         y="2934.5144"
         x="1656.5211"
         sodipodi:role="line"
         id="tspan967">Antekonas </tspan><tspan
         style="font-style:normal;font-variant:normal;font-weight:normal;font-stretch:normal;font-size:50.4467px;line-height:1.25;font-family:'Drukaatie burti';-inkscape-font-specification:'Drukaatie burti'"
         y="2997.5728"
         x="1656.5211"
         sodipodi:role="line"
         id="tspan82">Lonas </tspan><tspan
         style="font-style:normal;font-variant:normal;font-weight:normal;font-stretch:normal;font-size:50.4467px;line-height:1.25;font-family:'Drukaatie burti';-inkscape-font-specification:'Drukaatie burti'"
         y="3060.6311"
         x="1656.5211"
         sodipodi:role="line"
         id="tspan86">Pepas!</tspan></text>
    <text
       transform="matrix(1.4073064,-0.76647412,-0.0895101,2.5383155,748.27548,-72.167442)"
       id="text4580-6-0-06"
       y="1584.5073"
       x="787.65729"
       style="font-style:normal;font-variant:normal;font-weight:normal;font-stretch:normal;line-height:0%;font-family:Lavi;-inkscape-font-specification:Lavi;letter-spacing:0px;word-spacing:0px;fill:#ffffff;fill-opacity:1;stroke:#98b9ca;stroke-width:0.436835;stroke-miterlimit:4;stroke-dasharray:none;stroke-opacity:1;filter:url(#filter4375-4-1-1-1-9-5-8-6)"
       xml:space="preserve"
       inkscape:label="soundfxC"><tspan
         style="font-size:70px;line-height:1.25;fill:#ffffff;fill-opacity:1;stroke:#98b9ca;stroke-width:0.436835;stroke-opacity:1"
         y="1584.5073"
         x="787.65729"
         id="tspan4582-1-1-2"
         sodipodi:role="line"><tspan
           id="tspan4315-8-6"
           style="font-size:93.1495px;fill:#ffffff;fill-opacity:1;stroke:#98b9ca;stroke-width:0.436835;stroke-opacity:1">Wwwawa !</tspan><tspan
           id="tspan4313-2-1"
           style="font-size:114.732px;fill:#ffffff;fill-opacity:1;stroke:#98b9ca;stroke-width:0.436835;stroke-opacity:1">!</tspan></tspan></text>
  </g>
</svg>
