<?xml version="1.0" encoding="UTF-8" standalone="no"?>
<!-- Created with Inkscape (http://www.inkscape.org/) -->

<svg
   id="svg2"
   version="1.1"
   inkscape:version="1.1.1 (3bf5ae0d25, 2021-09-20)"
   width="2481"
   height="3503"
   sodipodi:docname="E26P05.svg"
   xmlns:inkscape="http://www.inkscape.org/namespaces/inkscape"
   xmlns:sodipodi="http://sodipodi.sourceforge.net/DTD/sodipodi-0.dtd"
   xmlns:xlink="http://www.w3.org/1999/xlink"
   xmlns="http://www.w3.org/2000/svg"
   xmlns:svg="http://www.w3.org/2000/svg"
   xmlns:rdf="http://www.w3.org/1999/02/22-rdf-syntax-ns#"
   xmlns:cc="http://creativecommons.org/ns#"
   xmlns:dc="http://purl.org/dc/elements/1.1/">
  <metadata
     id="metadata8">
    <rdf:RDF>
      <cc:Work
         rdf:about="">
        <dc:format>image/svg+xml</dc:format>
        <dc:type
           rdf:resource="http://purl.org/dc/dcmitype/StillImage" />
      </cc:Work>
    </rdf:RDF>
  </metadata>
  <defs
     id="defs6" />
  <sodipodi:namedview
     pagecolor="#ffffff"
     bordercolor="#666666"
     borderopacity="1"
     objecttolerance="10"
     gridtolerance="10"
     guidetolerance="10"
     inkscape:pageopacity="0"
     inkscape:pageshadow="2"
     inkscape:window-width="665"
     inkscape:window-height="722"
     id="namedview4"
     showgrid="false"
     inkscape:zoom="0.48089907"
     inkscape:cx="1097.9435"
     inkscape:cy="3138.9123"
     inkscape:window-x="15"
     inkscape:window-y="15"
     inkscape:window-maximized="0"
     inkscape:current-layer="layer1"
     inkscape:snap-global="false"
     inkscape:pagecheckerboard="0" />
  <g
     inkscape:groupmode="layer"
     id="layer2"
     inkscape:label="artwork"
     sodipodi:insensitive="true">
    <image
       xlink:href="../gfx_Pepper-and-Carrot_by-David-Revoy_E26P05.png"
       y="0"
       x="0"
       id="image10"
       height="3503.9123"
       width="2481" />
  </g>
  <g
     inkscape:groupmode="layer"
     id="layer3"
     inkscape:label="speechbubbles">
    <path
       style="color:#000000;display:inline;overflow:visible;visibility:visible;fill:#ffffff;fill-opacity:1;fill-rule:nonzero;stroke:none;stroke-width:0.956825px;marker:none;enable-background:accumulate"
       d="m 675.29139,137.55926 c 22.35846,-28.29458 196.21663,-46.054058 252.38337,21.1081 56.16674,67.16216 14.57082,138.31912 -21.63775,158.97068 -36.20854,20.65167 -120.66185,27.10266 -170.05388,13.43618 -78.37438,-21.68573 -94.18896,-57.73179 -92.37894,-119.97979 0.73875,-25.40591 9.32866,-45.24049 31.6872,-73.53517 z"
       id="path4040"
       inkscape:connector-curvature="0"
       sodipodi:nodetypes="zssssz" />
    <path
       style="color:#000000;display:inline;overflow:visible;visibility:visible;fill:#ffffff;fill-opacity:1;fill-rule:nonzero;stroke:none;stroke-width:1px;marker:none;enable-background:accumulate"
       d="m 723.30366,175.8066 c 15.6509,39.1272 126.32477,118.49941 138.62187,131.91441 12.2971,13.415 38.0092,32.4196 58.1317,35.7734 20.1226,3.3537 29.8656,-15.8488 47.3048,-18.9433 14.983,-2.6587 26.47777,2.1745 35.42117,12.2357 -14.533,-25.7121 -39.12717,-25.7121 -49.18837,-21.2404 -10.0613,4.4717 -27.948,17.8867 -44.7168,5.5896 -16.7687,-12.2971 -86.0797,-88.31561 -103.96637,-91.66931 -17.8867,-3.3538 -40.245,-29.0659 -40.245,-43.5988 0,-14.533 -41.363,-10.0613 -41.363,-10.0613 z"
       id="path4562"
       inkscape:connector-curvature="0"
       sodipodi:nodetypes="cssscssssc" />
    <path
       style="color:#000000;display:inline;overflow:visible;visibility:visible;fill:#ffffff;fill-opacity:1;fill-rule:nonzero;stroke:none;stroke-width:1px;marker:none;enable-background:accumulate"
       d="m 629.44972,1457.2356 c 5.31864,112.846 187.39235,142.8215 217.19246,120.0477 -67.73192,45.7834 -243.1513,-13.454 -259.18624,-91.6691 -22.55675,-34.7368 41.99378,-28.3786 41.99378,-28.3786 z"
       id="path4480"
       inkscape:connector-curvature="0"
       sodipodi:nodetypes="cccc" />
    <path
       style="color:#000000;display:inline;overflow:visible;visibility:visible;fill:#ffffff;fill-opacity:1;fill-rule:nonzero;stroke:none;stroke-width:0.813894px;marker:none;enable-background:accumulate"
       d="m 1681.9325,1517.4852 c 6.2458,-47.4416 58.6331,-80.5244 190.4988,-67.0728 70.6342,7.2055 150.9415,13.0874 142.6137,82.6142 -8.3278,69.5266 -123.8761,63.8009 -147.8186,64.6189 -23.9426,0.818 -147.944,-10.7214 -168.6381,-35.1724 -12.9542,-15.3056 -17.6968,-30.2645 -16.6558,-44.9879 z"
       id="path4546-6"
       inkscape:connector-curvature="0"
       sodipodi:nodetypes="cssssc" />
    <path
       style="fill:#ffffff;fill-opacity:1;stroke:none;stroke-width:1.04552"
       d="m 1849.36,1642.7664 c -2.4526,-33.1575 13.8149,-49.6518 28.6265,-57.4653 18.7716,-9.9025 154.1878,-20.9391 170.5286,6.8159 15.0495,25.5615 25.742,72.5563 -19.1957,95.7706 -44.9376,23.2142 -119.9354,10.4987 -132.7017,6.278 -12.7664,-4.2208 -44.7045,-15.5227 -47.2577,-51.3992 z"
       id="path3659-8"
       inkscape:connector-curvature="0"
       sodipodi:nodetypes="cssssc" />
    <path
       style="fill:#ffffff;fill-opacity:1;fill-rule:evenodd;stroke:none;stroke-width:0.57074118px;stroke-linecap:butt;stroke-linejoin:miter;stroke-opacity:1"
       d="m 2045.2157,1752.4365 c 2.8478,6.2781 -2.7067,12.8754 -6.6854,14.9282 -4.7257,4.1933 -9.9339,3.4238 -14.756,2.3824 -4.7156,-1.6167 -8.9124,2.4725 -12.725,6.7734 -5.8446,5.4542 -13.3739,6.5511 -18.6228,1.2394 -3.9397,-3.6716 -8.4641,-8.1406 -13.7451,-5.3035 -6.2088,2.7499 -13.9137,4.8375 -18.6038,-1.7964 -2.9664,-7.3562 -9.8827,-5.3756 -15.0565,-3.3626 -6.6035,2.2865 -13.6152,3.2535 -19.5505,-0.695 -3.9688,-2.3804 -9.0795,-3.9874 -10.2159,-11.0177 -1.4774,-7.7322 -2.9448,-16.9207 -8.5192,-19.9579 -3.8972,-2.4942 -9.7267,-4.4919 -9.6976,-12.3212 1.0837,-6.8382 4.2374,-13.2886 7.0808,-18.978 7.0153,-6.9042 15.2764,0.321 23.1079,-0.7647 5.1177,-0.6887 10.1757,-3.071 14.8599,-6.8213 7.3585,-4.1094 14.4416,1.0655 21.8212,-1.2502 8.5897,-1.9266 17.2829,-0.2509 25.7891,-4.696 9.5237,-3.9035 19.6465,-0.7854 26.2121,8.5566 2.7393,4.5693 6.7227,6.697 11.0541,6.5043 5.6774,0.514 8.7552,-0.3982 11.9308,7.2374 2.6334,5.4974 1.9582,3.7813 3.3976,9.6865 1.5504,5.8484 6.7819,7.8078 7.4887,14.5687 0.4858,5.574 -4.44,9.3467 -4.5644,15.0876 z"
       id="path4367-3-5"
       inkscape:connector-curvature="0"
       sodipodi:nodetypes="ccccccccccccccccccccccc" />
    <path
       style="opacity:1;fill:#ffffff;fill-rule:evenodd;stroke:none;stroke-width:1.3443836px;stroke-linecap:butt;stroke-linejoin:miter;stroke-opacity:1"
       d="m 1542.1535,1496.6176 c 57.2733,-8.6915 60.9764,19.7045 77.6569,27.317 17.2205,7.8588 50.5803,-25.7702 66.8815,-19.2081 16.3015,6.562 20.9961,40.3754 46.6514,50.2361 25.6551,9.861 44.0985,-16.5088 14.0519,-27.3374 -30.0465,-10.8286 -24.8419,-34.9697 -49.8325,-40.9228 -41.6779,-9.928 -54.8951,20.1792 -69.9481,24.4763 -9.9661,2.8447 -19.8986,-16.3184 -38.035,-21.5527 -18.1365,-5.2344 -47.4261,6.9916 -47.4261,6.9916 z"
       id="path4272"
       inkscape:connector-curvature="0"
       sodipodi:nodetypes="csssssssc" />
    <path
       style="color:#000000;display:inline;overflow:visible;visibility:visible;fill:#ffffff;fill-opacity:1;fill-rule:nonzero;stroke:none;stroke-width:0.87176px;marker:none;enable-background:accumulate"
       d="m 1142.4856,2858.007 c -11.6468,-11.8991 -29.7748,-27.0572 23.708,-30.4462 -66.889,-28.7234 -53.5528,-75.1665 -17.3827,-87.5847 -67.2372,-1.8362 -65.4044,6.5607 30.8427,-81.4418 -96.8126,66.1666 -110.5644,71.9207 -115.4044,29.1725 -14.6476,25.1393 -42.9096,22.861 -38.0902,-14.9246 -16.7142,30.433 -61.15462,50.1779 -63.03601,4.0256 -20.87583,36.3246 -40.64507,34.0502 -61.18688,26.2072 4.26855,27.7951 3.06513,59.0126 2.20375,101.9876 -1.06945,25.3741 1.16284,30.7003 5.45989,48.2202 -3.48967,27.7698 2.60062,28.2727 5.3607,48.898 36.13143,-24.7343 36.15537,-21.8848 36.78079,9.6214 66.05216,-55.641 53.10916,-11.8845 68.00046,-3.9821 24.7362,-42.5559 49.5345,-16.5165 75.1973,-10.1949 11.4565,-48.65 27.8498,-45.0023 47.5466,-39.5582 z"
       id="path3549-3-78"
       inkscape:connector-curvature="0"
       sodipodi:nodetypes="ccccccccccccccc" />
    <path
       style="fill:#ffffff;fill-rule:evenodd;stroke:none;stroke-width:1.08786px;stroke-linecap:butt;stroke-linejoin:miter;stroke-opacity:1"
       d="m 1040.8974,2806.717 c -22.8975,64.215 -49.26466,72.7746 -79.90913,12.7138 -8.15467,20.4377 -0.76129,78.6676 -52.30477,-6.3569 5.5331,38.7216 -2.42482,49.8986 -16.1835,49.2317 v 226.6974 c 13.39042,-5.4113 23.67634,-1.0175 27.80678,22.8308 28.9754,-26.212 48.92765,-27.9814 50.8527,19.0706 27.288,-53.9416 38.59002,-32.1147 50.85112,-14.8326 41.2262,-52.0727 58.283,-12.5032 81.3612,4.2378 -4.2163,-29.1834 2.7214,-44.4248 52.3047,-6.3568 -9.3432,-18.5154 -23.3679,-38.1685 34.8699,-40.2577 -24.8729,-15.0872 -36.9623,-36.3181 -18.8887,-72.0419 -34.0213,-24.5226 -16.8101,-44.6505 14.5291,-63.5661 -45.1155,-12.3263 -37.5957,-33.6833 -17.435,-57.2092 -45.6309,22.3563 -90.9371,16.6001 -67.0361,-25.5226 -28.0421,23.2235 -47.8738,43.9887 -60.8183,-48.6383 z"
       id="path4582"
       inkscape:connector-curvature="0"
       sodipodi:nodetypes="cccccccccccccccc" />
    <path
       style="fill:#ffffff;fill-rule:evenodd;stroke:none;stroke-width:0.97864747px;stroke-linecap:butt;stroke-linejoin:miter;stroke-opacity:1"
       d="m 889.1222,3112.1477 c 26.68633,2.7051 65.76398,-10.089 44.18918,-50.8159 41.87691,28.8558 76.21162,23.8184 144.33082,-21.4911 -5.6607,63.1309 24.7852,57.2326 52.2327,45.1123 -26.342,21.244 20.9429,33.4174 46.3779,34.6108 -53.8053,45.9493 -25.5515,60.5625 -4.3504,77.8691 -52.8779,-12.8043 -40.0892,13.1396 -46.4049,27.8104 -45.3613,-33.2402 -78.3497,-25.3512 -104.4112,5.5621 -13.6306,-16.8115 -17.9091,-51.558 -68.15728,1.854 18.47745,-46.1099 -5.74243,-41.27 -44.95483,-18.5402 6.14546,-15.7057 42.67059,-39.5884 -18.85199,-37.0806 38.42816,-14.9306 46.48674,-35.1561 0,-64.8909 z"
       id="path4584"
       inkscape:connector-curvature="0"
       sodipodi:nodetypes="cccccccccccc" />
    <path
       style="fill:#ffffff;fill-opacity:1;fill-rule:evenodd;stroke:none;stroke-width:1.23005px;stroke-linecap:butt;stroke-linejoin:miter;stroke-opacity:1"
       d="m 1978.9858,2095.4121 c -20.1365,-1.455 -31.361,17.25 -47.3899,24.1978 -16.4258,3.2493 -34.7769,-8.8053 -49.6605,2.3915 -13.4677,6.4399 -28.073,18.4901 -23.3693,34.4797 1.3359,14.5148 -15.5145,23.199 -13.3596,37.512 0.6061,14.9876 19.4306,22.9474 16.4086,38.6673 -5.2301,14.4332 -16.8647,31.2861 -3.8394,45.7315 13.5424,16.4632 39.1342,7.3034 55.2693,18.313 12.9247,16.4451 28.2086,35.3547 51.6751,36.3645 21.9376,1.4166 38.3144,-13.7588 60.4179,-11.3603 16.3598,-0.2743 36.0045,13.0535 52.1807,17.0684 13.5683,-0.9747 28.8868,2.8301 40.8213,-5.2936 11.5665,-10.9424 27.4078,-9.9512 34.978,4.2911 12.7104,10.8294 31.6176,3.2684 44.8423,-2.9753 16.1429,-11.2104 30.7721,5.7337 44.7152,11.7228 18.927,8.5166 38.3179,-19.7741 48.7692,-34.174 10.0333,-15.7777 30.4775,-8.0933 45.8895,-11.1197 14.1311,-5.3118 28.2893,-16.7119 32.4635,-31.2344 -2.4256,-13.1731 -3.5371,-27.7059 5.1466,-39.5519 5.1341,-14.5929 -7.828,-26.4673 -17.6785,-35.506 -12.1466,-14.3198 8.6018,-35.7614 3.5373,-51.0443 -4.1362,-20.0832 -31.5665,-16.9172 -49.1013,-14.5343 -16.0566,3.5888 -25.7118,-8.6408 -36.2804,-17.5181 -15.9461,-14.4281 -40.4989,-18.472 -60.345,-9.1296 -17.5648,9.3712 -33.226,2.1835 -52.9515,4.8547 -14.3214,3.6209 -28.858,14.2403 -43.853,12.1074 -12.5301,-2.3973 -27.3229,14.5509 -40.4822,-1.2023 -10.5466,-12.5056 -27.7481,-4.2472 -41.6109,-0.3323 -18.4051,8.5891 -29.8879,-11.7057 -43.5847,-19.1901 -4.1243,-2.2431 -8.8324,-3.6585 -13.6083,-3.5355 z"
       id="path4367"
       inkscape:connector-curvature="0"
       sodipodi:nodetypes="cccccccccccccccccccccccccccccc" />
    <path
       style="color:#000000;display:inline;overflow:visible;visibility:visible;fill:#ffffff;fill-opacity:1;fill-rule:nonzero;stroke:none;stroke-width:1.3837055px;marker:none;enable-background:accumulate"
       d="m 2170.3615,2309.0962 c -0.3713,38.0127 6.7641,58.9988 10.8638,63.5533 4.0997,4.5543 14.1043,16.9116 18.197,24.3263 3.3617,6.1716 9.6066,12.58 5.6022,19.0563 -4.0042,6.4764 -34.1758,30.3537 -35.5389,56.2139 -1.3632,25.8606 5.3064,30.7584 16.8647,34.3062 11.5583,3.5478 26.5828,8.5604 26.6542,27.601 0.071,19.0406 -9.8738,34.7396 -15.8025,39.9571 -5.9287,5.2176 -38.3186,24.4352 -54.9686,48.0709 -8.8964,12.629 -3.6957,116.332 -77.1531,147.1353 96.1421,-38.7249 86.06,-126.0636 93.2119,-138.7724 6.2517,-11.109 19.0349,-23.9504 28.6904,-28.7662 12.35,-6.1599 23.5652,-12.3444 30.546,-25.4347 6.9807,-13.0901 15.9013,-23.3083 13.774,-42.6236 -2.1271,-19.3153 -5.4443,-39.4224 -23.4332,-41.8264 -11.5582,-3.5478 -18.351,-12.9635 -18.0761,-18.9365 0.2753,-5.9731 12.8845,-27.1311 24.7298,-33.5613 11.8453,-6.4303 16.5638,-17.6507 16.086,-29.7343 -0.4779,-12.0835 -10.5747,-31.5425 -12.3436,-41.7953 -1.7687,-10.2527 -15.6194,-65.4734 -15.6194,-65.4734 z"
       id="path5058"
       inkscape:connector-curvature="0"
       sodipodi:nodetypes="cscsssssscssssccscccc" />
  </g>
  <g
     inkscape:groupmode="layer"
     id="layer1"
     inkscape:label="txt">
    <text
       xml:space="preserve"
       style="color:#000000;font-style:normal;font-variant:normal;font-weight:normal;font-stretch:normal;font-size:14.5637px;line-height:0.01%;font-family:Arial;-inkscape-font-specification:Arial;letter-spacing:1.17454px;word-spacing:0px;display:inline;overflow:visible;visibility:visible;fill:#e69d76;fill-opacity:1;fill-rule:nonzero;stroke:#e99f77;stroke-width:2;stroke-miterlimit:4;stroke-dasharray:none;stroke-opacity:1;marker:none;enable-background:accumulate"
       x="-789.3432"
       y="134.55949"
       id="text1711-2"
       transform="matrix(-0.05075958,-0.85891373,1.1934833,0.49447225,0,0)"><tspan
         sodipodi:role="line"
         x="-787.76733"
         y="134.55949"
         id="tspan1709-8"
         style="font-style:normal;font-variant:normal;font-weight:bold;font-stretch:normal;font-family:Lavi;-inkscape-font-specification:'Lavi Bold';letter-spacing:3.1517px;word-spacing:0px;fill:#ffffff;fill-opacity:1;stroke:#ffffff;stroke-width:2;stroke-miterlimit:4;stroke-dasharray:none;stroke-opacity:1"><tspan
           x="-789.3432"
           y="134.55949"
           style="color:#000000;font-style:normal;font-variant:normal;font-weight:bold;font-stretch:normal;font-size:77.6733px;line-height:1.25;font-family:Lavi;-inkscape-font-specification:'Lavi Bold';text-align:center;letter-spacing:3.1517px;word-spacing:0px;text-anchor:middle;display:inline;overflow:visible;visibility:visible;fill:#ffffff;fill-opacity:1;fill-rule:nonzero;stroke:#ffffff;stroke-width:2;stroke-miterlimit:4;stroke-dasharray:none;stroke-opacity:1;marker:none;enable-background:accumulate"
           id="tspan1707-9"><tspan
   style="font-style:normal;font-variant:normal;font-weight:bold;font-stretch:normal;font-size:63.5789px;font-family:Lavi;-inkscape-font-specification:'Lavi Bold';letter-spacing:3.1517px;stroke-width:2;stroke-miterlimit:4;stroke-dasharray:none"
   id="tspan1156-7">Rrrruuum</tspan>!</tspan></tspan></text>
    <text
       xml:space="preserve"
       style="font-style:normal;font-variant:normal;font-weight:normal;font-stretch:normal;font-size:45px;line-height:0%;font-family:Lavi;-inkscape-font-specification:Lavi;text-align:center;letter-spacing:0px;word-spacing:0px;text-anchor:middle;white-space:pre;inline-size:267.843;fill:#000000;fill-opacity:1;stroke:none"
       x="796.22394"
       y="177.64046"
       id="text4246-5-3"><tspan
         x="796.22394"
         y="177.64046"
         id="tspan103270"><tspan
   style="line-height:1.25"
   id="tspan103268">Methad</tspan><tspan
   y="177.64046"
   id="tspan103272"> </tspan></tspan><tspan
         x="796.22394"
         y="233.89046"
         id="tspan103276"><tspan
   style="line-height:1.25"
   id="tspan103274">mesháad lezh</tspan><tspan
   y="233.89046"
   id="tspan103278"> </tspan></tspan><tspan
         x="796.22394"
         y="290.14046"
         id="tspan103282"><tspan
           style="line-height:1.25"
           id="tspan103280">nude wáa!!
</tspan></tspan></text>
    <text
       xml:space="preserve"
       style="color:#000000;font-style:normal;font-variant:normal;font-weight:normal;font-stretch:normal;font-size:10.939px;line-height:0.01%;font-family:Arial;-inkscape-font-specification:Arial;letter-spacing:0.882204px;word-spacing:0px;display:inline;overflow:visible;visibility:visible;fill:#e69d76;fill-opacity:1;fill-rule:nonzero;stroke:#e99f77;stroke-width:2;stroke-miterlimit:4;stroke-dasharray:none;stroke-opacity:1;marker:none;enable-background:accumulate"
       x="224.66396"
       y="1548.6953"
       id="text1711-2-3"
       transform="matrix(-0.02665862,-0.84533119,1.1912388,0.26225273,0,0)"><tspan
         sodipodi:role="line"
         x="225.8476"
         y="1548.6953"
         id="tspan1709-8-6"
         style="font-style:normal;font-variant:normal;font-weight:bold;font-stretch:normal;font-family:Lavi;-inkscape-font-specification:'Lavi Bold';letter-spacing:2.36727px;word-spacing:0px;fill:#ffffff;fill-opacity:1;stroke:#ffffff;stroke-width:2;stroke-miterlimit:4;stroke-dasharray:none;stroke-opacity:1"><tspan
           x="224.66396"
           y="1548.6953"
           style="color:#000000;font-style:normal;font-variant:normal;font-weight:bold;font-stretch:normal;font-size:58.3411px;line-height:1.25;font-family:Lavi;-inkscape-font-specification:'Lavi Bold';text-align:center;letter-spacing:2.36727px;word-spacing:0px;text-anchor:middle;display:inline;overflow:visible;visibility:visible;fill:#ffffff;fill-opacity:1;fill-rule:nonzero;stroke:#ffffff;stroke-width:2;stroke-miterlimit:4;stroke-dasharray:none;stroke-opacity:1;marker:none;enable-background:accumulate"
           id="tspan1707-9-7">Wuuub!</tspan></tspan></text>
    <path
       style="fill:#ffffff;fill-opacity:1;fill-rule:evenodd;stroke:none;stroke-width:0.9326129px;stroke-linecap:butt;stroke-linejoin:miter;stroke-opacity:1"
       d="m 337.8574,1202.3778 c -6.6742,-8.5996 1.61188,-19.3901 8.21833,-23.2096 7.40645,-7.1039 16.92229,-7.0471 25.81571,-6.5131 8.84698,1.3971 15.33255,-5.4459 21.07721,-12.5198 9.0924,-9.1782 22.29458,-12.3279 33.02412,-5.6348 7.97424,4.5624 17.1955,10.1714 25.93609,4.9375 10.4235,-5.2969 23.69134,-9.9318 33.75259,-1.1899 7.15722,10.1523 19.04019,5.8356 27.796,1.8292 11.24623,-4.6999 23.55466,-7.5533 35.17073,-2.9954 7.70197,2.6678 17.25376,3.9699 21.05348,14.0209 4.58625,11.0078 9.52022,24.1481 20.26112,27.4471 7.60272,2.8488 18.5393,4.575 20.45326,16.0339 -0.22279,10.2257 -4.24825,20.309 -7.90926,29.2151 -10.82405,11.5394 -27.42592,2.6654 -41.172,5.8607 -8.98795,2.0576 -17.44373,6.5807 -24.88679,13.028 -12.14017,7.5216 -26.11864,1.4049 -38.74673,6.3068 -14.89227,4.5811 -30.87408,3.9138 -44.98427,12.162 -16.0674,7.6646 -34.97082,5.1806 -49.06923,-7.1381 -6.05085,-6.1221 -13.71569,-8.4171 -21.4206,-7.2464 -10.29187,0.4132 -15.57209,2.3794 -23.17406,-8.1387 -6.09402,-7.5017 -4.4547,-5.1298 -8.514,-13.4728 -4.24387,-8.2372 -14.10059,-10.0299 -17.06344,-19.7751 -2.26948,-8.0541 5.60073,-14.584 4.38174,-23.0075 z"
       id="path4367-3"
       inkscape:connector-curvature="0"
       sodipodi:nodetypes="ccccccccccccccccccccccc" />
    <path
       style="color:#000000;display:inline;overflow:visible;visibility:visible;fill:#ffffff;fill-opacity:1;fill-rule:nonzero;stroke:none;stroke-width:1.2606px;marker:none;enable-background:accumulate"
       d="m 396.12453,1263.1003 c 51.71185,-38.7655 281.03133,-60.8245 376.95399,14.6962 95.92261,75.5207 61.96425,180.9783 6.92658,209.8134 -55.03754,28.8352 -225.11521,39.3072 -303.02487,27.2248 -132.04565,-20.4777 -142.58518,-65.5663 -146.34339,-141.2153 -1.53387,-30.8754 13.77587,-71.7536 65.48769,-110.5191 z"
       id="path4040-3"
       inkscape:connector-curvature="0"
       sodipodi:nodetypes="zssssz" />
    <text
       xml:space="preserve"
       style="font-style:normal;font-variant:normal;font-weight:normal;font-stretch:normal;font-size:45px;line-height:0%;font-family:Lavi;-inkscape-font-specification:'Lavi, Normal';font-variant-ligatures:normal;font-variant-caps:normal;font-variant-numeric:normal;font-feature-settings:normal;text-align:center;letter-spacing:0px;word-spacing:0px;writing-mode:lr-tb;text-anchor:middle;white-space:pre;inline-size:400.149;fill:#000000;fill-opacity:1;stroke:none"
       x="584.40906"
       y="1305.2369"
       id="text4246-5-3-5"
       transform="translate(0,2)"><tspan
         x="584.40906"
         y="1305.2369"
         id="tspan103286"><tspan
   style="line-height:1.25"
   id="tspan103284">Báa dósháad le</tspan><tspan
   y="1305.2369"
   id="tspan103288"> </tspan></tspan><tspan
         x="584.40906"
         y="1361.487"
         id="tspan103292"><tspan
   style="line-height:1.25"
   id="tspan103290">&quot;dal&quot; hith bebáanal?</tspan><tspan
   y="1361.487"
   id="tspan103294"> </tspan></tspan><tspan
         x="584.40906"
         y="1417.737"
         id="tspan103298"><tspan
   style="line-height:1.25"
   id="tspan103296">Bíi edeláad le úthú</tspan><tspan
   y="1417.737"
   id="tspan103300"> </tspan></tspan><tspan
         x="584.40906"
         y="1473.987"
         id="tspan103304"><tspan
           style="line-height:1.25"
           id="tspan103302">di áabe...</tspan></tspan></text>
    <text
       xml:space="preserve"
       style="font-style:normal;font-variant:normal;font-weight:normal;font-stretch:normal;font-size:34.6667px;line-height:0%;font-family:Lavi;-inkscape-font-specification:Lavi;text-align:center;letter-spacing:0px;word-spacing:0px;text-anchor:middle;white-space:pre;inline-size:276.068;fill:#000000;fill-opacity:1;stroke:none;stroke-width:0.769806"
       x="1847.3668"
       y="1512.6697"
       id="text4246-5-3-5-7"><tspan
         x="1847.3668"
         y="1512.6697"
         id="tspan103308"><tspan
   style="line-height:1.25"
   id="tspan103306">Ámed... Báa thad</tspan><tspan
   y="1512.6697"
   id="tspan103310"> </tspan></tspan><tspan
         x="1847.3668"
         y="1556.003"
         id="tspan103314"><tspan
           style="line-height:1.25"
           id="tspan103312">wéedan ne beth?</tspan></tspan></text>
    <text
       xml:space="preserve"
       style="font-style:normal;font-variant:normal;font-weight:normal;font-stretch:normal;font-size:30.6667px;line-height:0%;font-family:Lavi;-inkscape-font-specification:Lavi;text-align:center;letter-spacing:0px;word-spacing:0px;text-anchor:middle;white-space:pre;inline-size:189.773;fill:#000000;fill-opacity:1;stroke:none;stroke-width:0.790862"
       x="1955.5698"
       y="1632.374"
       id="text4246-5-3-5-7-6"><tspan
         x="1955.5698"
         y="1632.374"
         id="tspan103318"><tspan
   style="line-height:1.25"
   id="tspan103316">Mm... thad</tspan><tspan
   y="1632.374"
   id="tspan103320"> </tspan></tspan><tspan
         x="1955.5698"
         y="1670.7074"
         id="tspan103326"><tspan
   style="line-height:1.25"
   id="tspan103322">ra</tspan> <tspan
   style="line-height:1.25"
   id="tspan103324">ne wi...</tspan></tspan></text>
    <text
       xml:space="preserve"
       style="font-style:normal;font-variant:normal;font-weight:normal;font-stretch:normal;font-size:26.6667px;line-height:0%;font-family:Lavi;-inkscape-font-specification:Lavi;text-align:center;letter-spacing:0px;word-spacing:0px;text-anchor:middle;white-space:pre;inline-size:80.6455;fill:#000000;fill-opacity:1;stroke:none;stroke-width:0.87362"
       x="1984.7023"
       y="1743.8298"
       id="text4246-5-3-5-7-6-2"><tspan
         x="1984.7023"
         y="1743.8298"
         id="tspan103330"><tspan
           style="line-height:1.25"
           id="tspan103328">Lhlh...
</tspan></tspan></text>
    <text
       xml:space="preserve"
       style="color:#000000;font-style:normal;font-variant:normal;font-weight:normal;font-stretch:normal;font-size:13.6801px;line-height:0.01%;font-family:Arial;-inkscape-font-specification:Arial;letter-spacing:1.10327px;word-spacing:0px;display:inline;overflow:visible;visibility:visible;fill:#e69d76;fill-opacity:1;fill-rule:nonzero;stroke:#e99f77;stroke-width:0;stroke-miterlimit:4;stroke-dasharray:none;stroke-opacity:1;marker:none;enable-background:accumulate"
       x="2813.7102"
       y="434.09442"
       id="text1711-2-3-9"
       transform="matrix(0.8793411,0.03700556,-0.36761453,1.1217447,0,0)"><tspan
         sodipodi:role="line"
         x="2815.1904"
         y="434.09442"
         id="tspan1709-8-6-2"
         style="font-style:normal;font-variant:normal;font-weight:bold;font-stretch:normal;font-family:Lavi;-inkscape-font-specification:'Lavi Bold';letter-spacing:2.96047px;word-spacing:0px;fill:#ffffff;fill-opacity:1;stroke:#ffffff;stroke-width:0;stroke-miterlimit:4;stroke-dasharray:none;stroke-opacity:1"><tspan
           x="2813.7102"
           y="434.09442"
           style="color:#000000;font-style:normal;font-variant:normal;font-weight:bold;font-stretch:normal;font-size:72.9606px;line-height:1.25;font-family:Lavi;-inkscape-font-specification:'Lavi Bold';text-align:center;letter-spacing:2.96047px;word-spacing:0px;text-anchor:middle;display:inline;overflow:visible;visibility:visible;fill:#ffffff;fill-opacity:1;fill-rule:nonzero;stroke:#ffffff;stroke-width:0;stroke-miterlimit:4;stroke-dasharray:none;stroke-opacity:1;marker:none;enable-background:accumulate"
           id="tspan1707-9-7-2">?!</tspan></tspan></text>
    <text
       xml:space="preserve"
       style="font-style:normal;font-variant:normal;font-weight:normal;font-stretch:normal;font-size:53.3333px;line-height:1.25;font-family:Lavi;-inkscape-font-specification:Lavi;text-align:center;letter-spacing:0px;word-spacing:0px;text-anchor:middle;white-space:pre;inline-size:205.212;fill:#000000;fill-opacity:1;stroke:none"
       x="1035.7271"
       y="3170.3809"
       id="text4246-5-3-5-5"><tspan
         x="1035.7271"
         y="3170.3809"
         id="tspan103334"><tspan
           style="font-weight:bold;-inkscape-font-specification:'Lavi Bold'"
           id="tspan103332">Lhlhlh!!!
</tspan></tspan></text>
    <text
       xml:space="preserve"
       style="font-style:normal;font-variant:normal;font-weight:normal;font-stretch:normal;font-size:41.7012px;line-height:0%;font-family:Lavi;-inkscape-font-specification:Lavi;text-align:center;letter-spacing:0px;word-spacing:0px;text-anchor:middle;white-space:pre;inline-size:195.423;fill:#000000;fill-opacity:1;stroke:none;stroke-width:0.893597"
       x="1024.2609"
       y="2804.3015"
       id="text4246-5-3-5-5-9"
       transform="translate(-12,-38)"><tspan
         x="1024.2609"
         y="2804.3015"
         id="tspan103338"><tspan
   style="font-weight:bold;line-height:1.25;-inkscape-font-specification:'Lavi Bold'"
   id="tspan103336">ERIL</tspan><tspan
   y="2804.3015"
   id="tspan103340"> </tspan></tspan><tspan
         x="1024.2609"
         y="2856.4279"
         id="tspan103344"><tspan
   style="font-weight:bold;line-height:1.25;-inkscape-font-specification:'Lavi Bold'"
   id="tspan103342">LOTHEL</tspan><tspan
   y="2856.4279"
   id="tspan103346"> </tspan></tspan><tspan
         x="1024.2609"
         y="2908.5543"
         id="tspan103350"><tspan
           style="font-weight:bold;line-height:1.25;-inkscape-font-specification:'Lavi Bold'"
           id="tspan103348">LE WA!!!</tspan></tspan></text>
    <text
       xml:space="preserve"
       style="font-style:normal;font-variant:normal;font-weight:normal;font-stretch:normal;font-size:45px;line-height:0%;font-family:Lavi;-inkscape-font-specification:Lavi;text-align:center;letter-spacing:0px;word-spacing:0px;text-anchor:middle;white-space:pre;inline-size:161.717;fill:#000000;fill-opacity:1;stroke:none"
       x="1051.8331"
       y="2949.2583"
       id="text4246-5-3-5-9"
       transform="translate(-16)"><tspan
         x="1051.8331"
         y="2949.2583"
         id="tspan103354"><tspan
   style="line-height:1.25"
   id="tspan103352">Eril</tspan><tspan
   y="2949.2583"
   id="tspan103356"> </tspan></tspan><tspan
         x="1051.8331"
         y="3005.5082"
         id="tspan103360"><tspan
   style="line-height:1.25"
   id="tspan103358">ralorolo</tspan><tspan
   y="3005.5082"
   id="tspan103362"> </tspan></tspan><tspan
         x="1051.8331"
         y="3061.7582"
         id="tspan103366"><tspan
           style="line-height:1.25"
           id="tspan103364">be wa!</tspan></tspan></text>
    <text
       xml:space="preserve"
       style="font-style:normal;font-variant:normal;font-weight:normal;font-stretch:normal;font-size:45px;line-height:0%;font-family:Lavi;-inkscape-font-specification:Lavi;text-align:center;letter-spacing:0px;word-spacing:0px;text-anchor:middle;white-space:pre;inline-size:475.384;fill:#000000;fill-opacity:1;stroke:none"
       x="2107.0674"
       y="2183.5332"
       id="text4246-5-3-5-9-2"><tspan
         x="2107.0674"
         y="2183.5332"
         id="tspan103370"><tspan
   style="line-height:1.25"
   id="tspan103368">Rilrili methad medóthal</tspan><tspan
   y="2183.5332"
   id="tspan103372"> </tspan></tspan><tspan
         x="2107.0674"
         y="2239.7831"
         id="tspan103376"><tspan
   style="line-height:1.25"
   id="tspan103374">ra áabe abesheth</tspan><tspan
   y="2239.7831"
   id="tspan103378"> </tspan></tspan><tspan
         x="2107.0674"
         y="2296.0331"
         id="tspan103382"><tspan
           style="line-height:1.25"
           id="tspan103380">hadihad wa...</tspan></tspan></text>
    <text
       xml:space="preserve"
       style="color:#000000;font-style:normal;font-variant:normal;font-weight:normal;font-stretch:normal;font-size:10.939px;line-height:0.01%;font-family:Arial;-inkscape-font-specification:Arial;letter-spacing:0.882204px;word-spacing:0px;display:inline;overflow:visible;visibility:visible;fill:#e69d76;fill-opacity:1;fill-rule:nonzero;stroke:#e99f77;stroke-width:2;stroke-miterlimit:4;stroke-dasharray:none;stroke-opacity:1;marker:none;enable-background:accumulate"
       x="4271.3828"
       y="2071.3848"
       id="text1711-2-3-1"
       transform="matrix(0.79338838,0.2929682,-0.69069394,1.0053697,0,0)"><tspan
         sodipodi:role="line"
         x="4272.5664"
         y="2071.3848"
         id="tspan1709-8-6-29"
         style="font-style:normal;font-variant:normal;font-weight:bold;font-stretch:normal;font-family:Lavi;-inkscape-font-specification:'Lavi Bold';letter-spacing:2.36727px;word-spacing:0px;fill:#ffffff;fill-opacity:1;stroke:#ffffff;stroke-width:2;stroke-miterlimit:4;stroke-dasharray:none;stroke-opacity:1"><tspan
           x="4271.3828"
           y="2071.3848"
           style="color:#000000;font-style:normal;font-variant:normal;font-weight:bold;font-stretch:normal;font-size:58.3411px;line-height:1.25;font-family:Lavi;-inkscape-font-specification:'Lavi Bold';text-align:center;letter-spacing:2.36727px;word-spacing:0px;text-anchor:middle;display:inline;overflow:visible;visibility:visible;fill:#ffffff;fill-opacity:1;fill-rule:nonzero;stroke:#ffffff;stroke-width:2;stroke-miterlimit:4;stroke-dasharray:none;stroke-opacity:1;marker:none;enable-background:accumulate"
           id="tspan1707-9-7-3">Heb!</tspan></tspan></text>
    <text
       xml:space="preserve"
       style="font-style:normal;font-variant:normal;font-weight:normal;font-stretch:normal;font-size:53.3333px;line-height:0%;font-family:Lavi;-inkscape-font-specification:Lavi;text-align:center;letter-spacing:0px;word-spacing:0px;text-anchor:middle;fill:#000000;fill-opacity:1;stroke:none"
       x="480.21338"
       y="1231.5508"
       id="text4246-5-3-7-2-0"><tspan
         sodipodi:role="line"
         x="480.21338"
         y="1231.5508"
         id="tspan917-6-7-6"
         style="font-style:normal;font-variant:normal;font-weight:bold;font-stretch:normal;font-size:53.3333px;line-height:1.25;font-family:Lavi;-inkscape-font-specification:'Lavi Bold'">Ílhilh...</tspan></text>
    <text
       xml:space="preserve"
       style="font-size:40px;line-height:1.25;font-family:'Yanone Kaffeesatz';-inkscape-font-specification:'Yanone Kaffeesatz';text-align:center;text-anchor:middle"
       x="1332.4438"
       y="2973.2583"
       id="text252507"><tspan
         sodipodi:role="line"
         id="tspan252505"
         x="1332.4438"
         y="2973.2583" /></text>
  </g>
</svg>
