<?xml version="1.0" encoding="UTF-8" standalone="no"?>
<!-- Created with Inkscape (http://www.inkscape.org/) -->

<svg
   id="svg2"
   version="1.1"
   inkscape:version="1.1.1 (3bf5ae0d25, 2021-09-20)"
   width="2481"
   height="3503"
   sodipodi:docname="E26P04.svg"
   xmlns:inkscape="http://www.inkscape.org/namespaces/inkscape"
   xmlns:sodipodi="http://sodipodi.sourceforge.net/DTD/sodipodi-0.dtd"
   xmlns:xlink="http://www.w3.org/1999/xlink"
   xmlns="http://www.w3.org/2000/svg"
   xmlns:svg="http://www.w3.org/2000/svg"
   xmlns:rdf="http://www.w3.org/1999/02/22-rdf-syntax-ns#"
   xmlns:cc="http://creativecommons.org/ns#"
   xmlns:dc="http://purl.org/dc/elements/1.1/">
  <metadata
     id="metadata8">
    <rdf:RDF>
      <cc:Work
         rdf:about="">
        <dc:format>image/svg+xml</dc:format>
        <dc:type
           rdf:resource="http://purl.org/dc/dcmitype/StillImage" />
      </cc:Work>
    </rdf:RDF>
  </metadata>
  <defs
     id="defs6" />
  <sodipodi:namedview
     pagecolor="#ffffff"
     bordercolor="#666666"
     borderopacity="1"
     objecttolerance="10"
     gridtolerance="10"
     guidetolerance="10"
     inkscape:pageopacity="0"
     inkscape:pageshadow="2"
     inkscape:window-width="1336"
     inkscape:window-height="725"
     id="namedview4"
     showgrid="false"
     inkscape:zoom="0.46610883"
     inkscape:cx="1258.2898"
     inkscape:cy="2370.691"
     inkscape:window-x="15"
     inkscape:window-y="15"
     inkscape:window-maximized="0"
     inkscape:current-layer="layer1"
     inkscape:pagecheckerboard="0" />
  <g
     inkscape:groupmode="layer"
     id="layer2"
     inkscape:label="artwork"
     sodipodi:insensitive="true">
    <image
       xlink:href="../gfx_Pepper-and-Carrot_by-David-Revoy_E26P04.png"
       y="0"
       x="0"
       id="image10"
       height="3503.9123"
       width="2481" />
  </g>
  <g
     inkscape:groupmode="layer"
     id="layer3"
     inkscape:label="speechbubbles">
    <path
       style="color:#000000;display:inline;overflow:visible;visibility:visible;fill:#ffffff;fill-opacity:1;fill-rule:nonzero;stroke:none;stroke-width:1.94898546px;marker:none;enable-background:accumulate"
       d="m 77.729558,1506.9232 c -5.203345,-67.4656 -3.584614,-126.5765 5.07845,-182.4591 5.380075,-34.7051 174.476322,-42.9783 232.850102,-36.6628 49.82002,5.3902 162.77122,20.0737 187.06565,68.4983 24.29455,48.4244 27.97666,123.5623 23.41598,170.8309 -4.56055,47.2686 -10.10107,57.3541 -55.60984,97.2147 -23.25795,20.3713 -158.58687,32.6947 -213.03592,35.7285 -56.14206,3.132 -134.3364,0.576 -162.01309,-31.0665 -28.05877,-32.079 -12.548133,-54.6183 -17.751332,-122.084 z"
       id="path3373"
       inkscape:connector-curvature="0"
       sodipodi:nodetypes="zsssssssz" />
    <path
       style="color:#000000;display:inline;overflow:visible;visibility:visible;fill:#ffffff;fill-opacity:1;fill-rule:nonzero;stroke:none;stroke-width:0.95470774;marker:none;enable-background:accumulate"
       d="M 369.79142,809.84364 C 305.75829,762.35821 198.20492,558.84155 249.43665,362.79562 266.81502,310.92732 307.36394,84.8784 238.16093,303.5743 c -69.203,218.6959 9.34385,417.00687 131.63049,506.26934 z"
       id="path3010"
       inkscape:connector-curvature="0"
       sodipodi:nodetypes="cczc" />
    <path
       style="color:#000000;display:inline;overflow:visible;visibility:visible;fill:#ffffff;fill-opacity:1;fill-rule:nonzero;stroke:none;stroke-width:0.92846394px;marker:none;enable-background:accumulate"
       d="m 760.75243,1017.8265 c -22.47857,-11.219 -27.79905,-26.61133 -25.55111,-33.02225 2.24784,-6.41084 22.47847,-39.26666 47.20477,-43.27347 24.72641,-4.00682 88.79012,-8.81495 103.40117,-4.80813 14.6111,4.00673 56.19637,30.45171 56.19637,44.07478 0,13.62316 -7.86752,40.06807 -30.34602,48.08167 -22.47851,8.0136 -123.93104,0.7406 -150.90518,-11.0526 z"
       id="path3349"
       inkscape:connector-curvature="0"
       sodipodi:nodetypes="ccscssc" />
    <path
       style="color:#000000;display:inline;overflow:visible;visibility:visible;fill:#ffffff;fill-opacity:1;fill-rule:nonzero;stroke:none;stroke-width:0.739312px;marker:none;enable-background:accumulate"
       d="m 776.35171,1040.7065 c 24.66606,-19.1279 176.28332,-45.51844 231.67799,-0.538 55.395,44.9805 23.1583,95.8588 -8.62567,113.0331 -31.78386,17.1742 -130.57719,14.5006 -175.66299,7.9998 -51.28916,-7.3953 -74.90313,-17.1485 -77.07349,-62.2056 -0.8858,-18.3894 5.0181,-39.1614 29.68416,-58.2893 z"
       id="path4040"
       inkscape:connector-curvature="0"
       sodipodi:nodetypes="zssssz" />
    <path
       style="color:#000000;display:inline;overflow:visible;visibility:visible;fill:#ffffff;fill-opacity:1;fill-rule:nonzero;stroke:none;stroke-width:0.922041px;marker:none;enable-background:accumulate"
       d="m 1553.5568,1197.7678 c -11.0474,-27.1301 10.86,-128.1613 106.4044,-121.2827 95.5443,6.8785 111.08,46.1846 113.4103,57.9765 2.3304,11.7918 31.494,79.3077 -43.0771,96.9956 -74.5713,17.6877 -153.4341,11.5127 -176.7376,-33.6894 z"
       id="path3525"
       inkscape:connector-curvature="0"
       sodipodi:nodetypes="csssc" />
    <path
       style="color:#000000;display:inline;overflow:visible;visibility:visible;fill:#ffffff;fill-opacity:1;fill-rule:nonzero;stroke:none;stroke-width:1px;marker:none;enable-background:accumulate"
       d="m 938.35118,1086.2126 c 69.98612,31.0197 98.42482,29.5718 151.73632,-4.4587 -31.1182,24.6589 -43.6342,55.9553 -145.08715,33.1222 -40.4073,-9.0941 -6.64917,-28.6635 -6.64917,-28.6635 z"
       id="path4480"
       inkscape:connector-curvature="0"
       sodipodi:nodetypes="ccsc" />
    <path
       style="color:#000000;display:inline;overflow:visible;visibility:visible;fill:#ffffff;fill-opacity:1;fill-rule:nonzero;stroke:none;stroke-width:1px;marker:none;enable-background:accumulate"
       d="m 1496.1025,1128.3709 c 34.6297,22.4436 48.151,28.3727 87.526,0.3521 39.375,-28.0207 48.7701,-12.382 48.7701,-12.382 l -12.8989,31.2148 c 0,0 -87.8568,53.5997 -123.3972,-19.1849 z"
       id="path3072"
       inkscape:connector-curvature="0" />
    <path
       style="color:#000000;display:inline;overflow:visible;visibility:visible;fill:#ffffff;fill-opacity:1;fill-rule:nonzero;stroke:none;stroke-width:0.74193799px;marker:none;enable-background:accumulate"
       d="m 1921.2747,183.12255 c -0.7336,-19.20925 5.8514,-26.39203 36.6602,-38.93681 30.809,-12.54478 60.0351,-6.41212 87.8924,-3.85385 32.0305,2.94151 66.1693,7.50842 77.1725,21.62136 11.0032,14.11286 19.8057,19.60121 16.1379,32.93007 -3.6677,13.32878 -7.3354,27.44172 -20.5392,32.14599 -13.2039,4.70434 -107.0977,10.97669 -122.5021,7.84051 -15.4046,-3.13617 -40.3451,-3.92026 -53.5488,-13.32886 -13.3861,-9.53839 -20.5394,-19.20917 -21.2729,-38.41841 z"
       id="path3373-0"
       inkscape:connector-curvature="0"
       sodipodi:nodetypes="zsssssssz" />
    <path
       style="color:#000000;display:inline;overflow:visible;visibility:visible;fill:#ffffff;fill-opacity:1;fill-rule:nonzero;stroke:none;stroke-width:1.17602px;marker:none;enable-background:accumulate"
       d="m 1870.6334,275.99898 c 3.3516,-45.42743 45.8034,-55.43685 90.4897,-57.74673 44.6865,-2.30988 62.561,4.61975 74.8499,6.1596 12.2886,1.53995 127.2943,-3.79007 142.9962,-3.07979 34.0425,1.53994 89.3728,22.32874 86.0212,58.51664 -3.3515,36.18791 -53.6235,51.58702 -105.013,53.89689 -51.3893,2.30988 -156.4021,0 -182.0966,4.61975 -25.6948,4.61975 -99.4273,-3.0798 -107.2474,-62.36645 z"
       id="path5034"
       inkscape:connector-curvature="0"
       sodipodi:nodetypes="sssssssss" />
    <path
       style="color:#000000;display:inline;overflow:visible;visibility:visible;fill:#ffffff;fill-opacity:1;fill-rule:nonzero;stroke:none;stroke-width:1px;marker:none;enable-background:accumulate"
       d="m 2014.1421,464.34286 c -57.0243,-41.23372 -60.4397,-86.77108 -49.5441,-144.9504 10.8956,-58.17932 39.6811,-24.31559 39.6811,-24.31559 0,0 -65.1914,100.00192 9.863,169.26599 z"
       id="path5002"
       inkscape:connector-curvature="0"
       sodipodi:nodetypes="cscc" />
    <path
       style="color:#000000;display:inline;overflow:visible;visibility:visible;fill:#ffffff;fill-opacity:1;fill-rule:nonzero;stroke:none;stroke-width:0.77729px;marker:none;enable-background:accumulate"
       d="m 1700.4279,2224.4771 c 1.9548,12.6252 -20.2332,66.0408 -111.3756,61.8839 -91.1424,-4.157 -112.9427,-36.8339 -112.8192,-53.7968 0.1234,-16.963 21.4964,-44.2602 34.7426,-49.1276 13.2461,-4.8673 52.126,-15.6749 87.6192,-10.6767 39.5028,5.5627 74.284,12.3263 88.2445,26.9259 13.9604,14.5994 11.9752,21.4764 13.5885,24.7913 z"
       id="path3365"
       inkscape:connector-curvature="0"
       sodipodi:nodetypes="ccccscc" />
    <path
       style="color:#000000;display:inline;overflow:visible;visibility:visible;fill:#ffffff;fill-opacity:1;fill-rule:nonzero;stroke:none;stroke-width:1.68368px;marker:none;enable-background:accumulate"
       d="m 1462.4253,2294.68 c 27.132,-74.9294 231.9354,-48.306 284.0098,-35.2684 69.2077,17.3272 83.1187,45.6414 85.2996,87.1583 4.1524,79.0509 -40.0167,169.6149 -71.4764,188.9289 -31.4597,19.3136 -91.8412,45.0034 -122.8259,44.658 -30.9849,-0.3455 -102.3689,-22.6616 -126.7029,-51.7119 -23.2781,-27.7899 -75.4362,-158.8355 -48.3042,-233.7649 z"
       id="path3330"
       inkscape:connector-curvature="0"
       sodipodi:nodetypes="zsssssz" />
    <path
       style="color:#000000;display:inline;overflow:visible;visibility:visible;fill:#ffffff;fill-opacity:1;fill-rule:nonzero;stroke:none;stroke-width:1.07720649px;marker:none;enable-background:accumulate"
       d="m 1664.135,2448.2545 c -69.9893,51.1328 8.9085,162.5856 132.4832,191.8362 -158.9941,-19.5502 -214.8639,-129.8242 -184.2863,-182.6082 -12.1609,-26.4834 51.8031,-9.228 51.8031,-9.228 z"
       id="path4008"
       inkscape:connector-curvature="0"
       sodipodi:nodetypes="cccc" />
    <path
       style="color:#000000;display:inline;overflow:visible;visibility:visible;fill:#ffffff;fill-opacity:1;fill-rule:nonzero;stroke:none;stroke-width:0.923379px;marker:none;enable-background:accumulate"
       d="M 91.805509,69.839589 C 118.1593,44.819976 385.28934,40.715221 407.96113,125.92711 430.41854,210.33325 374.70978,280.0548 333.88081,296.7344 293.05197,313.41403 170.58392,330.08958 120.32725,309.42951 53.662925,282.02438 38.98534,238.1613 45.525484,179.35037 48.194771,155.34755 65.45156,94.859486 91.805509,69.839589 Z"
       id="path4040-0"
       inkscape:connector-curvature="0"
       sodipodi:nodetypes="zssssz" />
    <path
       style="color:#000000;display:inline;overflow:visible;visibility:visible;fill:#ffffff;fill-opacity:1;fill-rule:nonzero;stroke:none;stroke-width:1.31624353px;marker:none;enable-background:accumulate"
       d="m 439.87684,468.55748 c 4.06309,22.56052 -27.2505,120.08167 -172.70425,118.8051 -145.45375,-1.27676 -182.62914,-58.53066 -183.709075,-89.02936 -1.0801,-30.49886 30.901265,-81.01756 51.629025,-90.66695 20.72762,-9.64922 81.82907,-31.71839 138.72683,-25.1469 63.32539,7.31362 119.22219,17.10676 142.55253,42.40015 23.33015,25.29305 20.68633,37.78918 23.50494,43.63796 z"
       id="path3365-6"
       inkscape:connector-curvature="0"
       sodipodi:nodetypes="ccccscc" />
    <path
       style="color:#000000;display:inline;overflow:visible;visibility:visible;fill:#ffffff;fill-opacity:1;fill-rule:nonzero;stroke:none;stroke-width:1.17923069px;marker:none;enable-background:accumulate"
       d="m 421.00062,1204.9587 c -82.04637,41.839 -98.69807,91.9551 -101.02486,156.986 -2.32681,65.0308 42.64616,29.4851 42.64616,29.4851 0,0 -53.69551,-114.8291 58.3787,-186.4711 z"
       id="path5002-1"
       inkscape:connector-curvature="0"
       sodipodi:nodetypes="cscc" />
  </g>
  <g
     inkscape:groupmode="layer"
     id="layer1"
     inkscape:label="txt">
    <text
       xml:space="preserve"
       style="font-style:normal;font-variant:normal;font-weight:normal;font-stretch:normal;line-height:0%;font-family:Lavi;-inkscape-font-specification:Lavi;text-align:center;letter-spacing:0px;word-spacing:0px;text-anchor:middle;white-space:pre;inline-size:364.182;fill:#000000;fill-opacity:1;stroke:none;font-size:45px"
       x="129.66629"
       y="1365.2563"
       id="text4246-5-5"
       transform="translate(170)"><tspan
         x="129.66629"
         y="1365.2563"
         id="tspan77663"><tspan
   style="font-style:italic;line-height:1.25;-inkscape-font-specification:'Lavi Italic';text-align:start;text-anchor:start"
   id="tspan77661">“Bíidi beróo eril</tspan><tspan
   y="1365.2563"
   id="tspan77665"> </tspan></tspan><tspan
         x="129.66629"
         y="1421.5064"
         id="tspan77669"><tspan
   style="font-style:italic;line-height:1.25;-inkscape-font-specification:'Lavi Italic';text-align:start;text-anchor:start"
   id="tspan77667">sháad ne wobohí</tspan><tspan
   y="1421.5064"
   id="tspan77671"> </tspan></tspan><tspan
         x="129.66629"
         y="1477.7564"
         id="tspan77675"><tspan
   style="font-style:italic;line-height:1.25;-inkscape-font-specification:'Lavi Italic';text-align:start;text-anchor:start"
   id="tspan77673">wowethemu, ril</tspan><tspan
   y="1477.7564"
   id="tspan77677"> </tspan></tspan><tspan
         x="129.66629"
         y="1534.0064"
         id="tspan77681"><tspan
   style="font-style:italic;line-height:1.25;-inkscape-font-specification:'Lavi Italic';text-align:start;text-anchor:start"
   id="tspan77679">nosháad shodeha</tspan><tspan
   y="1534.0064"
   id="tspan77683"> </tspan></tspan><tspan
         x="129.66629"
         y="1590.2564"
         id="tspan77687"><tspan
           style="font-style:italic;line-height:1.25;-inkscape-font-specification:'Lavi Italic';text-align:start;text-anchor:start"
           id="tspan77685">Lúul bethu wa.”</tspan></tspan></text>
    <text
       xml:space="preserve"
       style="font-style:normal;font-variant:normal;font-weight:normal;font-stretch:normal;line-height:0%;font-family:Lavi;-inkscape-font-specification:Lavi;text-align:center;letter-spacing:0px;word-spacing:0px;text-anchor:middle;fill:#000000;fill-opacity:1;stroke:none;font-size:45px"
       x="841.59772"
       y="997.02594"
       id="text4246-5"><tspan
         sodipodi:role="line"
         style="line-height:1.25;font-size:45px"
         x="841.59772"
         y="997.02594"
         id="tspan859">Mmm...</tspan></text>
    <text
       xml:space="preserve"
       style="font-style:normal;font-variant:normal;font-weight:normal;font-stretch:normal;line-height:0%;font-family:Lavi;-inkscape-font-specification:Lavi;text-align:center;letter-spacing:0px;word-spacing:0px;text-anchor:middle;white-space:pre;inline-size:383.626;fill:#000000;fill-opacity:1;stroke:none;font-size:45px"
       x="898.27435"
       y="1076.1161"
       id="text4246-5-3"
       transform="translate(-10)"><tspan
         x="898.27435"
         y="1076.1161"
         id="tspan77691"><tspan
           style="line-height:1.25"
           id="tspan77689">worahíya
</tspan></tspan><tspan
         x="898.27435"
         y="1132.3661"
         id="tspan77695"><tspan
           style="line-height:1.25"
           id="tspan77693">wohu wáa?!?
</tspan></tspan></text>
    <text
       xml:space="preserve"
       style="font-style:normal;font-variant:normal;font-weight:normal;font-stretch:normal;line-height:0%;font-family:Lavi;-inkscape-font-specification:Lavi;text-align:center;letter-spacing:0px;word-spacing:0px;text-anchor:middle;white-space:pre;inline-size:206.422;fill:#000000;fill-opacity:1;stroke:none;font-size:45px"
       x="1665.2767"
       y="1138.0197"
       id="text4246-5-3-7"><tspan
         x="1665.2767"
         y="1138.0197"
         id="tspan77699"><tspan
   style="line-height:1.25"
   id="tspan77697">Izh</tspan><tspan
   y="1138.0197"
   id="tspan77701"> </tspan></tspan><tspan
         x="1665.2767"
         y="1194.2697"
         id="tspan77705"><tspan
           style="line-height:1.25"
           id="tspan77703">bebáaha?
</tspan></tspan></text>
    <text
       xml:space="preserve"
       style="font-style:normal;font-variant:normal;font-weight:normal;font-stretch:normal;line-height:0%;font-family:Lavi;-inkscape-font-specification:Lavi;text-align:center;letter-spacing:0px;word-spacing:0px;text-anchor:middle;fill:#000000;fill-opacity:1;stroke:none;font-size:45px"
       x="2031.5693"
       y="201.45618"
       id="text4246-5-3-7-2"><tspan
         sodipodi:role="line"
         style="line-height:1.25;font-size:45px"
         x="2031.5693"
         y="217.02855"
         id="tspan950-2">AÁ...</tspan><tspan
         sodipodi:role="line"
         x="2031.5693"
         y="235.94829"
         id="tspan917-6-7" /></text>
    <text
       xml:space="preserve"
       style="font-style:normal;font-variant:normal;font-weight:normal;font-stretch:normal;line-height:0%;font-family:Lavi;-inkscape-font-specification:Lavi;text-align:center;letter-spacing:0px;word-spacing:0px;text-anchor:middle;fill:#000000;fill-opacity:1;stroke:none;font-size:45px"
       x="2062.343"
       y="295.68387"
       id="text4246-5-3-7-2-0"><tspan
         sodipodi:role="line"
         style="font-style:normal;font-variant:normal;font-weight:bold;font-stretch:normal;line-height:1.25;font-family:Lavi;-inkscape-font-specification:'Lavi Bold';font-size:45px"
         x="2062.343"
         y="314.13998"
         id="tspan950-2-3">Redeb le neth!</tspan><tspan
         sodipodi:role="line"
         x="2062.343"
         y="335.94348"
         id="tspan917-6-7-6" /></text>
    <text
       xml:space="preserve"
       style="font-style:normal;font-variant:normal;font-weight:normal;font-stretch:normal;line-height:0%;font-family:Lavi;-inkscape-font-specification:Lavi;text-align:center;letter-spacing:0px;word-spacing:0px;text-anchor:middle;fill:#000000;fill-opacity:1;stroke:none;font-size:45px"
       x="1587.4655"
       y="2242.0232"
       id="text4246-5-3-7-6"><tspan
         sodipodi:role="line"
         style="font-style:italic;font-variant:normal;font-weight:normal;font-stretch:normal;line-height:1.25;font-family:Lavi;-inkscape-font-specification:'Lavi Italic';font-size:45px"
         x="1587.4655"
         y="2242.0232"
         id="tspan917-6-8">Lhlhlh...!</tspan></text>
    <text
       xml:space="preserve"
       style="font-style:normal;font-variant:normal;font-weight:normal;font-stretch:normal;font-size:45px;line-height:0%;font-family:Lavi;-inkscape-font-specification:Lavi;text-align:center;letter-spacing:0px;word-spacing:0px;text-anchor:middle;white-space:pre;inline-size:349.333;fill:#000000;fill-opacity:1;stroke:none"
       x="1640.2002"
       y="2345.4639"
       id="text4246-5-3-79"
       transform="translate(0,-18)"><tspan
         x="1640.2002"
         y="2345.4639"
         id="tspan77709"><tspan
   style="line-height:1.25"
   id="tspan77707">Bere lothel beye</tspan><tspan
   y="2345.4639"
   id="tspan77711"> </tspan></tspan><tspan
         x="1640.2002"
         y="2401.7138"
         id="tspan77715"><tspan
   style="line-height:1.25"
   id="tspan77713">radowudeth,</tspan><tspan
   y="2401.7138"
   id="tspan77717"> </tspan></tspan><tspan
         x="1640.2002"
         y="2457.9638"
         id="tspan77721"><tspan
   style="line-height:1.25"
   id="tspan77719">ébere hith</tspan><tspan
   y="2457.9638"
   id="tspan77723"> </tspan></tspan><tspan
         x="1640.2002"
         y="2514.2138"
         id="tspan77727"><tspan
   style="line-height:1.25"
   id="tspan77725">dódozheshub</tspan><tspan
   y="2514.2138"
   id="tspan77729"> </tspan></tspan><tspan
         x="1640.2002"
         y="2570.4638"
         id="tspan77733"><tspan
           style="line-height:1.25"
           id="tspan77731">wa!!</tspan></tspan></text>
    <text
       xml:space="preserve"
       style="font-style:normal;font-variant:normal;font-weight:normal;font-stretch:normal;font-size:45px;line-height:0%;font-family:Lavi;-inkscape-font-specification:Lavi;text-align:center;letter-spacing:0px;word-spacing:0px;text-anchor:middle;white-space:pre;inline-size:280.425;fill:#000000;fill-opacity:1;stroke:none"
       x="124.21524"
       y="161.71936"
       id="text4246-5-5-3"
       transform="translate(136)"><tspan
         x="124.21524"
         y="161.71936"
         id="tspan77737"><tspan
   style="font-style:italic;line-height:1.25;-inkscape-font-specification:'Lavi Italic';text-align:start;text-anchor:start"
   id="tspan77735">“Bóo héedá</tspan><tspan
   y="161.71936"
   id="tspan77739"> </tspan></tspan><tspan
         x="124.21524"
         y="217.96935"
         id="tspan77745"><tspan
   style="font-style:italic;line-height:1.25;-inkscape-font-specification:'Lavi Italic';text-align:start;text-anchor:start"
   id="tspan77741">ne</tspan> <tspan
   style="font-style:italic;line-height:1.25;-inkscape-font-specification:'Lavi Italic';text-align:start;text-anchor:start"
   id="tspan77743">yulisheth</tspan><tspan
   y="217.96935"
   id="tspan77747"> </tspan></tspan><tspan
         x="124.21524"
         y="274.21935"
         id="tspan77751"><tspan
           style="font-style:italic;line-height:1.25;-inkscape-font-specification:'Lavi Italic';text-align:start;text-anchor:start"
           id="tspan77749">wethemu.”</tspan></tspan></text>
    <text
       xml:space="preserve"
       style="font-style:normal;font-variant:normal;font-weight:normal;font-stretch:normal;font-size:45px;line-height:0%;font-family:Lavi;-inkscape-font-specification:Lavi;text-align:center;letter-spacing:0px;word-spacing:0px;text-anchor:middle;white-space:pre;inline-size:324.344;fill:#000000;fill-opacity:1;stroke:none;stroke-width:0.926994"
       x="261.16489"
       y="450.48187"
       id="text4246-5-3-9"
       transform="translate(0,-4)"><tspan
         x="261.16489"
         y="450.48187"
         id="tspan77755"><tspan
           style="line-height:1.25"
           id="tspan77753">Bíi meham
</tspan></tspan><tspan
         x="261.16489"
         y="506.73186"
         id="tspan77759"><tspan
           style="line-height:1.25"
           id="tspan77757">yulish menedebe
</tspan></tspan><tspan
         x="261.16489"
         y="562.98183"
         id="tspan77763"><tspan
           style="line-height:1.25"
           id="tspan77761">nuha wa!</tspan></tspan></text>
    <text
       xml:space="preserve"
       style="font-style:normal;font-variant:normal;font-weight:normal;font-stretch:normal;font-size:45.00000006px;line-height:0%;font-family:Lavi;-inkscape-font-specification:Lavi;text-align:center;letter-spacing:0px;word-spacing:0px;text-anchor:middle;fill:#000000;fill-opacity:1;stroke:none;stroke-width:0.801971"
       x="-11.115736"
       y="2103.6521"
       id="text4246-5-5-8"
       transform="matrix(0.90354167,-0.46833278,0.47503417,0.86053134,0,0)"><tspan
         sodipodi:role="line"
         style="font-style:italic;font-variant:normal;font-weight:normal;font-stretch:normal;line-height:1.25;font-family:Lavi;-inkscape-font-specification:'Lavi Italic';text-align:start;text-anchor:start;fill:#ffffff;fill-opacity:1;stroke-width:0.801971;font-size:45.00000006px"
         x="-11.115736"
         y="2103.6521"
         id="tspan478-2">adama</tspan></text>
    <text
       xml:space="preserve"
       style="font-style:normal;font-variant:normal;font-weight:normal;font-stretch:normal;font-size:45.00000006px;line-height:0%;font-family:Lavi;-inkscape-font-specification:Lavi;text-align:center;letter-spacing:0px;word-spacing:0px;text-anchor:middle;fill:#000000;fill-opacity:1;stroke:none;stroke-width:0.801971"
       x="25.769176"
       y="2067.1782"
       id="text4246-5-5-8-3"
       transform="matrix(0.90354167,-0.46833278,0.47503417,0.86053134,0,0)"
       inkscape:transform-center-x="-64.107832"
       inkscape:transform-center-y="11.506534"><tspan
         sodipodi:role="line"
         style="font-style:italic;font-variant:normal;font-weight:normal;font-stretch:normal;line-height:1.25;font-family:Lavi;-inkscape-font-specification:'Lavi Italic';text-align:start;text-anchor:start;fill:#ffffff;fill-opacity:1;stroke-width:0.801971;font-size:45.00000006px"
         x="25.769176"
         y="2067.1782"
         id="tspan478-2-7">adama</tspan></text>
  </g>
</svg>
