<?xml version="1.0" encoding="UTF-8" standalone="no"?>
<!-- Created with Inkscape (http://www.inkscape.org/) -->

<svg
   id="svg2"
   version="1.1"
   inkscape:version="1.1.1 (3bf5ae0d25, 2021-09-20)"
   width="2481"
   height="5350"
   sodipodi:docname="E26P07.svg"
   xmlns:inkscape="http://www.inkscape.org/namespaces/inkscape"
   xmlns:sodipodi="http://sodipodi.sourceforge.net/DTD/sodipodi-0.dtd"
   xmlns:xlink="http://www.w3.org/1999/xlink"
   xmlns="http://www.w3.org/2000/svg"
   xmlns:svg="http://www.w3.org/2000/svg"
   xmlns:rdf="http://www.w3.org/1999/02/22-rdf-syntax-ns#"
   xmlns:cc="http://creativecommons.org/ns#"
   xmlns:dc="http://purl.org/dc/elements/1.1/">
  <metadata
     id="metadata8">
    <rdf:RDF>
      <cc:Work
         rdf:about="">
        <dc:format>image/svg+xml</dc:format>
        <dc:type
           rdf:resource="http://purl.org/dc/dcmitype/StillImage" />
      </cc:Work>
    </rdf:RDF>
  </metadata>
  <defs
     id="defs6">
    <filter
       inkscape:label="Drop Shadow"
       id="filter5546"
       style="color-interpolation-filters:sRGB">
      <feFlood
         flood-opacity="1"
         flood-color="rgb(0,0,0)"
         result="flood"
         id="feFlood5548" />
      <feComposite
         in="flood"
         in2="SourceGraphic"
         operator="in"
         result="composite1"
         id="feComposite5550" />
      <feGaussianBlur
         in="composite1"
         stdDeviation="1"
         result="blur"
         id="feGaussianBlur5552" />
      <feOffset
         dx="2.5"
         dy="2.5"
         result="offset"
         id="feOffset5554" />
      <feComposite
         in="SourceGraphic"
         in2="offset"
         operator="over"
         result="composite2"
         id="feComposite5556" />
    </filter>
  </defs>
  <sodipodi:namedview
     pagecolor="#ffffff"
     bordercolor="#666666"
     borderopacity="1"
     objecttolerance="10"
     gridtolerance="10"
     guidetolerance="10"
     inkscape:pageopacity="0"
     inkscape:pageshadow="2"
     inkscape:window-width="1336"
     inkscape:window-height="725"
     id="namedview4"
     showgrid="false"
     inkscape:zoom="0.54"
     inkscape:cx="1454.6296"
     inkscape:cy="5281.4815"
     inkscape:window-x="15"
     inkscape:window-y="15"
     inkscape:window-maximized="0"
     inkscape:current-layer="layer2"
     inkscape:object-nodes="true"
     showguides="true"
     inkscape:guide-bbox="true"
     inkscape:pagecheckerboard="0">
    <sodipodi:guide
       position="1663.7082,5257.4089"
       orientation="0,1"
       id="guide4214"
       inkscape:locked="false" />
  </sodipodi:namedview>
  <g
     inkscape:groupmode="layer"
     id="layer1"
     inkscape:label="artwork"
     style="display:inline"
     transform="translate(0,1374)"
     sodipodi:insensitive="true">
    <image
       xlink:href="../gfx_Pepper-and-Carrot_by-David-Revoy_E26P07.png"
       width="2481"
       height="5349.6562"
       preserveAspectRatio="none"
       style="image-rendering:optimizeQuality"
       id="image4223"
       x="0.54707891"
       y="-1373.3771" />
  </g>
  <g
     inkscape:groupmode="layer"
     id="layer3"
     inkscape:label="speechbubbles"
     style="display:inline"
     transform="translate(0,1374)" />
  <g
     inkscape:groupmode="layer"
     id="layer2"
     inkscape:label="text"
     style="display:inline;opacity:0.85500004"
     transform="translate(0,1374)">
    <text
       xml:space="preserve"
       style="font-style:normal;font-variant:normal;font-weight:normal;font-stretch:normal;line-height:0%;font-family:Lavi;-inkscape-font-specification:Lavi;text-align:center;letter-spacing:0px;word-spacing:0px;text-anchor:middle;fill:#000000;fill-opacity:1;stroke:none"
       x="1258.3041"
       y="-504.4682"
       id="text4246-42" />
    <text
       id="text4151"
       y="-1248.1591"
       x="1258.21"
       style="color:#000000;font-style:normal;font-variant:normal;font-weight:normal;font-stretch:normal;font-size:37.7023px;line-height:0%;font-family:Lavi;-inkscape-font-specification:Lavi;text-indent:0;text-align:center;text-decoration:none;text-decoration-line:none;letter-spacing:0px;word-spacing:0px;text-transform:none;writing-mode:lr-tb;direction:ltr;baseline-shift:baseline;text-anchor:middle;white-space:pre;inline-size:2339.71;display:inline;overflow:visible;visibility:visible;opacity:0.855;fill:#060404;fill-opacity:1;fill-rule:nonzero;stroke:none;stroke-width:1.11319;enable-background:accumulate"
       xml:space="preserve"><tspan
         x="1258.21"
         y="-1248.1591"
         id="tspan121065"><tspan
           style="font-weight:bold;-inkscape-font-specification:'Lavi Bold'"
           id="tspan121061">Hudi: </tspan><tspan
           style="line-height:125%;baseline-shift:baseline;display:inline;overflow:visible;enable-background:accumulate"
           id="tspan121063">Creative Commons Attribution 4.0.
</tspan></tspan><tspan
         x="1258.21"
         y="-1201.0312"
         id="tspan121071"><tspan
           style="font-weight:bold"
           id="tspan121067">Bodibod:</tspan><tspan
           style="line-height:125%;baseline-shift:baseline;display:inline;overflow:visible;enable-background:accumulate"
           id="tspan121069"> Krita 4.1, Inkscape 0.92.3 Kubuntu 17.10 benal.
</tspan></tspan><tspan
         x="1258.21"
         y="-1153.9032"
         id="tspan121075"><tspan
           style="line-height:125%;baseline-shift:baseline;display:inline;overflow:visible;enable-background:accumulate"
           id="tspan121073"> 
</tspan></tspan><tspan
         x="1258.21"
         y="-1106.7753"
         id="tspan121081"><tspan
           style="font-weight:bold;-inkscape-font-specification:'Lavi Bold'"
           id="tspan121077">Alehala i woban: </tspan><tspan
           style="line-height:125%;baseline-shift:baseline;display:inline;overflow:visible;enable-background:accumulate"
           id="tspan121079">David Revoy.
</tspan></tspan><tspan
         x="1258.21"
         y="-1059.6474"
         id="tspan121087"><tspan
           style="font-weight:bold;-inkscape-font-specification:'Lavi Bold'"
           id="tspan121083">Dórawulúd dedidewan:</tspan><tspan
           style="line-height:125%;baseline-shift:baseline;display:inline;overflow:visible;enable-background:accumulate"
           id="tspan121085"> Craig Maloney.
</tspan></tspan><tspan
         x="1258.21"
         y="-1012.5194"
         id="tspan121093"><tspan
           style="font-weight:bold"
           id="tspan121089">Wodide wowéedaná:</tspan><tspan
           dx="0 0 0 0 0 0 0 0 0 0 0 0 0 0 0 0 0 0 0 0 0 0 0 0 0 0 0 0 0 0 0 0 0 0 0 0 0 0 0 0 0 0 0 0 0 0 0 0 0 0 0 0 0 0 0 0 0 0 0 0 0 0.00011253357 0 0 0 0 0 0 0 0 0 0 0 0.00012969971 0 0 0 0 0 0 0.00010871887 0 0 0 0 0 0 0 0 0 0 0 0 0 0 0 0 0 0 0 0 0 -0.00014877319 0 0 0 -0.00014877319"
           style="line-height:125%;baseline-shift:baseline;display:inline;overflow:visible;enable-background:accumulate"
           id="tspan121091"> Ambernite, Craig Maloney, CalimeroTeknik, Jookia, Midgard, Nartance, Popolon, Quiralta, Valvin, xHire, Zeograd.
</tspan></tspan><tspan
         x="1258.21"
         y="-965.39158"
         id="tspan121099"><tspan
           style="line-height:125%;baseline-shift:baseline;display:inline;overflow:visible;enable-background:accumulate"
           id="tspan121095"> </tspan><tspan
           style="font-weight:bold;line-height:125%;baseline-shift:baseline;display:inline;overflow:visible;enable-background:accumulate"
           id="tspan121097">
</tspan></tspan><tspan
         x="1258.21"
         y="-918.26371"
         id="tspan121107"><tspan
           style="font-weight:bold;line-height:125%;-inkscape-font-specification:'Lavi Bold';baseline-shift:baseline;display:inline;overflow:visible;enable-background:accumulate"
           id="tspan121101">Héedan Láadanedim:</tspan><tspan
           style="line-height:125%;baseline-shift:baseline;display:inline;overflow:visible;enable-background:accumulate"
           id="tspan121103"> Yuli i Álo.</tspan><tspan
           style="font-weight:bold;line-height:125%;-inkscape-font-specification:'Lavi Bold';baseline-shift:baseline;display:inline;overflow:visible;enable-background:accumulate"
           id="tspan121105">
</tspan></tspan><tspan
         x="1258.21"
         y="-871.13584"
         id="tspan121111"><tspan
           style="font-weight:bold;line-height:125%;-inkscape-font-specification:'Lavi Bold';baseline-shift:baseline;display:inline;overflow:visible;enable-background:accumulate"
           id="tspan121109"> 
</tspan></tspan><tspan
         x="1258.21"
         y="-824.00797"
         id="tspan121115"><tspan
           style="font-weight:bold;line-height:125%;-inkscape-font-specification:'Lavi Bold';baseline-shift:baseline;display:inline;overflow:visible;enable-background:accumulate"
           id="tspan121113">Bíi nosháad dedide thera Shebedoni bethude wa
</tspan></tspan><tspan
         x="1258.21"
         y="-776.8801"
         id="tspan121121"><tspan
           style="font-weight:bold"
           id="tspan121117">Elá:</tspan><tspan
           style="line-height:125%;baseline-shift:baseline;display:inline;overflow:visible;enable-background:accumulate"
           id="tspan121119"> David Revoy.
</tspan></tspan><tspan
         x="1258.21"
         y="-729.75223"
         id="tspan121127"><tspan
           style="font-weight:bold"
           id="tspan121123">Wohun wonayahá:</tspan><tspan
           style="line-height:125%;baseline-shift:baseline;display:inline;overflow:visible;enable-background:accumulate"
           id="tspan121125"> Craig Maloney.
</tspan></tspan><tspan
         x="1258.21"
         y="-682.62437"
         id="tspan121133"><tspan
           style="font-weight:bold"
           id="tspan121129">Dedidethodá:</tspan><tspan
           style="line-height:125%;baseline-shift:baseline;display:inline;overflow:visible;enable-background:accumulate"
           id="tspan121131"> Craig Maloney, Nartance, Scribblemaniac, Valvin.
</tspan></tspan><tspan
         x="1258.21"
         y="-635.4965"
         id="tspan121139"><tspan
           style="font-weight:bold"
           id="tspan121135">Dóoná:</tspan><tspan
           style="line-height:125%;baseline-shift:baseline;display:inline;overflow:visible;enable-background:accumulate"
           id="tspan121137"> Willem Sonke, Moini, Hali, CGand, Alex Gryson.
</tspan></tspan><tspan
         x="1258.21"
         y="-588.36863"
         id="tspan121143"><tspan
           style="line-height:125%;baseline-shift:baseline;display:inline;overflow:visible;enable-background:accumulate"
           id="tspan121141"> 
</tspan></tspan><tspan
         x="1258.21"
         y="-541.24076"
         id="tspan121147"><tspan
           style="font-weight:bold;line-height:125%;-inkscape-font-specification:'Lavi Bold';baseline-shift:baseline;display:inline;overflow:visible;enable-background:accumulate"
           id="tspan121145">2018, Ahum thabeshin i nibeya
</tspan></tspan><tspan
         x="1258.21"
         y="-494.11289"
         id="tspan121151"><tspan
           style="font-weight:bold;line-height:125%;-inkscape-font-specification:'Lavi Bold';baseline-shift:baseline;display:inline;overflow:visible;enable-background:accumulate"
           id="tspan121149">www.peppercarrot.com</tspan></tspan></text>
    <text
       xml:space="preserve"
       style="color:#000000;font-style:normal;font-variant:normal;font-weight:normal;font-stretch:normal;line-height:0%;font-family:Lavi;-inkscape-font-specification:Lavi;text-indent:0;text-align:center;text-decoration:none;text-decoration-line:none;letter-spacing:0px;word-spacing:0px;text-transform:none;writing-mode:lr-tb;direction:ltr;baseline-shift:baseline;text-anchor:middle;display:inline;overflow:visible;visibility:visible;opacity:0.855;fill:#020101;fill-opacity:1;fill-rule:nonzero;stroke:none;enable-background:accumulate"
       x="1991.2159"
       y="-910.79004"
       id="text4246-42-4" />
    <text
       xml:space="preserve"
       style="font-style:normal;font-variant:normal;font-weight:normal;font-stretch:normal;line-height:0%;font-family:Arial;-inkscape-font-specification:Arial;text-align:center;letter-spacing:0px;word-spacing:0px;text-anchor:middle;display:inline;opacity:0.855;fill:#000000;fill-opacity:1;stroke:none"
       x="1261.562"
       y="-551.26312"
       id="text4229" />
    <text
       id="text4179"
       y="-1150.819"
       x="1280.0332"
       style="font-style:normal;font-variant:normal;font-weight:normal;font-stretch:normal;line-height:0%;font-family:Arial;-inkscape-font-specification:Arial;text-align:center;letter-spacing:0px;word-spacing:0px;text-anchor:middle;display:inline;opacity:0.855;fill:#241c1c;fill-opacity:1;stroke:none"
       xml:space="preserve" />
    <text
       xml:space="preserve"
       style="font-style:normal;font-variant:normal;font-weight:normal;font-stretch:normal;font-size:40px;line-height:0%;font-family:Arial;-inkscape-font-specification:Arial;text-align:center;letter-spacing:0px;word-spacing:0px;text-anchor:middle;display:inline;opacity:0.855;fill:#483e37;fill-opacity:1;stroke:none;filter:url(#filter4155)"
       x="1240.1191"
       y="3863.2971"
       id="text4221-3"><tspan
         sodipodi:role="line"
         id="tspan4223-6"
         x="1240.1191"
         y="3863.2971"
         style="font-style:normal;font-variant:normal;font-weight:normal;font-stretch:normal;font-size:40px;line-height:1.25;font-family:Lavi;-inkscape-font-specification:Lavi;fill:#483e37">Bíi thad naden ne Loyud i Ámed beth www.patreon.com/davidrevoy beha wa</tspan></text>
    <text
       xml:space="preserve"
       style="font-style:normal;font-variant:normal;font-weight:normal;font-stretch:normal;font-size:40px;line-height:1.25;font-family:Arial;-inkscape-font-specification:Arial;text-align:center;letter-spacing:0px;word-spacing:0px;text-anchor:middle;white-space:pre;inline-size:927.358;display:inline;opacity:0.855;fill:#483e37;fill-opacity:1;stroke:none;filter:url(#filter4155)"
       x="1243.3711"
       y="-375.95468"
       id="text4162-7"><tspan
         x="1243.3711"
         y="-375.95468"
         id="tspan121155"><tspan
   style="font-family:Lavi;-inkscape-font-specification:Lavi"
   id="tspan121153">Bíi dínonehóo Loyud i Ámed wa. Dínon woban</tspan><tspan
   y="-375.95468"
   id="tspan121157"> </tspan></tspan><tspan
         x="1243.3711"
         y="-325.82697"
         id="tspan121161"><tspan
   style="font-family:Lavi;-inkscape-font-specification:Lavi"
   id="tspan121159">betha. Meden wéedaná i meban ben wothem</tspan><tspan
   y="-325.82697"
   id="tspan121163"> </tspan></tspan><tspan
         x="1243.3711"
         y="-275.69925"
         id="tspan121167"><tspan
           style="font-family:Lavi;-inkscape-font-specification:Lavi"
           id="tspan121165">wolotheth. Áala withedim 1098 hi:</tspan></tspan></text>
  </g>
  <g
     inkscape:groupmode="layer"
     id="layer4"
     inkscape:label="notes"
     sodipodi:insensitive="true">
    <path
       transform="translate(0,1374)"
       style="color:#000000;clip-rule:nonzero;display:inline;overflow:visible;visibility:visible;opacity:0.481;isolation:auto;mix-blend-mode:normal;color-interpolation:sRGB;color-interpolation-filters:linearRGB;solid-color:#000000;solid-opacity:1;fill:#ffe680;fill-opacity:1;fill-rule:nonzero;stroke:#565656;stroke-width:1.20000005;stroke-linecap:butt;stroke-linejoin:miter;stroke-miterlimit:4;stroke-dasharray:none;stroke-dashoffset:0;stroke-opacity:1;marker:none;color-rendering:auto;image-rendering:auto;shape-rendering:auto;text-rendering:auto;enable-background:accumulate"
       d="m -1036.4092,-1026.4079 v 295.55649 H -48.424149 V -918.9249 h 10 v 15.6308 l 30.9825,-26.9824 -30.9825,-26.9804 v 16.6171 h -10 v -85.7681 z"
       id="rect4191-6"
       inkscape:connector-curvature="0"
       sodipodi:nodetypes="cccccccccccc" />
    <flowRoot
       xml:space="preserve"
       id="flowRoot4212-7"
       style="font-style:normal;font-variant:normal;font-weight:normal;font-stretch:normal;line-height:0.01%;font-family:Lavi;-inkscape-font-specification:'Lavi, Normal';text-align:center;letter-spacing:0px;word-spacing:0px;writing-mode:lr-tb;text-anchor:middle;display:inline;opacity:0.689;fill:#000000;fill-opacity:1;stroke:none;stroke-width:0.799589px;stroke-linecap:butt;stroke-linejoin:miter;stroke-opacity:1"
       transform="matrix(1.2506418,0,0,1.2506418,-671.18097,-956.9049)"><flowRegion
         id="flowRegion4214-5"
         style="stroke-width:0.799589px"><rect
           id="rect4216-3"
           width="756.58167"
           height="267.66235"
           x="-275.14545"
           y="1061.6674"
           style="stroke-width:0.79958946px" /></flowRegion><flowPara
         style="font-size:25.3242px;line-height:1.25;stroke-width:0.799589px"
         id="flowPara920">Remove the names of the people who helped to create the English version and create this section for your language. You can credit translators, proofreaders, whatever categories you want.</flowPara><flowPara
         style="font-size:10.6612px;line-height:1.25;stroke-width:0.799589px"
         id="flowPara915"> </flowPara><flowPara
         style="font-size:25.3242px;line-height:1.25;stroke-width:0.799589px"
         id="flowPara913">N.B.: In Inkscape, if you press Enter to create a new line, it will not push down text below it until the line has text. So to create a whiteline, type a space on its own line.</flowPara></flowRoot>
  </g>
</svg>
