<?xml version="1.0" encoding="UTF-8" standalone="no"?>
<svg
   xmlns:dc="http://purl.org/dc/elements/1.1/"
   xmlns:cc="http://creativecommons.org/ns#"
   xmlns:rdf="http://www.w3.org/1999/02/22-rdf-syntax-ns#"
   xmlns:svg="http://www.w3.org/2000/svg"
   xmlns="http://www.w3.org/2000/svg"
   xmlns:xlink="http://www.w3.org/1999/xlink"
   xmlns:sodipodi="http://sodipodi.sourceforge.net/DTD/sodipodi-0.dtd"
   xmlns:inkscape="http://www.inkscape.org/namespaces/inkscape"
   id="svg2"
   version="1.1"
   inkscape:version="0.92.4 (5da689c313, 2019-01-14)"
   width="2481"
   height="3503"
   sodipodi:docname="E34P02.svg">
  <metadata
     id="metadata8">
    <rdf:RDF>
      <cc:Work
         rdf:about="">
        <dc:format>image/svg+xml</dc:format>
        <dc:type
           rdf:resource="http://purl.org/dc/dcmitype/StillImage" />
        <dc:title />
      </cc:Work>
    </rdf:RDF>
  </metadata>
  <defs
     id="defs6">
    <inkscape:path-effect
       effect="bend_path"
       id="path-effect1045" />
    <inkscape:path-effect
       effect="bend_path"
       id="path-effect1076" />
    <filter
       style="color-interpolation-filters:sRGB"
       id="filter4375-4-1-1-1-9-5-8-8-5-5"
       inkscape:label="soundFX1">
      <feFlood
         id="feFlood4377-7-9-0-8-1-7-3-1-2-7"
         flood-opacity="1"
         flood-color="rgb(52,52,52)"
         result="flood" />
      <feComposite
         id="feComposite4379-3-8-8-2-77-4-1-0-6-4"
         in2="SourceGraphic"
         in="flood"
         operator="in"
         result="composite1"
         baseFrequency="0.053999999999999999 0.053999999999999999" />
      <feMorphology
         id="feMorphology4393-1-0-49-8-9-3-0-1-9-9"
         operator="dilate"
         radius="6.2000000000000002"
         result="result3" />
      <feComposite
         id="feComposite4385-9-5-7-0-8-8-7-5-4-9"
         in2="result3"
         in="SourceGraphic"
         operator="over"
         result="fbSourceGraphic" />
      <feColorMatrix
         result="fbSourceGraphicAlpha"
         in="fbSourceGraphic"
         values="0 0 0 -1 0 0 0 0 -1 0 0 0 0 -1 0 0 0 0 1 0"
         id="feColorMatrix4544-9-4-4" />
      <feTurbulence
         id="feTurbulence4546-3-6-5"
         type="fractalNoise"
         numOctaves="5"
         seed="174"
         baseFrequency="0.053999999999999999 0.054054054054054057"
         result="turbulence" />
      <feDisplacementMap
         id="feDisplacementMap4548-8-0-9"
         in2="turbulence"
         in="fbSourceGraphic"
         scale="6.6"
         yChannelSelector="G"
         xChannelSelector="R"
         result="fbSourceGraphic" />
      <feColorMatrix
         result="fbSourceGraphicAlpha"
         in="fbSourceGraphic"
         values="0 0 0 -1 0 0 0 0 -1 0 0 0 0 -1 0 0 0 0 1 0"
         id="feColorMatrix4670-7-7-3" />
      <feFlood
         id="feFlood4672-4-4-5"
         flood-opacity="1"
         flood-color="rgb(28,28,28)"
         result="flood"
         in="fbSourceGraphic" />
      <feComposite
         id="feComposite4674-8-3-7"
         in2="fbSourceGraphic"
         in="flood"
         operator="in"
         result="composite1" />
      <feGaussianBlur
         id="feGaussianBlur4676-3-7-08"
         in="composite1"
         stdDeviation="0"
         result="blur" />
      <feOffset
         id="feOffset4678-6-9-1"
         dx="-1.7978952891791096"
         dy="6"
         result="offset" />
      <feComposite
         id="feComposite4680-4-0-9"
         in2="offset"
         in="fbSourceGraphic"
         operator="over"
         result="composite2" />
    </filter>
    <filter
       style="color-interpolation-filters:sRGB"
       id="filter4375-4-1-1-1-9-5-8-8-5-5-3"
       inkscape:label="soundFX1">
      <feFlood
         id="feFlood4377-7-9-0-8-1-7-3-1-2-7-6"
         flood-opacity="1"
         flood-color="rgb(52,52,52)"
         result="flood" />
      <feComposite
         id="feComposite4379-3-8-8-2-77-4-1-0-6-4-7"
         in2="SourceGraphic"
         in="flood"
         operator="in"
         result="composite1"
         baseFrequency="0.053999999999999999 0.053999999999999999" />
      <feMorphology
         id="feMorphology4393-1-0-49-8-9-3-0-1-9-9-5"
         operator="dilate"
         radius="6.2000000000000002"
         result="result3" />
      <feComposite
         id="feComposite4385-9-5-7-0-8-8-7-5-4-9-3"
         in2="result3"
         in="SourceGraphic"
         operator="over"
         result="fbSourceGraphic" />
      <feColorMatrix
         result="fbSourceGraphicAlpha"
         in="fbSourceGraphic"
         values="0 0 0 -1 0 0 0 0 -1 0 0 0 0 -1 0 0 0 0 1 0"
         id="feColorMatrix4544-9-4-4-5" />
      <feTurbulence
         id="feTurbulence4546-3-6-5-6"
         type="fractalNoise"
         numOctaves="5"
         seed="174"
         baseFrequency="0.053999999999999999 0.054054054054054057"
         result="turbulence" />
      <feDisplacementMap
         id="feDisplacementMap4548-8-0-9-2"
         in2="turbulence"
         in="fbSourceGraphic"
         scale="6.6"
         yChannelSelector="G"
         xChannelSelector="R"
         result="fbSourceGraphic" />
      <feColorMatrix
         result="fbSourceGraphicAlpha"
         in="fbSourceGraphic"
         values="0 0 0 -1 0 0 0 0 -1 0 0 0 0 -1 0 0 0 0 1 0"
         id="feColorMatrix4670-7-7-3-9" />
      <feFlood
         id="feFlood4672-4-4-5-1"
         flood-opacity="1"
         flood-color="rgb(28,28,28)"
         result="flood"
         in="fbSourceGraphic" />
      <feComposite
         id="feComposite4674-8-3-7-2"
         in2="fbSourceGraphic"
         in="flood"
         operator="in"
         result="composite1" />
      <feGaussianBlur
         id="feGaussianBlur4676-3-7-08-7"
         in="composite1"
         stdDeviation="0"
         result="blur" />
      <feOffset
         id="feOffset4678-6-9-1-0"
         dx="6"
         dy="6"
         result="offset" />
      <feComposite
         id="feComposite4680-4-0-9-9"
         in2="offset"
         in="fbSourceGraphic"
         operator="over"
         result="composite2" />
    </filter>
    <filter
       style="color-interpolation-filters:sRGB"
       id="filter4375-4-1-1-1-9-5-8-8-5-5-3-3"
       inkscape:label="soundFX1">
      <feFlood
         id="feFlood4377-7-9-0-8-1-7-3-1-2-7-6-6"
         flood-opacity="1"
         flood-color="rgb(52,52,52)"
         result="flood" />
      <feComposite
         id="feComposite4379-3-8-8-2-77-4-1-0-6-4-7-7"
         in2="SourceGraphic"
         in="flood"
         operator="in"
         result="composite1"
         baseFrequency="0.053999999999999999 0.053999999999999999" />
      <feMorphology
         id="feMorphology4393-1-0-49-8-9-3-0-1-9-9-5-5"
         operator="dilate"
         radius="4.0330969769021738"
         result="result3" />
      <feComposite
         id="feComposite4385-9-5-7-0-8-8-7-5-4-9-3-3"
         in2="result3"
         in="SourceGraphic"
         operator="over"
         result="fbSourceGraphic" />
      <feColorMatrix
         result="fbSourceGraphicAlpha"
         in="fbSourceGraphic"
         values="0 0 0 -1 0 0 0 0 -1 0 0 0 0 -1 0 0 0 0 1 0"
         id="feColorMatrix4544-9-4-4-5-5" />
      <feTurbulence
         id="feTurbulence4546-3-6-5-6-6"
         type="fractalNoise"
         numOctaves="4"
         seed="147"
         baseFrequency="0.053999999999999999 0.054054054054054057"
         result="turbulence" />
      <feDisplacementMap
         id="feDisplacementMap4548-8-0-9-2-2"
         in2="turbulence"
         in="fbSourceGraphic"
         scale="10.561763084739264"
         yChannelSelector="G"
         xChannelSelector="R"
         result="fbSourceGraphic" />
      <feColorMatrix
         result="fbSourceGraphicAlpha"
         in="fbSourceGraphic"
         values="0 0 0 -1 0 0 0 0 -1 0 0 0 0 -1 0 0 0 0 1 0"
         id="feColorMatrix4670-7-7-3-9-9" />
      <feFlood
         id="feFlood4672-4-4-5-1-1"
         flood-opacity="1"
         flood-color="rgb(28,28,28)"
         result="flood"
         in="fbSourceGraphic" />
      <feComposite
         id="feComposite4674-8-3-7-2-2"
         in2="fbSourceGraphic"
         in="flood"
         operator="in"
         result="composite1" />
      <feGaussianBlur
         id="feGaussianBlur4676-3-7-08-7-7"
         in="composite1"
         stdDeviation="0"
         result="blur" />
      <feOffset
         id="feOffset4678-6-9-1-0-0"
         dx="-10.48377497279229"
         dy="0.39217365321829334"
         result="offset" />
      <feComposite
         id="feComposite4680-4-0-9-9-9"
         in2="offset"
         in="fbSourceGraphic"
         operator="over"
         result="composite2" />
    </filter>
    <filter
       style="color-interpolation-filters:sRGB"
       id="filter4375-4-1-1-1-9-5-8-8-5-5-3-8"
       inkscape:label="soundFX1">
      <feFlood
         id="feFlood4377-7-9-0-8-1-7-3-1-2-7-6-7"
         flood-opacity="1"
         flood-color="rgb(52,52,52)"
         result="flood" />
      <feComposite
         id="feComposite4379-3-8-8-2-77-4-1-0-6-4-7-9"
         in2="SourceGraphic"
         in="flood"
         operator="in"
         result="composite1"
         baseFrequency="0.053999999999999999 0.053999999999999999" />
      <feMorphology
         id="feMorphology4393-1-0-49-8-9-3-0-1-9-9-5-2"
         operator="dilate"
         radius="2.9756367599225957"
         result="result3" />
      <feComposite
         id="feComposite4385-9-5-7-0-8-8-7-5-4-9-3-0"
         in2="result3"
         in="SourceGraphic"
         operator="over"
         result="fbSourceGraphic" />
      <feColorMatrix
         result="fbSourceGraphicAlpha"
         in="fbSourceGraphic"
         values="0 0 0 -1 0 0 0 0 -1 0 0 0 0 -1 0 0 0 0 1 0"
         id="feColorMatrix4544-9-4-4-5-2" />
      <feTurbulence
         id="feTurbulence4546-3-6-5-6-3"
         type="fractalNoise"
         numOctaves="5"
         seed="174"
         baseFrequency="0.053999999999999999 0.054054054054054057"
         result="turbulence" />
      <feDisplacementMap
         id="feDisplacementMap4548-8-0-9-2-7"
         in2="turbulence"
         in="fbSourceGraphic"
         scale="6.6"
         yChannelSelector="G"
         xChannelSelector="R"
         result="fbSourceGraphic" />
      <feColorMatrix
         result="fbSourceGraphicAlpha"
         in="fbSourceGraphic"
         values="0 0 0 -1 0 0 0 0 -1 0 0 0 0 -1 0 0 0 0 1 0"
         id="feColorMatrix4670-7-7-3-9-5" />
      <feFlood
         id="feFlood4672-4-4-5-1-9"
         flood-opacity="1"
         flood-color="rgb(28,28,28)"
         result="flood"
         in="fbSourceGraphic" />
      <feComposite
         id="feComposite4674-8-3-7-2-22"
         in2="fbSourceGraphic"
         in="flood"
         operator="in"
         result="composite1" />
      <feGaussianBlur
         id="feGaussianBlur4676-3-7-08-7-8"
         in="composite1"
         stdDeviation="0"
         result="blur" />
      <feOffset
         id="feOffset4678-6-9-1-0-9"
         dx="-6.3258232761971414"
         dy="6"
         result="offset" />
      <feComposite
         id="feComposite4680-4-0-9-9-7"
         in2="offset"
         in="fbSourceGraphic"
         operator="over"
         result="composite2" />
    </filter>
  </defs>
  <sodipodi:namedview
     pagecolor="#ffffff"
     bordercolor="#666666"
     borderopacity="1"
     objecttolerance="10"
     gridtolerance="10"
     guidetolerance="10"
     inkscape:pageopacity="0"
     inkscape:pageshadow="2"
     inkscape:window-width="1387"
     inkscape:window-height="967"
     id="namedview4"
     showgrid="false"
     inkscape:zoom="0.43016844"
     inkscape:cx="1880.2004"
     inkscape:cy="1235.5454"
     inkscape:window-x="156"
     inkscape:window-y="34"
     inkscape:window-maximized="0"
     inkscape:current-layer="layer1"
     inkscape:document-rotation="0"
     inkscape:snap-global="false"
     showborder="true"
     inkscape:pagecheckerboard="false"
     inkscape:showpageshadow="true"
     borderlayer="true" />
  <g
     inkscape:groupmode="layer"
     id="layer2"
     inkscape:label="artwork"
     sodipodi:insensitive="true">
    <image
       sodipodi:absref="/home/thomas/Dropbox (Intersign)/Egne filer (udelt)/PepperGulrot/webcomics-master-ep34_The-Knighting-of-Shichimi/ep34_The-Knighting-of-Shichimi/lang/no/../gfx_Pepper-and-Carrot_by-David-Revoy_E34P02.png"
       xlink:href="../gfx_Pepper-and-Carrot_by-David-Revoy_E34P02.png"
       y="0"
       x="0"
       id="image10"
       height="3503"
       width="2481" />
  </g>
  <g
     inkscape:groupmode="layer"
     id="layer3"
     inkscape:label="speechbubbles"
     style="display:inline">
    <path
       style="fill:#ffffff;fill-rule:evenodd;stroke:none;stroke-width:0.966759px;stroke-linecap:butt;stroke-linejoin:miter;stroke-opacity:1"
       d="m 1489.8117,283.44201 c 14.5173,-11.71501 25.4165,-22.64893 11.4859,-28.22269 l -5.5762,-6.13215 -47.3061,-45.71814 c 48.7569,8.10201 101.2331,19.12737 64.6595,-39.83942 47.7684,27.58673 85.8768,40.57671 86.6433,-2.86038 20.2283,18.05189 40.948,47.22845 59.4342,25.82659 10.2162,9.31262 18.5077,4.86625 24.7831,-13.99346 14.3353,21.78962 31.4607,6.75442 49.3749,-18.68926 21.7053,23.42238 44.1532,42.57729 76.2424,6.33072 -0.5098,25.50146 19.726,23.00995 49.3388,7.86577 -2.4764,11.22895 3.8054,14.48432 40.1862,3.20552 -7.8475,11.22969 -24.2609,13.26599 16.0025,12.8505 -2.443,10.61962 -26.4521,20.63973 24.3749,32.74014 -49.6893,-0.88907 -11.0627,15.35285 -8.0323,24.69003 -32.6559,-3.544 -46.6507,-0.12815 -9.7578,22.26707 -16.3971,0.69459 -65.3774,-23.24165 -37.9801,10.55851 -29.3305,-18.02793 -52.1,7.54997 -37.6599,7.50626 l -57.7428,10.94578 -94.2204,-0.52672 -66.0254,4.35982 -54.4593,7.93718 c 5.6713,-15.88738 -12.2651,-9.30431 -26.6743,-6.07843 -5.4107,-4.21855 3.5113,-15.79529 -27.4566,-6.89313 -0.6851,-11.19963 -16.1399,-8.75982 -29.6345,-8.13011 z"
       id="path1058"
       sodipodi:nodetypes="ccccccccccccccccccccccccc" />
    <path
       style="fill:#ffffff;fill-rule:evenodd;stroke:none;stroke-width:0.954737px;stroke-linecap:butt;stroke-linejoin:miter;stroke-opacity:1"
       d="m 1530.7758,262.92735 c -35.9072,10.10196 -75.8305,16.24992 -118.7864,19.41205 l 21.3884,19.60641 c -21.2547,3.62778 -30.9065,7.87998 -78.7794,11.98957 l 8.0313,9.59761 -119.5365,7.98838 148.067,7.74645 -10.6519,-15.27464 91.053,-11.04829 -19.2666,-17.88249 c 34.3908,-13.46395 81.0551,-12.27309 121.6588,-18.31863 z"
       id="path957"
       sodipodi:nodetypes="cccccccccccc" />
    <path
       style="fill:#ffffff;fill-rule:evenodd;stroke:none;stroke-width:1.11871px;stroke-linecap:butt;stroke-linejoin:miter;stroke-opacity:1"
       d="m 1560.31,323.97706 c 16.5959,12.75119 20.7333,25.89347 -1.5264,39.8644 29.2655,-12.91703 27.4394,1.17371 22.0311,18.37606 31.8367,-11.38363 38.5928,-6.90373 27.1837,7.21408 18.7571,-1.22126 60.7276,-11.85348 59.5566,-1.758 l 243.7597,-24.68435 1.9117,-22.42574 c -9.6902,-3.20819 -26.576,1.46176 -20.8616,-18.61232 -18.5514,3.94968 -33.4348,-2.13698 -7.4043,-24.07066 -36.0913,14.47681 -11.8197,-6.36397 -8.3439,-18.68894 -35.8095,13.13592 -30.5296,-3.57842 -22.0206,-16.30999 -12.7944,13.376 -75.8022,-2.75419 -79.9646,6.85183 l -178.8992,18.49782 c -6.3233,13.60051 19.1715,36.97853 -35.4222,35.74581 z"
       id="path959"
       sodipodi:nodetypes="cccccccccccccc" />
    <path
       style="fill:#ffffff;fill-rule:evenodd;stroke:none;stroke-width:1.0363px;stroke-linecap:butt;stroke-linejoin:miter;stroke-opacity:1"
       d="m 1609.902,395.35824 c 41.3938,0.64155 35.9095,12.50383 21.0026,26.62153 11.4677,-0.94958 38.2882,-14.02714 22.3848,6.64533 34.7251,-7.51042 13.3319,7.6856 10.5102,15.32662 13.9977,-1.60841 22.5666,5.3125 5.5421,31.05447 17.1913,-6.05805 43.4615,-28.80223 41.5037,0.33428 13.9174,-3.61655 32.2031,-17.55119 34.5238,6.2234 18.3973,-11.73692 36.675,-21.75031 53.1126,-5.23357 17.0968,-23.90651 31.9847,-28.36225 43.6776,-4.68236 16.2817,-15.71267 35.4818,0.48906 55.9494,30.55032 -5.9753,-23.81264 3.0956,-38.58578 70.0548,-18.58082 -0.4857,-20.96468 13.4865,-30.34306 69.325,-6.16992 -11.8677,-13.95314 -40.5603,-36.16791 26.2328,-11.49559 -35.128,-29.70342 2.9858,-47.99984 32.2354,-67.6768 -35.6161,13.72187 -39.3887,8.36477 -25.9696,-7.29249 -56.6358,18.33465 -50.6958,-9.50786 -35.6255,-44.08798 -41.4718,18.30037 -35.5226,7.65077 -25.5801,-2.08244 -73.7097,19.2312 -42.9677,-11.20691 -36.1615,-23.072 -53.3951,53.30694 -37.6963,20.38997 -31.8022,-0.29133 -30.3131,31.77485 -53.2659,53.19757 -47.4816,21.94921 l -50.6513,-5.43596 -192.145,21.52238 -27.5413,22.9431 c 63.5754,-2.76838 24.9187,9.71183 -13.0967,12.93062 z"
       id="path961"
       sodipodi:nodetypes="cccccccccccccccccccccccc" />
    <path
       style="fill:#ffffff;fill-rule:evenodd;stroke:none;stroke-width:0.743887px;stroke-linecap:butt;stroke-linejoin:miter;stroke-opacity:1"
       d="m 459.16681,2358.0657 c 22.36564,51.5132 28.26382,65.1671 32.70811,75.7246 4.44431,10.5576 6.95122,24.2595 0.64038,26.9082 -15.54782,6.5255 -33.53774,22.8752 27.24564,95.9666 -21.63483,-46.9619 -28.34094,-72.815 -15.566,-78.5231 8.57301,-6.7097 22.80991,-8.6107 5.94489,-60.3706 -16.86495,-51.7599 -49.30756,-108.1476 -49.30756,-108.1476 l -11.57148,18.7287 z"
       id="path895"
       inkscape:connector-curvature="0"
       sodipodi:nodetypes="csscccccc"
       inkscape:transform-center-x="6.2803954"
       inkscape:transform-center-y="10.079755" />
    <path
       style="color:#000000;display:inline;overflow:visible;visibility:visible;fill:#ffffff;fill-opacity:1;fill-rule:nonzero;stroke:none;stroke-width:1.33265281px;marker:none;enable-background:accumulate"
       d="m 506.6762,2156.2685 c 194.6901,15.3344 222.38072,70.1527 224.32115,120.9932 -3.36399,52.392 -42.3976,90.6173 -71.12237,98.285 -28.72476,7.6667 -71.90119,18.3087 -151.60305,19.9338 -92.07856,0.069 -161.24557,-7.5423 -202.83006,-48.7548 -117.72345,-168.359 145.03981,-193.7519 201.23433,-190.4572 z"
       id="path3365-7-3"
       inkscape:connector-curvature="0"
       sodipodi:nodetypes="ccsccc" />
    <path
       style="color:#000000;display:inline;overflow:visible;visibility:visible;fill:#ffffff;fill-opacity:1;fill-rule:nonzero;stroke:none;stroke-width:0.743357px;marker:none;enable-background:accumulate"
       d="m 280.12976,2089.6482 c 98.92768,9.3898 114.61339,35.4561 115.59938,66.5876 -1.70934,32.0815 -21.54345,55.4882 -36.13934,60.1834 -14.59588,4.6946 -36.53508,11.2111 -77.03391,12.2062 -46.78778,0.042 -74.36917,-1.9275 -103.99597,-27.4996 -61.34178,-67.5176 9.5487,-111.3998 101.56984,-111.4776 z"
       id="path3365-7"
       inkscape:connector-curvature="0"
       sodipodi:nodetypes="ccsccc" />
    <path
       style="color:#000000;display:inline;overflow:visible;visibility:visible;fill:#ffffff;fill-opacity:1;fill-rule:nonzero;stroke:none;stroke-width:0.621982px;marker:none;enable-background:accumulate"
       d="M 1427.1523 2074.2617 C 1394.6802 2074.4675 1361.3961 2080.7655 1333.3258 2097.7549 C 1308.0761 2113.3213 1297 2148.3642 1309.0669 2175.5381 C 1320.8515 2202.1556 1348.3946 2220.0523 1377.0845 2222.5407 C 1417.9137 2229.8046 1459.6519 2227.2811 1500.7056 2223.5253 C 1520.9916 2220.9817 1542.0587 2216.822 1558.8907 2204.5 C 1583.4414 2185.0848 1589.9431 2147.5104 1574.9225 2120.3669 C 1566.876 2105.0208 1551.8844 2094.3617 1535.709 2088.9062 C 1510.1945 2079.3222 1482.7805 2076.7796 1455.8006 2074.8597 C 1446.2594 2074.3874 1436.7047 2074.212 1427.1523 2074.2617 z "
       id="path4546-1"
       inkscape:connector-curvature="0"
       sodipodi:nodetypes="cssssc" />
    <path
       style="fill:#ffffff;stroke:none;stroke-width:0.574142"
       d="m 1403.9856,2372.7936 c -39.0821,-62.787 -19.4125,-123.7423 -4.7627,-176.2444 l -28.056,-13.3069 c -14.9515,56.8343 -28.5621,131.5641 32.8187,189.5513 z"
       id="path3063-8"
       inkscape:connector-curvature="0"
       sodipodi:nodetypes="cccc" />
    <path
       style="color:#000000;display:inline;overflow:visible;visibility:visible;fill:#ffffff;fill-opacity:1;fill-rule:nonzero;stroke:none;stroke-width:0.922761px;marker:none;enable-background:accumulate"
       d="m 1922.1944,2701.6751 c -95.1863,-31.0795 -76.8848,-101.5738 -63.4064,-124.9254 27.1219,-46.9895 38.2213,16.3603 38.2213,16.3603 -7.6201,-6.5434 -61.0011,60.3809 25.1851,108.5651 z"
       id="path5002-7"
       inkscape:connector-curvature="0"
       sodipodi:nodetypes="cscc" />
    <path
       style="color:#000000;display:inline;overflow:visible;visibility:visible;fill:#ffffff;fill-opacity:1;fill-rule:nonzero;stroke:none;stroke-width:1.1747px;marker:none;enable-background:accumulate"
       d="m 2007.9839,2352.4855 c -47.7605,2.8184 -95.7187,9.4815 -141.1277,25.149 -19.0162,9.6205 -34.1055,25.2402 -47.8311,41.2534 -13.2544,17.1942 -19.7603,38.7781 -21.3261,60.2431 -2.7616,20.6167 -1.8666,42.4931 7.3527,61.4647 16.445,35.6541 51.1265,61.5326 89.3948,68.9131 38.4951,9.0559 78.1895,11.0429 117.5917,12.0839 32.6198,0.5292 65.3554,-0.03 97.7732,-4.0483 29.107,-4.1793 58.0229,-12.1638 83.8762,-26.5021 18.2771,-11.2202 32.4726,-29.0568 38.9644,-49.5751 8.9062,-25.2309 9.7411,-52.9359 4.2685,-78.9903 -7.0987,-30.6024 -24.435,-58.8536 -48.9016,-78.5129 -19.0049,-14.6105 -42.3526,-22.3688 -65.8153,-25.9838 -37.6276,-6.9181 -76.1122,-6.8995 -114.2197,-5.4947 z"
       id="path4040-4-5-3-4"
       inkscape:connector-curvature="0"
       sodipodi:nodetypes="zssssz" />
    <path
       style="color:#000000;display:inline;overflow:visible;visibility:visible;fill:#ffffff;fill-opacity:1;fill-rule:nonzero;stroke:none;stroke-width:1.11503px;marker:none;enable-background:accumulate"
       d="m 2094.0033,2139.3077 c -76.4114,1.9404 -153.2127,12.7228 -224.261,37.4255 -17.3679,6.0481 -34.3974,13.9939 -46.7717,26.3108 -26.7235,25.1115 -40.6681,58.7325 -43.5479,92.2547 -2.3131,26.3323 4.5509,54.273 24.5345,75.0139 17.6043,18.1799 44.0243,28.4017 70.5925,33.163 39.2742,7.2637 79.4494,10.439 119.5638,11.5824 75.794,1.679 151.8138,-6.442 224.9973,-23.271 17.3679,-4.1759 35.4626,-8.1472 50.2177,-17.4233 10.9611,-6.9096 19.0841,-16.6219 24.53,-27.2057 13.6621,-23.5596 22.7005,-50.216 18.2847,-76.6695 -4.8646,-30.4737 -25.0517,-57.9029 -51.3407,-78.387 -30.973,-24.2629 -70.1036,-40.3447 -110.9811,-48.1067 -18.3197,-3.3646 -37.0822,-4.9326 -55.8181,-4.6871 z"
       id="path4040-40"
       inkscape:connector-curvature="0"
       sodipodi:nodetypes="zssssz" />
    <path
       style="fill:#ffffff;stroke:none;stroke-width:0.797187"
       d="m 2018.8247,2068.7073 c -47.4894,0.7851 -95.029,8.6948 -139.8513,24.9607 -18.6653,7.7007 -33.3754,25.8237 -35.5573,46.5636 -2.0426,16.3543 2.839,34.2683 15.2102,45.3281 11.4442,10.1158 26.5959,13.7124 40.9641,17.0483 47.7883,11.003 97.0353,13.1867 145.8594,12.1109 44.0863,-0.3243 88.834,-0.7018 131.6973,-12.5628 15.0226,-4.1687 30.4251,-10.0534 41.3418,-21.912 7.9795,-8.8652 11.4631,-21.4095 10.0695,-33.3037 -1.8709,-22.7299 -16.5584,-43.3475 -36.3026,-53.4775 -16.1237,-8.6897 -33.9332,-13.4575 -51.7108,-17.0692 -40.0792,-7.7612 -81.0916,-7.6661 -121.7203,-7.6864 z"
       id="path3280-10"
       inkscape:connector-curvature="0"
       sodipodi:nodetypes="csssc" />
  </g>
  <g
     inkscape:groupmode="layer"
     id="layer1"
     inkscape:label="txt">
    <text
       xml:space="preserve"
       style="font-style:normal;font-variant:normal;font-weight:normal;font-stretch:normal;font-size:105.817px;line-height:1.25;font-family:Lavi;-inkscape-font-specification:Lavi;letter-spacing:0px;word-spacing:0px;fill:#ffffff;fill-opacity:1;stroke:#ffffff;stroke-width:0.651649;stroke-miterlimit:4;stroke-dasharray:none;stroke-opacity:1;filter:url(#filter4375-4-1-1-1-9-5-8-8-5-5)"
       x="787.65729"
       y="1584.5073"
       id="text4580-6-0-0-0-9"
       transform="matrix(0.85173785,-0.2120138,-0.27862433,0.92213476,-61.467437,-1084.276)"><tspan
         style="font-size:105.817px;fill:#ffffff;fill-opacity:1;stroke:#ffffff;stroke-width:0.651649;stroke-miterlimit:4;stroke-dasharray:none;stroke-opacity:1"
         sodipodi:role="line"
         id="tspan876"
         x="787.65729"
         y="1584.5073"><tspan
   style="font-size:68.9103px;fill:#ffffff;fill-opacity:1"
   id="tspan884">Zio</tspan>oOOOOO</tspan></text>
    <text
       xml:space="preserve"
       style="font-style:normal;font-variant:normal;font-weight:normal;font-stretch:normal;font-size:105.817px;line-height:1.25;font-family:Lavi;-inkscape-font-specification:Lavi;letter-spacing:0px;word-spacing:0px;fill:#ffffff;fill-opacity:1;stroke:#ffffff;stroke-width:0.716208;stroke-miterlimit:4;stroke-dasharray:none;stroke-opacity:1;filter:url(#filter4375-4-1-1-1-9-5-8-8-5-5-3)"
       x="787.65729"
       y="1584.5073"
       id="text4580-6-0-0-0-9-3"
       transform="matrix(0.94373699,-0.22067211,-0.3715186,1.0168112,628.1392,-1137.5397)"><tspan
         style="font-size:105.817px;fill:#ffffff;fill-opacity:1;stroke:#ffffff;stroke-width:0.716208;stroke-miterlimit:4;stroke-dasharray:none;stroke-opacity:1"
         sodipodi:role="line"
         id="tspan876-6"
         x="787.65729"
         y="1584.5073"><tspan
           style="font-size:78.6226px;fill:#ffffff;fill-opacity:1;stroke-width:0.716208"
           id="tspan884-0"><tspan
   style="font-size:93.191px;stroke-width:0.716208"
   id="tspan976">Zioo</tspan>O<tspan
   style="font-size:107.759px;stroke-width:0.716208"
   id="tspan972">O</tspan></tspan><tspan
           id="tspan974"
           style="font-size:166.033px;stroke-width:0.716208">O</tspan><tspan
           style="font-size:195.17px;stroke-width:0.716208"
           id="tspan958">OO</tspan></tspan></text>
    <text
       xml:space="preserve"
       style="font-style:normal;font-variant:normal;font-weight:normal;font-stretch:normal;font-size:56.2847px;line-height:1.25;font-family:Lavi;-inkscape-font-specification:Lavi;text-align:center;letter-spacing:0px;word-spacing:0px;text-anchor:middle;fill:#000000;fill-opacity:1;stroke:none;stroke-width:1.25077"
       x="1707.8514"
       y="252.33763"
       id="text4246-3-2-2"><tspan
         style="font-size:56.2847px;stroke-width:1.25077"
         sodipodi:role="line"
         id="tspan1097"
         x="1707.8514"
         y="252.33763">Innkommende!</tspan></text>
    <text
       xml:space="preserve"
       style="font-style:normal;font-variant:normal;font-weight:normal;font-stretch:normal;font-size:45px;line-height:1.25;font-family:Lavi;-inkscape-font-specification:Lavi;text-align:center;letter-spacing:0px;word-spacing:0px;text-anchor:middle;fill:#000000;fill-opacity:1;stroke:none"
       x="1736.9022"
       y="348.91861"
       id="text4246-3-2-2-6"><tspan
         style="font-size:45px"
         sodipodi:role="line"
         id="tspan1097-2"
         x="1736.9022"
         y="348.91861">Ut av veien!</tspan></text>
    <text
       xml:space="preserve"
       style="font-style:normal;font-variant:normal;font-weight:normal;font-stretch:normal;font-size:45px;line-height:1.25;font-family:Lavi;-inkscape-font-specification:Lavi;text-align:center;letter-spacing:0px;word-spacing:0px;text-anchor:middle;fill:#000000;fill-opacity:1;stroke:none"
       x="1855.6654"
       y="425.71005"
       id="text4246-3-2-2-6-6"><tspan
         style="font-style:normal;font-variant:normal;font-weight:normal;font-stretch:normal;font-size:45px;font-family:Lavi;-inkscape-font-specification:Lavi;stroke:#000000;stroke-opacity:1"
         sodipodi:role="line"
         id="tspan1097-2-1"
         x="1855.6654"
         y="425.71005">UT AV VEIEN!!!</tspan></text>
    <text
       xml:space="preserve"
       style="font-style:normal;font-variant:normal;font-weight:normal;font-stretch:normal;font-size:140px;line-height:1.25;font-family:Lavi;-inkscape-font-specification:Lavi;letter-spacing:0px;word-spacing:0px;fill:#ffffff;fill-opacity:1;stroke:#ffffff;stroke-width:0.716208;stroke-miterlimit:4;stroke-dasharray:none;stroke-opacity:1;filter:url(#filter4375-4-1-1-1-9-5-8-8-5-5-3-3)"
       id="text4580-6-0-0-0-9-3-3"
       transform="matrix(0.87975325,-0.28432023,0,1.2307016,213.79529,79.674623)"><textPath
         xlink:href="#path974"
         id="textPath2837"><tspan
   style="font-size:140px;fill:#ffffff;fill-opacity:1;stroke:#ffffff;stroke-width:0.716208;stroke-miterlimit:4;stroke-dasharray:none;stroke-opacity:1"
   id="tspan876-6-6"
   rotate="0 335 335 335 0 335 0"><tspan
   style="font-size:150.644px"
   id="tspan2855">KR</tspan>A<tspan
   style="font-size:129.356px"
   id="tspan2845">SJ</tspan><tspan
   id="tspan2853"
   style="font-size:113.39px">!</tspan></tspan></textPath></text>
    <path
       style="fill:none;fill-rule:evenodd;stroke:none;stroke-width:1px;stroke-linecap:butt;stroke-linejoin:miter;stroke-opacity:1"
       d="m 614.46906,1135.6082 c 207.04629,193.6764 366.91889,371.9512 546.13244,556.5406"
       id="path974"
       sodipodi:nodetypes="cc" />
    <text
       xml:space="preserve"
       style="font-style:normal;font-variant:normal;font-weight:normal;font-stretch:normal;font-size:45px;line-height:1.25;font-family:Lavi;-inkscape-font-specification:Lavi;text-align:center;letter-spacing:0px;word-spacing:0px;text-anchor:middle;fill:#000000;fill-opacity:1;stroke:none"
       x="274.67145"
       y="2169.6099"
       id="text4246-3-2-2-6-3"><tspan
         style="font-size:45px"
         sodipodi:role="line"
         id="tspan1097-2-6"
         x="274.67145"
         y="2169.6099">Hoppsan!</tspan></text>
    <text
       xml:space="preserve"
       style="font-style:normal;font-variant:normal;font-weight:normal;font-stretch:normal;font-size:45px;line-height:1.25;font-family:Lavi;-inkscape-font-specification:Lavi;text-align:center;letter-spacing:0px;word-spacing:0px;text-anchor:middle;fill:#000000;fill-opacity:1;stroke:none"
       x="501.92758"
       y="2235.6655"
       id="text4246-3-2-2-6-3-7"><tspan
         style="font-size:45px"
         sodipodi:role="line"
         id="tspan1097-2-6-5"
         x="501.92758"
         y="2235.6655">Er alle OK?</tspan><tspan
         style="font-size:45px"
         sodipodi:role="line"
         x="501.92758"
         y="2291.9155"
         id="tspan982">Ingen som har</tspan><tspan
         style="font-size:45px"
         sodipodi:role="line"
         x="501.92758"
         y="2348.1655"
         id="tspan936">brukket noe?</tspan></text>
    <text
       xml:space="preserve"
       style="font-style:normal;font-variant:normal;font-weight:normal;font-stretch:normal;font-size:55.5556px;line-height:1.25;font-family:Lavi;-inkscape-font-specification:Lavi;text-align:center;letter-spacing:0px;word-spacing:0px;text-anchor:middle;fill:#000000;fill-opacity:1;stroke:none;stroke-width:1.23457"
       x="1443.8728"
       y="2168.6335"
       id="text4246-3-2-2-6-3-7-5"><tspan
         style="font-size:55.5556px;stroke-width:1.23457"
         sodipodi:role="line"
         x="1443.8728"
         y="2168.6335"
         id="tspan982-2">Pepper!</tspan></text>
    <text
       xml:space="preserve"
       style="font-style:normal;font-variant:normal;font-weight:normal;font-stretch:normal;font-size:45px;line-height:1.25;font-family:Lavi;-inkscape-font-specification:Lavi;text-align:center;letter-spacing:0px;word-spacing:0px;text-anchor:middle;fill:#000000;fill-opacity:1;stroke:none"
       x="2034.6389"
       y="2155.8035"
       id="text4246-3-2-2-6-3-7-9"><tspan
         style="font-size:45px"
         sodipodi:role="line"
         x="2034.6389"
         y="2155.8035"
         id="tspan952">Hallo Shichimi!</tspan></text>
    <text
       xml:space="preserve"
       style="font-style:normal;font-variant:normal;font-weight:normal;font-stretch:normal;font-size:45px;line-height:1.25;font-family:Lavi;-inkscape-font-specification:Lavi;text-align:center;letter-spacing:0px;word-spacing:0px;text-anchor:middle;fill:#000000;fill-opacity:1;stroke:none"
       x="2039.8783"
       y="2237.1382"
       id="text4246-3-2-2-6-3-7-9-3"><tspan
         style="font-size:45px"
         sodipodi:role="line"
         x="2039.8783"
         y="2237.1382"
         id="tspan964">Beklager den</tspan><tspan
         style="font-size:45px"
         sodipodi:role="line"
         x="2039.8783"
         y="2293.3882"
         id="tspan968">dramatiske ankomsten</tspan><tspan
         style="font-size:45px"
         sodipodi:role="line"
         x="2039.8783"
         y="2349.6382"
         id="tspan971">og den lille forsinkelsen!</tspan></text>
    <text
       xml:space="preserve"
       style="font-style:normal;font-variant:normal;font-weight:normal;font-stretch:normal;font-size:45px;line-height:1.25;font-family:Lavi;-inkscape-font-specification:Lavi;text-align:center;letter-spacing:0px;word-spacing:0px;text-anchor:middle;fill:#000000;fill-opacity:1;stroke:none"
       x="2018.4302"
       y="2456.1624"
       id="text4246-3-2-2-6-3-7-9-3-3"><tspan
         style="font-size:45px"
         sodipodi:role="line"
         x="2018.4302"
         y="2456.1624"
         id="tspan983">Jeg har vært på</tspan><tspan
         style="font-size:45px"
         sodipodi:role="line"
         x="2018.4302"
         y="2512.4124"
         id="tspan980">flukt i hele dag, men</tspan><tspan
         style="font-size:45px"
         sodipodi:role="line"
         x="2018.4302"
         y="2568.6624"
         id="tspan986">nok om det.</tspan></text>
  </g>
  <g
     inkscape:groupmode="layer"
     id="layer4"
     inkscape:label="mask"
     sodipodi:insensitive="true">
    <path
       id="rect879"
       style="color:#000000;overflow:visible;fill:#ffffff;stroke-width:3.8337;stop-color:#000000"
       d="M 91.951172,-31.222656 V 102.93359 l 520.126238,1.04131 -1.08166,40.10974 21.2893,243.88191 12.80888,-285.03303 H 2287.9512 V -31.222656 Z"
       sodipodi:nodetypes="ccccccccc" />
  </g>
  <g
     inkscape:groupmode="layer"
     id="layer5"
     inkscape:label="notes"
     style="opacity:0.60045649">
    <path
       style="color:#000000;clip-rule:nonzero;display:inline;overflow:visible;visibility:visible;isolation:auto;mix-blend-mode:normal;color-interpolation:sRGB;color-interpolation-filters:linearRGB;solid-color:#000000;solid-opacity:1;fill:#87cefa;fill-opacity:1;fill-rule:nonzero;stroke:#4682b4;stroke-width:1.8164;stroke-linecap:butt;stroke-linejoin:miter;stroke-miterlimit:4;stroke-dasharray:none;stroke-dashoffset:0;stroke-opacity:1;marker:none;color-rendering:auto;image-rendering:auto;shape-rendering:auto;text-rendering:auto;enable-background:accumulate"
       d="m 574.78169,-141.74548 v 95.563112 H 1932.6084 v -95.563112 z"
       id="path158"
       inkscape:connector-curvature="0"
       sodipodi:nodetypes="ccccc" />
    <flowRoot
       xml:space="preserve"
       id="flowRoot180"
       style="font-style:normal;font-variant:normal;font-weight:normal;font-stretch:normal;font-size:26.7486px;line-height:0.01%;font-family:Lavi;-inkscape-font-specification:'Lavi, Normal';font-variant-ligatures:normal;font-variant-caps:normal;font-variant-numeric:normal;font-feature-settings:normal;text-align:start;letter-spacing:0px;word-spacing:0px;writing-mode:lr-tb;text-anchor:start;display:inline;opacity:0.86;fill:#000000;fill-opacity:1;stroke:none;stroke-width:0.903147px;stroke-linecap:butt;stroke-linejoin:miter;stroke-opacity:1"
       transform="matrix(0.89724289,0,0,0.89724289,854.27309,-1075.7516)"><flowRegion
         id="flowRegion174"
         style="font-style:normal;font-variant:normal;font-weight:normal;font-stretch:normal;font-family:Lavi;-inkscape-font-specification:'Lavi, Normal';font-variant-ligatures:normal;font-variant-caps:normal;font-variant-numeric:normal;font-feature-settings:normal;text-align:start;writing-mode:lr-tb;text-anchor:start;stroke-width:0.903147px"><rect
           id="rect172"
           width="1464.0667"
           height="126.9518"
           x="-275.14545"
           y="1061.6674"
           style="font-style:normal;font-variant:normal;font-weight:normal;font-stretch:normal;font-family:Lavi;-inkscape-font-specification:'Lavi, Normal';font-variant-ligatures:normal;font-variant-caps:normal;font-variant-numeric:normal;font-feature-settings:normal;text-align:start;writing-mode:lr-tb;text-anchor:start;stroke-width:0.903147px" /></flowRegion><flowPara
         style="font-style:normal;font-variant:normal;font-weight:normal;font-stretch:normal;font-size:26.7486px;line-height:1.25;font-family:monospace;-inkscape-font-specification:monospace;font-variant-ligatures:normal;font-variant-caps:normal;font-variant-numeric:normal;font-feature-settings:normal;text-align:start;writing-mode:lr-tb;text-anchor:start;stroke-width:0.903147px"
         id="flowPara176">Dear translator: if editing the soundFX is difficult, I made a special documentation here:</flowPara><flowPara
         style="font-style:normal;font-variant:normal;font-weight:bold;font-stretch:normal;font-size:26.7486px;line-height:1.25;font-family:monospace;-inkscape-font-specification:'monospace Bold';font-variant-ligatures:normal;font-variant-caps:normal;font-variant-numeric:normal;font-feature-settings:normal;text-align:start;writing-mode:lr-tb;text-anchor:start;fill:#0000cd;stroke-width:0.903147px"
         id="flowPara181">https://www.peppercarrot.com/en/static14/documentation&amp;page=055_Sound-Effect_translation</flowPara><flowPara
         style="font-style:normal;font-variant:normal;font-weight:normal;font-stretch:normal;font-size:26.7486px;line-height:1.25;font-family:monospace;-inkscape-font-specification:monospace;font-variant-ligatures:normal;font-variant-caps:normal;font-variant-numeric:normal;font-feature-settings:normal;text-align:start;writing-mode:lr-tb;text-anchor:start;stroke-width:0.903147px"
         id="flowPara179" /></flowRoot>  </g>
</svg>
