<?xml version="1.0" encoding="UTF-8" standalone="no"?>
<svg
   xmlns:dc="http://purl.org/dc/elements/1.1/"
   xmlns:cc="http://creativecommons.org/ns#"
   xmlns:rdf="http://www.w3.org/1999/02/22-rdf-syntax-ns#"
   xmlns:svg="http://www.w3.org/2000/svg"
   xmlns="http://www.w3.org/2000/svg"
   xmlns:xlink="http://www.w3.org/1999/xlink"
   xmlns:sodipodi="http://sodipodi.sourceforge.net/DTD/sodipodi-0.dtd"
   xmlns:inkscape="http://www.inkscape.org/namespaces/inkscape"
   sodipodi:docname="E06P10.svg"
   height="2479"
   width="2481"
   inkscape:version="1.0.2 (e86c870879, 2021-01-15)"
   version="1.1"
   id="svg2">
  <metadata
     id="metadata8">
    <rdf:RDF>
      <cc:Work
         rdf:about="">
        <dc:format>image/svg+xml</dc:format>
        <dc:type
           rdf:resource="http://purl.org/dc/dcmitype/StillImage" />
        <dc:title />
      </cc:Work>
    </rdf:RDF>
  </metadata>
  <defs
     id="defs6" />
  <sodipodi:namedview
     inkscape:document-rotation="0"
     inkscape:object-nodes="true"
     inkscape:current-layer="layer2"
     inkscape:window-maximized="1"
     inkscape:window-y="28"
     inkscape:window-x="0"
     inkscape:cy="364.21264"
     inkscape:cx="1016.2251"
     inkscape:zoom="0.32282107"
     showgrid="false"
     id="namedview4"
     inkscape:window-height="806"
     inkscape:window-width="1536"
     inkscape:pageshadow="2"
     inkscape:pageopacity="0"
     guidetolerance="10"
     gridtolerance="10"
     objecttolerance="10"
     borderopacity="1"
     bordercolor="#666666"
     pagecolor="#ffffff" />
  <g
     sodipodi:insensitive="true"
     style="display:inline"
     inkscape:label="artwork"
     id="layer1"
     inkscape:groupmode="layer">
    <image
       sodipodi:absref="/home/cherry/Workspace/peppercarrot/webcomics/ep06_The-Potion-Contest/lang/gfx_Pepper-and-Carrot_by-David-Revoy_E06P10.png"
       xlink:href="../gfx_Pepper-and-Carrot_by-David-Revoy_E06P10.png"
       width="2481"
       height="2479"
       id="image10"
       x="0"
       y="0" />
  </g>
  <g
     style="display:inline"
     inkscape:label="speechbubbles"
     id="layer3"
     inkscape:groupmode="layer">
    <path
       inkscape:connector-curvature="0"
       id="path4279"
       d="m -2021.8885,646.19917 c 1.0628,-51.0158 26.5707,-103.09442 170.0526,-112.65988 143.4819,-9.56546 203.0004,48.89014 207.2517,90.34047 4.2513,41.45033 -82.9007,96.71744 -162.6129,97.78027 -79.7121,1.06282 -214.6914,-11.69112 -214.6914,-75.46086 z"
       style="fill:#ffffff;stroke:none" />
    <path
       sodipodi:nodetypes="csccc"
       inkscape:connector-curvature="0"
       id="path4281"
       d="m -1788.0661,898.08964 c 70.1467,-44.63882 88.2148,-124.35099 45.7016,-190.24639 -42.5132,-65.8954 -82.9007,-54.20428 -82.9007,-54.20428 l 35.0734,41.45033 c 0,0 97.7803,97.78027 2.1257,203.00034 z"
       style="fill:#ffffff;stroke:none" />
  </g>
  <g
     style="display:inline"
     inkscape:label="text"
     id="layer2"
     inkscape:groupmode="layer">
    <flowRoot
       transform="matrix(1.2234224,0,0,1.2506407,-292.0851,1591.8779)"
       style="font-style:normal;font-variant:normal;font-weight:normal;font-stretch:normal;line-height:0.01%;font-family:Arial;-inkscape-font-specification:Arial;text-align:center;letter-spacing:0px;word-spacing:0px;text-anchor:middle;display:inline;fill:#a72f14;fill-opacity:1;stroke:none"
       id="flowRoot3027-8-8"
       xml:space="preserve"><flowRegion
         id="flowRegion3029-9-3"><rect
           style="text-align:center;text-anchor:middle;fill:#a72f14;fill-opacity:1"
           y="219.33444"
           x="135.21135"
           height="376.21677"
           width="2230.314"
           id="rect3031-9-1" /></flowRegion><flowPara
         style="font-size:12px;line-height:1.25"
         id="flowPara3033-3-0"> </flowPara><flowPara
         id="flowPara3067-4"
         style="font-style:normal;font-variant:normal;font-weight:normal;font-stretch:normal;font-size:48px;line-height:1.25;font-family:Lavi;-inkscape-font-specification:Lavi;text-align:center;text-anchor:middle;fill:#a72f14;fill-opacity:1">https://www.patreon.com/davidrevoy</flowPara></flowRoot>
    <flowRoot
       transform="matrix(0.79948741,0,0,0.82559177,162.39654,-69.158693)"
       style="font-style:normal;font-variant:normal;font-weight:normal;font-stretch:normal;line-height:0.01%;font-family:Arial;-inkscape-font-specification:Arial;text-align:justify;letter-spacing:0px;word-spacing:0px;text-anchor:start;display:inline;fill:#000000;fill-opacity:1;stroke:none"
       id="flowRoot2987"
       xml:space="preserve"><flowRegion
         id="flowRegion2989"><rect
           style="text-align:justify;text-anchor:start"
           y="266.68515"
           x="-141.0901"
           height="2440.8586"
           width="2996.0627"
           id="rect2991" /></flowRegion><flowPara
         id="flowPara3241"
         style="font-style:normal;font-variant:normal;font-weight:normal;font-stretch:normal;font-size:47.1126px;line-height:150%;font-family:Lavi;-inkscape-font-specification:Lavi;text-align:justify;writing-mode:lr-tb;text-anchor:start"> </flowPara><flowPara
         id="flowPara3095"
         style="font-style:normal;font-variant:normal;font-weight:normal;font-stretch:normal;font-size:47.1126px;line-height:120%;font-family:Lavi;-inkscape-font-specification:Lavi;text-align:justify;writing-mode:lr-tb;text-anchor:start"> </flowPara><flowPara
         id="flowPara3111"
         style="font-style:normal;font-variant:normal;font-weight:normal;font-stretch:normal;font-size:47.1126px;line-height:120%;font-family:Lavi;-inkscape-font-specification:Lavi;text-align:justify;writing-mode:lr-tb;text-anchor:start">Алексей ★ Глеб Бузало ★ 獨孤欣 &amp; 獨弧悦 ★ Addison Lewis ★ A Distinguished Robot ★ Adrian Lord ★ Ahmad Ali ★ Aina Reich ★ Alandran  ★ Alan Hardman ★ Albert Westra ★ Alcide  ★ Alejandro Flores Prieto ★ Alex ★ Alexander Bülow Tomassen ★ Alexander Sopicki ★ Alexandra Jordan ★ Alex Lusco ★ Alex Silver ★ Alex Vandiver ★ Alfredo ★ Ali Poulton (Aunty Pol) ★ Allan Zieser ★ Andreas Rieger ★ Andrej Kwadrin ★ Andrew  ★ Andrew Godfrey ★ Andrey Alekseenko ★ Angela K ★ Anna Orlova ★ Antan Karmola ★ Anthony Edlin ★ Antonio Mendoza ★ Ardash Crowfoot ★ Arjun Chennu ★ Arne Brix ★ Aslak Kjølås-Sæverud ★ Axel Bordelon ★ Axel Philipsenburg ★ Barbix ★ Ben Evans ★ Bernd  ★ Betsy Luntao ★ Boonsak Watanavisit ★ Boris Fauret ★ Boudewijn Rempt ★ BoxBoy ★ Brett Smith ★ Brian Behnke ★ Brian Smith ★ Bryan Butler ★ Bui Dang Hai Trieu ★ Carlos Levischi ★ Charlotte Lacombe-bar ★ Chris Radcliff ★ Chris Sakkas ★ Christian Gruenwaldner ★ Christophe Carré ★ Christopher Bates ★ Clara Dexter ★ codl ★ Colby Driedger ★ Conway Scott Smith ★ Cuthbert Williams  ★ Cyrille Largillier ★ Cyril Paciullo ★ Damien  ★ Daniel ★ Daniel Björkman ★ Danny Grimm ★ David Tang ★ DiCola Jamn ★ Dmitry  ★ Donald Hayward ★ Duke ★ Eitan Goldshtrom ★ Enrico Billich ★ Epsilon ★ Eric Schulz ★ Faolan Grady ★ Francois Schnell ★ Garret Patterson ★ Ginny Hendricks ★ GreenAngel5  ★ Grigory Petrov ★ Guillaume  ★ Guillaume Ballue ★ Gustav Strömbom ★ Guy Davis ★ Happy Mimic ★ Helmar Suschka ★ Henning Döscher ★ Ilyas  ★ Irina Rempt ★ Ivan Korotkov ★ James Frazier ★ Janusz  ★ Jared Tritsch ★ JDB  ★ Jean-Baptiste Hebbrecht ★ Jean-Gabriel LOQUET ★ Jeffrey Schneider ★ Jessey Wright ★ Jim  ★ Jim Street ★ Jiska  ★ Joachim Schiele ★ JoÃ£o Luiz Machado Junior ★ Joern Konopka ★ joe rutledge ★ Johanne Thomson ★ John ★ John Urquhart Ferguson ★ Jónatan Nilsson ★ Jonathan Leroy ★ Jonathan Ringstad ★ Jon Brake ★ Jorge Bernal ★ Joseph Bowman ★ Julien Duroure ★ Justus Kat ★ Kai-Ting (Danil) Ko ★ Kasper Hansen ★ Kate  ★ Kathryn Wuerstl ★ Ken Mingyuan Xia ★ Kingsquee ★ Kroet ★ Levi Kornelsen ★ Liselle  ★ Lorentz Grip ★ L S ★ Luc Stepniewski ★ Luke Hochrein ★ MacCoy  ★ Magnus Kronnäs ★ Manuel ★ Marc &amp; Rick ★ Marcus ★ Martin Owens ★ Mary Brownlee ★ Masked Admirer ★ Mathias Stærk ★ Mefflin Ross Bullis-bates ★ Michael ★ Michael Gill ★ Michael Pureka ★ Michelle Pereira Garcia ★ Mike Mosher ★ Miroslav  ★ Muzyka Dmytro ★ Nataya Castillo ★ Nazhif  ★ Nicholas DeLateur ★ Nicholas Terranova ★ Nicki Aya ★ Nicola Angel ★ Nicolae Berbece ★ Nicole Heersema ★ Nielas Sinclair ★ NinjaKnight Comics ★ Noble Hays ★ Noelia Calles Marcos ★ Nora Czaykowski ★ Nyx  ★ Olivier Amrein ★ Olivier Brun ★ Omar Willey ★ Oscar Moreno ★ Öykü Su Gürler ★ Ozone S. ★ Pablo Lopez Soriano ★ Pat David ★ Patrick Gamblin ★ Paul ★ Pavel Semenov ★ Pet0r ★ Peter ★ Peter Moonen ★ Petr Vlašic ★ Philippe Jean Edward Bateman ★ Pierre Geier ★ Pierre Vuillemin ★ Pranab Shenoy ★ Pyves &amp; Ran ★ Raghavendra Kamath ★ Rajul Gupta  ★ Reorx Meng ★ Ret Samys ★ Rictic  ★ RJ van der Weide ★ Roberto Zaghis ★ Roman ★ Rumiko Hoshino ★ Rustin Simons ★ Sally Bridgewater ★ Sami T ★ Samuel Mitson ★ Scott Petrovic ★ Sean Adams ★ Shadefalcon ★ ShadowMist  ★ Shafak ★ Shawn Meyer ★ Simon Forster ★ Simon Isenberg ★ Sonny W. ★ Soriac  ★ Stanislav Vodetskyi ★ Stephanie Cheshire ★ Stephen Bates ★ Stephen Smoogen ★ Steven Bennett ★ Stuart Dickson ★ Surt  ★ TamaskanLEM ★ Tar8156 ★ Terry Hancock ★ TheFaico ★ Thomas Citharel ★ Thomas Courbon ★ Thomas Schwery ★ Tim Burbank ★ Tim J. ★ Tomas Hajek ★ Tom Demian ★ Tom Savage ★ Tracey Reuben  ★ Travis Humble ★ Tree  ★ Tyson Tan ★ Urm  ★ Victoria  ★ Victoria White ★ Vladislav Kurdyukov ★ Vlad Tomash ★ Westen Curry ★ Witt N. Vest ★ Xavier Claude ★ Yalyn Vinkindo ★ Yaroslav  ★ Zeni Pong ★ Źmicier Kušnaroŭ</flowPara><flowPara
         id="flowPara3113"
         style="font-style:normal;font-variant:normal;font-weight:normal;font-stretch:normal;font-size:47.1126px;line-height:120%;font-family:Lavi;-inkscape-font-specification:Lavi;text-align:justify;writing-mode:lr-tb;text-anchor:start"> </flowPara></flowRoot>
    <flowRoot
       style="font-style:normal;font-variant:normal;font-weight:normal;font-stretch:normal;line-height:0.01%;font-family:Arial;-inkscape-font-specification:Arial;letter-spacing:0px;word-spacing:0px;fill:#000000;fill-opacity:1;stroke:none;stroke-width:1px;stroke-linecap:butt;stroke-linejoin:miter;stroke-opacity:1"
       id="flowRoot3090"
       xml:space="preserve"><flowRegion
         id="flowRegion3092"><rect
           y="1811.1038"
           x="1078.4646"
           height="17.347956"
           width="222.6321"
           id="rect3094" /></flowRegion><flowPara
         style="font-size:12px;line-height:1.25"
         id="flowPara3096"> </flowPara></flowRoot>
    <flowRoot
       transform="matrix(1.1405849,0,0,1.188464,-390.75597,-202.6083)"
       style="font-style:normal;font-variant:normal;font-weight:normal;font-stretch:normal;line-height:1.25;font-family:'Xiaolai SC';-inkscape-font-specification:'Xiaolai SC';text-align:center;letter-spacing:0px;word-spacing:0px;text-anchor:middle;display:inline;fill:#000000;fill-opacity:1;stroke:none"
       id="flowRoot80"
       xml:space="preserve"><flowRegion
         style="font-style:normal;font-variant:normal;font-weight:normal;font-stretch:normal;font-family:'Xiaolai SC';-inkscape-font-specification:'Xiaolai SC';text-align:center;text-anchor:middle"
         id="flowRegion61"><rect
           style="font-style:normal;font-variant:normal;font-weight:normal;font-stretch:normal;font-family:'Xiaolai SC';-inkscape-font-specification:'Xiaolai SC';text-align:center;text-anchor:middle;stroke-width:1"
           y="224.47961"
           x="454.2001"
           height="241.43515"
           width="1949.62"
           id="rect59" /></flowRegion><flowPara
         id="flowPara66"
         style="font-style:normal;font-variant:normal;font-weight:normal;font-stretch:normal;font-size:48px;font-family:'Xiaolai SC';-inkscape-font-specification:'Xiaolai SC';text-align:center;text-anchor:middle">후추와 당근은 完全히自由오픈소스이고 讀者들의所重한後援을받아 運營하고 있습니다.</flowPara><flowPara
         id="flowPara68"
         style="font-style:normal;font-variant:normal;font-weight:normal;font-stretch:normal;font-size:48px;font-family:'Xiaolai SC';-inkscape-font-specification:'Xiaolai SC';text-align:center;text-anchor:middle">이番話에 도움을 주신 245名의後援者분께 感謝의 말씀 드립니다:</flowPara><flowPara
         id="flowPara70"
         style="font-style:normal;font-variant:normal;font-weight:normal;font-stretch:normal;font-size:48px;font-family:'Xiaolai SC';-inkscape-font-specification:'Xiaolai SC';text-align:center;text-anchor:middle" /><flowPara
         id="flowPara72"
         style="font-style:normal;font-variant:normal;font-weight:normal;font-stretch:normal;font-size:48px;font-family:'Xiaolai SC';-inkscape-font-specification:'Xiaolai SC';text-align:center;text-anchor:middle" /><flowPara
         id="flowPara74"
         style="font-style:normal;font-variant:normal;font-weight:normal;font-stretch:normal;font-size:48px;font-family:'Xiaolai SC';-inkscape-font-specification:'Xiaolai SC';text-align:center;text-anchor:middle" /><flowPara
         id="flowPara76"
         style="font-style:normal;font-variant:normal;font-weight:normal;font-stretch:normal;font-size:48px;font-family:'Xiaolai SC';-inkscape-font-specification:'Xiaolai SC';text-align:center;text-anchor:middle" /><flowPara
         id="flowPara78"
         style="font-style:normal;font-variant:normal;font-weight:normal;font-stretch:normal;font-size:48px;font-family:'Xiaolai SC';-inkscape-font-specification:'Xiaolai SC';text-align:center;text-anchor:middle" /></flowRoot>
    <flowRoot
       transform="matrix(0.78642736,0,0,0.81144821,250.14605,1595.4617)"
       style="font-style:normal;font-variant:normal;font-weight:normal;font-stretch:normal;line-height:1.25;font-family:'Xiaolai SC';-inkscape-font-specification:'Xiaolai SC';text-align:center;letter-spacing:0px;word-spacing:0px;text-anchor:middle;display:inline;fill:#000000;fill-opacity:1;stroke:none"
       id="flowRoot90"
       xml:space="preserve"><flowRegion
         id="flowRegion84"
         style="font-style:normal;font-variant:normal;font-weight:normal;font-stretch:normal;font-family:'Xiaolai SC';-inkscape-font-specification:'Xiaolai SC'"><rect
           style="text-align:center;text-anchor:middle;-inkscape-font-specification:'Xiaolai SC';font-family:'Xiaolai SC';font-weight:normal;font-style:normal;font-stretch:normal;font-variant:normal;"
           y="219.33444"
           x="135.21135"
           height="376.21677"
           width="2230.314"
           id="rect82" /></flowRegion><flowPara
         id="flowPara86"
         style="font-style:normal;font-variant:normal;font-weight:normal;font-stretch:normal;font-size:48px;font-family:'Xiaolai SC';-inkscape-font-specification:'Xiaolai SC';text-align:center;text-anchor:middle">여러분도 후추와 당근의</flowPara><flowPara
         id="flowPara88"
         style="font-style:normal;font-variant:normal;font-weight:normal;font-stretch:normal;font-size:48px;font-family:'Xiaolai SC';-inkscape-font-specification:'Xiaolai SC';text-align:center;text-anchor:middle">다음話의後援者가 될 수 있습니다 :</flowPara></flowRoot>
    <flowRoot
       transform="matrix(0.68541355,0,0,0.72519471,369.66197,2007.2781)"
       style="font-style:normal;font-variant:normal;font-weight:normal;font-stretch:normal;line-height:1.25;font-family:'Xiaolai SC';-inkscape-font-specification:'Xiaolai SC';text-align:center;letter-spacing:0px;word-spacing:0px;text-anchor:middle;display:inline;fill:#000000;fill-opacity:1;stroke:none"
       id="flowRoot100"
       xml:space="preserve"><flowRegion
         id="flowRegion94"
         style="font-style:normal;font-variant:normal;font-weight:normal;font-stretch:normal;font-family:'Xiaolai SC';-inkscape-font-specification:'Xiaolai SC'"><rect
           style="text-align:center;text-anchor:middle;-inkscape-font-specification:'Xiaolai SC';font-family:'Xiaolai SC';font-weight:normal;font-style:normal;font-stretch:normal;font-variant:normal;"
           y="219.33444"
           x="135.21135"
           height="376.21677"
           width="2230.314"
           id="rect92" /></flowRegion><flowPara
         id="flowPara96"
         style="font-style:normal;font-variant:normal;font-weight:normal;font-stretch:normal;font-size:46.455px;font-family:'Xiaolai SC';-inkscape-font-specification:'Xiaolai SC';text-align:center;text-anchor:middle">도구 : 이番話는 100% 無料/自由소프트웨어로 製作되었습니다</flowPara><flowPara
         id="flowPara98"
         style="font-style:normal;font-variant:normal;font-weight:normal;font-stretch:normal;font-size:46.455px;font-family:'Xiaolai SC';-inkscape-font-specification:'Xiaolai SC';text-align:center;text-anchor:middle">리눅스 민트에서 크리타 使用</flowPara></flowRoot>
    <flowRoot
       transform="matrix(0.67859133,0,0,0.70424395,377.01648,1954.5496)"
       style="font-style:normal;font-variant:normal;font-weight:normal;font-stretch:normal;line-height:1.25;font-family:'Xiaolai SC';-inkscape-font-specification:'Xiaolai SC';text-align:center;letter-spacing:0px;word-spacing:0px;text-anchor:middle;display:inline;fill:#000000;fill-opacity:1;stroke:none"
       id="flowRoot108"
       xml:space="preserve"><flowRegion
         id="flowRegion104"
         style="font-style:normal;font-variant:normal;font-weight:normal;font-stretch:normal;font-family:'Xiaolai SC';-inkscape-font-specification:'Xiaolai SC'"><rect
           style="font-style:normal;font-variant:normal;font-weight:normal;font-stretch:normal;font-family:'Xiaolai SC';-inkscape-font-specification:'Xiaolai SC';text-align:center;text-anchor:middle;"
           y="219.33444"
           x="135.21135"
           height="376.21677"
           width="2230.314"
           id="rect102" /></flowRegion><flowPara
         id="flowPara106"
         style="font-style:normal;font-variant:normal;font-weight:normal;font-stretch:normal;font-size:48px;font-family:'Xiaolai SC';-inkscape-font-specification:'Xiaolai SC';text-align:center;text-anchor:middle">오픈 소스 : 모든 레이어 소스 파일과 폰트는 公式홈페이지에서 다운로드可能</flowPara></flowRoot>
    <flowRoot
       transform="matrix(0.6789928,0,0,0.71785927,379.47586,1805.8661)"
       style="font-style:normal;font-variant:normal;font-weight:normal;font-stretch:normal;line-height:1.25;font-family:'Xiaolai SC';-inkscape-font-specification:'Xiaolai SC';text-align:center;letter-spacing:0px;word-spacing:0px;text-anchor:middle;display:inline;fill:#000000;fill-opacity:1;stroke:none"
       id="flowRoot120"
       xml:space="preserve"><flowRegion
         id="flowRegion112"
         style="font-style:normal;font-variant:normal;font-weight:normal;font-stretch:normal;font-family:'Xiaolai SC';-inkscape-font-specification:'Xiaolai SC'"><rect
           style="font-style:normal;font-variant:normal;font-weight:normal;font-stretch:normal;font-family:'Xiaolai SC';-inkscape-font-specification:'Xiaolai SC';text-align:center;text-anchor:middle;stroke-width:1"
           y="219.33444"
           x="135.21135"
           height="376.21677"
           width="2230.314"
           id="rect110" /></flowRegion><flowPara
         style="font-style:normal;font-variant:normal;font-weight:normal;font-stretch:normal;font-size:12px;font-family:'Xiaolai SC';-inkscape-font-specification:'Xiaolai SC'"
         id="flowPara114"> </flowPara><flowPara
         id="flowPara116"
         style="font-style:normal;font-variant:normal;font-weight:normal;font-stretch:normal;font-size:47.5979px;font-family:'Xiaolai SC';-inkscape-font-specification:'Xiaolai SC';text-align:center;text-anchor:middle">라이선스 : 크리에이티브 커먼즈 著作者表示</flowPara><flowPara
         id="flowPara118"
         style="font-style:normal;font-variant:normal;font-weight:normal;font-stretch:normal;font-size:47.5979px;font-family:'Xiaolai SC';-inkscape-font-specification:'Xiaolai SC';text-align:center;text-anchor:middle">修正, 再配布, 販賣等可能</flowPara></flowRoot>
  </g>
</svg>
