<?xml version="1.0" encoding="UTF-8" standalone="no"?>
<!-- Created with Inkscape (http://www.inkscape.org/) -->

<svg
   xmlns:dc="http://purl.org/dc/elements/1.1/"
   xmlns:cc="http://creativecommons.org/ns#"
   xmlns:rdf="http://www.w3.org/1999/02/22-rdf-syntax-ns#"
   xmlns:svg="http://www.w3.org/2000/svg"
   xmlns="http://www.w3.org/2000/svg"
   xmlns:xlink="http://www.w3.org/1999/xlink"
   xmlns:sodipodi="http://sodipodi.sourceforge.net/DTD/sodipodi-0.dtd"
   xmlns:inkscape="http://www.inkscape.org/namespaces/inkscape"
   id="svg2"
   version="1.1"
   inkscape:version="0.92.2 (5c3e80d, 2017-08-06)"
   width="2481"
   height="3503"
   sodipodi:docname="Pepper-and-Carrot_by-David-Revoy_E15P05.svg">
  <metadata
     id="metadata8">
    <rdf:RDF>
      <cc:Work
         rdf:about="">
        <dc:format>image/svg+xml</dc:format>
        <dc:type
           rdf:resource="http://purl.org/dc/dcmitype/StillImage" />
        <dc:title />
      </cc:Work>
    </rdf:RDF>
  </metadata>
  <defs
     id="defs6">
    <mask
       maskUnits="userSpaceOnUse"
       id="mask847">
      <path
         style="fill:none;stroke:#ffffff;stroke-width:4.35232353;stroke-linecap:butt;stroke-linejoin:miter;stroke-miterlimit:4;stroke-dasharray:none;stroke-opacity:1"
         d="m 1654.6397,642.26449 c -4.3365,8.00177 -10.8644,23.19349 -3.0313,25.21173 16.8915,-1.19259 34.3031,-8.59835 51.8476,-20.8278 0,0 -9.6244,22.24237 -11.5694,33.56202 -2.8056,11.34591 4.3333,17.85691 13.1956,16.5488 19.3138,1.76798 37.5822,-4.27186 57.1581,-10.39697 -19.6376,7.89749 -51.5042,40.6602 -52.9635,54.34556 -1.6442,15.41895 0.8719,27.28529 19.7735,36.22585 0,0 -31.5292,4.30738 -43.842,18.47798 -11.0544,12.72226 -10.0533,21.85086 -16.1927,47.34635 -6.033,-8.86053 -16.2101,-39.44803 -39.81,-17.41231"
         id="path849"
         inkscape:connector-curvature="0"
         sodipodi:nodetypes="ccccccscacc" />
    </mask>
    <filter
       style="color-interpolation-filters:sRGB;"
       inkscape:label="Drop Shadow"
       id="filter1205">
      <feFlood
         flood-opacity="1"
         flood-color="rgb(255,255,255)"
         result="flood"
         id="feFlood1195" />
      <feComposite
         in="flood"
         in2="SourceGraphic"
         operator="in"
         result="composite1"
         id="feComposite1197" />
      <feGaussianBlur
         in="composite1"
         stdDeviation="0"
         result="blur"
         id="feGaussianBlur1199" />
      <feOffset
         dx="4.2"
         dy="4.20625"
         result="offset"
         id="feOffset1201" />
      <feComposite
         in="SourceGraphic"
         in2="offset"
         operator="over"
         result="fbSourceGraphic"
         id="feComposite1203" />
      <feColorMatrix
         result="fbSourceGraphicAlpha"
         in="fbSourceGraphic"
         values="0 0 0 -1 0 0 0 0 -1 0 0 0 0 -1 0 0 0 0 1 0"
         id="feColorMatrix1207" />
      <feFlood
         id="feFlood1209"
         flood-opacity="1"
         flood-color="rgb(255,255,255)"
         result="flood"
         in="fbSourceGraphic" />
      <feComposite
         in2="fbSourceGraphic"
         id="feComposite1211"
         in="flood"
         operator="in"
         result="composite1" />
      <feGaussianBlur
         id="feGaussianBlur1213"
         in="composite1"
         stdDeviation="0"
         result="blur" />
      <feOffset
         id="feOffset1215"
         dx="-4.2"
         dy="-4.2"
         result="offset" />
      <feComposite
         in2="offset"
         id="feComposite1217"
         in="fbSourceGraphic"
         operator="over"
         result="fbSourceGraphic" />
      <feColorMatrix
         result="fbSourceGraphicAlpha"
         in="fbSourceGraphic"
         values="0 0 0 -1 0 0 0 0 -1 0 0 0 0 -1 0 0 0 0 1 0"
         id="feColorMatrix1219" />
      <feFlood
         id="feFlood1221"
         flood-opacity="1"
         flood-color="rgb(255,255,255)"
         result="flood"
         in="fbSourceGraphic" />
      <feComposite
         in2="fbSourceGraphic"
         id="feComposite1223"
         in="flood"
         operator="in"
         result="composite1" />
      <feGaussianBlur
         id="feGaussianBlur1225"
         in="composite1"
         stdDeviation="0"
         result="blur" />
      <feOffset
         id="feOffset1227"
         dx="4.2"
         dy="-4.2"
         result="offset" />
      <feComposite
         in2="offset"
         id="feComposite1229"
         in="fbSourceGraphic"
         operator="over"
         result="fbSourceGraphic" />
      <feColorMatrix
         result="fbSourceGraphicAlpha"
         in="fbSourceGraphic"
         values="0 0 0 -1 0 0 0 0 -1 0 0 0 0 -1 0 0 0 0 1 0"
         id="feColorMatrix1255" />
      <feFlood
         id="feFlood1257"
         flood-opacity="1"
         flood-color="rgb(255,255,255)"
         result="flood"
         in="fbSourceGraphic" />
      <feComposite
         in2="fbSourceGraphic"
         id="feComposite1259"
         in="flood"
         operator="in"
         result="composite1" />
      <feGaussianBlur
         id="feGaussianBlur1261"
         in="composite1"
         stdDeviation="0"
         result="blur" />
      <feOffset
         id="feOffset1263"
         dx="-4.7"
         dy="-4.2"
         result="offset" />
      <feComposite
         in2="offset"
         id="feComposite1265"
         in="fbSourceGraphic"
         operator="over"
         result="composite2" />
    </filter>
  </defs>
  <sodipodi:namedview
     pagecolor="#ffffff"
     bordercolor="#666666"
     borderopacity="1"
     objecttolerance="10"
     gridtolerance="10"
     guidetolerance="10"
     inkscape:pageopacity="0"
     inkscape:pageshadow="2"
     inkscape:window-width="1366"
     inkscape:window-height="705"
     id="namedview4"
     showgrid="false"
     inkscape:zoom="0.21266211"
     inkscape:cx="526.51982"
     inkscape:cy="1249.0956"
     inkscape:window-x="-8"
     inkscape:window-y="-8"
     inkscape:window-maximized="1"
     inkscape:current-layer="layer1" />
  <g
     inkscape:groupmode="layer"
     id="layer2"
     inkscape:label="artwork"
     sodipodi:insensitive="true">
    <image
       sodipodi:absref="E:\Users\jamesmichael\Downloads\Compressed\eps\peppercarrot_ep15_translation-master\peppercarrot_ep15_translation-master\ph\../gfx_Pepper-and-Carrot_by-David-Revoy_E15P05.png"
       xlink:href="../gfx_Pepper-and-Carrot_by-David-Revoy_E15P05.png"
       y="0"
       x="0"
       id="image10"
       height="3503"
       width="2481" />
  </g>
  <g
     inkscape:groupmode="layer"
     id="layer3"
     inkscape:label="speechbubbles" />
  <g
     inkscape:groupmode="layer"
     id="layer1"
     inkscape:label="txt">
    <path
       style="opacity:1;fill:#ffffff;fill-opacity:1;fill-rule:nonzero;stroke:#ffffff;stroke-width:11.98850918;stroke-miterlimit:4;stroke-dasharray:none;stroke-dashoffset:0;stroke-opacity:1"
       d="m 1596.1973,621.51172 v 83.83398 h 174.7324 v -83.83398 z m 14.1308,147.13281 v 83.83399 h 174.7324 v -83.83399 z"
       id="rect826"
       mask="url(#mask847)"
       inkscape:connector-curvature="0"
       transform="translate(-3.3250248,26.600198)" />
    <text
       xml:space="preserve"
       style="font-style:normal;font-variant:normal;font-weight:normal;font-stretch:normal;font-size:73.60905457px;line-height:1.25;font-family:'Drukaatie burti';-inkscape-font-specification:'Drukaatie burti';letter-spacing:0px;word-spacing:0px;fill:#ffffff;fill-opacity:1;stroke:none;stroke-width:1.84022641"
       x="2085.3257"
       y="778.36749"
       id="text817"
       transform="skewX(-29.611773)"><tspan
         sodipodi:role="line"
         id="tspan815"
         x="2085.3257"
         y="778.36749"
         style="fill:#ffffff;stroke-width:1.84022641">Pak!</tspan></text>
    <text
       xml:space="preserve"
       style="font-style:normal;font-variant:normal;font-weight:normal;font-stretch:normal;font-size:183.00003052px;line-height:1.25;font-family:'Drukaatie burti';-inkscape-font-specification:'Drukaatie burti';letter-spacing:0px;word-spacing:0px;opacity:0.55800003;fill:#000000;fill-opacity:1;stroke:none;stroke-width:2.14453149;filter:url(#filter1205)"
       x="1788.6382"
       y="2698.2412"
       id="text853"
       transform="matrix(1,0,-0.38607919,1,-19.950149,119.70089)"><tspan
         sodipodi:role="line"
         id="tspan851"
         x="1788.6382"
         y="2698.2412"
         style="fill:#000000;stroke-width:2.14453149">!<tspan
   style="font-size:228.75003052px;fill:#000000;stroke-width:2.14453149"
   id="tspan857">!</tspan><tspan
   style="font-size:285.93756104px;fill:#000000;stroke-width:2.14453149"
   id="tspan855">!</tspan></tspan></text>
  </g>
</svg>
