<?xml version="1.0" encoding="UTF-8" standalone="no"?>
<!-- Created with Inkscape (http://www.inkscape.org/) -->

<svg
   id="svg2"
   version="1.1"
   inkscape:version="1.1.1 (3bf5ae0d25, 2021-09-20)"
   width="2481"
   height="663"
   sodipodi:docname="E03P00.svg"
   xmlns:inkscape="http://www.inkscape.org/namespaces/inkscape"
   xmlns:sodipodi="http://sodipodi.sourceforge.net/DTD/sodipodi-0.dtd"
   xmlns="http://www.w3.org/2000/svg"
   xmlns:svg="http://www.w3.org/2000/svg"
   xmlns:rdf="http://www.w3.org/1999/02/22-rdf-syntax-ns#"
   xmlns:cc="http://creativecommons.org/ns#"
   xmlns:dc="http://purl.org/dc/elements/1.1/">
  <sodipodi:namedview
     pagecolor="#ffffff"
     bordercolor="#666666"
     inkscape:pageopacity="0"
     inkscape:pageshadow="2"
     inkscape:window-width="1336"
     inkscape:window-height="725"
     id="namedview70"
     showgrid="false"
     inkscape:zoom="0.46"
     inkscape:cx="1255.4348"
     inkscape:cy="256.52174"
     inkscape:current-layer="layer1"
     inkscape:window-x="15"
     inkscape:window-y="15"
     inkscape:window-maximized="0"
     borderopacity="1"
     inkscape:pagecheckerboard="0" />
  <metadata
     id="metadata8">
    <rdf:RDF>
      <cc:Work
         rdf:about="">
        <dc:format>image/svg+xml</dc:format>
        <dc:type
           rdf:resource="http://purl.org/dc/dcmitype/StillImage" />
        <dc:title />
      </cc:Work>
    </rdf:RDF>
  </metadata>
  <defs
     id="defs6" />
  <sodipodi:namedview
     pagecolor="#ffffff"
     bordercolor="#666666"
     borderopacity="1"
     objecttolerance="10"
     gridtolerance="10"
     guidetolerance="10"
     inkscape:pageopacity="0"
     inkscape:pageshadow="2"
     inkscape:window-width="1130"
     inkscape:window-height="765"
     id="namedview4"
     showgrid="false"
     inkscape:zoom="0.40071843"
     inkscape:cx="1369.5999"
     inkscape:cy="323.2049"
     inkscape:window-x="387"
     inkscape:window-y="93"
     inkscape:window-maximized="0"
     inkscape:current-layer="layer1" />
  <g
     inkscape:groupmode="layer"
     id="layer2"
     inkscape:label="artwork">
    <text
       xml:space="preserve"
       style="font-size:192px;line-height:1.25;font-family:'Yanone Kaffeesatz';-inkscape-font-specification:'Yanone Kaffeesatz'"
       x="265.37555"
       y="-187.13635"
       id="text24233"><tspan
         sodipodi:role="line"
         id="tspan24231"
         x="265.37555"
         y="-187.13635"
         style="font-style:normal;font-variant:normal;font-weight:normal;font-stretch:normal;font-size:192px;font-family:'Press Start 2P';-inkscape-font-specification:'Press Start 2P'" /></text>
    <path
       style="fill:#301b0b;fill-opacity:1;stroke:#301b0b;stroke-width:1.10178;stroke-opacity:1"
       d="m 816.6018,548.82617 c -4.37385,-1.31994 -12.29795,-7.68576 -15.39752,-12.36958 -2.68341,-4.05487 -3.02106,-5.52743 -2.81724,-12.28724 0.39551,-13.12424 6.85171,-23.75399 22.04103,-36.28982 13.17044,-10.86952 12.35638,-9.50173 12.35638,-20.76173 0,-5.45382 -0.30059,-9.91603 -0.66796,-9.91603 -0.36749,0 -4.70575,3.14894 -9.64059,6.99765 -4.93494,3.84871 -10.47003,7.76892 -12.30025,8.7116 -4.1435,2.13424 -14.62787,4.12282 -21.73665,4.12282 -5.02885,0 -5.75981,-0.38133 -11.24587,-5.86741 -3.22708,-3.22706 -6.98288,-8.05402 -8.34634,-10.72658 -2.43506,-4.77303 -2.4665,-5.33809 -1.77284,-31.86863 0.83287,-31.85646 -0.38149,-56.36016 -3.04872,-61.51802 -1.54559,-2.98893 -2.41347,-3.50131 -5.91473,-3.49212 -2.25694,0.005 -6.78686,1.2599 -10.06673,2.78664 -3.27975,1.52673 -6.50247,2.57869 -7.16158,2.33769 -0.659,-0.24102 2.76811,-4.42386 7.61594,-9.2952 10.31349,-10.36345 12.05741,-11.03495 29.61946,-11.40464 10.58905,-0.22291 12.16608,-0.0129 13.48845,1.7954 1.20174,1.64343 1.48212,10.11305 1.42003,42.89014 -0.0792,41.63445 0.52347,49.72605 3.98639,53.55255 2.48337,2.74411 3.91947,2.71634 9.64862,-0.18658 5.71286,-2.89473 23.25712,-14.80466 25.1266,-17.05728 0.7989,-0.96257 1.26831,-4.13418 1.12749,-7.61655 -0.13278,-3.28195 0.32525,-7.02596 1.01776,-8.32003 0.91069,-1.70158 0.92596,-2.6861 0.0551,-3.55672 -0.7988,-0.79879 -1.20394,-9.48788 -1.20394,-25.82366 v -24.61981 l -2.81435,-2.81439 c -2.95346,-2.95345 -2.91203,-2.95116 -15.23994,-0.84586 -6.1181,1.0448 -4.36202,-0.9742 4.90728,-5.64221 14.11108,-7.1062 29.6182,-7.43163 37.51453,-0.78725 l 3.17702,2.67328 v 27.13666 27.13666 l 6.39733,-6.33054 c 3.51847,-3.48179 6.74705,-5.98073 7.17455,-5.5532 2.04197,2.04191 -0.81222,9.94459 -8.69398,24.07233 -4.11618,7.37815 -4.33125,8.26171 -4.96307,20.38295 -0.36324,6.96878 -1.01695,13.47416 -1.45274,14.45645 -1.68871,3.80654 2.58999,2.79339 10.2763,-2.43335 12.33594,-8.38839 12.95855,-6.55653 1.45309,4.27494 l -10.19148,9.59445 -0.0241,27.54425 c -0.0275,30.94638 -0.11854,31.39555 -8.54007,41.99811 -5.36143,6.74996 -9.44629,9.41293 -18.98025,12.37377 -9.08271,2.82066 -13.1516,3.46084 -16.18265,2.54609 z m 14.52997,-26.16198 c 2.03336,-1.54673 2.18693,-2.82988 1.98746,-16.61598 -0.11891,-8.21688 -0.54022,-15.25573 -0.93641,-15.64184 -0.81084,-0.79027 -6.80751,5.76826 -11.62839,12.71786 -4.59328,6.62137 -4.25402,13.36496 0.97371,19.3581 2.05527,2.35625 6.63124,2.4429 9.60363,0.18186 z m 437.20083,-18.95143 c -2.794,-1.77657 -3.3455,-6.52038 -2.461,-21.17001 0.4939,-8.18074 0.9242,-15.41795 0.9564,-16.08271 0.032,-0.66475 1.0501,-2.35197 2.262,-3.74936 2.55,-2.94022 2.7524,-4.51891 0.8264,-6.44662 -0.9211,-0.92191 -1.4384,-5.64704 -1.5618,-14.26807 -0.2475,-17.30135 -1.9315,-33.93023 -3.6451,-35.99499 -0.769,-0.92661 -2.0043,-1.68476 -2.7453,-1.68476 -0.7408,0 -2.2776,-1.02836 -3.415,-2.28525 -1.3162,-1.45433 -2.9808,-2.11078 -4.5779,-1.80546 -1.9714,0.37685 -2.5094,-0.0194 -2.5076,-1.84643 0,-3.24984 8.9965,-9.10793 16.3924,-10.6775 9.0582,-1.92231 18.3715,-0.90374 21.6422,2.36694 3.3195,3.31944 4.9341,11.19478 4.9286,24.03867 0,7.59685 -0.451,10.22308 -2.2438,13.16365 l -2.2395,3.67343 2.2436,0.58675 c 2.1767,0.56921 2.2438,1.35924 2.2438,26.42363 0,25.71438 -0.013,25.85363 -2.6967,29.37251 -1.8189,2.38458 -2.3832,4.0432 -1.7331,5.09479 0.5964,0.96504 0.3891,2.6701 -0.5441,4.47454 -1.1821,2.28608 -3.2457,3.43055 -9.5601,5.30211 -8.8558,2.62485 -9.6534,2.72926 -11.5644,1.51414 z M 473.97268,472.2075 c -5.02193,-5.73624 -9.73003,-17.04818 -9.5739,-23.0027 0.1415,-5.39665 4.82068,-10.73334 9.41096,-10.73334 h 3.09919 v -20.93385 c 0,-20.19934 0.0773,-20.93385 2.20357,-20.93385 3.002,0 3.002,-4.40463 0,-5.18968 -2.11801,-0.55387 -2.20357,-1.50285 -2.20357,-24.44536 v -23.86915 l 3.45419,-1.30381 3.45418,-1.30381 -3.45418,-3.9341 -3.45419,-3.93411 v -20.2796 c 0,-11.25599 0.45414,-20.56026 1.02063,-20.91036 0.62486,-0.3862 0.61652,-2.01349 -0.0215,-4.19671 -0.94504,-3.2338 -0.53351,-15.28228 0.73272,-21.45311 0.87939,-4.28546 -2.75337,-6.69301 -9.1689,-6.07657 -4.59478,0.44149 -5.92235,0.13744 -7.86002,-1.80022 -1.2823,-1.28232 -2.33146,-3.33292 -2.33146,-4.55691 0,-3.34312 5.08472,-15.18982 8.36616,-19.49201 l 2.88946,-3.78826 15.0306,0.77338 c 16.01039,0.82379 26.73596,3.00898 37.88392,7.71831 3.79214,1.60194 12.84237,5.1166 20.11164,7.81033 7.26926,2.69373 13.61175,5.29258 14.09441,5.77525 1.97738,1.97738 -2.81144,3.37102 -17.38898,5.06058 -11.93569,1.38333 -15.91166,1.49361 -17.78111,0.4931 -1.93862,-1.03753 -2.90458,-0.94073 -4.9567,0.49661 -1.40186,0.98191 -3.92592,1.78529 -5.60902,1.78529 h -3.06019 v 14.86471 c 0,13.67148 -0.17689,14.97519 -2.20357,16.24085 -2.65996,1.66118 -2.83451,3.68886 -0.43323,5.03268 1.5131,0.84677 1.23294,1.49324 -1.92812,4.4492 -3.03275,2.83598 -3.48137,3.80332 -2.49239,5.37421 0.66332,1.05366 2.39863,2.20137 3.85624,2.55047 2.34263,0.56107 2.63004,1.20323 2.47679,5.53397 -0.0953,2.69457 -0.39716,12.58415 -0.67067,21.97684 -0.27349,9.39269 -0.97666,19.06083 -1.56258,21.48474 -0.79095,3.2722 -0.66883,5.445 0.47426,8.43734 1.14363,2.99379 1.44839,8.43031 1.18508,21.14016 -0.35428,17.10008 -0.35629,17.11182 -3.49146,20.38101 -3.48991,3.63914 -3.30624,7.23964 0.41902,8.21381 1.99061,0.52056 2.16706,1.56192 2.16706,12.78945 0,6.77837 0.45525,12.22275 1.02206,12.22275 3.7657,0 18.48508,2.58217 19.49696,3.42029 0.6808,0.56389 3.29723,1.19989 5.81429,1.41328 2.51705,0.21341 5.54529,1.26479 6.72942,2.33641 1.76987,1.60171 2.4533,1.69914 3.84086,0.54757 1.20007,-0.99598 3.9924,-1.21076 9.66126,-0.74315 4.38535,0.36172 14.49364,0.82223 22.4629,1.02335 8.15282,0.20573 15.13952,0.8864 15.97583,1.55641 0.95911,0.76839 3.63568,0.8975 7.54609,0.36398 3.33289,-0.45473 6.81984,-0.43347 7.74875,0.0472 0.92892,0.4807 3.72587,0.3303 6.21542,-0.33421 4.10833,-1.09656 5.11766,-0.9102 10.92577,2.01735 6.14304,3.0964 9.39182,6.22074 7.95868,7.65387 -0.98872,0.98873 -19.15107,5.87022 -23.86491,6.41416 -2.21413,0.25552 -6.5047,1.04925 -9.5346,1.76391 -5.37216,1.26709 -10.60046,1.80826 -28.64633,2.96503 -6.68973,0.42881 -9.33197,0.17852 -10.96215,-1.03845 -1.90799,-1.42435 -2.4618,-1.372 -4.95803,0.46881 -2.33269,1.7202 -5.80515,2.21846 -20.43862,2.93272 -13.7646,0.67183 -17.94763,0.55148 -19.08442,-0.54913 -1.85092,-1.79195 -2.49809,-1.76936 -5.2877,0.18456 -2.03071,1.42233 -19.84831,3.91476 -27.98561,3.91476 -2.27802,0 -4.21029,-1.27394 -7.32029,-4.82633 z m 442.29538,1.49015 c -5.73696,-3.8 -12.90335,-12.57521 -16.19379,-19.82922 -2.05872,-4.53843 -2.23431,-7.11794 -2.21079,-32.47458 0.0184,-20.28718 0.40685,-28.41543 1.47283,-30.84989 1.21517,-2.77521 1.19211,-3.8117 -0.1438,-6.46239 -1.02684,-2.03748 -1.45998,-5.53432 -1.22149,-9.86047 l 0.36944,-6.7034 -6.29725,-3.7374 c -4.60866,-2.73523 -8.08845,-3.89982 -12.97727,-4.34312 -3.67398,-0.33316 -6.96797,-1.07167 -7.31985,-1.64117 -1.07596,-1.74078 5.04663,-7.16689 11.02356,-9.76978 4.31335,-1.87842 8.39914,-2.57009 17.22348,-2.91573 10.46097,-0.40972 12.0411,-0.20795 16.50149,2.10722 8.75182,4.54251 9.3299,6.58103 9.78748,34.51199 0.24217,14.78069 -0.13542,28.96846 -0.96761,36.3588 -1.74058,15.45742 -0.48914,22.80481 4.74385,27.85206 4.24819,4.09749 8.73634,5.97067 14.19808,5.9259 4.40643,-0.0362 20.7213,-6.11186 22.0975,-8.22919 0.46814,-0.72027 0.72648,-5.97625 0.57406,-11.67993 -0.1795,-6.71898 0.14461,-10.51259 0.92068,-10.77435 0.84012,-0.28339 0.87775,-1.95679 0.12613,-5.60548 -0.58945,-2.86081 -1.27898,-15.96356 -1.5325,-29.11718 l -0.46081,-23.91567 -3.15626,-2.65588 c -1.73598,-1.46073 -6.41949,-3.53916 -10.40771,-4.61874 -3.98821,-1.07955 -7.25133,-2.33231 -7.25133,-2.78392 0,-2.09968 18.16105,-7.80343 29.90603,-9.39246 6.0326,-0.81618 11.34871,1.30759 14.67643,5.86331 2.56658,3.51377 2.67481,5.15342 3.70647,56.14885 0.66932,33.08313 0.92951,36.78622 2.70934,38.56237 4.38075,4.37165 17.57395,1.1371 29.87085,-7.32337 9.6165,-6.61622 11.3965,-3.89253 4.5916,7.02545 -6.47,10.3808 -20.4031,23.60056 -29.6954,28.17511 -7.7655,3.82295 -19.46745,6.26507 -24.25861,5.06258 -3.19446,-0.80174 -8.70269,-5.53242 -9.6096,-8.25298 -0.39124,-1.17398 -2.6881,-0.74428 -10.66937,1.9961 -11.0488,3.79361 -24.43694,6.68275 -30.96788,6.68275 -2.74424,0 -5.8042,-1.11472 -9.15798,-3.33619 z m 155.39714,1.2854 c -8.1885,-3.31505 -12.5246,-6.42539 -19.1316,-13.72387 -6.8319,-7.54668 -13.8795,-20.82337 -16.4595,-31.00711 -3.6508,-14.41072 -0.9804,-33.70443 7.0048,-50.60858 7.4572,-15.7865 16.3359,-25.46646 28.7923,-31.39057 5.4732,-2.60309 7.2859,-2.87712 18.7301,-2.83154 10.2526,0.0409 13.9248,0.51391 19.243,2.47901 3.6149,1.3357 6.7136,2.42855 6.8862,2.42855 1.034,0 0,-39.68483 -1.1258,-42.9695 -1.531,-4.48938 -5.2535,-5.67131 -8.5283,-2.70773 -2.721,2.46258 -14.5256,1.82402 -17.2846,-0.935 -1.725,-1.72498 -1.7049,-1.95291 0.3088,-3.51416 5.4779,-4.24703 20.2743,-10.54519 27.664,-11.77531 10.2959,-1.71393 15.7029,-0.1913 22.1243,6.23014 l 4.6762,4.67612 -0.026,70.87695 c -0.026,68.6693 0.041,70.94347 2.1083,73.01207 3.8102,3.81034 7.3161,2.72943 14.9628,-4.61333 3.8654,-3.71162 7.5331,-6.74842 8.1507,-6.74842 0.6176,0 1.4236,-0.94724 1.791,-2.10499 1.0593,-3.33761 6.1725,-6.05918 12.1509,-6.46765 10.8135,-0.73883 11.2642,-0.64009 17.0121,3.72663 l 5.6536,4.29513 -0.5409,5.50891 c -0.4801,4.89043 -1.134,6.0434 -5.8239,10.26986 -4.7788,4.30655 -5.7,4.70788 -9.6515,4.20476 -4.3504,-0.55389 -7.2003,-2.95364 -7.2003,-6.06301 0,-1.23276 0.6163,-1.05526 2.5086,0.72261 3.2839,3.08494 6.1907,2.2439 9.6322,-2.78678 2.9302,-4.28332 2.9867,-6.32719 0.2596,-9.37734 -4.2387,-4.74048 -13.5161,0.43483 -18.5352,10.33962 -7.6994,15.19378 -14.7915,23.98629 -22.5116,27.90862 -10.5468,5.35856 -28.2658,6.79553 -33.4557,2.71317 -1.5966,-1.25596 -2.903,-3.04429 -2.903,-3.97412 0,-1.16305 -0.6017,-1.45509 -1.9281,-0.93591 -18.1606,7.10815 -34.9193,9.04265 -44.5524,5.14277 z m 18.3905,-22.18842 c 9.6053,0 16.6767,-5.69876 23.8109,-19.18911 1.9496,-3.68652 4.0818,-7.05948 4.7384,-7.49548 0.8425,-0.55955 0.7885,-1.44634 -0.1836,-3.01494 -0.9811,-1.58302 -1.3773,-8.52235 -1.3773,-24.12424 0,-20.2337 -0.1678,-22.11539 -2.2036,-24.70338 -1.212,-1.54076 -2.2034,-4.30989 -2.2034,-6.15363 0,-3.90301 -2.9087,-6.21946 -5.0815,-4.04681 -0.8941,0.89434 -3.3001,1.19322 -6.8551,0.85162 -4.2695,-0.41023 -6.7932,0.0761 -11.4425,2.20454 -11.3599,5.20072 -18.9163,16.14111 -22.8478,33.07932 -4.5175,19.46403 -3.9472,33.83928 1.6711,42.11844 1.4784,2.17846 2.688,4.83567 2.688,5.90489 0,1.06922 0.7103,2.90647 1.5785,4.08276 1.2652,1.71417 1.8556,1.86532 2.9749,0.76148 1.9692,-1.94248 2.9019,-1.71975 3.7305,0.89095 0.6733,2.12137 0.8896,2.15703 3.3408,0.5509 1.4415,-0.94453 4.8893,-1.71731 7.6617,-1.71731 z m 287.0089,22.77203 c 0,-0.80695 4.4737,-10.4731 9.9416,-21.48032 13.7528,-27.6851 13.1878,-25.09907 5.6776,-25.98127 -8.2799,-0.97262 -18.8722,-3.7304 -21.9544,-5.71596 -1.6396,-1.0562 -2.4791,-2.68556 -2.4791,-4.81188 0,-1.7682 -0.4593,-3.49876 -1.0206,-3.84569 -0.6029,-0.37259 -0.6341,-1.97836 -0.075,-3.92333 0.9891,-3.44875 1.0093,-3.42491 -6.0313,-7.13474 -1.1937,-0.62896 -2.8779,-2.40425 -3.7428,-3.9451 -1.3542,-2.41262 -1.3574,-3.25027 -0.023,-6.03384 2.8221,-5.88792 5.4447,-6.33582 24.9248,-4.25671 9.5537,1.01965 20.5675,1.91068 24.4751,1.98003 l 7.105,0.12611 4.6767,-14.32316 c 2.5722,-7.87774 4.7048,-15.19081 4.7393,-16.25128 0.034,-1.06046 0.7948,-1.92812 1.6897,-1.92812 0.895,0 2.3276,-1.11555 3.1833,-2.479 1.443,-2.29927 3.8825,-17.92597 4.6006,-29.47266 0.1697,-2.72692 0.8644,-7.12454 1.5436,-9.7725 1.1567,-4.50839 5.5247,-35.6473 5.0791,-36.20805 -0.1124,-0.14113 -1.9031,0.23072 -3.9799,0.82634 -5.6432,1.61847 -21.9195,1.30635 -28.1353,-0.53955 -7.7824,-2.31115 -15.9375,-11.27948 -13.6067,-14.9636 1.5284,-2.41575 1.2384,-6.11842 -0.5988,-7.64305 -0.9023,-0.74884 -1.4166,-1.72373 -1.143,-2.1664 0.2736,-0.44271 -0.019,-2.67392 -0.6494,-4.95826 -1.0519,-3.80981 -0.8948,-4.41639 1.9001,-7.33363 2.8766,-3.00251 3.5549,-3.18028 12.1342,-3.18028 10.1585,0 13.881,1.04444 17.8428,5.00619 3.2436,3.24362 5.3523,3.40413 8.3946,0.63907 2.2437,-2.03902 19.7096,-5.64526 27.3416,-5.64526 4.0276,0 16.8264,-2.91918 20.3315,-4.63721 1.8865,-0.92463 3.0392,-0.79084 5.1603,0.59886 6.7629,4.43128 9.8252,11.50861 13.3269,30.80048 1.7135,9.44085 1.7014,9.76391 -0.4894,12.84056 -2.707,3.8016 -2.8993,7.28801 -0.4537,8.22645 1.3532,0.51929 1.6446,1.60627 1.1869,4.42664 -0.5373,3.31149 -0.2548,3.88407 2.4741,5.01443 2.8679,1.18789 3.2484,2.1276 5.5046,13.59519 4.3365,22.04083 11.2226,48.77273 16.9966,65.98159 l 5.6543,16.85155 5.7816,0.33302 c 3.1797,0.18316 5.7812,0.81965 5.7812,1.41438 0,0.59476 -1.7353,2.10523 -3.8562,3.35661 -2.1209,1.25139 -3.8563,2.63042 -3.8563,3.06454 0,0.43411 2.3552,5.47806 5.2335,11.20876 6.6291,13.19806 14.7039,25.22559 29.4063,43.80155 11.0683,13.98419 14.1329,20.00568 10.1822,20.00568 -3.7767,0 -28.8021,-17.52103 -40.5179,-28.36765 -7.5172,-6.95966 -16.9953,-18.28281 -23.9919,-28.66189 -4.0956,-6.07576 -4.9091,-6.75988 -6.8212,-5.7365 -1.1942,0.63906 -3.7749,1.32715 -5.735,1.52906 -7.1173,0.73316 -24.5251,4.16977 -25.5994,5.05379 -0.6061,0.49861 -4.3246,2.04416 -8.2634,3.43454 -7.1637,2.52872 -9.1149,2.66187 -31.84,2.173 -4.9352,-0.10617 -7.6049,0.35081 -8.9009,1.52367 -1.0182,0.92145 -2.6687,1.67535 -3.6679,1.67535 -1.0215,0 -4.5211,3.85987 -7.9969,8.82008 -3.3991,4.85104 -6.5931,8.56501 -7.0976,8.25324 -1.8606,-1.14998 -4.6165,3.05382 -4.0052,6.10978 0.862,4.31024 -7.0399,13.43062 -18.3361,21.16362 -4.8289,3.30571 -7.3997,3.84864 -7.3997,1.56273 z m 100.1891,-77.95346 c 3.2926,-0.55519 9.3662,-1.00944 13.4968,-1.00944 4.1305,0 7.5101,-0.17674 7.5101,-0.39278 0,-0.21603 -2.9365,-6.53752 -6.5257,-14.04772 -8.9118,-18.64706 -8.8704,-18.36805 -3.4629,-23.37126 3.6862,-3.41054 4.2493,-4.45493 3.2576,-6.0426 -1.7046,-2.72964 -6.6547,-4.90036 -8.0326,-3.52247 -3.8358,3.83582 -5.8357,-0.55856 -12.5354,-27.54432 l -0.9574,-3.85624 -0.7435,4.58609 c -1.1704,7.21967 -7.8891,29.75232 -12.3355,41.36866 -2.9731,7.76766 -4.6501,10.74248 -6.2988,11.17362 -1.808,0.4728 -2.1241,1.20158 -1.6183,3.73047 0.4501,2.25089 -0.2888,4.82059 -2.6039,9.05408 -1.778,3.25115 -3.2327,6.03333 -3.2327,6.18265 0,0.14932 2.4784,0.61235 5.5077,1.02898 3.0292,0.41662 5.7905,1.21494 6.136,1.77404 0.3454,0.55908 1.0781,0.73854 1.6277,0.39878 0.5498,-0.33975 2.3658,0.0982 4.0357,0.97307 3.0259,1.58539 4.8095,1.53396 16.7751,-0.48361 z m 178.5617,78.63898 c -0.909,-0.33421 -2.5203,-1.36351 -3.5807,-2.28733 -1.7803,-1.5509 -1.9282,-5.30716 -1.9282,-48.99446 0,-40.42977 -0.2483,-47.83787 -1.7058,-50.90942 -3.2259,-6.7978 -11.0279,-7.87111 -23.5302,-3.23693 -4.2536,1.57663 -8.2162,3.44784 -8.8057,4.15822 -0.9432,1.13647 -3.1189,41.76369 -2.5444,47.51337 0.121,1.21197 0.3701,6.91039 0.5538,12.66317 0.3241,10.16258 0.4156,10.4884 3.2183,11.47408 2.3662,0.83218 4.6031,0.18996 12.4462,-3.57345 10.8232,-5.19328 10.4517,-5.08105 10.4517,-3.15889 0,1.60891 -6.7657,8.27203 -11.1365,10.96759 -1.9201,1.18415 -3.0853,3.0791 -3.5127,5.71232 -0.8626,5.31588 -7.231,12.81219 -13.6753,16.09742 -4.1813,2.13154 -6.9716,2.69274 -13.4116,2.6974 -7.636,0.006 -8.2742,-0.18346 -10.467,-3.10058 -2.1084,-2.80508 -2.369,-4.80071 -2.6851,-20.5689 -0.2847,-14.20316 -0.028,-18.08584 1.3772,-20.80257 1.8497,-3.57653 2.3501,-8.37171 0.7723,-7.39651 -0.5253,0.32464 -1.1869,-9.6861 -1.4703,-22.24606 -0.5636,-24.97478 -0.5557,-24.94045 -8.2412,-35.63823 -4.0992,-5.70577 -4.7094,-6.08758 -6.6411,-4.15583 -1.6476,1.6476 -14.9161,0.15648 -14.3395,-1.61148 0.7364,-2.25759 14.3501,-9.50027 23.3838,-12.44035 16.6738,-5.42668 28.3933,-3.38663 33.0535,5.75369 1.2118,2.37713 2.2984,4.49957 2.4143,4.71654 0.116,0.21695 3.0908,-1.33945 6.6107,-3.45869 7.8397,-4.72009 21.195,-9.60627 26.2563,-9.60627 5.0104,0 15.1794,3.89979 19.3754,7.4304 l 3.3895,2.85209 6.7847,-2.52575 c 9.6328,-3.58588 25.68,-7.75674 29.8441,-7.75674 7.6963,0 17.8182,4.12597 24.1427,9.84125 6.9516,6.28192 7.4176,8.58791 7.2935,36.11154 -0.089,19.61706 -0.4586,25.63998 -1.7279,28.09464 -1.4238,2.75348 -1.419,3.54686 0.041,6.68167 0.9108,1.95646 1.7967,6.48068 1.9685,10.05383 0.4569,9.50005 1.868,9.94938 13.1994,4.20374 5.0319,-2.55136 9.6446,-4.52992 10.2507,-4.39682 2.2071,0.48482 0.3096,3.73342 -5.3275,9.12139 -3.1764,3.03598 -7.1229,8.31006 -8.7914,11.74902 -5.4603,11.25355 -15.4963,19.15263 -25.8997,20.38476 -4.1405,0.49037 -5.7061,0.17076 -7.9126,-1.61522 l -2.7509,-2.22654 -0.7673,-46.09768 c -0.4221,-25.35374 -1.0515,-47.64098 -1.3988,-49.52721 -0.3473,-1.88623 -1.6133,-4.31814 -2.8134,-5.40422 -1.2002,-1.08609 -2.182,-2.58085 -2.182,-3.32169 0,-3.0888 -2.7957,-3.69658 -12.707,-2.76241 -5.4337,0.51215 -11.1191,1.49859 -12.634,2.1921 l -2.7546,1.26092 -0.3743,20.60646 c -0.5268,28.98773 -0.4701,33.57261 0.5623,45.39656 l 0.9139,10.46693 5.3189,0.3393 c 4.0921,0.26105 6.9511,-0.42446 12.3951,-2.97201 5.9986,-2.80712 7.0761,-3.03276 7.0761,-1.48193 0,2.11924 -11.4009,13.2611 -14.9502,14.61057 -1.3195,0.50164 -2.75,2.31045 -3.1791,4.01956 -0.4289,1.70909 -2.5878,5.47806 -4.7973,8.37545 -3.1853,4.17703 -5.1478,5.60366 -9.4757,6.88892 -5.4624,1.62219 -11.8687,1.98125 -14.9743,0.83927 z m 142.0654,-0.26308 c -7.5556,-2.29272 -15.9367,-9.47906 -17.0694,-14.63624 -0.3878,-1.76534 -2.4587,-6.27238 -4.6019,-10.01565 -2.9049,-5.0736 -3.9812,-8.34835 -4.2282,-12.86575 -0.1825,-3.33288 -0.8507,-9.5304 -1.4853,-13.77226 -1.7895,-11.96526 -1.4279,-18.47443 1.5432,-27.77801 1.5074,-4.71945 2.7468,-9.61416 2.7545,-10.87715 0.018,-2.96524 7.4698,-13.70681 14.7179,-21.21588 13.7779,-14.27407 29.5713,-23.22813 42.6169,-24.16153 6.6177,-0.47349 8.3829,-0.17053 13.4491,2.30807 6.9826,3.41627 11.4461,7.84591 16.8469,16.71938 3.8568,6.33673 3.9997,6.93031 3.4488,14.32316 -0.3161,4.24185 0.081,12.67048 0.8825,18.73028 0.8998,6.80254 1.0765,11.7396 0.4621,12.90439 -0.5473,1.03759 -3.1608,3.37646 -5.8075,5.19746 -3.8805,2.6699 -10.5434,4.72793 -34.4141,10.62992 -24.6151,6.08605 -30.0194,7.77292 -32.0809,10.01347 -1.3635,1.48195 -2.4772,3.53446 -2.4749,4.56114 0.012,2.93576 4.2127,9.1078 10.0949,14.81261 6.4933,6.29767 9.3648,6.62386 20.4252,2.32022 4.1179,-1.60229 9.3356,-2.85398 11.5947,-2.78151 2.9547,0.0948 4.4124,-0.43835 5.1946,-1.89992 0.5981,-1.11738 0.8818,-2.23709 0.6308,-2.48823 -0.5906,-0.59052 16.2356,-10.85095 17.7947,-10.85095 2.127,0 -1.7884,15.67936 -4.5561,18.24434 -1.3489,1.25001 -3.3352,5.08001 -4.4146,8.51112 -1.7243,5.48231 -2.5125,6.50047 -6.5033,8.40104 -2.4976,1.18946 -7.7007,2.96751 -11.5623,3.95121 -6.8358,1.74136 -7.085,1.7287 -9.436,-0.48019 -3.2774,-3.07888 -7.8201,-2.88165 -11.1876,0.48574 -2.8556,2.85566 -7.0068,3.41739 -12.6347,1.70972 z m 29.4705,-77.13414 c 5.6465,-1.53731 10.7208,-3.75821 13.5597,-5.93472 l 4.537,-3.47807 -0.3385,-10.74477 c -0.1863,-5.90962 -0.013,-10.74368 0.3846,-10.74236 1.8817,0.007 -0.696,-4.23901 -3.6241,-5.96862 -4.0091,-2.36826 -6.1897,-1.88989 -14.6564,3.21508 -4.8169,2.90439 -7.3086,3.77412 -9.4596,3.30172 -1.9596,-0.43041 -3.7525,0.0328 -5.4511,1.40838 -2.1664,1.75417 -2.3447,2.39848 -1.2369,4.46844 1.1375,2.12563 0.669,3.2953 -3.8673,9.65233 -4.6795,6.55754 -10.2631,17.88191 -10.3291,20.94846 -0.028,1.26096 12.8715,-1.33123 30.4817,-6.12587 z m 89.2829,75.50984 c -3.5,-1.43922 -7.2185,-3.26084 -8.2634,-4.04807 -4.8189,-3.63014 -9.0623,-8.19244 -9.0689,-9.75032 0,-0.94158 -0.9949,-3.19939 -2.2021,-5.01732 -3.0324,-4.56677 -12.6231,-24.42002 -14.2936,-29.58801 -1.7147,-5.30547 -1.0965,-25.41996 0.8408,-27.35729 0.7365,-0.73642 1.339,-2.63095 1.339,-4.21003 0,-5.24285 4.6142,-16.99118 8.2191,-20.92741 1.9427,-2.12093 6.7137,-7.82265 10.6023,-12.67049 8.757,-10.91667 8.7479,-10.9097 17.7943,-13.8385 9.4848,-3.07075 24.3703,-2.64131 34.411,0.99276 3.6149,1.30834 6.7137,2.37882 6.8861,2.37882 0.1726,0 0.3137,-6.25057 0.3137,-13.89015 0,-11.68625 0.2538,-13.79281 1.5989,-13.27662 0.8794,0.33743 2.6995,-0.27781 4.0449,-1.3672 l 2.4461,-1.98073 -4.4829,-4.05009 c -2.4657,-2.22754 -4.7633,-5.15381 -5.1059,-6.50283 -1.0118,-3.98478 -4.9233,-5.66771 -13.2829,-5.715 -4.1912,-0.0237 -7.7701,-0.53892 -7.9532,-1.1449 -0.4133,-1.3673 11.2066,-9.90569 16.4782,-12.10825 5.8806,-2.45707 15.2388,-3.24492 19.9754,-1.68168 5.9745,1.97168 11.4329,7.20626 12.4743,11.96248 0.9701,4.43037 0.8856,19.42327 -0.2707,48.10229 -0.9394,23.29531 -0.8327,33.40161 0.4415,41.8677 0.5473,3.63588 1.0368,16.59931 1.088,28.80764 l 0.093,22.19695 3.8945,3.41948 c 5.191,4.55768 10.4244,4.56569 19.4102,0.0295 10.6924,-5.39747 10.254,-2.80304 -1.7333,10.26048 -12.5451,13.67108 -16.4927,16.24893 -21.8926,14.29625 -5.4258,-1.96203 -6.2895,-1.68775 -6.2895,1.99776 0,3.89244 -2.9377,5.48164 -10.133,5.48164 -3.6891,0 -5.12,-0.67774 -8.0982,-3.8356 l -3.6176,-3.83563 -5.077,2.24586 c -13.0702,5.78155 -30.3723,6.95658 -40.5864,2.75633 z m 27.1515,-23.09093 c 4.9715,-2.07722 11.1571,-8.69334 15.6662,-16.75663 3.6552,-6.53593 3.7606,-7.07024 3.7606,-19.05824 0,-10.8605 0.2806,-12.7133 2.3491,-15.51113 l 2.3491,-3.17736 -2.3491,-2.9864 c -1.8225,-2.317 -2.3491,-4.51399 -2.3491,-9.80112 0,-6.23173 -0.3393,-7.21109 -3.9668,-11.44899 -2.1817,-2.54889 -5.4958,-5.42499 -7.3644,-6.39133 -5.0427,-2.60766 -14.0571,-1.37362 -20.8608,2.85575 -3.3939,2.10973 -6.3195,3.16566 -7.8237,2.82375 -1.3217,-0.30038 -3.2975,0.14505 -4.391,0.98982 -1.6049,1.23986 -1.8063,2.23762 -1.045,5.17568 0.7301,2.81773 0.3755,5.04531 -1.5709,9.86369 -4.3394,10.74321 -6.2173,20.71294 -6.3184,33.54249 -0.088,11.15842 0.1504,12.61994 3.0025,18.42827 4.4937,9.1509 10.437,12.7209 21.4521,12.88553 3.2009,0.0479 7.4578,-0.59737 9.4596,-1.43378 z M 672.47521,475.21148 c -1.21196,-0.27215 -3.19517,-0.94283 -4.40714,-1.4904 -1.21195,-0.54758 -4.05232,-1.73185 -6.31193,-2.63171 -9.38834,-3.73876 -22.49952,-19.97949 -29.53668,-36.58692 -3.22822,-7.61847 -3.70972,-10.00116 -3.86866,-19.14394 -0.0999,-5.74335 0.21254,-11.94089 0.69418,-13.77227 0.48164,-1.8314 1.11503,-4.96713 1.40754,-6.96831 0.29251,-2.00115 0.98368,-4.23226 1.53597,-4.95801 0.55228,-0.72573 1.64933,-3.05484 2.43789,-5.17576 8.04747,-21.64486 16.0427,-29.82939 35.61162,-36.45486 5.68862,-1.926 7.4133,-2.03207 15.97583,-0.98258 10.59357,1.29841 16.18643,2.54322 22.82018,5.07908 4.96292,1.89715 9.36514,5.55611 9.36514,7.78395 0,0.81633 1.23951,2.049 2.75446,2.73924 1.51494,0.69028 2.75444,1.59934 2.75444,2.02018 0,0.42085 2.20563,2.15935 4.90143,3.86337 6.67531,4.21935 10.12515,12.43829 12.10939,28.84848 0.23482,1.94245 0.75851,4.06819 1.16376,4.72382 1.28886,2.08536 0.59014,21.24059 -1.02443,28.08405 -1.09146,4.62629 -2.4214,7.2823 -4.46107,8.90862 -2.30019,1.8342 -2.75606,2.91422 -2.18692,5.18186 1.54938,6.17307 -11.6494,20.01752 -25.70946,26.96724 -8.11005,4.0087 -8.75215,4.13949 -21.09332,4.29711 -7.00076,0.0895 -13.72027,-0.0601 -14.93222,-0.33224 z m 17.14962,-21.31683 c 9.84554,-2.73506 19.38411,-16.65676 21.98746,-32.09111 1.74792,-10.36287 0.84463,-34.72777 -1.57374,-42.44914 -3.30567,-10.55434 -13.30069,-15.73794 -24.17618,-12.53818 -6.09137,1.7922 -15.65671,11.68147 -20.16682,20.8498 -2.8426,5.77854 -4.32036,7.47009 -8.25731,9.45195 -5.819,2.92927 -6.59816,5.56614 -2.58926,8.76274 l 2.97494,2.37215 -1.37811,8.22317 c -1.78981,10.6798 -0.73775,18.53161 3.68515,27.50312 2.87861,5.83902 4.13993,7.30264 6.83534,7.93157 1.81795,0.42418 5.04066,1.24165 7.16158,1.81658 5.23109,1.41803 10.77914,1.47795 15.49695,0.16735 z m 575.70847,-79.44506 c -2.8308,-2.22674 -2.8787,-2.43403 -1.1667,-5.04702 2.4115,-3.68035 1.3786,-6.11065 -2.214,-5.20899 -2.3222,0.58282 -2.7787,0.30993 -2.7787,-1.66099 0,-3.96991 2.9637,-9.72543 6.0488,-11.74685 3.6969,-2.42226 20.2902,-2.7817 25.6638,-0.55588 4.0423,1.67437 5.5639,5.47232 3.7698,9.40985 -3.4425,7.55541 -16.2318,17.10143 -22.9386,17.12165 -1.8877,0.005 -4.7608,-1.03461 -6.3844,-2.31177 z M 1440.968,218.70706 c 0,-0.88638 2.8534,-3.54938 6.341,-5.91778 12.563,-8.53134 16.7963,-15.41735 16.7963,-27.32114 0,-3.19643 0.5551,-7.02992 1.2335,-8.51885 1.0556,-2.31666 0.8089,-3.26393 -1.7104,-6.56683 -3.6953,-4.8448 -6.1433,-5.9052 -6.9053,-2.9912 -0.4919,1.88117 -1.2132,2.08227 -5.4068,1.50748 -6.4685,-0.88659 -13.4773,1.87171 -20.4167,8.03479 -6.1753,5.4847 -8.2857,5.95568 -9.7249,2.1704 -0.651,-1.71211 -2.2365,-2.92214 -4.4726,-3.41324 -5.6182,-1.23398 -12.0705,-13.04992 -12.0867,-22.13448 -0.012,-5.16562 3.5216,-7.62275 15.7381,-10.95153 4.4342,-1.20821 5.7546,-1.19027 8.2634,0.11236 3.2261,1.67505 6.8637,1.09475 8.2741,-1.32002 1.1442,-1.95871 7.2393,-1.89914 15.9557,0.15591 18.2206,4.29575 28.2645,14.68079 31.2959,32.35898 2.1901,12.77133 -2.0959,25.5757 -9.0249,26.96146 -2.6198,0.52397 -3.2999,1.23331 -3.2999,3.44198 0,5.13043 -6.631,9.55386 -20.5017,13.67603 -9.289,2.76061 -10.3481,2.83386 -10.3481,0.71573 z"
       id="path475" />
  </g>
  <g
     inkscape:groupmode="layer"
     id="layer1"
     inkscape:label="txt"
     style="display:inline">
    <flowRoot
       xml:space="preserve"
       id="episode-title"
       style="font-style:normal;font-variant:normal;font-weight:normal;font-stretch:normal;line-height:0.01%;font-family:Arial;-inkscape-font-specification:Arial;letter-spacing:0px;word-spacing:0px;fill:#301b0b;fill-opacity:1;stroke:none"
       transform="translate(-701.86914,-122.27392)"><flowRegion
         id="flowRegion2989"><rect
           id="rect2991"
           width="2405.8"
           height="107.55731"
           x="739.22333"
           y="644.36664"
           style="fill:#301b0b;fill-opacity:1" /></flowRegion><flowPara
         id="flowPara2993"
         style="font-style:normal;font-variant:normal;font-weight:normal;font-stretch:normal;font-size:72px;line-height:1.25;font-family:Lavi;-inkscape-font-specification:Lavi;text-align:center;text-anchor:middle;fill:#301b0b;fill-opacity:1">Wud 3: Woradi Wothesh</flowPara></flowRoot>
  </g>
</svg>
