<?xml version="1.0" encoding="UTF-8" standalone="no"?>
<svg
   xmlns:dc="http://purl.org/dc/elements/1.1/"
   xmlns:cc="http://creativecommons.org/ns#"
   xmlns:rdf="http://www.w3.org/1999/02/22-rdf-syntax-ns#"
   xmlns:svg="http://www.w3.org/2000/svg"
   xmlns="http://www.w3.org/2000/svg"
   xmlns:xlink="http://www.w3.org/1999/xlink"
   xmlns:sodipodi="http://sodipodi.sourceforge.net/DTD/sodipodi-0.dtd"
   xmlns:inkscape="http://www.inkscape.org/namespaces/inkscape"
   id="svg2"
   version="1.1"
   inkscape:version="1.0.2 (e86c8708, 2021-01-15)"
   width="2481"
   height="3503"
   sodipodi:docname="E36P03.svg">
  <metadata
     id="metadata8">
    <rdf:RDF>
      <cc:Work
         rdf:about="">
        <dc:format>image/svg+xml</dc:format>
        <dc:type
           rdf:resource="http://purl.org/dc/dcmitype/StillImage" />
        <dc:title />
      </cc:Work>
    </rdf:RDF>
  </metadata>
  <defs
     id="defs6">
    <filter
       inkscape:collect="always"
       style="color-interpolation-filters:sRGB"
       id="filter51433"
       x="-0.024257822"
       y="-0.029242994"
       width="1.0485156"
       height="1.058486">
      <feGaussianBlur
         inkscape:collect="always"
         stdDeviation="2.6637087"
         id="feGaussianBlur51435" />
    </filter>
    <filter
       x="-0.036401986"
       width="1.0703807"
       height="1.2861297"
       inkscape:label="magic-Fx-blue"
       id="filter4375-4-1-1-1-9-5-8-8-3-3-3-6-6"
       style="color-interpolation-filters:sRGB"
       y="-0.099582237">
      <feFlood
         radius="5.0999999999999996"
         result="flood"
         flood-color="rgb(86,110,161)"
         flood-opacity="1"
         id="feFlood4377-7-9-0-8-1-7-3-1-6-61-6-2-1" />
      <feComposite
         baseFrequency="0.053999999999999999 0.053999999999999999"
         result="composite1"
         operator="in"
         in="flood"
         in2="SourceGraphic"
         id="feComposite4379-3-8-8-2-77-4-1-0-7-2-7-6-8" />
      <feMorphology
         result="result3"
         radius="0.96959439099754563"
         operator="dilate"
         id="feMorphology4393-1-0-49-8-9-3-0-1-5-9-5-1-7" />
      <feComposite
         numOctaves="4"
         result="fbSourceGraphic"
         operator="over"
         in="SourceGraphic"
         in2="result3"
         id="feComposite4385-9-5-7-0-8-8-7-5-3-3-3-8-9" />
      <feColorMatrix
         id="feColorMatrix4544-9-5-1-5-7-2"
         values="0 0 0 -1 0 0 0 0 -1 0 0 0 0 -1 0 0 0 0 1 0"
         in="fbSourceGraphic"
         result="fbSourceGraphicAlpha" />
      <feTurbulence
         result="turbulence"
         baseFrequency="0.062 0.054054054054054057"
         seed="172"
         numOctaves="4.4123222748815163"
         type="fractalNoise"
         id="feTurbulence4546-3-6-9-6-9-0" />
      <feDisplacementMap
         result="fbSourceGraphic"
         xChannelSelector="R"
         yChannelSelector="G"
         scale="11.642079"
         in="fbSourceGraphic"
         in2="turbulence"
         id="feDisplacementMap4548-8-2-4-2-2-2" />
      <feColorMatrix
         scale="10.800000000000001"
         id="feColorMatrix4670-7-9-7-9-0-3"
         values="0 0 0 -1 0 0 0 0 -1 0 0 0 0 -1 0 0 0 0 1 0"
         in="fbSourceGraphic"
         result="fbSourceGraphicAlpha" />
      <feComposite
         result="composite1"
         operator="in"
         in="flood"
         in2="fbSourceGraphic"
         id="feComposite4674-8-2-4-1-2-7" />
      <feGaussianBlur
         result="blur"
         stdDeviation="1.6836129"
         in="composite1"
         id="feGaussianBlur4676-3-7-50-2-3-5" />
      <feOffset
         result="offset"
         dy="5.2374444725016502"
         dx="-0.42771311737301687"
         id="feOffset4678-6-0-3-7-7-9" />
      <feComposite
         result="composite2"
         operator="over"
         in="fbSourceGraphic"
         in2="offset"
         id="feComposite4680-4-9-6-0-5-2" />
      <feGaussianBlur
         stdDeviation="0.60935760846819198"
         id="feGaussianBlur58-9-9-2" />
      <feOffset
         dx="0"
         dy="0"
         id="feOffset60-3-2-8" />
    </filter>
  </defs>
  <sodipodi:namedview
     pagecolor="#1e1e1e"
     bordercolor="#111111"
     borderopacity="1"
     objecttolerance="10"
     gridtolerance="10"
     guidetolerance="10"
     inkscape:pageopacity="0"
     inkscape:pageshadow="2"
     inkscape:window-width="1462"
     inkscape:window-height="943"
     id="namedview4"
     showgrid="false"
     inkscape:zoom="0.52900001"
     inkscape:cx="1235.3497"
     inkscape:cy="351.77387"
     inkscape:window-x="149"
     inkscape:window-y="32"
     inkscape:window-maximized="0"
     inkscape:current-layer="layer1"
     inkscape:pagecheckerboard="0"
     inkscape:snap-global="false"
     inkscape:document-rotation="0" />
  <g
     inkscape:groupmode="layer"
     id="layer2"
     inkscape:label="artwork"
     sodipodi:insensitive="true">
    <image
       sodipodi:absref="/Users/gand/Documents/Pepper&amp;Carrot/ep36_The-Surprise-Attack/lang/gfx_Pepper-and-Carrot_by-David-Revoy_E36P03.png"
       xlink:href="../gfx_Pepper-and-Carrot_by-David-Revoy_E36P03.png"
       width="2481"
       height="3503"
       id="image10"
       x="0"
       y="0" />
  </g>
  <g
     inkscape:groupmode="layer"
     id="layer4"
     inkscape:label="speechbubble-whisper"
     style="display:inline;opacity:0.7;mix-blend-mode:screen;filter:url(#filter51433)">
    <path
       style="display:inline;fill:#cdf0ff;fill-opacity:1;stroke:none;stroke-width:0.501375"
       d="m 1742.4351,217.99542 c -27.6312,1.19634 -56.2626,6.74378 -79.4672,22.58638 -19.7317,16.10123 -25.8865,42.78697 -27.2787,67.15373 -0.9611,22.33136 1.5417,44.92701 7.6018,66.43121 4.6801,14.35588 15.9418,25.6551 29.4557,31.9267 27.9579,14.08761 59.9612,17.1004 90.8195,17.01822 28.4471,-0.80127 57.8196,-3.44247 83.7775,-16.05195 16.9036,-8.02252 29.9444,-24.144 32.5453,-42.91789 4.2483,-26.06401 2.5287,-52.70324 -1.0685,-78.72589 -3.7765,-20.93023 -15.2583,-41.73958 -34.8408,-51.42711 -24.9344,-13.36511 -53.9877,-13.94817 -81.5282,-15.66713 -6.6686,-0.25691 -13.3429,-0.36658 -20.0164,-0.32627 z"
       id="path3280-5"
       inkscape:connector-curvature="0"
       sodipodi:nodetypes="csssc" />
    <path
       style="display:inline;opacity:1;fill:#cdf0ff;fill-opacity:1;stroke:none;stroke-width:0.536241;filter:url(#filter51433)"
       d="m 1708.9863,394.91211 c -28.6289,1.41051 -57.9874,7.77024 -82.0896,23.91063 -21.878,17.61185 -28.0694,47.08568 -29.3856,73.78778 -0.819,23.28018 1.9507,46.79415 8.4069,69.17298 5.0997,15.56893 17.5867,27.59295 32.3165,34.23134 33.0998,16.06632 70.8778,18.15667 107.0647,17.36983 28.0108,-1.4647 57.9867,-5.61777 80.2927,-24.16397 18.9047,-14.83119 30.8715,-37.4229 33.57,-61.21118 3.2126,-25.33324 2.6561,-52.184 -7.2872,-76.06123 -9.8072,-23.8171 -30.4068,-43.43965 -55.8409,-49.3229 -28.3333,-6.89167 -57.997,-7.5903 -87.0475,-7.71328 z"
       id="path3280-5-2"
       inkscape:connector-curvature="0"
       sodipodi:nodetypes="csssc"
       transform="matrix(0.94566411,0,0,0.75382789,122.359,99.079822)" />
    <path
       style="color:#000000;display:inline;overflow:visible;visibility:visible;fill:#cdf0ff;fill-opacity:1;fill-rule:nonzero;stroke:none;stroke-width:1.0259px;marker:none;enable-background:accumulate"
       d="m 1719.3194,532.89168 c 36.6025,26.98252 13.0291,94.40607 -44.5247,110.04187 25.0213,-8.11557 100.3251,-9.20388 96.6789,-117.06904 -1.8701,-55.32427 -32.7694,7.35791 -32.7694,7.35791 z"
       id="path4035-4"
       inkscape:connector-curvature="0"
       sodipodi:nodetypes="ccscc" />
    <path
       style="color:#000000;display:inline;overflow:visible;visibility:visible;fill:#cdf0ff;fill-opacity:1;fill-rule:nonzero;stroke:none;stroke-width:0.709688px;marker:none;enable-background:accumulate"
       d="m 340.41514,2256.6925 c 33.3254,-35.192 218.12177,-29.8096 275.60099,-20.7454 62.72818,9.8917 82.04125,23.9076 84.84622,54.6269 0.86642,9.4884 -4.20749,52.5162 -35.06296,60.9868 -30.85542,8.4701 -119.21399,12.7054 -150.06945,12.7054 -30.85538,0 -129.3526,-5.391 -154.27724,-17.788 -23.84278,-11.8581 -54.36304,-54.5943 -21.03756,-89.7857 z"
       id="path3330-0"
       inkscape:connector-curvature="0"
       sodipodi:nodetypes="zsssssz" />
    <path
       style="color:#000000;display:inline;overflow:visible;visibility:visible;fill:#cdf0ff;fill-opacity:1;fill-rule:nonzero;stroke:none;stroke-width:0.986117px;marker:none;enable-background:accumulate"
       d="m 488.53358,2388.0382 c -2.14706,-13.7834 21.39386,-71.8044 152.3668,-62.6151 130.97294,9.1892 144.65278,20.7582 150.62889,70.2306 2.20873,18.2833 -18.1731,44.9219 -37.49701,49.5159 -19.32389,4.5951 -75.82344,17.5654 -108.02983,13.8895 -32.20646,-3.6759 -79.74774,-2.8033 -127.13318,-22.0762 -28.59963,-11.6326 -28.18854,-45.2689 -30.33567,-48.9447 z"
       id="path3365-74"
       inkscape:connector-curvature="0"
       sodipodi:nodetypes="csssssc" />
    <path
       style="color:#000000;display:inline;overflow:visible;visibility:visible;fill:#cdf0ff;fill-opacity:1;fill-rule:nonzero;stroke:none;stroke-width:0.89211px;marker:none;enable-background:accumulate"
       d="m 844.12065,2442.2025 c -1.12753,-68.5776 48.23579,-110.349 183.69515,-98.9976 70.2676,5.8885 155.7576,12.6543 144.1498,115.6138 -10.2305,90.7454 -125.0024,77.3087 -148.2131,78.3795 -23.2111,1.0709 -143.42339,-4.0898 -163.48517,-36.0993 -12.55812,-20.0378 -17.15581,-39.6212 -16.14668,-58.8964 z"
       id="path4546-6-5-3"
       inkscape:connector-curvature="0"
       sodipodi:nodetypes="cssssc" />
    <path
       style="fill:#cdf0ff;fill-opacity:1;fill-rule:evenodd;stroke:none;stroke-width:0.992195px;stroke-linecap:butt;stroke-linejoin:miter;stroke-opacity:1"
       d="m 502.9297,2296.4413 c 77.73786,71.3301 343.81979,137.4338 468.03666,123.7816 56.20704,1.4325 107.09184,112.3825 -77.57388,181.9225 103.18653,-73.9231 107.10902,-112.2062 84.55661,-152.9846 -231.13158,-14.8725 -410.95516,-78.9759 -490.52973,-138.3793 -1.44988,-34.5447 15.51034,-14.3402 15.51034,-14.3402 z"
       id="path66187" />
    <path
       style="color:#000000;display:inline;overflow:visible;visibility:visible;fill:#cdf0ff;fill-opacity:1;fill-rule:nonzero;stroke:none;stroke-width:0.863748px;marker:none;enable-background:accumulate"
       d="m 1460.1997,3074.7623 c -0.9883,-25.7873 4.0515,-42.8878 26.685,-56.5883 20.6047,-12.4718 65.9767,-15.9189 96.2518,-15.9189 48.9354,-0.1761 174.5497,-4.8173 159.7271,75.7445 -0.5854,38.2111 -73.5808,39.8773 -88.4059,42.9714 -14.825,3.0942 -74.0901,3.777 -87.9268,2.7457 -50.8675,1.8751 -104.5644,-17.5274 -106.3312,-48.9544 z"
       id="path3357-3"
       inkscape:connector-curvature="0"
       sodipodi:nodetypes="csccscc" />
    <path
       style="fill:#cdf0ff;fill-opacity:1;stroke:none;stroke-width:0.742591"
       d="m 1793.5726,3174.4599 c -12.6309,0.9948 -21.7509,-0.1689 -30.6236,-4.0923 -5.2932,-2.3406 -7.6656,-9.8926 -9.5288,-15.0858 -2.9414,-8.0739 -4.6252,-17.2277 -11.1432,-23.3655 -5.5035,-4.7753 -12.7976,-6.8331 -19.8235,-8.1246 -4.9899,-0.7939 -10.0745,-0.9258 -15.1082,-0.5301 -12.5231,-2.2362 -12.1613,-15.2606 -16.0589,-20.888 -3.2358,-4.3315 -6.0568,-1.4455 -9.6096,-5.5051 -6.9289,-7.2641 -9.6595,-1.2352 -14.3778,5.5886 -4.8023,6.9455 -3.5286,10.258 5.0592,26.7368 5.5996,11.3289 18.3851,19.618 31.2363,17.5947 3.9927,-0.6908 7.5859,-2.9978 11.7217,-3.0257 6.5594,-0.6097 13.6771,2.3908 16.7872,8.4135 4.512,6.5347 6.7951,14.4886 12.1799,20.426 2.8451,3.1564 6.8355,4.9172 10.9372,5.738 12.7279,3.2922 26.4259,1.3706 38.3521,-3.8805 z"
       id="path3023"
       inkscape:connector-curvature="0"
       sodipodi:nodetypes="csssscsssssscccc" />
  </g>
  <g
     inkscape:groupmode="layer"
     id="layer3"
     inkscape:label="speechbubbles"
     style="display:inline;mix-blend-mode:normal">
    <path
       sodipodi:nodetypes="ccccccccccccccccccccccccccc"
       id="path1399"
       d="m 666.79561,210.55039 c 47.34871,23.28599 32.83524,-7.86289 33.65778,-30.12409 17.68404,27.69988 40.47593,53.26186 40.79754,-1.12961 15.82783,38.94038 23.67869,62.47763 43.49571,9.1794 8.62759,31.67315 13.85637,40.82574 67.06057,-28.07347 -4.75495,26.2675 -19.79616,77.13039 52.3904,17.86891 -4.81824,8.73097 -45.11942,65.9837 42.86533,-6.15254 -28.79097,32.51516 -63.85515,84.50042 6.76753,43.79482 -33.56213,38.11892 -44.78145,67.66457 18.87769,68.47778 -25.32629,24.73141 -49.9791,49.30527 3.01797,55.7143 -24.54259,1.63263 -47.01222,9.52223 -5.22659,33.21866 -37.78063,-12.96512 -50.45611,3.07695 -15.96447,33.07518 -48.99807,-5.67911 -59.73252,-16.65307 -19.83966,32.07287 -36.50663,-24.04369 -52.31366,-24.32324 -46.22626,5.01965 -41.09388,-52.23296 -32.46125,-1.84144 -26.20425,12.3598 -42.22477,-61.54429 -44.9898,-12.75434 -49.59334,0.19403 -23.57257,-51.0295 -73.4637,-58.64086 -86.03263,-0.0231 -7.154,-31.42481 -30.31743,-43.99238 -63.30483,-3.0648 10.14565,-36.23265 -7.40453,-51.23476 -42.80429,-33.71814 26.26983,-31.31824 2.86212,-38.09813 -32.31637,-23.145 23.85799,-28.27862 23.05683,-39.82809 0.35148,-43.18828 38.36674,-25.01639 11.82067,-40.77747 -28.40569,-54.58809 28.52133,-6.46451 65.2657,-10.35422 18.30955,-40.4521 37.49458,5.6641 56.42492,3.49203 20.33211,-21.90598 24.83764,9.57264 51.07475,5.99332 29.285,-25.3212 46.05852,26.92011 44.20258,8.90852 38.70972,-0.0886 z"
       style="display:inline;fill:#ffffff;fill-rule:evenodd;stroke:none;stroke-width:0.831294px;stroke-linecap:butt;stroke-linejoin:miter;stroke-opacity:1" />
    <path
       style="color:#000000;display:inline;overflow:visible;visibility:visible;fill:#ffffff;fill-opacity:1;fill-rule:nonzero;stroke:none;stroke-width:0.617876px;marker:none;enable-background:accumulate"
       d="m 846.24295,369.92151 c 7.72209,41.35398 49.55771,207.43487 191.58005,156.97532 C 870.99201,610.00659 809.89776,366.2342 800.59804,338.37279 c -11.65313,-16.49189 45.64491,31.54872 45.64491,31.54872 z"
       id="path4008-4"
       inkscape:connector-curvature="0"
       sodipodi:nodetypes="cccc" />
    <path
       style="display:inline;fill:#ffffff;fill-rule:evenodd;stroke:none;stroke-width:0.863499px;stroke-linecap:butt;stroke-linejoin:miter;stroke-opacity:1"
       d="m 1040.0467,1284.7936 c 50.561,22.0255 79.3613,13.0685 78.4934,-38.1297 24.1224,55.3264 40.8622,67.7003 50.79,40.4407 31.9365,23.4304 51.8834,16.8577 67.72,0 5.9027,21.6804 20.7959,17.8192 29.5161,11.8545 -2.0372,6.5168 -1.4059,15.1306 41.2818,0.8554 -1.4911,6.2852 7.6119,12.0832 36.9382,-2.311 7.5975,26.3522 31.9739,-1.4609 56.9464,-31.1968 -15.5585,36.5578 -9.107,41.7218 10.7738,27.7307 -9.0895,15.0549 -14.5259,26.7093 20.0079,1.1551 -11.8225,27.7882 19.194,8.7147 69.2591,-31.1968 -25.0433,29.5027 -91.4526,79.2257 -47.7117,75.1036 -6.1001,8.6972 -27.8582,16.2749 36.938,30.041 -12.9572,0.4555 -60.5123,3.1683 -13.2453,21.7043 -25.0205,-0.4945 -14.6653,5.2669 11.7064,12.9593 -15.5674,-0.5239 -25.1146,1.3461 -10.7737,12.7092 -28.4164,-0.6138 -33.7843,3.0112 -12.9219,18.251 -35.4593,-12.6946 -45.1079,-15.0016 -30.4429,9.5156 -51.574,-26.6527 -63.9377,-29.9121 -39.8825,0.3 -68.1676,-29.153 -70.1487,-21.971 -95.2872,7.7521 -6.5834,-18.4869 -19.7825,-32.7173 -75.4154,-19.642 13.6835,-18.5214 -19.7585,-7.1366 -43.3581,5.529 16.1287,-16.4652 -17.0501,-13.6029 -62.839,14.113 26.2331,-32.4448 -3.5615,-20.7246 -47.7118,2.311 16.6813,-31.874 -10.4859,-47.2883 -75.41535,-48.5287 31.07725,-11.4966 49.19985,-25.9656 16.93015,-51.9939 36.3772,7.6636 47.2279,0.545 21.5471,-27.7308 39.6779,23.2085 21.6379,-10.4541 6.1565,-41.5958 z"
       id="path4508-2"
       inkscape:connector-curvature="0"
       sodipodi:nodetypes="cccccccccccccccccccccccccccc" />
    <path
       style="color:#000000;display:inline;overflow:visible;visibility:visible;fill:#ffffff;fill-opacity:1;fill-rule:nonzero;stroke:none;stroke-width:0.926668px;marker:none;enable-background:accumulate"
       d="m 1595.6808,1551.0393 c -26.9474,-31.2708 -59.9834,-60.3698 -79.8554,-94.1658 l -3.285,30.7651 c -15.0498,-9.9953 -21.7942,-24.8956 -31.3589,-38.1306 l -6.317,18.293 c -32.9632,-27.3415 -57.8887,-59.7803 -86.4652,-88.7225 l -7.9573,35.8506 c 38.968,18.6225 72.2495,52.1917 98.1736,81.2762 l 8.7127,-17.1146 c 10.6542,9.2624 20.8921,18.8192 29.2707,29.6888 l 8.2295,-22.5142 z"
       id="path4032-1"
       inkscape:connector-curvature="0"
       sodipodi:nodetypes="cccccccccccc" />
  </g>
  <g
     inkscape:groupmode="layer"
     id="layer1"
     inkscape:label="txt"
     style="display:inline">
    <text
       id="text4246-4-2-7"
       y="275.99973"
       x="773.44843"
       style="font-style:normal;font-variant:normal;font-weight:normal;font-stretch:normal;line-height:0%;font-family:Lavi;-inkscape-font-specification:Lavi;text-align:center;letter-spacing:0px;word-spacing:0px;text-anchor:middle;fill:#000000;fill-opacity:1;stroke:none"
       xml:space="preserve"
       inkscape:label="pepperB"><tspan
         y="275.99973"
         x="773.44843"
         style="font-size:45px;line-height:1.25"
         sodipodi:role="line"
         id="tspan3279">Come posso</tspan><tspan
         y="332.24973"
         x="773.44843"
         style="font-size:45px;line-height:1.25"
         sodipodi:role="line"
         id="tspan4789">essere stata</tspan><tspan
         y="387.97308"
         x="773.44843"
         style="font-size:45px;line-height:1.25"
         sodipodi:role="line"
         id="tspan165"><tspan
           style="font-style:normal;font-variant:normal;font-weight:bold;font-stretch:normal;font-family:Lavi;-inkscape-font-specification:'Lavi Bold'"
           id="tspan167"> così ingenua!</tspan></tspan></text>
    <text
       id="text4246-4-2-7-3"
       y="306.39148"
       x="1764.5796"
       style="font-style:normal;font-variant:normal;font-weight:normal;font-stretch:normal;line-height:0%;font-family:Lavi;-inkscape-font-specification:Lavi;text-align:center;letter-spacing:0px;word-spacing:0px;text-anchor:middle;fill:#000000;fill-opacity:1;stroke:none"
       xml:space="preserve"
       inkscape:label="pepperB"><tspan
         y="306.39148"
         x="1764.5796"
         style="font-size:45px;line-height:1.25"
         sodipodi:role="line"
         id="tspan3279-7">Shhhhh,</tspan><tspan
         y="362.64148"
         x="1764.5796"
         style="font-size:45px;line-height:1.25"
         sodipodi:role="line"
         id="tspan15762">Pepper!</tspan></text>
    <text
       id="text4246-4-2-7-3-36"
       y="471.14197"
       x="1758.3271"
       style="font-style:normal;font-variant:normal;font-weight:normal;font-stretch:normal;line-height:0%;font-family:Lavi;-inkscape-font-specification:Lavi;text-align:center;letter-spacing:0px;word-spacing:0px;text-anchor:middle;display:inline;fill:#000000;fill-opacity:1;stroke:none"
       xml:space="preserve"
       inkscape:label="pepperB"><tspan
         y="471.14197"
         x="1758.3271"
         style="font-size:45px;line-height:1.25"
         sodipodi:role="line"
         id="tspan26583">Fai meno</tspan><tspan
         y="527.39197"
         x="1758.3271"
         style="font-size:45px;line-height:1.25"
         sodipodi:role="line"
         id="tspan299">rumore.</tspan></text>
    <text
       id="text4246-4-2-7-3-3"
       y="1385.4877"
       x="1248.106"
       style="font-style:normal;font-variant:normal;font-weight:normal;font-stretch:normal;font-size:55px;line-height:0%;font-family:Lavi;-inkscape-font-specification:Lavi;text-align:center;letter-spacing:0px;word-spacing:0px;text-anchor:middle;fill:#000000;fill-opacity:1;stroke:none;stroke-width:1.26378"
       xml:space="preserve"
       inkscape:label="pepperB"><tspan
         y="1385.4877"
         x="1248.106"
         style="font-style:normal;font-variant:normal;font-weight:bold;font-stretch:normal;font-size:55px;line-height:1.25;font-family:Lavi;-inkscape-font-specification:'Lavi Bold';stroke-width:1.26378"
         sodipodi:role="line"
         id="tspan15762-9">Chi è là?!</tspan></text>
    <text
       id="text4246-4-2-7-3-1"
       y="2314.8474"
       x="505.02216"
       style="font-style:normal;font-variant:normal;font-weight:normal;font-stretch:normal;line-height:0%;font-family:Lavi;-inkscape-font-specification:Lavi;text-align:center;letter-spacing:0px;word-spacing:0px;text-anchor:middle;fill:#000000;fill-opacity:1;stroke:none"
       xml:space="preserve"
       inkscape:label="pepperB"><tspan
         y="2314.8474"
         x="505.02216"
         style="font-size:45px;line-height:1.25"
         sodipodi:role="line"
         id="tspan15762-93">Shhhhh! Zitta!</tspan></text>
    <text
       id="text4246-4-2-7-3-1-6"
       y="2407.6968"
       x="648.40051"
       style="font-style:normal;font-variant:normal;font-weight:normal;font-stretch:normal;line-height:0%;font-family:Lavi;-inkscape-font-specification:Lavi;text-align:center;letter-spacing:0px;word-spacing:0px;text-anchor:middle;fill:#000000;fill-opacity:1;stroke:none"
       xml:space="preserve"
       inkscape:label="pepperB"><tspan
         y="2407.6968"
         x="648.40051"
         style="font-size:45px;line-height:1.25"
         sodipodi:role="line"
         id="tspan15762-93-0">Avvicinati.</tspan></text>
    <text
       id="text4246-4-2-7-3-1-6-6"
       y="2423.6001"
       x="1011.6951"
       style="font-style:normal;font-variant:normal;font-weight:normal;font-stretch:normal;line-height:0%;font-family:Lavi;-inkscape-font-specification:Lavi;text-align:center;letter-spacing:0px;word-spacing:0px;text-anchor:middle;fill:#000000;fill-opacity:1;stroke:none"
       xml:space="preserve"
       inkscape:label="pepperB"><tspan
         y="2423.6001"
         x="1011.6951"
         style="font-size:45px;line-height:1.25"
         sodipodi:role="line"
         id="tspan62504">Sono qui</tspan><tspan
         y="2479.8501"
         x="1011.6951"
         style="font-size:45px;line-height:1.25"
         sodipodi:role="line"
         id="tspan53853">per liberarti.</tspan></text>
    <text
       transform="matrix(1.1333577,-0.39613562,0.12835025,1.2373956,849.39304,747.66885)"
       id="text4580-6-0-0-3-3-63"
       y="1584.5073"
       x="787.65729"
       style="font-style:normal;font-variant:normal;font-weight:normal;font-stretch:normal;line-height:0%;font-family:Lavi;-inkscape-font-specification:Lavi;letter-spacing:3.03024px;word-spacing:0px;opacity:1;mix-blend-mode:normal;fill:#e5fffe;fill-opacity:1;stroke:#4082aa;stroke-width:0.988344;stroke-miterlimit:4;stroke-dasharray:none;stroke-opacity:1;filter:url(#filter4375-4-1-1-1-9-5-8-8-3-3-3-6-6)"
       xml:space="preserve"
       inkscape:label="FXC"><tspan
         style="font-style:normal;font-variant:normal;font-weight:bold;font-stretch:normal;font-size:70px;line-height:1.25;font-family:Drukah;-inkscape-font-specification:'Drukah Bold';fill:#e5fffe;fill-opacity:1;stroke:#4082aa;stroke-width:0.988344;stroke-miterlimit:4;stroke-dasharray:none;stroke-opacity:1"
         y="1584.5073"
         x="787.65729"
         id="tspan4582-1-1-0-6-9-9"
         sodipodi:role="line">Kshiii…</tspan></text>
    <text
       xml:space="preserve"
       style="font-style:normal;font-variant:normal;font-weight:normal;font-stretch:normal;line-height:0%;font-family:Lavi;-inkscape-font-specification:Lavi;text-align:center;letter-spacing:0px;word-spacing:0px;text-anchor:middle;fill:#000000;fill-opacity:1;stroke:none"
       x="1601.6835"
       y="3077.9524"
       id="text4246-70-2-2-2"><tspan
         sodipodi:role="line"
         style="font-size:45px;line-height:1.25"
         x="1601.6835"
         y="3077.9524"
         id="tspan4406-9">Shichimi?</tspan></text>
  </g>
</svg>
