<?xml version="1.0" encoding="UTF-8" standalone="no"?>
<svg
   xmlns:dc="http://purl.org/dc/elements/1.1/"
   xmlns:cc="http://creativecommons.org/ns#"
   xmlns:rdf="http://www.w3.org/1999/02/22-rdf-syntax-ns#"
   xmlns:svg="http://www.w3.org/2000/svg"
   xmlns="http://www.w3.org/2000/svg"
   xmlns:xlink="http://www.w3.org/1999/xlink"
   xmlns:sodipodi="http://sodipodi.sourceforge.net/DTD/sodipodi-0.dtd"
   xmlns:inkscape="http://www.inkscape.org/namespaces/inkscape"
   sodipodi:docname="E35P04.svg"
   height="3503"
   width="2481"
   inkscape:version="0.92.5 (2060ec1f9f, 2020-04-08)"
   version="1.1"
   id="svg2">
  <metadata
     id="metadata8">
    <rdf:RDF>
      <cc:Work
         rdf:about="">
        <dc:format>image/svg+xml</dc:format>
        <dc:type
           rdf:resource="http://purl.org/dc/dcmitype/StillImage" />
        <dc:title />
      </cc:Work>
    </rdf:RDF>
  </metadata>
  <defs
     id="defs6">
    <filter
       inkscape:auto-region="false"
       height="1.5"
       width="1.5"
       y="-0.10000000000000001"
       x="-0.10000000000000001"
       inkscape:label="soundFX1"
       id="filter4375-4-1-1-1-9-5-8-8-5-5-3-3"
       style="color-interpolation-filters:sRGB">
      <feFlood
         result="flood"
         flood-color="rgb(52,52,52)"
         flood-opacity="1"
         id="feFlood4377-7-9-0-8-1-7-3-1-2-7-6-6" />
      <feComposite
         baseFrequency="0.053999999999999999 0.053999999999999999"
         result="composite1"
         operator="in"
         in="flood"
         in2="SourceGraphic"
         id="feComposite4379-3-8-8-2-77-4-1-0-6-4-7-7" />
      <feMorphology
         result="result3"
         radius="9.350875432312252"
         operator="dilate"
         id="feMorphology4393-1-0-49-8-9-3-0-1-9-9-5-5" />
      <feComposite
         result="fbSourceGraphic"
         operator="over"
         in="SourceGraphic"
         in2="result3"
         id="feComposite4385-9-5-7-0-8-8-7-5-4-9-3-3" />
      <feColorMatrix
         id="feColorMatrix4544-9-4-4-5-5"
         values="0 0 0 -1 0 0 0 0 -1 0 0 0 0 -1 0 0 0 0 1 0"
         in="fbSourceGraphic"
         result="fbSourceGraphicAlpha" />
      <feTurbulence
         result="turbulence"
         baseFrequency="0.053999999999999999 0.054054054054054057"
         seed="147"
         numOctaves="4"
         type="fractalNoise"
         id="feTurbulence4546-3-6-5-6-6" />
      <feDisplacementMap
         result="fbSourceGraphic"
         xChannelSelector="R"
         yChannelSelector="G"
         scale="10.561763"
         in="fbSourceGraphic"
         in2="turbulence"
         id="feDisplacementMap4548-8-0-9-2-2" />
      <feColorMatrix
         id="feColorMatrix4670-7-7-3-9-9"
         values="0 0 0 -1 0 0 0 0 -1 0 0 0 0 -1 0 0 0 0 1 0"
         in="fbSourceGraphic"
         result="fbSourceGraphicAlpha" />
      <feFlood
         in="fbSourceGraphic"
         result="flood"
         flood-color="rgb(28,28,28)"
         flood-opacity="1"
         id="feFlood4672-4-4-5-1-1" />
      <feComposite
         result="composite1"
         operator="in"
         in="flood"
         in2="fbSourceGraphic"
         id="feComposite4674-8-3-7-2-2" />
      <feGaussianBlur
         result="blur"
         stdDeviation="0"
         in="composite1"
         id="feGaussianBlur4676-3-7-08-7-7" />
      <feOffset
         result="offset"
         dy="0.39217365321829334"
         dx="-10.48377497279229"
         id="feOffset4678-6-9-1-0-0" />
      <feComposite
         result="composite2"
         operator="over"
         in="fbSourceGraphic"
         in2="offset"
         id="feComposite4680-4-0-9-9-9" />
    </filter>
    <filter
       height="1.0140257"
       width="1.0255357"
       y="-0.0044205808"
       x="-0.024770067"
       inkscape:label="soundFX1"
       id="filter4375-4-1-1-1-9-5-8-8-5-5-3-3-3"
       style="color-interpolation-filters:sRGB">
      <feFlood
         result="flood"
         flood-color="rgb(52,52,52)"
         flood-opacity="1"
         id="feFlood4377-7-9-0-8-1-7-3-1-2-7-6-6-5" />
      <feComposite
         baseFrequency="0.053999999999999999 0.053999999999999999"
         result="composite1"
         operator="in"
         in="flood"
         in2="SourceGraphic"
         id="feComposite4379-3-8-8-2-77-4-1-0-6-4-7-7-6" />
      <feMorphology
         result="result3"
         radius="4.0330969769021738"
         operator="dilate"
         id="feMorphology4393-1-0-49-8-9-3-0-1-9-9-5-5-2" />
      <feComposite
         result="fbSourceGraphic"
         operator="over"
         in="SourceGraphic"
         in2="result3"
         id="feComposite4385-9-5-7-0-8-8-7-5-4-9-3-3-9" />
      <feColorMatrix
         id="feColorMatrix4544-9-4-4-5-5-1"
         values="0 0 0 -1 0 0 0 0 -1 0 0 0 0 -1 0 0 0 0 1 0"
         in="fbSourceGraphic"
         result="fbSourceGraphicAlpha" />
      <feTurbulence
         result="turbulence"
         baseFrequency="0.046080819231719368"
         seed="147"
         numOctaves="4"
         type="fractalNoise"
         id="feTurbulence4546-3-6-5-6-6-2" />
      <feDisplacementMap
         result="fbSourceGraphic"
         xChannelSelector="R"
         yChannelSelector="G"
         scale="13.20326"
         in="fbSourceGraphic"
         in2="turbulence"
         id="feDisplacementMap4548-8-0-9-2-2-7" />
      <feColorMatrix
         id="feColorMatrix4670-7-7-3-9-9-0"
         values="0 0 0 -1 0 0 0 0 -1 0 0 0 0 -1 0 0 0 0 1 0"
         in="fbSourceGraphic"
         result="fbSourceGraphicAlpha" />
      <feFlood
         in="fbSourceGraphic"
         result="flood"
         flood-color="rgb(28,28,28)"
         flood-opacity="1"
         id="feFlood4672-4-4-5-1-1-9" />
      <feComposite
         result="composite1"
         operator="in"
         in="flood"
         in2="fbSourceGraphic"
         id="feComposite4674-8-3-7-2-2-3" />
      <feGaussianBlur
         result="blur"
         stdDeviation="0"
         in="composite1"
         id="feGaussianBlur4676-3-7-08-7-7-6" />
      <feOffset
         result="offset"
         dy="0.39217365321829334"
         dx="-10.48377497279229"
         id="feOffset4678-6-9-1-0-0-0" />
      <feComposite
         result="composite2"
         operator="over"
         in="fbSourceGraphic"
         in2="offset"
         id="feComposite4680-4-0-9-9-9-6" />
    </filter>
  </defs>
  <sodipodi:namedview
     inkscape:current-layer="layer3"
     inkscape:cy="575.51598"
     inkscape:cx="1219.6574"
     inkscape:zoom="0.35930633"
     inkscape:pagecheckerboard="0"
     inkscape:snap-global="false"
     inkscape:document-rotation="0"
     inkscape:window-maximized="1"
     inkscape:window-y="27"
     inkscape:window-x="0"
     showgrid="false"
     id="namedview4"
     inkscape:window-height="704"
     inkscape:window-width="1366"
     inkscape:pageshadow="2"
     inkscape:pageopacity="0"
     guidetolerance="10"
     gridtolerance="10"
     objecttolerance="10"
     borderopacity="1"
     bordercolor="#666666"
     pagecolor="#ffffff" />
  <g
     sodipodi:insensitive="true"
     inkscape:label="artwork"
     id="layer2"
     inkscape:groupmode="layer">
    <image
       sodipodi:absref="/home/juanjo/Comics/lang-ep-35/es/../gfx_Pepper-and-Carrot_by-David-Revoy_E35P04.png"
       xlink:href="../gfx_Pepper-and-Carrot_by-David-Revoy_E35P04.png"
       width="2481"
       height="3503"
       id="image10"
       x="0"
       y="0" />
  </g>
  <g
     inkscape:label="speechbubbles"
     id="layer3"
     inkscape:groupmode="layer">
    <path
       sodipodi:nodetypes="ccccccccccccccccccccccccccccccccccccccccc"
       inkscape:connector-curvature="0"
       id="path1311"
       d="m 1990.6841,68.129186 40.8894,-58.1643763 10.7703,72.2694093 16.0195,-10.797383 -1.1205,12.424853 77.5078,-87.8692186 -17.3836,103.4133266 28.6218,-11.512543 -26.2092,30.449126 71.5505,-11.92249 -52.0274,36.07877 109.7994,-20.18457 -86.5737,48.35085 68.7817,15.87944 -76.9714,21.31793 82.325,34.53867 -128.9502,0.0335 23.8906,14.29195 -47.765,-3.52361 4.7183,31.7206 -28.459,-22.54414 -2.5496,19.73937 -12.2434,-13.74773 -45.6264,71.52464 -14.9509,-66.61322 -34.159,25.24735 9.0138,-34.41797 -80.516,13.14666 59.4356,-35.61674 -52.3321,-12.33614 13.2762,-25.24301 -19.2203,-3.63745 19.8777,-40.2119 -5.8639,-29.82786 6.0608,-43.514206 14.6237,-6.146039 16.6659,2.371306 -14.9767,-17.873766 43.9064,21.730774 12.0993,-4.199085 z"
       style="fill:#ffffff;fill-rule:evenodd;stroke:none;stroke-width:1.3803px;stroke-linecap:butt;stroke-linejoin:miter;stroke-opacity:1" />
    <path
       sodipodi:nodetypes="cccccccccccccccccccccccc"
       inkscape:connector-curvature="0"
       id="path4289-9-3"
       d="m 1918.7831,987.4078 c 26.755,29.2024 26.024,46.5868 -0.5385,32.9269 23.907,19.9869 16.9766,22.6899 -6.0357,26.7856 44.9656,46.5449 22.17,73.8946 -2.2193,100.7929 63.3144,-10.1358 59.53,14.4778 70.4396,31.4821 21.7582,-32.0085 22.945,-10.8156 18.3922,25.2219 24.5473,-41.5055 34.8582,-44.4305 32.1904,-12.1746 19.8451,-26.0666 39.2207,-35.5519 58.0561,-25.9785 46.3179,-23.0539 52.41,11.6349 71.5036,27.6607 7.0713,-32.6485 26.1015,-40.5247 57.1074,-6.8022 4.6416,-19.7225 32.5925,-18.1743 54.7328,11.0791 -26.3775,-56.8551 22.7218,-4.7672 31.2407,-1.1561 -12.3641,-29.2126 26.4095,-29.1884 78.8348,-6.2849 -17.55,-13.4498 -31.515,-41.5688 6.3706,-51.5983 -34.9364,-13.7677 -30.4172,-27.9261 -5.1701,-42.2899 -37.2683,-24.751 -1.3809,-45.3557 27.153,-66.5857 -47.6724,8.6154 -68.6778,7.3362 -66.8661,-26.5939 -75.3927,23.243 -61.0864,9.3327 -50.8696,-2.8841 -51.279,29.7033 -50.4402,0.5746 -48.484,-8.41142 -68.3623,31.85962 -110.7435,-5.61138 -128.1792,-27.9466 -23.0029,45.06772 -42.0317,26.56597 -61.0445,7.80215 8.3524,34.03077 -12.761,30.61657 -33.2537,15.99603 3.7881,22.81034 -17.5159,41.64664 -50.2381,8.54158 10.5393,16.20056 -12.8989,23.03236 -53.1224,-9.58274 z"
       style="display:inline;fill:#ffffff;fill-rule:evenodd;stroke:none;stroke-width:1.18073499px;stroke-linecap:butt;stroke-linejoin:miter;stroke-opacity:1" />
    <path
       sodipodi:nodetypes="ccccccccccccccc"
       inkscape:connector-curvature="0"
       id="path3549-3-8"
       d="m 1939.1741,1934.971 c 9.8826,-14.9726 20.1591,-35.7858 23.8355,-5.3013 27.0685,-40.8191 60.473,-26.4356 67.8775,-20.4876 -3.4169,-12.0842 3.4721,-33.8053 23.1477,-28.4646 -3.7385,-11.6741 1.906,-20.4399 15.9223,-26.6098 -19.8636,-5.4615 -24.0618,-12.5657 10.8853,-23.7804 -27.2137,1.6813 -52.6866,2.3839 -23.3108,-27.7406 -10.0505,0.2441 -31.693,25.1224 -26.6716,-42.41 -15.2491,22.8526 -32.5067,36.2631 -59.537,-6.2759 -5.4681,18.2557 -14.9492,31.1057 -37.4502,8.9055 3.3969,46.8177 -26.7148,23.6021 -36.4997,18.8055 24.5248,24.178 36.1626,51.7113 -4.087,34.244 44.6161,31.5109 12.6873,38.46 6.8212,48.0033 33.6239,9.2096 39.3039,22.9789 20.1474,41.0257 37.4287,-2.8622 20.7777,21.5037 18.9194,30.0862 z"
       style="color:#000000;display:inline;overflow:visible;visibility:visible;fill:#ffffff;fill-opacity:1;fill-rule:nonzero;stroke:none;stroke-width:0.770816px;marker:none;enable-background:accumulate" />
    <path
       inkscape:transform-center-y="-43.686552"
       inkscape:transform-center-x="-57.216036"
       inkscape:connector-curvature="0"
       id="path5066-8"
       d="m 1926.248,1843.0789 c -20.822,12.3713 -43.9112,29.9401 -49.0115,34.7313 7.6441,4.8958 13.7298,10.7762 18.5416,15.2652 -10.1989,7.8557 -59.6343,40.9724 -74.2202,42.5016 36.2511,-2.0413 75.4853,-23.85 91.2102,-38.3345 -5.5183,-7.1796 -9.6233,-10.7039 -12.4531,-14.5629 7.5084,-7.7245 36.8287,-25.7792 36.8287,-25.7792 z"
       style="color:#000000;display:inline;overflow:visible;visibility:visible;fill:#ffffff;fill-opacity:1;fill-rule:nonzero;stroke:none;stroke-width:0.953405px;marker:none;enable-background:accumulate" />
    <path
       inkscape:connector-curvature="0"
       id="path4197"
       d="m 1657.2335,2705.2373 c -23.1037,-13.8585 -36.5299,-36.912 -34.9094,-59.863 0.021,-3.5135 -0.4441,-8.0219 1.7675,-2.246 2.0614,4.0298 8.3884,13.6182 10.9735,12.5222 -1.4798,-8.8501 -0.3232,-17.6718 1.2074,-26.4179 1.0016,-9.1477 8.8287,10.9922 13.4853,3.0445 -2.5178,-3.3793 -1.4443,-11.9763 3.1404,-4.5199 6.2141,6.2476 7.8286,0.1269 9.2363,-3.1599 6.2642,4.3437 7.7826,0.9638 10.2781,-2.1934 5.2,2.8325 9.3716,2.6051 11.5761,-1.8567 8.0067,0.054 18.5192,4.6724 20.0622,-5.2373 3.8657,-4.6515 7.5525,5.8393 14.149,2.8279 13.2978,-1.1697 26.4936,1.5185 39.7605,1.9774 11.1466,1.1427 19.7935,7.5219 28.5211,12.1511 -0.8513,-3.4387 -1.5562,-6.9813 4.245,-3.573 5.1328,-0.083 -6.9949,-13.324 1.9604,-5.6321 11.3875,9.143 18.7251,20.825 28.1567,31.1801 8.4588,10.8464 19.5201,20.4605 25.6892,32.4118 5.303,9.259 9.5979,19.2126 11.6765,29.1222 -1.977,-3.6809 -9.9563,-11.6388 -9.1101,-2.7516 0.5484,3.9719 -2.226,16.6007 -6.7939,8.7104 -4.5624,-2.1273 -6.8154,3.3442 -8.1965,-2.5626 -2.2232,-3.8578 -10.9709,-16.3625 -9.7892,-5.2596 -0.2047,4.4625 -0.3337,15.7557 -7.2454,15.2981 -0.605,-4.3369 -3.6967,-4.5846 -6.3515,-1.9329 -2.9555,-2.7725 -5.6694,-4.3471 -8.9552,-2.5997 -7.2138,-4.1244 -16.9121,-4.5374 -24.2207,-0.3415 -8.1262,2.9169 -10.6334,12.2104 -21.0337,10.295 -7.7629,1.0738 -13.8353,5.2852 -21.9309,1.7588 -7.2919,2.5269 -16.3312,1.4423 -23.8805,-0.7309 -2.8033,-0.9719 -9.8751,-5.9972 -9.6676,-0.5102 -5.4697,1.613 -16.751,-5.5606 -17.0508,-3.6972 1.5499,7.42 -9.1456,-4.0575 -11.2929,-6.1815 -5.6254,-6.3934 -12.6142,-12.4102 -15.4569,-20.0326 z"
       style="display:inline;fill:#ffffff;fill-rule:evenodd;stroke:none;stroke-width:0.75725102px;stroke-linecap:butt;stroke-linejoin:miter;stroke-opacity:1" />
    <path
       sodipodi:nodetypes="ccccccccccccccccccccccccccccccc"
       inkscape:connector-curvature="0"
       id="path4236"
       d="m 1816.3946,2665.8758 c -9.0577,12.0584 -3.9809,29.2333 -2.0323,43.214 -0.3986,9.5398 8.8693,23.2873 7.8582,27.7617 -3.6403,-3.6308 -9.0767,-7.4072 -5.097,1.4199 5.0616,25.0404 20.2588,45.0994 36.1279,62.02 4.8644,3.7476 19.8018,15.4095 18.7535,7.2098 9.1073,6.5911 19.9794,9.3623 30.3364,11.905 11.7127,-0.4207 23.1204,2.6291 33.8194,8.1528 10.6872,3.5837 22.408,8.7977 33.4262,4.0031 -4.3273,-17.0973 14.2704,-1.0951 21.221,-7.1827 6.2169,2.4651 21.8367,-1.9658 32.318,-4.6829 10.4878,-2.8295 20.9091,-6.8221 30.5448,-12.4557 6.7327,0.4718 18.0198,-3.5214 25.239,-13.0735 6.297,2.3036 13.9793,-30.7262 11.8377,-37.8391 -1.6976,-11.8704 -0.9414,-25.015 -2.9796,-34.3533 -1.0075,-11.1091 -9.4656,-17.0434 -12.4314,-27.5766 -7.0023,-18.6614 -19.7146,-33.5751 -34.9236,-43.3921 -12.6712,-8.1804 -26.0602,-16.3408 -40.4392,-19.1618 -9.3783,-0.3067 8.0378,11.945 -3.5918,5.3985 -8.7933,-6.9478 1.1883,8.9211 -5.5867,2.3264 -3.8066,-5.187 -11.5879,-9.5039 -8.6793,1.8219 -0.4672,4.5202 -3.705,0.806 -5.7143,4.7945 -10.0568,-7.1592 -21.353,-1.8024 -32.4292,-1.7096 -6.1047,-0.8454 -15.5653,4.2876 -18.3684,-4.9449 0.055,11.1871 -9.6102,0.3865 -10.6315,11.2764 -4.6137,-2.8135 -12.2346,-9.2314 -13.0424,1.011 -7.7137,8.7256 -18.4027,-7.5828 -23.2679,-4.0596 2.7272,17.2919 -10.6203,2.5498 -15.5273,-1.4893 -1.056,19.1789 -17.099,-3.6906 -24.0721,-0.8195 7.4281,10.9733 -2.4895,21.1581 -12.0674,13.842 4.539,17.5446 -4.7486,4.0414 -10.6007,6.5836 z"
       style="display:inline;fill:#ffffff;fill-rule:evenodd;stroke:none;stroke-width:0.54445386px;stroke-linecap:butt;stroke-linejoin:miter;stroke-opacity:1" />
    <path
       inkscape:connector-curvature="0"
       id="path4293"
       d="m 2040.4712,2973.7641 c 16.3129,-104.9146 -18.3515,-177.7317 -52.9957,-199.8323 -34.6434,-22.0999 -57.1191,-12.3122 -34.9033,9.9761 22.215,22.2877 85.0927,37.2478 87.899,189.8562 z"
       style="display:inline;fill:#ffffff;fill-rule:evenodd;stroke:none;stroke-width:1px;stroke-linecap:butt;stroke-linejoin:miter;stroke-opacity:1" />
  </g>
  <g
     inkscape:label="txt"
     id="layer1"
     inkscape:groupmode="layer">
    <text
       y="435.11505"
       x="181.50571"
       transform="matrix(0.72171902,-0.19475033,-0.09884871,0.93569498,1272.6817,455.79978)"
       id="text4580-6-0-0-0-9-3-3"
       style="font-style:normal;font-variant:normal;font-weight:normal;font-stretch:normal;font-size:179.14900208px;line-height:1.25;font-family:Lavi;-inkscape-font-specification:Lavi;letter-spacing:0px;word-spacing:0px;display:inline;fill:#ffffff;fill-opacity:1;stroke:#ffffff;stroke-width:0.74171901;stroke-miterlimit:4;stroke-dasharray:none;stroke-opacity:1;filter:url(#filter4375-4-1-1-1-9-5-8-8-5-5-3-3)"
       xml:space="preserve"><textPath
         style="font-style:normal;font-variant:normal;font-weight:bold;font-stretch:normal;font-size:179.14900208px;font-family:Lavi;-inkscape-font-specification:'Lavi Bold';stroke-width:0.74171901"
         id="textPath2837"
         xlink:href="#path974"><tspan
           id="tspan936"
           style="font-style:normal;font-variant:normal;font-weight:bold;font-stretch:normal;font-size:228.21000671px;font-family:Lavi;-inkscape-font-specification:'Lavi Bold'">¡Bo</tspan><tspan
           style="font-style:normal;font-variant:normal;font-weight:bold;font-stretch:normal;font-size:205.58500671px;font-family:Lavi;-inkscape-font-specification:'Lavi Bold'"
           id="tspan880">O</tspan><tspan
           id="tspan876"
           style="font-style:normal;font-variant:normal;font-weight:bold;font-stretch:normal;font-size:200.69599915px;font-family:Lavi;-inkscape-font-specification:'Lavi Bold'">M</tspan><tspan
           style="font-style:normal;font-variant:normal;font-weight:bold;font-stretch:normal;font-size:222.31599426px;font-family:Lavi;-inkscape-font-specification:'Lavi Bold'"
           id="tspan884">!</tspan></textPath></text>
    <text
       transform="scale(1.0052596,0.99476792)"
       id="text4246-3-2-2"
       y="205.81461"
       x="2026.3804"
       style="font-style:normal;font-variant:normal;font-weight:normal;font-stretch:normal;font-size:50.17520142px;line-height:1.25;font-family:Lavi;-inkscape-font-specification:Lavi;text-align:center;letter-spacing:0px;word-spacing:0px;text-anchor:middle;fill:#000000;fill-opacity:1;stroke:none;stroke-width:1.11500001"
       xml:space="preserve"><tspan
         id="tspan905"
         y="205.81461"
         x="2026.3804"
         sodipodi:role="line"
         style="font-style:normal;font-variant:normal;font-weight:bold;font-stretch:normal;font-size:50.17520142px;font-family:Lavi;-inkscape-font-specification:'Lavi Bold';stroke-width:1.11500001">¡¿QUÉ?!</tspan></text>
    <text
       id="text4246-3-2-2-3"
       y="1067.0594"
       x="2146.032"
       style="font-style:normal;font-variant:normal;font-weight:normal;font-stretch:normal;font-size:45px;line-height:1.25;font-family:Lavi;-inkscape-font-specification:Lavi;text-align:center;letter-spacing:0px;word-spacing:0px;text-anchor:middle;fill:#000000;fill-opacity:1;stroke:none"
       xml:space="preserve"><tspan
         id="tspan905-3"
         y="1067.0594"
         x="2146.032"
         sodipodi:role="line"
         style="font-size:45px">¡¿Han roto la</tspan><tspan
         id="tspan900"
         y="1123.3094"
         x="2146.032"
         sodipodi:role="line"
         style="font-size:45px">barrera del sonido?!</tspan></text>
    <text
       transform="scale(1.0399735,0.96156296)"
       id="text4246-3-2-2-3-5"
       y="1946.7604"
       x="1899.1366"
       style="font-style:normal;font-variant:normal;font-weight:normal;font-stretch:normal;font-size:69.60810089px;line-height:1.25;font-family:Lavi;-inkscape-font-specification:Lavi;text-align:center;letter-spacing:0px;word-spacing:0px;text-anchor:middle;fill:#000000;fill-opacity:1;stroke:none;stroke-width:1.54684997"
       xml:space="preserve"><tspan
         id="tspan905-3-1"
         y="1946.7604"
         x="1899.1366"
         sodipodi:role="line"
         style="font-style:normal;font-variant:normal;font-weight:bold;font-stretch:normal;font-size:69.60810089px;font-family:Lavi;-inkscape-font-specification:'Lavi Bold';stroke-width:1.54684997">!<tspan
   id="tspan1014"
   style="font-size:79.60810089px">!</tspan><tspan
   style="font-size:89.60810089px"
   id="tspan1018">!</tspan></tspan></text>
    <text
       y="1245.0809"
       x="-607.91235"
       transform="matrix(0.80003598,-0.79061533,0.21633545,1.1521123,363.87713,1065.1365)"
       id="text4580-6-0-0-0-9-3-3-2"
       style="font-style:normal;font-variant:normal;font-weight:normal;font-stretch:normal;font-size:80px;line-height:1.25;font-family:Lavi;-inkscape-font-specification:Lavi;letter-spacing:0px;word-spacing:0px;display:inline;fill:#ffffff;fill-opacity:1;stroke:#ffffff;stroke-width:0.66877401;stroke-miterlimit:4;stroke-dasharray:none;stroke-opacity:1;filter:url(#filter4375-4-1-1-1-9-5-8-8-5-5-3-3-3)"
       xml:space="preserve"><tspan
         style="font-size:99.05200195px"
         id="tspan1510"><tspan
   style="font-size:61.22315526px"
   id="tspan79"><tspan
   style="font-size:98.21214491px"
   id="tspan81">¡</tspan>¡</tspan><tspan
   style="font-size:43.36640164px"
   id="tspan75">¡</tspan>WOous</tspan><tspan
         style="font-size:74.73040009px"
         id="tspan1083">H</tspan><tspan
         style="font-size:44.31200027px"
         id="tspan1530">!</tspan><tspan
         style="font-size:61.33710098px"
         id="tspan1534">!!</tspan></text>
    <text
       id="text4246-3-2-2-3-2"
       y="2688.6509"
       x="1725.0199"
       style="font-style:normal;font-variant:normal;font-weight:normal;font-stretch:normal;font-size:45px;line-height:1.25;font-family:Lavi;-inkscape-font-specification:Lavi;text-align:center;letter-spacing:0px;word-spacing:0px;text-anchor:middle;fill:#000000;fill-opacity:1;stroke:none"
       xml:space="preserve"><tspan
         id="tspan905-3-3"
         y="2688.6509"
         x="1725.0199"
         sodipodi:role="line"
         style="font-style:normal;font-variant:normal;font-weight:bold;font-stretch:normal;font-size:45px;font-family:Lavi;-inkscape-font-specification:'Lavi Bold'">¡Grrr!</tspan></text>
    <text
       id="text4246-3-2-2-3-2-6"
       y="2728.387"
       x="1961.0925"
       style="font-style:normal;font-variant:normal;font-weight:normal;font-stretch:normal;font-size:45px;line-height:1.25;font-family:Lavi;-inkscape-font-specification:Lavi;text-align:center;letter-spacing:0px;word-spacing:0px;text-anchor:middle;fill:#000000;fill-opacity:1;stroke:none"
       xml:space="preserve"><tspan
         id="tspan1154"
         y="2728.387"
         x="1968.1238"
         sodipodi:role="line"
         style="font-style:normal;font-variant:normal;font-weight:normal;font-stretch:normal;font-size:45px;font-family:Lavi;-inkscape-font-specification:Lavi">¡Agárrate, </tspan><tspan
         id="tspan904"
         y="2784.637"
         x="1961.0925"
         sodipodi:role="line"
         style="font-style:normal;font-variant:normal;font-weight:normal;font-stretch:normal;font-size:45px;font-family:Lavi;-inkscape-font-specification:Lavi">Carrot!</tspan></text>
    <path
       sodipodi:nodetypes="cccccccc"
       inkscape:connector-curvature="0"
       id="path5066-7"
       d="m 2039.7365,1008.7266 c 9.861,-32.35369 17.4578,-71.3509 18.3464,-80.70229 -11.8043,4.23219 -24.3456,2.67351 -32.9969,4.198 3.2732,-17.30307 13.3579,-99.34384 26.4548,-116.22599 -34.0773,40.53356 -42.4573,105.79489 -45.4461,134.39433 11.6836,-0.10269 18.7989,-1.64982 24.9438,-1.55895 -0.7263,14.31116 -14.0636,60.3846 -14.0636,60.3846 z"
       style="color:#000000;display:inline;overflow:visible;visibility:visible;fill:#ffffff;fill-opacity:1;fill-rule:nonzero;stroke:none;stroke-width:0.72177398px;marker:none;enable-background:accumulate" />
  </g>
</svg>
