<?xml version="1.0" encoding="UTF-8" standalone="no"?>
<!-- Created with Inkscape (http://www.inkscape.org/) -->

<svg
   id="svg2"
   version="1.1"
   inkscape:version="1.2 (dc2aedaf03, 2022-05-15)"
   width="2481"
   height="3503"
   sodipodi:docname="E31P06.svg"
   xmlns:inkscape="http://www.inkscape.org/namespaces/inkscape"
   xmlns:sodipodi="http://sodipodi.sourceforge.net/DTD/sodipodi-0.dtd"
   xmlns:xlink="http://www.w3.org/1999/xlink"
   xmlns="http://www.w3.org/2000/svg"
   xmlns:svg="http://www.w3.org/2000/svg"
   xmlns:rdf="http://www.w3.org/1999/02/22-rdf-syntax-ns#"
   xmlns:cc="http://creativecommons.org/ns#"
   xmlns:dc="http://purl.org/dc/elements/1.1/">
  <metadata
     id="metadata8">
    <rdf:RDF>
      <cc:Work
         rdf:about="">
        <dc:format>image/svg+xml</dc:format>
        <dc:type
           rdf:resource="http://purl.org/dc/dcmitype/StillImage" />
        <dc:title />
      </cc:Work>
    </rdf:RDF>
  </metadata>
  <defs
     id="defs6">
    <filter
       style="color-interpolation-filters:sRGB"
       id="filter4375-4-1-1-1-9-5-8-3-8"
       inkscape:label="Drop Shadow"
       x="-0.00056359353"
       y="-0.002843229"
       width="1.0151736"
       height="1.076548">
      <feFlood
         id="feFlood4377-7-9-0-8-1-7-3-8-3"
         flood-opacity="1"
         flood-color="rgb(39,39,39)"
         result="flood" />
      <feComposite
         id="feComposite4379-3-8-8-2-77-4-1-8-7"
         in2="SourceGraphic"
         in="flood"
         operator="in"
         result="composite1" />
      <feMorphology
         id="feMorphology4393-1-0-49-8-9-3-0-31-8"
         operator="dilate"
         radius="6.2000000000000002"
         result="result3" />
      <feComposite
         id="feComposite4385-9-5-7-0-8-8-7-8-2"
         in2="result3"
         in="SourceGraphic"
         operator="over"
         result="fbSourceGraphic" />
      <feColorMatrix
         result="fbSourceGraphicAlpha"
         in="fbSourceGraphic"
         values="0 0 0 -1 0 0 0 0 -1 0 0 0 0 -1 0 0 0 0 1 0"
         id="feColorMatrix4544-96-1" />
      <feTurbulence
         id="feTurbulence4546-4-0"
         type="fractalNoise"
         numOctaves="3"
         seed="37"
         baseFrequency="0.129 0.0050000000000000001"
         result="turbulence" />
      <feDisplacementMap
         id="feDisplacementMap4548-3-5"
         in2="turbulence"
         in="fbSourceGraphic"
         scale="6.6"
         yChannelSelector="G"
         xChannelSelector="R"
         result="fbSourceGraphic" />
      <feColorMatrix
         result="fbSourceGraphicAlpha"
         in="fbSourceGraphic"
         values="0 0 0 -1 0 0 0 0 -1 0 0 0 0 -1 0 0 0 0 1 0"
         id="feColorMatrix4670-33-8" />
      <feFlood
         id="feFlood4672-8-5"
         flood-opacity="0.40999999999999998"
         flood-color="rgb(0,0,0)"
         result="flood"
         in="fbSourceGraphic" />
      <feComposite
         id="feComposite4674-6-5"
         in2="fbSourceGraphic"
         in="flood"
         operator="in"
         result="composite1" />
      <feGaussianBlur
         id="feGaussianBlur4676-0-0"
         in="composite1"
         stdDeviation="0"
         result="blur" />
      <feOffset
         id="feOffset4678-4-7"
         dx="6"
         dy="6"
         result="offset" />
      <feComposite
         id="feComposite4680-8-3"
         in2="offset"
         in="fbSourceGraphic"
         operator="over"
         result="composite2" />
    </filter>
    <filter
       style="color-interpolation-filters:sRGB"
       id="filter4375-4-1-1-1-9-0"
       inkscape:label="deevad outline effect"
       x="-0.0087345729"
       y="-0.018209052"
       width="1.0174691"
       height="1.0364181">
      <feFlood
         id="feFlood4377-7-9-0-8-1-9"
         flood-opacity="1"
         flood-color="rgb(0,0,0)"
         result="flood" />
      <feComposite
         id="feComposite4379-3-8-8-2-77-1"
         in2="SourceGraphic"
         in="flood"
         operator="in"
         result="composite1" />
      <feMorphology
         id="feMorphology4393-1-0-49-8-9-9"
         operator="dilate"
         radius="3"
         result="result3" />
      <feComposite
         id="feComposite4385-9-5-7-0-8-6"
         in2="result3"
         in="SourceGraphic"
         operator="over"
         result="composite2" />
    </filter>
    <filter
       style="color-interpolation-filters:sRGB"
       id="filter4375-4-1-1-1-9-0-5"
       inkscape:label="deevad outline effect"
       x="-0.0077249054"
       y="-0.035602643"
       width="1.0154498"
       height="1.0712053">
      <feFlood
         id="feFlood4377-7-9-0-8-1-9-6"
         flood-opacity="1"
         flood-color="rgb(0,0,0)"
         result="flood" />
      <feComposite
         id="feComposite4379-3-8-8-2-77-1-2"
         in2="SourceGraphic"
         in="flood"
         operator="in"
         result="composite1" />
      <feMorphology
         id="feMorphology4393-1-0-49-8-9-9-9"
         operator="dilate"
         radius="3"
         result="result3" />
      <feComposite
         id="feComposite4385-9-5-7-0-8-6-1"
         in2="result3"
         in="SourceGraphic"
         operator="over"
         result="composite2" />
    </filter>
  </defs>
  <sodipodi:namedview
     pagecolor="#ffffff"
     bordercolor="#666666"
     borderopacity="1"
     objecttolerance="10"
     gridtolerance="10"
     guidetolerance="10"
     inkscape:pageopacity="0"
     inkscape:pageshadow="2"
     inkscape:window-width="1261"
     inkscape:window-height="1388"
     id="namedview4"
     showgrid="false"
     inkscape:zoom="0.32343248"
     inkscape:cx="1312.4841"
     inkscape:cy="1949.4022"
     inkscape:window-x="1283"
     inkscape:window-y="36"
     inkscape:window-maximized="1"
     inkscape:current-layer="layer3"
     inkscape:snap-global="false"
     inkscape:pagecheckerboard="0"
     inkscape:showpageshadow="2"
     inkscape:deskcolor="#d1d1d1" />
  <g
     inkscape:groupmode="layer"
     id="layer2"
     inkscape:label="artwork"
     sodipodi:insensitive="true">
    <image
       xlink:href="../gfx_Pepper-and-Carrot_by-David-Revoy_E31P06.png"
       y="0"
       x="0"
       id="image10"
       height="3503"
       width="2481" />
  </g>
  <g
     inkscape:groupmode="layer"
     id="layer3"
     inkscape:label="speechbubbles">
    <path
       style="fill:#ffffff;fill-opacity:1;stroke:none;stroke-width:1.09036469"
       d="m 2336.0954,607.49639 c -18.7292,3.86007 -25.9382,7.46431 -22.5847,9.6977 -7.6825,1.09817 -10.642,30.03928 -3.457,35.3413 0.4782,0.55806 3.8336,2.23433 2.3926,2.50979 -1.4403,0.27548 -10.0773,-0.5762 -11.5201,0.53413 -1.443,1.11089 12.912,17.00347 10.9905,17.5563 -1.9213,0.55338 -46.0482,-10.10974 -52.2944,-7.61678 -6.2463,2.49298 -2.9042,8.9012 -4.8247,9.17575 -1.9204,0.27454 -19.6745,-1.42978 -22.0749,-1.15616 -2.4006,0.2736 -6.7431,8.61487 -9.1435,8.88847 -2.4008,0.27362 -13.4289,-3.64446 -15.3494,-3.36991 -1.9207,0.27454 -0.9799,7.23467 -3.3803,7.50829 -2.4007,0.2736 -12.9428,-5.86981 -14.3835,-5.59434 -1.4405,0.27548 -6.7584,14.1817 -9.1604,15.01188 -2.4022,0.83018 -17.716,-15.34253 -19.1554,-15.62363 -1.439,-0.28165 -10.611,18.90564 -12.5314,19.18018 -1.921,0.27454 -11.483,-13.1041 -12.9238,-12.82862 -1.4407,0.27548 -10.5811,8.05138 -12.5024,8.60421 -1.9213,0.55283 -14.3511,-17.28455 -16.2711,-17.28829 -1.9198,-0.004 -18.2589,7.47929 -19.7026,8.86791 -1.4438,1.38917 -2.8598,-7.24215 -4.7796,-7.24589 -1.9197,-0.004 -24.0116,4.96349 -24.4907,4.68427 -0.4793,-0.27923 3.3751,-5.56029 1.9352,-5.56309 -1.4397,-0.003 -24.0167,6.9115 -24.9731,5.5182 6.5854,-20.42315 -48.6929,6.15199 -52.331,5.74316 -3.3567,-1.12024 21.6608,-22.78124 19.2658,-24.45617 -2.3954,-1.6744 -11.0401,0.25676 -11.5178,-0.57903 -0.4774,-0.83579 5.292,-4.44284 3.8552,-5.55878 -1.4368,-1.1165 -17.7429,-5.60143 -19.1789,-6.99566 -1.4361,-1.3948 7.213,-4.99624 5.2954,-5.83483 -1.9176,-0.83915 -30.2203,-6.18233 -30.6965,-7.57524 -0.476,-1.39237 14.4212,-8.04334 12.5066,-9.99509 -1.9143,-1.95229 -7.1918,-2.79743 -6.7079,-4.18848 0.4839,-1.39049 9.6075,-3.04299 9.1315,-4.43535 -0.4761,-1.39238 -5.2566,-8.36054 -6.6933,-9.47648 -1.4369,-1.11595 10.0806,-0.53694 10.0836,-1.65008 0,-1.11369 -2.2198,-23.5183 -19.2437,-33.66701 29.806,6.75864 42.3674,3.53587 58.2122,1.34045 15.8448,-2.19598 9.6434,-16.12464 12.0456,-16.95484 9.7468,5.17921 25.364,27.89768 27.8451,1.91714 -0.4929,-1.85524 17.1622,11.16727 19.5626,10.89366 2.4006,-0.27361 22.1886,-14.7864 25.549,-15.05814 3.3604,-0.27174 16.3055,4.76377 19.1843,5.04767 2.8791,0.2839 5.2979,-6.66969 7.6963,-6.10843 2.3983,0.56124 17.7429,5.60143 20.1441,5.04953 2.4014,-0.55245 4.3273,-2.775 6.2458,-2.21468 1.9179,0.56031 10.5511,2.80399 10.5511,2.80399 0,0 6.2442,-1.65812 9.1238,-1.65251 2.8797,0.006 22.5326,9.22905 24.9308,9.79031 2.3982,0.56124 27.0629,-9.43403 25.6277,-11.10655 3.0376,7.31416 17.801,0.65375 20.9249,1.02589 3.3571,0.84196 13.4432,-1.64353 14.4009,-0.80679 0.9574,0.83672 3.825,5.29601 6.7039,5.57991 2.8791,0.2839 9.5952,1.41013 9.5952,1.41013 l -0.9643,1.6684 c 0,0 20.1702,6.87013 22.5749,5.20508 8.6376,-0.92566 8.2539,1.56665 30.4265,-6.34533 -17.7607,16.83134 -29.5499,35.87639 7.4297,28.12884 -30.7502,7.40389 -17.1325,13.68463 8.6056,12.26364 z"
       id="path5888-3-2"
       inkscape:connector-curvature="0"
       sodipodi:nodetypes="cccsccsscccccccsccscscsccsccccccsccscsccccsccscsccccccccccc" />
    <path
       style="fill:#ffffff;fill-opacity:1;stroke:none;stroke-width:0.94653028"
       d="m 2204.7571,406.5923 c -0.051,0.004 -0.1036,0.0176 -0.1548,0.041 -1.6404,0.75002 -7.7707,7.90828 -9.411,7.15827 -1.6404,-0.75076 -9.1413,-7.40689 -10.4537,-6.65688 -1.3122,0.75001 -6.1243,11.06376 -6.1243,11.06376 0,0 -7.956,-4.96527 -16.2623,-11.01838 -2.45,5.91093 -4.6626,17.08211 -6.3031,17.83213 -1.6403,0.75002 -18.4812,-12.78316 -25.1416,-17.47112 -2.4542,6.19133 -4.5461,18.47784 -6.6821,18.97112 -2.2965,1.12577 -16.831,-13.22067 -17.487,-12.09564 -0.6562,1.12502 5.0194,18.09759 3.0509,18.4726 -1.9685,0.37501 -6.5612,1.875 -6.5612,1.875 l 0.6553,2.25 c 0,0 -13.7794,-6.00192 -15.4198,-8.25196 -1.6403,-2.25078 0.9849,9.75311 1.9692,12.75391 -5.9056,-3.0008 -23.2935,-9.37813 -24.6057,-11.25391 -1.3123,-1.87503 2.2968,6.75193 4.2652,9.37696 -2.6246,-1.12501 -4.9221,-1.5 -4.9221,-1.5 l 7.5465,9.00195 -2.296,0.75 c 0,0 4.9206,4.12498 4.9206,6 0,1.87579 -12.7955,4.12695 -12.7955,4.12695 14.5154,11.23691 5.3708,14.55335 -5.9044,16.50391 6.1251,2.51362 10.4246,4.93804 13.0128,7.11523 l -12.4998,3.7168 12.9817,7.56445 -6.9241,3.24219 6.9241,5.4043 -19.0408,8.64648 19.9072,5.4043 -14.7145,9.72851 14.7145,5.4043 -7.7905,7.56446 17.4407,1.45312 c 0,3.14332 -5.0782,19.04189 -7.6076,23.27148 9.9629,-0.0303 26.5262,0.13477 38.5664,0.13477 0.022,1.16441 0.094,2.00665 0.4738,2.11523 0.6446,0.18421 3.9141,-0.26823 7.2557,-0.72851 l 10.6308,4.42578 c 1.253,3.15354 2.5421,6.59956 3.4394,6.80469 1.0253,0.23437 4.3566,-1.72876 7.0318,-3.14258 6e-4,-2.5e-4 0,2.5e-4 0,0 l 3.8335,-0.9082 c 0.8227,1.91909 0.4713,9.34263 1.9284,9.67578 1.6405,0.37502 8.8584,-7.87501 9.8426,-7.5 0.9842,0.375 4.5925,19.12886 6.2327,20.2539 1.6405,1.12501 12.1397,-20.6289 13.1241,-21.0039 0.9841,-0.37576 7.2163,25.5039 8.5286,25.8789 1.3124,0.37502 7.8745,-17.62892 8.8588,-17.2539 0.9843,0.37499 7.2181,10.87889 8.5303,11.6289 1.3124,0.75002 9.8424,-23.25586 11.1548,-23.25586 1.3123,0 12.4666,10.12693 13.4509,12.00196 0.9843,1.87579 1.969,-9.75196 3.2813,-9.75196 1.3124,0 16.4025,6.75197 16.7306,6.37696 0.3282,-0.37501 -2.2965,-7.50196 -1.3122,-7.50196 0.9842,0 16.4045,9.37698 17.0607,7.50196 0.656,-1.87578 28.1681,3.46603 35.7602,7.87695 -5.8876,-9.56114 -14.7642,-30.75508 -13.1239,-33.00586 1.6404,-2.25003 7.547,0.37502 7.8751,-0.75 0.328,-1.12502 -3.6086,-6.00194 -2.6244,-7.50195 0.9842,-1.50078 12.1381,-7.50191 13.1222,-9.37696 0.9842,-1.87577 -4.9204,-6.74999 -3.6082,-7.875 1.3123,-1.12576 20.6692,-8.25313 20.9973,-10.1289 0.328,-1.87504 -9.8426,-10.87691 -8.5303,-13.50195 1.3123,-2.62579 4.9218,-3.74922 4.5936,-5.625 -0.3281,-1.87502 -6.5623,-4.12694 -6.2342,-6.00196 0.328,-1.87503 3.6094,-11.25193 4.5935,-12.75195 0.9844,-1.50003 -6.8895,-0.74998 -6.8895,-2.25 0,-1.50078 -18.0024,-9.73512 2.2298,-31.94263 -28.9632,4.74119 -18.9619,-1.06318 -29.7884,-4.06323 -10.8267,-3.0008 -6.5615,-21.75584 -8.2018,-22.88086 -1.6405,-1.12577 -13.7797,6.377 -15.42,3.75195 -1.6404,-2.62579 -2.2975,-7.50195 -3.6099,-7.50195 -1.3121,0 -15.41,8.06404 -17.0504,7.68903 -1.6404,-0.37501 -10.5075,-14.44098 -12.8041,-14.81598 -2.2965,-0.37502 -11.1555,6.37695 -13.124,6.75195 -1.9068,0.36329 -3.5044,-8.42522 -5.094,-8.29297 z"
       id="path5888-3"
       inkscape:connector-curvature="0"
       sodipodi:nodetypes="ccccccccccscccccccccscccccccccccccccscccccccccccccscsssccccccccccccsccccsccccc" />
    <path
       style="color:#000000;display:inline;overflow:visible;visibility:visible;fill:#ffffff;fill-opacity:1;fill-rule:nonzero;stroke:none;stroke-width:1px;marker:none;enable-background:accumulate"
       d="m 2279.1877,625.34508 c -0.091,3.76817 51.831,-6.4041 51.831,-6.4041 0,0 1.5665,29.95657 4.6782,32.0986 11.0733,-0.0391 21.0624,-5.37296 21.0624,-5.37296 l 18.0133,48.73793 -20.0054,-31.72225 c -9.8867,-0.91886 -20.0127,-0.88091 -32.7339,9.5382 l -4.3594,-32.26765 -34.1656,7.80769 z"
       id="path4448"
       inkscape:connector-curvature="0"
       sodipodi:nodetypes="cccccccccc" />
    <path
       style="color:#000000;display:inline;overflow:visible;visibility:visible;fill:#ffffff;fill-opacity:1;fill-rule:nonzero;stroke:none;stroke-width:1.35167px;marker:none;enable-background:accumulate"
       d="m 907.49526,2941.0707 c -18.30334,-3.4347 -72.2939,-34.6595 -8.31802,-35.7309 -47.8142,-12.0293 -43.16302,-40.3802 -5.46384,-58.4848 -50.48184,5.5909 -88.48375,0.2554 -64.02308,-29.875 -73.89701,21.8687 -106.94677,27.1225 -93.687,-14.2657 -32.61609,35.1103 -66.09162,30.3057 -76.85974,-8.6046 -6.11379,29.6272 -56.73358,41.2038 -117.10707,4.6741 20.56723,34.4461 32.24647,52.3743 -75.07361,47.3355 41.62684,18.6925 68.07555,30.6664 -0.28371,42.3731 35.61424,7.6628 58.70203,19.1551 5.14227,41.4006 35.7921,4.6969 91.74805,0.383 25.83008,41.3163 43.86208,-19.9076 119.46824,-10.2654 88.84454,20.0725 86.10156,-36.3728 103.51041,-28.4582 118.11584,-5.7678 30.76147,-35.529 94.92046,-42.1545 123.53692,-23.5566 -15.08262,-29.6139 38.95938,-19.1147 79.34642,-20.8867 z"
       id="path3549-3-78-5-3"
       inkscape:connector-curvature="0"
       sodipodi:nodetypes="ccccccccccccccc" />
    <path
       style="color:#000000;display:inline;overflow:visible;visibility:visible;fill:#ffffff;fill-opacity:1;fill-rule:nonzero;stroke:none;stroke-width:1.13598561px;marker:none;enable-background:accumulate"
       d="m 843.02907,2994.1713 c -11.89713,-2.9785 -24.17157,-22.306 -4.83933,-35.2868 -16.04099,-0.688 -25.22109,-7.3316 -10.09016,-20.9326 -33.63592,17.0282 -42.55262,-6.109 -31.54836,-33.2935 -49.36943,13.0575 -71.28017,15.72 -61.02027,-12.9191 -22.7425,23.6321 -44.55674,19.2215 -50.17625,-8.4238 -5.12498,20.6058 -16.0656,31.8674 -48.67807,5.9229 -2.4006,7.5606 8.64658,32.4271 -61.67596,25.5615 26.65036,14.4116 42.6399,17.0575 -2.71109,23.1541 23.11252,6.4833 38.79157,21.8447 2.76993,35.7976 23.34031,4.4069 60.2656,3.1148 15.42545,29.8013 29.56268,-12.6127 61.01949,-4.4394 39.76453,15.9049 57.9305,-22.8594 69.07237,-16.7642 77.8197,-0.3847 21.53965,-23.9836 52.66833,-21.2672 70.7742,-7.3256 -8.80189,-21.2539 37.58447,-17.5851 64.18568,-17.5762 z"
       id="path3549-3-78-5"
       inkscape:connector-curvature="0"
       sodipodi:nodetypes="ccccccccccccccc" />
    <path
       style="color:#000000;display:inline;overflow:visible;visibility:visible;fill:#ffffff;fill-opacity:1;fill-rule:nonzero;stroke:none;stroke-width:0.99999994px;marker:none;enable-background:accumulate"
       d="m 1272.5449,3085.5137 c -78.231,15.2781 -158.5825,23.1124 -234.3525,47.042 l 48.6913,-38.9221 c -31.113,-0.2775 -62.6052,11.89 -93.96922,19.832 l 24.81112,-26.6421 c -73.62433,-0.043 -140.93978,19.5825 -211.30464,29.7017 l 48.37788,-44.8304 c 71.35729,-4.7997 140.74069,-1.8479 214.31916,-15.3676 l -20.5535,27.1733 c 25.7084,-2.3825 51.5171,-5.4463 77.7719,-11.5491 l -30.1046,33.1547 z"
       id="path4032-1"
       inkscape:connector-curvature="0"
       sodipodi:nodetypes="cccccccccccc" />
    <path
       style="display:inline;fill:#ffffff;fill-rule:evenodd;stroke:none;stroke-width:1.02099px;stroke-linecap:butt;stroke-linejoin:miter;stroke-opacity:1"
       d="m 478.0034,2984.5937 c 54.95466,25.7295 102.42507,45.2536 65.15877,-27.6332 44.38,54.4551 62.27975,30.3072 73.07025,-1.5353 34.71164,27.3701 58.6807,51.5611 75.89348,31.8686 6.41557,25.3256 20.174,15.1056 32.08111,13.8475 3.92165,5.7305 -24.42481,-13.002 29.99201,-31.9685 -6.77463,-36.3728 34.59417,4.2251 66.46888,-12.5895 8.25774,30.7828 3.66032,49.8352 50.45106,6.4149 -16.91063,42.7056 -9.89848,48.7374 11.70983,32.3935 -9.87915,17.5867 -15.78789,31.2005 21.74666,1.3493 -12.84994,32.4612 32.55135,11.0114 76.94746,-22.3161 -42.24878,36.9562 -101.06943,78.4218 -53.52766,73.6058 -6.63,10.1596 -30.27879,19.0116 40.14784,35.0929 -13.14771,6.8939 -53.28724,-3.1809 -19.80365,26.0092 4.48611,3.4128 -10.53236,5.4961 18.13081,14.4824 -16.92017,-0.6115 -27.29692,1.5719 -11.70985,14.8467 -30.88559,-0.7179 -19.32956,13.2404 3.34569,31.0435 -57.92121,-34.8399 -76.48392,-41.1877 -48.51218,-5.3987 -56.05563,-31.1336 -75.7872,-27.1487 -68.64376,-1.5524 -23.86166,-27.1776 -51.18459,-31.93 -73.3157,-0.5324 -23.59661,-32.3977 -39.67321,-29.0784 -88.89124,-4.6639 26.54973,-27.4739 -11.22071,-9.9703 -40.14799,1.3492 15.84115,-34.3209 -24.36143,-11.7956 -75.27747,21.5954 28.51274,-37.8995 -3.87103,-24.2091 -51.85784,2.6993 18.1309,-37.2331 -11.39694,-55.239 -81.96876,-56.6874 33.77776,-13.4308 53.47521,-30.3328 18.40124,-60.7378 39.53833,8.9529 51.33201,0.6367 23.41962,-32.3927 43.12579,27.1104 23.51807,-12.2123 6.69139,-48.5903 z"
       id="path4508-9"
       inkscape:connector-curvature="0"
       sodipodi:nodetypes="cccccccccccccccccccccccccccc" />
  </g>
  <g
     inkscape:groupmode="layer"
     id="layer1"
     inkscape:label="txt">
    <text
       xml:space="preserve"
       style="font-style:normal;font-variant:normal;font-weight:normal;font-stretch:normal;font-size:15.8906px;line-height:0%;font-family:Lavi;-inkscape-font-specification:Lavi;text-align:center;letter-spacing:0px;word-spacing:0px;text-anchor:middle;fill:#000000;fill-opacity:1;stroke:none;stroke-width:1.17751"
       x="2194.2212"
       y="488.80966"
       id="text4246-1-3-2-8"
       transform="scale(0.99789912,1.0021053)"><tspan
         sodipodi:role="line"
         style="font-style:normal;font-variant:normal;font-weight:bold;font-stretch:normal;font-size:46.6667px;line-height:1.25;font-family:Lavi;-inkscape-font-specification:'Lavi Bold';stroke-width:1.17751"
         x="2194.2212"
         y="488.80966"
         id="tspan11165">Ik zei:</tspan><tspan
         sodipodi:role="line"
         style="font-style:normal;font-variant:normal;font-weight:bold;font-stretch:normal;font-size:46.6667px;line-height:1.25;font-family:Lavi;-inkscape-font-specification:'Lavi Bold';stroke-width:1.17751"
         x="2194.2212"
         y="547.14301"
         id="tspan11169">STOP!</tspan></text>
    <text
       xml:space="preserve"
       style="font-style:normal;font-variant:normal;font-weight:normal;font-stretch:normal;font-size:15.8906px;line-height:0%;font-family:Lavi;-inkscape-font-specification:Lavi;text-align:center;letter-spacing:0px;word-spacing:0px;text-anchor:middle;fill:#000000;fill-opacity:1;stroke:none;stroke-width:1.17751"
       x="2149.405"
       y="636.27936"
       id="text4246-1-3-2-8-3"
       transform="scale(0.99789912,1.0021053)"><tspan
         sodipodi:role="line"
         style="font-style:normal;font-variant:normal;font-weight:bold;font-stretch:normal;font-size:46.6667px;line-height:1.25;font-family:Lavi;-inkscape-font-specification:'Lavi Bold';stroke-width:1.17751"
         x="2149.405"
         y="636.27936"
         id="tspan829-7">Genoeg zo!</tspan></text>
    <text
       xml:space="preserve"
       style="font-style:normal;font-variant:normal;font-weight:normal;font-stretch:normal;line-height:0%;font-family:Lavi;-inkscape-font-specification:Lavi;letter-spacing:0px;word-spacing:0px;fill:#000000;fill-opacity:1;stroke:#ffffff;stroke-width:2.66678;stroke-miterlimit:4;stroke-dasharray:none;stroke-opacity:1;filter:url(#filter4375-4-1-1-1-9-0)"
       x="787.65729"
       y="1584.5073"
       id="text4580-25"
       transform="matrix(0.55718765,-0.37423929,0.21813977,1.0749149,-120.92735,-234.76499)"><tspan
         sodipodi:role="line"
         id="tspan4582-4"
         x="787.65729"
         y="1584.5073"
         style="font-size:70px;line-height:100%;letter-spacing:4.88345px;fill:#ffffff;stroke:#ffffff;stroke-width:2.66678;stroke-miterlimit:4;stroke-dasharray:none;stroke-opacity:1"><tspan
           style="font-size:55.3496px;line-height:100%;letter-spacing:4.88345px;stroke:#ffffff;stroke-width:2.66678;stroke-miterlimit:4;stroke-dasharray:none;stroke-opacity:1"
           id="tspan4439-4">Knip</tspan><tspan
           style="font-size:80.4001px;line-height:100%;letter-spacing:4.88345px;stroke:#ffffff;stroke-width:2.66678;stroke-miterlimit:4;stroke-dasharray:none;stroke-opacity:1"
           id="tspan4617-9">!</tspan></tspan></text>
    <text
       xml:space="preserve"
       style="font-style:normal;font-variant:normal;font-weight:normal;font-stretch:normal;line-height:0%;font-family:Lavi;-inkscape-font-specification:Lavi;letter-spacing:0px;word-spacing:0px;display:inline;fill:#ffffff;fill-opacity:1;stroke:#000000;stroke-width:0.481485;stroke-miterlimit:4;stroke-dasharray:none;stroke-opacity:1;filter:url(#filter4375-4-1-1-1-9-5-8-3-8)"
       x="787.65729"
       y="1584.5073"
       id="text4580-6-0-8-8"
       transform="matrix(1.5492299,-0.0813593,-0.87667877,1.9075458,1488.4921,-1828.2433)"><tspan
         sodipodi:role="line"
         id="tspan4582-1-1-8-2"
         x="787.65729"
         y="1584.5073"
         style="font-style:normal;font-variant:normal;font-weight:bold;font-stretch:normal;font-size:70px;line-height:1.25;font-family:'Noto Sans';-inkscape-font-specification:'Noto Sans Bold';letter-spacing:5.87611px;fill:#ffffff;fill-opacity:1;stroke:#000000;stroke-width:0.481485;stroke-opacity:1"><tspan
           style="font-style:normal;font-variant:normal;font-weight:bold;font-stretch:normal;font-size:114.732px;font-family:'Noto Sans';-inkscape-font-specification:'Noto Sans Bold';letter-spacing:5.87611px;fill:#ffffff;fill-opacity:1;stroke:#000000;stroke-width:0.481485;stroke-opacity:1"
           id="tspan4313-2-76-0">POOEF!</tspan></tspan></text>
    <text
       xml:space="preserve"
       style="font-style:normal;font-variant:normal;font-weight:normal;font-stretch:normal;line-height:0%;font-family:Lavi;-inkscape-font-specification:Lavi;letter-spacing:0px;word-spacing:0px;fill:#000000;fill-opacity:1;stroke:#ffffff;stroke-width:4.21926;stroke-miterlimit:4;stroke-dasharray:none;stroke-opacity:1;filter:url(#filter4375-4-1-1-1-9-0-5)"
       x="787.65729"
       y="1584.5073"
       id="text4580-25-2"
       transform="matrix(0.37191843,0.11061463,-0.38324889,0.61702867,2371.8774,1301.4149)"><tspan
         sodipodi:role="line"
         id="tspan4582-4-7"
         x="787.65729"
         y="1584.5073"
         style="font-style:normal;font-variant:normal;font-weight:bold;font-stretch:normal;font-size:80.4001px;line-height:100%;font-family:'Noto Sans';-inkscape-font-specification:'Noto Sans Bold';letter-spacing:4.88345px;fill:#ffffff;stroke:#ffffff;stroke-width:4.21926;stroke-miterlimit:4;stroke-dasharray:none;stroke-opacity:1">TCHK !</tspan></text>
    <text
       xml:space="preserve"
       style="font-style:normal;font-variant:normal;font-weight:normal;font-stretch:normal;font-size:16.9029px;line-height:0%;font-family:Lavi;-inkscape-font-specification:Lavi;text-align:center;letter-spacing:0px;word-spacing:0px;text-anchor:middle;fill:#000000;fill-opacity:1;stroke:none;stroke-width:1.25252"
       x="653.91028"
       y="3087.2766"
       id="text4246-1-3-2-8-3-3"
       transform="scale(1.0614699,0.94208982)"><tspan
         sodipodi:role="line"
         style="font-style:normal;font-variant:normal;font-weight:bold;font-stretch:normal;font-size:49.6396px;line-height:1.25;font-family:Lavi;-inkscape-font-specification:'Lavi Bold';stroke-width:1.25252"
         x="653.91028"
         y="3087.2766"
         id="tspan829-7-6">Hier komen!</tspan></text>
    <text
       xml:space="preserve"
       style="font-style:normal;font-variant:normal;font-weight:normal;font-stretch:normal;font-size:15.8906px;line-height:0%;font-family:Lavi;-inkscape-font-specification:Lavi;text-align:center;letter-spacing:0px;word-spacing:0px;text-anchor:middle;fill:#000000;fill-opacity:1;stroke:none;stroke-width:1.17751"
       x="710.07288"
       y="2990.7144"
       id="text4246-1-3-2-8-3-3-7"
       transform="scale(0.99789912,1.0021053)"><tspan
         sodipodi:role="line"
         style="font-style:normal;font-variant:normal;font-weight:bold;font-stretch:normal;font-size:46.6667px;line-height:1.25;font-family:Lavi;-inkscape-font-specification:'Lavi Bold';stroke-width:1.17751"
         x="710.07288"
         y="2990.7144"
         id="tspan829-7-6-5">ALLEBEI!</tspan></text>
    <text
       xml:space="preserve"
       style="font-style:normal;font-variant:normal;font-weight:normal;font-stretch:normal;font-size:15.8906px;line-height:0%;font-family:Lavi;-inkscape-font-specification:Lavi;text-align:center;letter-spacing:0px;word-spacing:0px;text-anchor:middle;fill:#000000;fill-opacity:1;stroke:none;stroke-width:1.17751"
       x="715.01428"
       y="3089.5005"
       id="text4246-1-3-2-8-36-2"
       transform="scale(0.99789912,1.0021053)"><tspan
         sodipodi:role="line"
         style="font-style:normal;font-variant:normal;font-weight:bold;font-stretch:normal;font-size:46.6667px;line-height:1.25;font-family:Lavi;-inkscape-font-specification:'Lavi Bold';stroke-width:1.17751"
         x="715.01428"
         y="3089.5005"
         id="tspan1020-8">En wel nu meteen!</tspan></text>
  </g>
</svg>
