<?xml version="1.0" encoding="UTF-8" standalone="no"?>
<!-- Created with Inkscape (http://www.inkscape.org/) -->

<svg
   xmlns:dc="http://purl.org/dc/elements/1.1/"
   xmlns:cc="http://creativecommons.org/ns#"
   xmlns:rdf="http://www.w3.org/1999/02/22-rdf-syntax-ns#"
   xmlns:svg="http://www.w3.org/2000/svg"
   xmlns="http://www.w3.org/2000/svg"
   xmlns:xlink="http://www.w3.org/1999/xlink"
   xmlns:sodipodi="http://sodipodi.sourceforge.net/DTD/sodipodi-0.dtd"
   xmlns:inkscape="http://www.inkscape.org/namespaces/inkscape"
   id="svg2"
   version="1.1"
   inkscape:version="0.92.4 5da689c313, 2019-01-14"
   width="2481"
   height="3503"
   sodipodi:docname="E31P06.svg">
  <metadata
     id="metadata8">
    <rdf:RDF>
      <cc:Work
         rdf:about="">
        <dc:format>image/svg+xml</dc:format>
        <dc:type
           rdf:resource="http://purl.org/dc/dcmitype/StillImage" />
        <dc:title />
      </cc:Work>
    </rdf:RDF>
  </metadata>
  <defs
     id="defs6">
    <filter
       style="color-interpolation-filters:sRGB"
       id="filter4375-4-1-1-1-9-5-8-3-8"
       inkscape:label="Drop Shadow">
      <feFlood
         id="feFlood4377-7-9-0-8-1-7-3-8-3"
         flood-opacity="1"
         flood-color="rgb(39,39,39)"
         result="flood" />
      <feComposite
         id="feComposite4379-3-8-8-2-77-4-1-8-7"
         in2="SourceGraphic"
         in="flood"
         operator="in"
         result="composite1" />
      <feMorphology
         id="feMorphology4393-1-0-49-8-9-3-0-31-8"
         operator="dilate"
         radius="6.2000000000000002"
         result="result3" />
      <feComposite
         id="feComposite4385-9-5-7-0-8-8-7-8-2"
         in2="result3"
         in="SourceGraphic"
         operator="over"
         result="fbSourceGraphic" />
      <feColorMatrix
         result="fbSourceGraphicAlpha"
         in="fbSourceGraphic"
         values="0 0 0 -1 0 0 0 0 -1 0 0 0 0 -1 0 0 0 0 1 0"
         id="feColorMatrix4544-96-1" />
      <feTurbulence
         id="feTurbulence4546-4-0"
         type="fractalNoise"
         numOctaves="3"
         seed="37"
         baseFrequency="0.129 0.0050000000000000001"
         result="turbulence" />
      <feDisplacementMap
         id="feDisplacementMap4548-3-5"
         in2="turbulence"
         in="fbSourceGraphic"
         scale="6.6"
         yChannelSelector="G"
         xChannelSelector="R"
         result="fbSourceGraphic" />
      <feColorMatrix
         result="fbSourceGraphicAlpha"
         in="fbSourceGraphic"
         values="0 0 0 -1 0 0 0 0 -1 0 0 0 0 -1 0 0 0 0 1 0"
         id="feColorMatrix4670-33-8" />
      <feFlood
         id="feFlood4672-8-5"
         flood-opacity="0.40999999999999998"
         flood-color="rgb(0,0,0)"
         result="flood"
         in="fbSourceGraphic" />
      <feComposite
         id="feComposite4674-6-5"
         in2="fbSourceGraphic"
         in="flood"
         operator="in"
         result="composite1" />
      <feGaussianBlur
         id="feGaussianBlur4676-0-0"
         in="composite1"
         stdDeviation="0"
         result="blur" />
      <feOffset
         id="feOffset4678-4-7"
         dx="6"
         dy="6"
         result="offset" />
      <feComposite
         id="feComposite4680-8-3"
         in2="offset"
         in="fbSourceGraphic"
         operator="over"
         result="composite2" />
    </filter>
    <filter
       style="color-interpolation-filters:sRGB"
       id="filter4375-4-1-1-1-9-0"
       inkscape:label="deevad outline effect">
      <feFlood
         id="feFlood4377-7-9-0-8-1-9"
         flood-opacity="1"
         flood-color="rgb(0,0,0)"
         result="flood" />
      <feComposite
         id="feComposite4379-3-8-8-2-77-1"
         in2="SourceGraphic"
         in="flood"
         operator="in"
         result="composite1" />
      <feMorphology
         id="feMorphology4393-1-0-49-8-9-9"
         operator="dilate"
         radius="3"
         result="result3" />
      <feComposite
         id="feComposite4385-9-5-7-0-8-6"
         in2="result3"
         in="SourceGraphic"
         operator="over"
         result="composite2" />
    </filter>
    <filter
       style="color-interpolation-filters:sRGB"
       id="filter4375-4-1-1-1-9-0-5"
       inkscape:label="deevad outline effect">
      <feFlood
         id="feFlood4377-7-9-0-8-1-9-6"
         flood-opacity="1"
         flood-color="rgb(0,0,0)"
         result="flood" />
      <feComposite
         id="feComposite4379-3-8-8-2-77-1-2"
         in2="SourceGraphic"
         in="flood"
         operator="in"
         result="composite1" />
      <feMorphology
         id="feMorphology4393-1-0-49-8-9-9-9"
         operator="dilate"
         radius="3"
         result="result3" />
      <feComposite
         id="feComposite4385-9-5-7-0-8-6-1"
         in2="result3"
         in="SourceGraphic"
         operator="over"
         result="composite2" />
    </filter>
  </defs>
  <sodipodi:namedview
     pagecolor="#ffffff"
     bordercolor="#666666"
     borderopacity="1"
     objecttolerance="10"
     gridtolerance="10"
     guidetolerance="10"
     inkscape:pageopacity="0"
     inkscape:pageshadow="2"
     inkscape:window-width="1920"
     inkscape:window-height="1019"
     id="namedview4"
     showgrid="false"
     inkscape:zoom="0.9148052"
     inkscape:cx="2357.0315"
     inkscape:cy="3055.9571"
     inkscape:window-x="0"
     inkscape:window-y="27"
     inkscape:window-maximized="1"
     inkscape:current-layer="layer3"
     inkscape:snap-global="false" />
  <g
     inkscape:groupmode="layer"
     id="layer2"
     inkscape:label="artwork"
     sodipodi:insensitive="true">
    <image
       sodipodi:absref="/home/martin/peppercarrot/webcomics/new-ep31_The-Fight/lang/de/../gfx_Pepper-and-Carrot_by-David-Revoy_E31P06.png"
       xlink:href="../gfx_Pepper-and-Carrot_by-David-Revoy_E31P06.png"
       width="2481"
       height="3503"
       id="image10"
       x="0"
       y="0" />
  </g>
  <g
     inkscape:groupmode="layer"
     id="layer3"
     inkscape:label="speechbubbles">
    <path
       style="color:#000000;display:inline;overflow:visible;visibility:visible;fill:#ffffff;fill-opacity:1;fill-rule:nonzero;stroke:none;stroke-width:1.08246875px;marker:none;enable-background:accumulate"
       d="m 851.00991,2925.6926 c -13.43863,-3.0753 -53.07946,-31.0327 -6.10725,-31.992 -35.10602,-10.7706 -31.69106,-36.1548 -4.01165,-52.3649 -37.06465,5.0058 -64.96634,0.2287 -47.00688,-26.7489 -54.25649,19.5804 -78.52221,24.2844 -68.78666,-12.7729 -23.94731,31.4363 -48.52563,27.1345 -56.43178,-7.7042 -4.48886,26.527 -41.6548,36.8922 -85.98209,4.185 15.10082,30.8416 23.67593,46.8938 -55.12038,42.3823 30.56316,16.7365 49.98227,27.4574 -0.2083,37.9391 26.1486,6.861 43.10007,17.1507 3.77555,37.0684 26.27919,4.2054 67.36304,0.3429 18.96489,36.9929 32.20432,-17.8244 87.71571,-9.1912 65.23125,17.9721 63.21728,-32.5667 75.99917,-25.4803 86.72274,-5.1642 22.58562,-31.8112 69.69228,-37.7434 90.703,-21.0916 -11.07392,-26.5151 28.60468,-17.1146 58.25756,-18.7011 z"
       id="path3549-3-78-5-3"
       inkscape:connector-curvature="0"
       sodipodi:nodetypes="ccccccccccccccc" />
    <path
       style="color:#000000;display:inline;overflow:visible;visibility:visible;fill:#ffffff;fill-opacity:1;fill-rule:nonzero;stroke:none;stroke-width:1.58176911px;marker:none;enable-background:accumulate"
       d="m 934.8519,3006.6326 c -20.73566,-3.3133 -42.12894,-24.8134 -8.43453,-39.2534 -27.95804,-0.7653 -43.95815,-8.1557 -17.58626,-23.2856 -34.27627,1.1642 -61.79815,-13.7523 -42.6187,-43.9926 -86.04658,14.5253 -136.60242,24.4437 -118.72032,-7.4148 -39.63818,26.2886 -77.65849,21.3822 -87.45281,-9.3707 -8.93238,22.9221 -28.00092,35.4496 -84.84161,6.5887 -4.18404,8.4105 15.07024,36.0722 -107.49579,28.4349 46.44924,16.0316 74.31761,18.9749 -4.72519,25.7568 40.28309,7.2121 93.81932,18.0273 31.03675,33.5487 40.68012,4.9022 78.82866,9.7379 0.67621,39.4242 51.52516,-14.0305 106.35162,-4.9384 69.30608,17.6928 100.96779,-25.429 120.3871,-18.6487 135.63292,-0.4279 37.54173,-26.6796 91.79628,-23.6579 123.35323,-8.1491 -15.34092,-23.6431 65.50644,-19.5619 111.87002,-19.552 z"
       id="path3549-3-78-5"
       inkscape:connector-curvature="0"
       sodipodi:nodetypes="ccccccccccccccc" />
    <path
       style="fill:#ffffff;fill-opacity:1;stroke:none;stroke-width:1.00027633"
       d="m 2336.0954,607.49643 c -15.7622,3.86007 -21.8291,7.46431 -19.0069,9.6977 -6.4654,1.09817 -8.9561,30.03928 -2.9093,35.3413 0.4024,0.55806 3.2263,2.23433 2.0135,2.50979 -1.2121,0.27548 -8.4808,-0.5762 -9.6951,0.53413 -1.2144,1.11089 10.8665,17.00347 9.2494,17.5563 -1.6169,0.55338 -38.7533,-10.10974 -44.01,-7.61678 -5.2568,2.49298 -2.4441,8.9012 -4.0604,9.17575 -1.6161,0.27454 -16.5577,-1.42978 -18.5778,-1.15616 -2.0203,0.2736 -5.6749,8.61487 -7.695,8.88847 -2.0205,0.27362 -11.3015,-3.64446 -12.9178,-3.36991 -1.6164,0.27454 -0.8246,7.23467 -2.8448,7.50829 -2.0204,0.2736 -10.8924,-5.86981 -12.1049,-5.59434 -1.2123,0.27548 -5.6877,14.1817 -7.7092,15.01188 -2.0217,0.83018 -14.9095,-15.34253 -16.1208,-15.62363 -1.2111,-0.28165 -8.9301,18.90564 -10.5462,19.18018 -1.6167,0.27454 -9.6639,-13.1041 -10.8765,-12.82862 -1.2124,0.27548 -8.9048,8.05138 -10.5218,8.60421 -1.6169,0.55283 -12.0776,-17.28455 -13.6934,-17.28829 -1.6157,-0.004 -15.3664,7.47929 -16.5814,8.86791 -1.2151,1.38917 -2.4067,-7.24215 -4.0224,-7.24589 -1.6156,-0.004 -20.2077,4.96349 -20.6109,4.68427 -0.4034,-0.27923 2.8404,-5.56029 1.6286,-5.56309 -1.2116,-0.003 -20.212,6.9115 -21.0169,5.5182 5.5421,-20.42315 -40.9791,6.15199 -44.0409,5.74316 -2.8249,-1.12024 18.2294,-22.78124 16.2138,-24.45617 -2.0159,-1.6744 -9.2912,0.25676 -9.6932,-0.57903 -0.4017,-0.83579 4.4537,-4.44284 3.2445,-5.55878 -1.2092,-1.1165 -14.9321,-5.60143 -16.1406,-6.99566 -1.2086,-1.3948 6.0703,-4.99624 4.4565,-5.83483 -1.6138,-0.83915 -25.4329,-6.18233 -25.8336,-7.57524 -0.4006,-1.39237 12.1366,-8.04334 10.5253,-9.99509 -1.611,-1.95229 -6.0525,-2.79743 -5.6453,-4.18848 0.4073,-1.39049 8.0855,-3.04299 7.685,-4.43535 -0.4007,-1.39238 -4.4239,-8.36054 -5.633,-9.47648 -1.2093,-1.11595 8.4836,-0.53694 8.4862,-1.65008 0,-1.11369 -1.8682,-23.5183 -16.1952,-33.66701 25.0842,6.75864 35.6557,3.53587 48.9904,1.34045 13.3347,-2.19598 8.1157,-16.12464 10.1373,-16.95484 8.2027,5.17921 21.3459,27.89768 23.4339,1.91714 -0.4148,-1.85524 14.4434,11.16727 16.4636,10.89366 2.0203,-0.27361 18.6735,-14.7864 21.5016,-15.05814 2.828,-0.27174 13.7224,4.76377 16.1451,5.04767 2.423,0.2839 4.4586,-6.66969 6.4771,-6.10843 2.0184,0.56124 14.9321,5.60143 16.9529,5.04953 2.021,-0.55245 3.6418,-2.775 5.2563,-2.21468 1.6141,0.56031 8.8797,2.80399 8.8797,2.80399 0,0 5.255,-1.65812 7.6784,-1.65251 2.4235,0.006 18.963,9.22905 20.9813,9.79031 2.0183,0.56124 22.7757,-9.43403 21.5678,-11.10655 2.5564,7.31416 14.981,0.65375 17.61,1.02589 2.8253,0.84196 11.3136,-1.64353 12.1196,-0.80679 0.8057,0.83672 3.219,5.29601 5.6418,5.57991 2.423,0.2839 8.0752,1.41013 8.0752,1.41013 l -0.8115,1.6684 c 0,0 16.9748,6.87013 18.9986,5.20508 7.2692,-0.92566 6.9463,1.56665 25.6064,-6.34533 -14.9471,16.83134 -24.8687,35.87639 6.2527,28.12884 -25.8788,7.40389 -14.4184,13.68463 7.2423,12.26364 z"
       id="path5888-3-2"
       inkscape:connector-curvature="0"
       sodipodi:nodetypes="cccsccsscccccccsccscscsccsccccccsccscsccccsccscsccccccccccc" />
    <path
       style="fill:#ffffff;fill-opacity:1;stroke:none;stroke-width:1.1994741"
       d="m 2208.7806,419.70979 c -0.089,0.004 -0.1784,0.0164 -0.2667,0.0382 -2.827,0.6989 -13.3915,7.36927 -16.2184,6.67038 -2.8268,-0.69959 -15.7534,-6.90205 -18.0151,-6.20316 -2.2615,0.69889 -10.5544,10.30967 -10.5544,10.30967 0,0 -13.7107,-4.62684 -28.0253,-10.26738 -4.2223,5.50805 -8.0353,15.91782 -10.8624,16.61672 -2.8269,0.6989 -31.8495,-11.91188 -43.3274,-16.28032 -4.2295,5.76934 18.1654,25.21843 14.4845,25.67809 -3.9577,1.04904 -23.0055,-8.31958 -24.1361,-7.27123 -1.1308,1.04834 8.6502,16.8641 5.2578,17.21355 -3.3925,0.34945 -11.3073,1.7472 -11.3073,1.7472 l 1.1294,2.09665 c 0,0 -23.7465,-5.59285 -26.5735,-7.68953 -2.8268,-2.09737 1.6973,9.08836 3.3935,11.88463 -10.1773,-2.79627 -40.1426,-8.73893 -42.4039,-10.48686 -2.2615,-1.74724 3.9581,6.29173 7.3503,8.73784 -4.5229,-1.04833 -8.4823,-1.39776 -8.4823,-1.39776 l 13.0051,8.3884 -3.9567,0.69888 c 0,0 8.4799,3.84383 8.4799,5.59105 0,1.74794 -22.051,3.84567 -22.051,3.84567 25.0148,10.47102 9.2556,13.56142 -10.1753,15.37904 10.5557,2.34229 17.9651,4.60147 22.4253,6.63027 l -21.5412,3.46347 16.3718,3.04887 -11.9326,3.02121 11.9326,5.03595 -32.8137,8.05716 34.3067,5.03596 -25.358,9.06543 25.358,5.03596 -13.4256,7.04888 30.0562,1.35408 c 0,2.92907 -11.4842,11.73182 -15.8432,15.67313 17.1694,-0.0282 21.2548,16.65917 42.0041,16.65917 0.038,1.08505 27.3536,-8.65149 28.0081,-8.55031 1.1109,0.17165 6.7453,-0.24995 12.5041,-0.67886 l -7.6796,-3.87587 c 2.1592,2.9386 4.3809,6.14975 5.9272,6.3409 1.7669,0.21839 7.5079,-1.61093 12.1182,-2.92839 0,-2.3e-4 0,2.3e-4 0,0 l 6.6065,-0.8463 c 1.4176,1.78829 0.8121,8.70586 3.3232,9.0163 2.8271,0.34946 15.2659,-7.33826 16.9621,-6.98881 1.6961,0.34944 7.9145,17.82508 10.741,18.87344 2.8272,1.04833 20.9209,-19.22289 22.6173,-19.57233 1.6959,-0.35015 12.4362,23.76561 14.6977,24.11505 2.2617,0.34946 13.5704,-16.42736 15.2667,-16.0779 1.6962,0.34943 12.4392,10.1374 14.7005,10.83629 2.2617,0.6989 16.9617,-21.67079 19.2236,-21.67079 2.2615,0 21.4841,9.4367 23.1804,11.18394 1.6962,1.74793 3.3932,-9.08729 5.6549,-9.08729 2.2616,0 28.2669,6.29177 28.8323,5.94232 0.5656,-0.34945 -3.9576,-6.99065 -2.2613,-6.99065 1.6962,0 28.2705,8.73787 29.4013,6.99065 1.1305,-1.74793 48.5432,3.22979 61.6268,7.34007 -10.1462,-8.90947 -25.4435,-28.65888 -22.6169,-30.75625 2.8271,-2.09668 13.0061,0.34945 13.5716,-0.69889 0.5652,-1.04834 -6.2189,-5.59286 -4.5227,-6.99063 1.696,-1.39849 20.9179,-6.9906 22.6139,-8.73785 1.6961,-1.74791 -8.4795,-6.28992 -6.2181,-7.33825 2.2615,-1.04903 35.62,-7.69062 36.1854,-9.43853 0.5652,-1.74725 -34.9621,-6.13557 -32.7006,-8.58169 2.2615,-2.44683 8.482,-3.49369 7.9164,-5.24162 -0.5656,-1.74722 -11.3091,-3.84565 -10.7437,-5.59288 0.5652,-1.74723 0.2202,-6.48502 1.9162,-7.8828 1.6964,-1.3978 -11.873,-0.69887 -11.873,-2.09665 0,-1.39848 -31.0242,-9.07159 3.8428,-29.76548 -49.9136,4.41804 -32.6778,-0.99072 -51.3355,-3.7863 -18.658,-2.79627 -11.3077,-20.27301 -14.1346,-21.32135 -2.827,-1.04904 -23.747,5.94236 -26.5738,3.49623 -2.8269,-2.44682 -3.9593,-6.99064 -6.2211,-6.99064 -2.2612,0 -8.5565,3.51442 -11.3835,3.16497 -2.827,-0.34945 -18.1081,-13.45672 -22.0658,-13.80616 -3.9577,-0.34946 -13.2247,1.94231 -16.6171,2.29175 -3.2861,0.33853 -6.0393,-7.85097 -8.7787,-7.72773 z"
       id="path5888-3"
       inkscape:connector-curvature="0"
       sodipodi:nodetypes="ccccccccccscccccccccscccccccccccccccscccccccccccccscsssccccccccccccsccccsccccc" />
    <path
       style="color:#000000;display:inline;overflow:visible;visibility:visible;fill:#ffffff;fill-opacity:1;fill-rule:nonzero;stroke:none;stroke-width:0.99999994px;marker:none;enable-background:accumulate"
       d="m 1272.5449,3077.9523 c -78.231,15.2781 -158.5825,23.1124 -234.3525,47.042 l 48.6913,-38.9221 c -31.113,-0.2775 -62.6052,11.89 -93.96922,19.832 l 24.81112,-26.6421 c -73.62433,-0.043 -140.93978,19.5825 -211.30464,29.7017 l 48.37788,-44.8304 c 71.35729,-4.7997 140.74069,-1.8479 214.31916,-15.3676 l -20.5535,27.1733 c 25.7084,-2.3825 51.5171,-5.4463 77.7719,-11.5491 l -30.1046,33.1547 z"
       id="path4032-1"
       inkscape:connector-curvature="0"
       sodipodi:nodetypes="cccccccccccc" />
    <path
       style="display:inline;fill:#ffffff;fill-rule:evenodd;stroke:none;stroke-width:0.81874716px;stroke-linecap:butt;stroke-linejoin:miter;stroke-opacity:1"
       d="m 635.69135,2979.2366 c 34.61355,23.355 64.51311,41.0773 41.04068,-25.083 27.95304,49.4296 39.22732,27.5103 46.02378,-1.3936 21.86336,24.8442 36.96044,46.8027 47.802,28.9276 4.04091,22.9883 12.70674,13.7115 20.20652,12.5694 2.47006,5.2017 -15.38414,-11.802 18.89066,-29.0181 -4.26706,-33.0161 21.78937,3.8352 41.86586,-11.4276 5.20119,27.9419 2.30548,45.2359 31.77694,5.8228 -10.65128,38.7644 -6.23464,44.2395 7.37551,29.404 -6.22245,15.9636 -9.94411,28.3211 13.69729,1.2247 -8.09364,29.4655 20.50267,9.9952 48.46585,-20.2566 -26.61067,33.5457 -63.65924,71.1845 -33.71475,66.8129 -4.17596,9.2221 -19.07129,17.2571 25.28738,31.8543 -8.28117,6.2577 -33.56331,-2.8874 -12.47345,23.6089 2.82561,3.0977 -6.63387,4.9888 11.4198,13.1458 -10.65727,-0.555 -17.19315,1.4268 -7.37552,13.4765 -19.4535,-0.6517 -12.17485,12.0185 2.10731,28.1785 -36.48207,-31.6245 -48.17391,-37.3865 -30.55572,-4.9004 -35.30701,-28.2604 -47.73508,-24.6432 -43.23573,-1.4092 -15.02942,-24.6694 -32.23896,-28.9832 -46.17838,-0.4832 -14.86248,-29.4078 -24.98843,-26.3948 -55.98874,-4.2335 16.72254,-24.9384 -7.06742,-9.0501 -25.28747,1.2247 9.97765,-31.1535 -15.34421,-10.707 -47.41401,19.6024 17.95894,-34.4018 -2.4382,-21.9748 -32.66301,2.4502 11.41988,-33.7969 -7.17843,-50.1411 -51.62856,-51.4559 21.27515,-12.1912 33.68172,-27.5334 11.59014,-55.1323 24.90347,8.1266 32.33181,0.5779 14.751,-29.4033 27.16307,24.6085 14.81303,-11.0852 4.21462,-44.106 z"
       id="path4508-9"
       inkscape:connector-curvature="0"
       sodipodi:nodetypes="cccccccccccccccccccccccccccc" />
    <path
       style="color:#000000;display:inline;overflow:visible;visibility:visible;fill:#ffffff;fill-opacity:1;fill-rule:nonzero;stroke:none;stroke-width:1px;marker:none;enable-background:accumulate"
       d="m 2279.1877,625.34512 c -0.091,3.76817 51.831,-6.4041 51.831,-6.4041 0,0 1.5665,29.95657 4.6782,32.0986 11.0733,-0.0391 21.0624,-5.37296 21.0624,-5.37296 l 18.0133,48.73793 -20.0054,-31.72225 c -9.8867,-0.91886 -20.0127,-0.88091 -32.7339,9.5382 l -4.3594,-32.26765 -34.1656,7.80769 z"
       id="path4448"
       inkscape:connector-curvature="0"
       sodipodi:nodetypes="cccccccccc" />
  </g>
  <g
     inkscape:groupmode="layer"
     id="layer1"
     inkscape:label="txt">
    <text
       xml:space="preserve"
       style="font-style:normal;font-variant:normal;font-weight:normal;font-stretch:normal;font-size:15.89058971px;line-height:0%;font-family:Lavi;-inkscape-font-specification:Lavi;text-align:center;letter-spacing:0px;word-spacing:0px;text-anchor:middle;fill:#000000;fill-opacity:1;stroke:none;stroke-width:1.17751098"
       x="2192.574"
       y="482.24832"
       id="text4246-1-3-2-8"
       transform="scale(0.99789912,1.0021053)"><tspan
         sodipodi:role="line"
         style="font-style:normal;font-variant:normal;font-weight:bold;font-stretch:normal;font-size:46.66666794px;line-height:1.25;font-family:Lavi;-inkscape-font-specification:'Lavi Bold';stroke-width:1.17751098"
         x="2192.574"
         y="482.24832"
         id="tspan70">HALT</tspan><tspan
         sodipodi:role="line"
         style="font-style:normal;font-variant:normal;font-weight:bold;font-stretch:normal;font-size:46.66666794px;line-height:1.25;font-family:Lavi;-inkscape-font-specification:'Lavi Bold';stroke-width:1.17751098"
         x="2192.574"
         y="540.58167"
         id="tspan829">habe ich gesagt!</tspan></text>
    <text
       xml:space="preserve"
       style="font-style:normal;font-variant:normal;font-weight:normal;font-stretch:normal;font-size:15.89058971px;line-height:0%;font-family:Lavi;-inkscape-font-specification:Lavi;text-align:center;letter-spacing:0px;word-spacing:0px;text-anchor:middle;fill:#000000;fill-opacity:1;stroke:none;stroke-width:1.17751098"
       x="2174.5256"
       y="637.91968"
       id="text4246-1-3-2-8-3"
       transform="scale(0.99789912,1.0021053)"><tspan
         sodipodi:role="line"
         style="font-style:normal;font-variant:normal;font-weight:bold;font-stretch:normal;font-size:46.66666794px;line-height:1.25;font-family:Lavi;-inkscape-font-specification:'Lavi Bold';stroke-width:1.17751098"
         x="2174.5256"
         y="637.91968"
         id="tspan829-7">Das reicht!</tspan></text>
    <text
       xml:space="preserve"
       style="font-style:normal;font-variant:normal;font-weight:normal;font-stretch:normal;line-height:0%;font-family:Lavi;-inkscape-font-specification:Lavi;letter-spacing:0px;word-spacing:0px;fill:#000000;fill-opacity:1;stroke:#ffffff;stroke-width:2.66678286;stroke-miterlimit:4;stroke-dasharray:none;stroke-opacity:1;filter:url(#filter4375-4-1-1-1-9-0)"
       x="787.65729"
       y="1584.5073"
       id="text4580-25"
       transform="matrix(0.55718765,-0.37423929,0.21813977,1.0749149,-120.92735,-234.76499)"><tspan
         sodipodi:role="line"
         id="tspan4582-4"
         x="787.65729"
         y="1584.5073"
         style="font-size:70px;line-height:100%;letter-spacing:4.88345098px;fill:#ffffff;stroke:#ffffff;stroke-width:2.66678286;stroke-miterlimit:4;stroke-dasharray:none;stroke-opacity:1"><tspan
           style="font-size:55.34964371px;line-height:100%;letter-spacing:4.88345098px;stroke:#ffffff;stroke-width:2.66678286;stroke-miterlimit:4;stroke-dasharray:none;stroke-opacity:1"
           id="tspan4439-4">Schnapp</tspan><tspan
           style="font-size:80.40014648px;line-height:100%;letter-spacing:4.88345098px;stroke:#ffffff;stroke-width:2.66678286;stroke-miterlimit:4;stroke-dasharray:none;stroke-opacity:1"
           id="tspan4617-9">!</tspan></tspan></text>
    <text
       xml:space="preserve"
       style="font-style:normal;font-variant:normal;font-weight:normal;font-stretch:normal;line-height:0%;font-family:Lavi;-inkscape-font-specification:Lavi;letter-spacing:0px;word-spacing:0px;display:inline;fill:#ffffff;fill-opacity:1;stroke:#000000;stroke-width:0.48148537;stroke-miterlimit:4;stroke-dasharray:none;stroke-opacity:1;filter:url(#filter4375-4-1-1-1-9-5-8-3-8)"
       x="787.65729"
       y="1584.5073"
       id="text4580-6-0-8-8"
       transform="matrix(1.5492299,-0.0813593,-0.87667877,1.9075458,1570.733,-1836.1775)"><tspan
         sodipodi:role="line"
         id="tspan4582-1-1-8-2"
         x="787.65729"
         y="1584.5073"
         style="font-style:normal;font-variant:normal;font-weight:bold;font-stretch:normal;font-size:70px;line-height:1.25;font-family:'Noto Sans';-inkscape-font-specification:'Noto Sans Bold';letter-spacing:5.87610865px;fill:#ffffff;fill-opacity:1;stroke:#000000;stroke-width:0.48148537;stroke-opacity:1"><tspan
           style="font-style:normal;font-variant:normal;font-weight:bold;font-stretch:normal;font-size:93.14950562px;font-family:'Noto Sans';-inkscape-font-specification:'Noto Sans Bold';letter-spacing:5.87610865px;fill:#ffffff;fill-opacity:1;stroke:#000000;stroke-width:0.48148537;stroke-opacity:1"
           id="tspan4315-8-97-3">PU<tspan
   style="font-style:normal;font-variant:normal;font-weight:bold;font-stretch:normal;font-size:81.11493683px;font-family:'Noto Sans';-inkscape-font-specification:'Noto Sans Bold';stroke-width:0.48148537"
   id="tspan912">FFF</tspan></tspan><tspan
           style="font-style:normal;font-variant:normal;font-weight:bold;font-stretch:normal;font-size:114.73223114px;font-family:'Noto Sans';-inkscape-font-specification:'Noto Sans Bold';letter-spacing:5.87610865px;fill:#ffffff;fill-opacity:1;stroke:#000000;stroke-width:0.48148537;stroke-opacity:1"
           id="tspan4313-2-76-0">!</tspan></tspan></text>
    <text
       xml:space="preserve"
       style="font-style:normal;font-variant:normal;font-weight:normal;font-stretch:normal;line-height:0%;font-family:Lavi;-inkscape-font-specification:Lavi;letter-spacing:0px;word-spacing:0px;fill:#000000;fill-opacity:1;stroke:#ffffff;stroke-width:4.21925974;stroke-miterlimit:4;stroke-dasharray:none;stroke-opacity:1;filter:url(#filter4375-4-1-1-1-9-0-5)"
       x="787.65729"
       y="1584.5073"
       id="text4580-25-2"
       transform="matrix(0.37191843,0.11061463,-0.38324889,0.61702867,2371.8774,1301.4149)"><tspan
         sodipodi:role="line"
         id="tspan4582-4-7"
         x="787.65729"
         y="1584.5073"
         style="font-style:normal;font-variant:normal;font-weight:bold;font-stretch:normal;font-size:80.40014648px;line-height:100%;font-family:'Noto Sans';-inkscape-font-specification:'Noto Sans Bold';letter-spacing:4.88345098px;fill:#ffffff;stroke:#ffffff;stroke-width:4.21925974;stroke-miterlimit:4;stroke-dasharray:none;stroke-opacity:1">TSCHK!</tspan></text>
    <text
       xml:space="preserve"
       style="font-style:normal;font-variant:normal;font-weight:normal;font-stretch:normal;font-size:15.89058971px;line-height:0%;font-family:Lavi;-inkscape-font-specification:Lavi;text-align:center;letter-spacing:0px;word-spacing:0px;text-anchor:middle;fill:#000000;fill-opacity:1;stroke:none;stroke-width:1.17751098"
       x="685.59564"
       y="2895.5073"
       id="text4246-1-3-2-8-3-3"
       transform="scale(0.99789912,1.0021053)"><tspan
         sodipodi:role="line"
         style="font-style:normal;font-variant:normal;font-weight:bold;font-stretch:normal;font-size:46.66666794px;line-height:1.25;font-family:Lavi;-inkscape-font-specification:'Lavi Bold';stroke-width:1.17751098"
         x="685.59564"
         y="2895.5073"
         id="tspan829-7-6">Alle beide!</tspan></text>
    <text
       xml:space="preserve"
       style="font-style:normal;font-variant:normal;font-weight:normal;font-stretch:normal;font-size:15.89058971px;line-height:0%;font-family:Lavi;-inkscape-font-specification:Lavi;text-align:center;letter-spacing:0px;word-spacing:0px;text-anchor:middle;fill:#000000;fill-opacity:1;stroke:none;stroke-width:1.17751098"
       x="706.24554"
       y="2985.6943"
       id="text4246-1-3-2-8-3-3-7"
       transform="scale(0.99789912,1.0021053)"><tspan
         sodipodi:role="line"
         style="font-style:normal;font-variant:normal;font-weight:bold;font-stretch:normal;font-size:46.66666794px;line-height:1.25;font-family:Lavi;-inkscape-font-specification:'Lavi Bold';stroke-width:1.17751098"
         x="706.24554"
         y="2985.6943"
         id="tspan829-7-6-5">HERKOMMEN!</tspan></text>
    <text
       xml:space="preserve"
       style="font-style:normal;font-variant:normal;font-weight:normal;font-stretch:normal;font-size:15.89058971px;line-height:0%;font-family:Lavi;-inkscape-font-specification:Lavi;text-align:center;letter-spacing:0px;word-spacing:0px;text-anchor:middle;fill:#000000;fill-opacity:1;stroke:none;stroke-width:1.17751098"
       x="785.20068"
       y="3070.9504"
       id="text4246-1-3-2-8-36-2"
       transform="scale(0.99789912,1.0021053)"><tspan
         sodipodi:role="line"
         style="font-style:normal;font-variant:normal;font-weight:bold;font-stretch:normal;font-size:46.66666794px;line-height:1.25;font-family:Lavi;-inkscape-font-specification:'Lavi Bold';stroke-width:1.17751098"
         x="785.20068"
         y="3070.9504"
         id="tspan1020-8">Sofort!</tspan></text>
  </g>
</svg>
