<?xml version="1.0" encoding="UTF-8" standalone="no"?>
<!-- Created with Inkscape (http://www.inkscape.org/) -->

<svg
   xmlns:dc="http://purl.org/dc/elements/1.1/"
   xmlns:cc="http://creativecommons.org/ns#"
   xmlns:rdf="http://www.w3.org/1999/02/22-rdf-syntax-ns#"
   xmlns:svg="http://www.w3.org/2000/svg"
   xmlns="http://www.w3.org/2000/svg"
   xmlns:xlink="http://www.w3.org/1999/xlink"
   xmlns:sodipodi="http://sodipodi.sourceforge.net/DTD/sodipodi-0.dtd"
   xmlns:inkscape="http://www.inkscape.org/namespaces/inkscape"
   id="svg2"
   version="1.1"
   inkscape:version="0.92.4 (5da689c313, 2019-01-14)"
   width="2481"
   height="3503"
   sodipodi:docname="E04P01.svg">
  <sodipodi:namedview
     pagecolor="#ffffff"
     bordercolor="#666666"
     inkscape:pageopacity="0"
     inkscape:pageshadow="2"
     inkscape:window-width="1813"
     inkscape:window-height="955"
     id="namedview70"
     showgrid="false"
     inkscape:zoom="0.4"
     inkscape:cx="1052.0576"
     inkscape:cy="1493.8257"
     inkscape:current-layer="layer1"
     inkscape:window-x="0"
     inkscape:window-y="0"
     inkscape:window-maximized="0" />
  <metadata
     id="metadata8">
    <rdf:RDF>
      <cc:Work
         rdf:about="">
        <dc:format>image/svg+xml</dc:format>
        <dc:type
           rdf:resource="http://purl.org/dc/dcmitype/StillImage" />
        <dc:title />
      </cc:Work>
    </rdf:RDF>
  </metadata>
  <defs
     id="defs6" />
  <sodipodi:namedview
     pagecolor="#ffffff"
     bordercolor="#666666"
     borderopacity="1"
     objecttolerance="10"
     gridtolerance="10"
     guidetolerance="10"
     inkscape:pageopacity="0"
     inkscape:pageshadow="2"
     inkscape:window-width="1920"
     inkscape:window-height="1025"
     id="namedview4"
     showgrid="false"
     inkscape:zoom="0.47669614"
     inkscape:cx="1286.2985"
     inkscape:cy="939.97438"
     inkscape:window-x="0"
     inkscape:window-y="26"
     inkscape:window-maximized="1"
     inkscape:current-layer="layer1" />
  <g
     inkscape:groupmode="layer"
     id="layer2"
     inkscape:label="artwork"
     sodipodi:insensitive="true">
    <image
       sodipodi:absref="C:\Users\stero\Documents\Kernewek\Pepper and Carrot\webcomics\ep04_Stroke-of-genius\lang\kw\../gfx_Pepper-and-Carrot_by-David-Revoy_E04P01.png"
       xlink:href="../gfx_Pepper-and-Carrot_by-David-Revoy_E04P01.png"
       y="0"
       x="0"
       id="image10"
       height="3503"
       width="2481" />
  </g>
  <g
     inkscape:groupmode="layer"
     id="layer3"
     inkscape:label="speechbubbles">
    <path
       style="fill:#ffffff;stroke:none;stroke-width:1.05045962px;stroke-linecap:butt;stroke-linejoin:miter;stroke-opacity:1"
       d="m 453.3327,2399.6429 c -5.47311,-44.6393 -10.94621,-135.7215 0,-155.5612 6.96576,0 18.40953,-0.4509 18.40953,-0.4509 l -10.94621,-24.3487 19.90219,5.8618 9.9511,-8.1163 -6.46821,-13.527 17.91197,6.3126 8.95599,-13.0762 14.92664,9.469 7.46332,-13.5271 16.41931,10.8217 30.35084,-5.8618 c 74.4777,-2.3892 148.1226,-6.0363 226.38745,-2.7054 l 23.88263,-8.5671 6.96576,12.6252 12.43887,0.4509 11.94132,-5.4108 11.94132,5.8617 39.80438,-4.0581 12.93642,11.7235 15.42421,-9.9199 4.97554,13.0762 15.42421,-8.1162 2.48777,8.5671 36.81905,-9.9199 -5.4731,20.2906 c 0,0 27.3655,9.0181 46.7701,2.2545 1.9903,4.5091 -0.995,12.6253 -0.995,12.6253 l 9.951,4.509 v 11.7235 c 0,0 19.9022,15.3306 21.8924,19.3888 1.9903,4.0581 6.4682,114.98 -0.4975,132.5651 5.4731,0 8.9561,2.7054 8.4585,5.4109 -0.4976,2.7054 -4.4781,10.3707 -4.4781,10.3707 0,0 5.4731,7.2144 3.9805,9.4689 -1.4928,2.2546 -4.4781,5.4109 -4.4781,5.4109 0,0 4.9757,5.8617 3.4829,7.6653 -1.4926,1.8036 -9.951,4.9599 -13.4339,6.7635 3.9805,3.6072 7.4632,11.2726 4.4779,13.0762 -2.9853,1.8036 -9.951,3.1563 -9.951,3.1563 l -2.4877,4.509 c 0,0 -0.9952,9.0181 -3.4829,9.469 -2.4879,0.4509 -12.9366,-4.5091 -14.4292,-3.6073 -1.4926,0.9018 -5.473,8.1163 -7.9608,8.1163 -2.4877,0 -10.4487,-8.5672 -10.4487,-8.5672 -1.0633,1.9272 -132.46077,5.1615 -143.29578,3.1564 -10.90072,-2.0173 -53.73592,2.7054 -59.70659,2.7054 -5.97065,0 -30.84839,-1.3527 -34.33126,-2.2545 -3.4829,-0.9018 -17.41443,-4.0582 -22.38998,-3.6073 -4.97554,0.4509 -14.42909,4.96 -19.90219,4.96 -5.4731,0 -36.81905,-2.7054 -42.78972,-2.2545 -5.97065,0.4509 -33.33617,2.2545 -37.81416,2.2545 -4.47799,0 -54.73103,-4.96 -60.20413,-5.4109 -5.4731,-0.4509 -29.35574,4.5091 -33.83372,4.0582 -4.478,-0.4509 -29.85329,-4.5091 -37.81417,-4.0582 -7.96088,0.4509 -37.81417,-5.8617 -39.80439,-5.4108 -1.99022,0.4509 -4.99568,0.9008 -23.38507,0 9.45354,-6.7635 6.4682,-12.6252 6.4682,-12.6252 l -6.96575,-3.6073 0.9951,-4.0581 -14.42909,-6.7635 1.99022,-4.9599 0.9951,-8.1163 -14.42908,-6.3126 22.88752,-18.0361 z"
       id="path3894"
       inkscape:connector-curvature="0"
       sodipodi:nodetypes="cccccccccccccccccccccccccccccccscscccccsccssscssssssssssscccccccccc" />
    <path
       style="fill:#ffffff;stroke:none;stroke-width:1px;stroke-linecap:butt;stroke-linejoin:miter;stroke-opacity:1;color:#000000;fill-opacity:1;fill-rule:nonzero;marker:none;visibility:visible;display:inline;overflow:visible;enable-background:accumulate"
       d="m 818.04625,2447.3394 c 1.81385,78.9025 3.6277,268.4498 28.11468,311.9822 24.48697,43.5324 33.55622,70.7401 98.85481,79.8094 -68.92629,-32.6493 -89.78557,-105.2033 -96.13404,-230.3589 -6.34847,-125.1557 43.5324,-212.2205 43.5324,-212.2205 l -68.01937,-3.6277 z"
       id="path3896"
       inkscape:connector-curvature="0" />
    <path
       style="color:#000000;display:inline;overflow:visible;visibility:visible;fill:#ffffff;fill-opacity:1;fill-rule:nonzero;stroke:none;stroke-width:1.11446953px;marker:none;enable-background:accumulate"
       d="m 673.77003,2528.15 c 13.44095,-4.0581 13.44095,-12.1744 7.84055,-22.5451 3.92029,-0.4509 17.36122,2.2545 15.12107,-4.9599 3.36023,-0.9018 7.84054,-0.9018 5.04035,-6.7636 3.92028,-0.4509 15.12105,1.8036 12.32087,-4.0581 7.28051,-1.3527 75.60528,-3.1563 100.24701,-0.9018 24.64171,2.2545 90.72635,0.4509 97.44682,0 6.72047,-0.4509 58.24408,0 62.7244,0 4.4803,0 22.40154,4.9599 28.0019,7.6653 8.4006,-3.6072 19.0414,-2.2545 19.0414,-2.2545 0,0 0,15.3307 1.6801,16.6834 1.6802,1.3527 10.0807,-2.2545 11.7609,0 1.68,2.2545 -11.7609,15.7816 -10.0807,16.2325 1.68,0.4509 15.121,5.4108 15.121,7.2144 0,1.8036 -10.6407,10.3707 -10.0807,10.8216 0.56,0.4509 8.9606,6.3127 7.8406,11.2726 10.0807,1.8036 15.121,6.3126 17.9212,9.4689 -4.4802,5.8618 -15.121,11.2726 -17.3613,14.4289 2.8002,5.4108 10.0809,12.6253 8.4005,14.8798 -1.68,2.2545 -9.5205,1.8036 -15.1209,-0.9018 2.2401,6.7635 1.6801,60.8717 -8.4006,80.7114 2.8002,4.509 7.8405,7.6653 8.9606,12.1744 1.1201,4.509 -2.2401,11.7234 -1.6801,13.9779 0.56,2.2545 5.0404,9.9199 4.4804,13.5271 -0.5601,3.6072 -2.8003,7.2144 -6.1605,9.4689 -0.5601,3.6072 2.2401,6.3127 -0.5601,7.2145 -2.8002,0.9018 -14.0009,-4.0582 -16.8011,-3.1564 -2.8002,0.9018 -0.5601,13.0762 -3.3603,15.3307 -2.8002,2.2545 -63.28439,8.1162 -76.72533,3.1563 -14.00097,-0.9018 -117.60824,18.487 -160.73125,10.8217 -5.04035,-0.9018 -3.92028,-4.0581 -7.84055,-4.96 -3.92028,-0.9018 -6.16043,2.2546 -14.56103,1.3528 -7.2805,-4.5091 -16.80116,-4.96 -31.92223,-26.6033 -5.04034,0 -13.44092,2.2545 -14.56101,-1.3527 -1.12008,-3.6072 0.56004,-6.3126 0.56004,-6.3126 0,0 -5.60039,1.3527 -6.16044,-1.3527 -0.56004,-2.7054 7.28052,-9.9198 6.72049,-11.2725 -0.56005,-1.3528 -16.24115,2.7054 -16.80119,-0.451 -0.56003,-3.1563 6.16043,-10.8216 5.60041,-13.0761 -0.56006,-2.2545 -28.00197,-36.974 -19.04134,-142.485 4.48031,-1.3527 8.96061,-2.7054 8.40057,-4.509 -0.56003,-1.8037 -7.28051,-5.4109 -7.28051,-5.4109 z"
       id="path3915"
       inkscape:connector-curvature="0" />
    <path
       style="color:#000000;fill:#ffffff;fill-opacity:1;fill-rule:nonzero;stroke:none;stroke-width:1px;marker:none;visibility:visible;display:inline;overflow:visible;enable-background:accumulate"
       d="m 2161.9635,2759.6873 c 75.5442,-65.8317 129.3057,-115.4309 140.8923,-189.8298 11.5865,-74.3988 -1.8538,-91.5331 -5.5615,-100.5511 -12.977,1.8036 -33.8327,13.978 -38.0039,19.3888 1.8539,-19.8397 -11.5865,-82.5151 -31.9788,-107.3147 -20.3923,-24.7996 -39.3943,-7.6653 -39.3943,-7.6653 0,0 61.177,94.6894 55.1519,157.8157 12.0501,-12.6253 34.7597,-36.974 40.3212,-32.465 5.5615,4.5091 8.3423,64.9299 -3.7077,92.4349 -12.05,27.5051 -38.9308,101.9039 -117.7192,168.1865 z"
       id="path3923"
       inkscape:connector-curvature="0" />
    <path
       style="fill:#ffffff;stroke:none;stroke-width:1px;stroke-linecap:butt;stroke-linejoin:miter;stroke-opacity:1;color:#000000;fill-opacity:1;fill-rule:nonzero;marker:none;visibility:visible;display:inline;overflow:visible;enable-background:accumulate"
       d="m 1846.2,2353.2992 c 0,0 37.5681,7.7521 43.5312,11.9264 5.9632,4.1742 29.8159,-2.9816 -3.5779,44.7238 33.9901,-15.5043 60.8244,-32.2012 73.3471,-30.4122 -5.3668,11.9263 -11.33,27.4306 -11.33,27.4306 0,0 31.0085,-12.5227 36.9717,-11.9263 -1.789,5.3668 2.3853,16.1005 2.3853,16.1005 l 16.1005,-2.3852 4.7706,14.3116 c 0,0 64.4023,-25.0454 72.1544,-22.0638 7.7522,2.9816 -3.5779,34.5865 -3.5779,34.5865 l 17.2933,-12.5227 8.3484,0.5963 20.2748,-20.2748 6.5595,11.33 4.7705,-4.1742 9.5411,4.7706 22.6601,-17.2933 7.7521,1.789 19.6785,27.4306 10.7338,-12.5227 5.3668,-0.5963 35.1828,1.1927 2.3852,-2.9816 5.9632,-1.1927 8.3485,-5.9631 4.7705,-13.7154 10.1374,0 20.2748,12.5227 9.5411,8.3485 7.1558,-20.2748 4.1742,-2.3853 1.1927,-12.5227 23.2564,9.5411 7.1558,5.9632 1.7889,-10.7337 7.7522,-0.5964 14.3116,4.1743 15.5043,11.33 23.2564,12.5227 -35.1828,-45.9165 -8.3484,-8.3484 30.4122,-8.3485 0,-95.4108 -11.9264,-131.19 -519.3928,6.5595 -13.119,86.4661 0.5963,76.925 -2.9816,25.6417 26.238,8.9448 -25.6417,13.7153 16.1006,9.541 z"
       id="path3931"
       inkscape:connector-curvature="0" />
  </g>
  <g
     inkscape:groupmode="layer"
     id="layer1"
     inkscape:label="txt">
    <flowRoot
       xml:space="preserve"
       id="flowRoot2987"
       style="font-style:normal;font-variant:normal;font-weight:normal;font-stretch:normal;line-height:0.01%;font-family:Lavi;-inkscape-font-specification:Lavi;letter-spacing:0px;word-spacing:0px;fill:#000000;fill-opacity:1;stroke:none"
       transform="translate(45.51774,-122.5013)"><flowRegion
         id="flowRegion2989"><rect
           id="rect2991"
           width="973.52362"
           height="213.03587"
           x="120.55251"
           y="265.53046"
           style="font-style:normal;font-variant:normal;font-weight:normal;font-stretch:normal;font-family:Lavi;-inkscape-font-specification:Lavi" /></flowRegion><flowPara
         id="flowPara2995"
         style="font-size:48px;line-height:1.25">Nosweyth kyns an Kesstrif Ismek</flowPara><flowPara
         style="font-size:48px;line-height:1.25"
         id="flowPara848">        2:00 KH</flowPara></flowRoot>    <flowRoot
       xml:space="preserve"
       id="flowRoot2987-4"
       style="font-style:normal;font-variant:normal;font-weight:normal;font-stretch:normal;line-height:0.01%;font-family:Lavi;-inkscape-font-specification:Lavi;text-align:center;letter-spacing:0px;word-spacing:0px;text-anchor:middle;fill:#000000;fill-opacity:1;stroke:none"
       transform="translate(338.27808,1953.1261)"><flowRegion
         id="flowRegion2989-5"><rect
           id="rect2991-7"
           width="602.40173"
           height="310.73996"
           x="120.55251"
           y="265.53046"
           style="font-style:normal;font-variant:normal;font-weight:normal;font-stretch:normal;font-family:Lavi;-inkscape-font-specification:Lavi;text-align:center;text-anchor:middle" /></flowRegion><flowPara
         style="font-size:48px;line-height:1.25;text-align:center;text-anchor:middle"
         id="flowPara3033">Wortiwedh...</flowPara><flowPara
         style="font-size:48px;line-height:1.25;text-align:center;text-anchor:middle"
         id="flowPara3798">Nyns yw den vyth ow far gans an ismegen ma, Saffron y'aga mysk!</flowPara></flowRoot>    <flowRoot
       xml:space="preserve"
       id="flowRoot2987-4-8"
       style="font-style:normal;font-variant:normal;font-weight:normal;font-stretch:normal;line-height:0.01%;font-family:Lavi;-inkscape-font-specification:Lavi;text-align:center;letter-spacing:0px;word-spacing:0px;text-anchor:middle;fill:#000000;fill-opacity:1;stroke:none"
       transform="matrix(0.96141471,0,0,0.91963896,451.39215,2279.8116)"><flowRegion
         id="flowRegion2989-5-9"><rect
           id="rect2991-7-4"
           width="602.40173"
           height="310.73996"
           x="120.55251"
           y="265.53046"
           style="font-style:normal;font-variant:normal;font-weight:normal;font-stretch:normal;font-family:Lavi;-inkscape-font-specification:Lavi;text-align:center;text-anchor:middle" /></flowRegion><flowPara
         style="font-size:48px;line-height:1.25;text-align:center;text-anchor:middle"
         id="flowPara3845">Res yw dhymm</flowPara><flowPara
         style="font-size:48px;line-height:1.25;text-align:center;text-anchor:middle"
         id="flowPara854">hy assaya</flowPara><flowPara
         style="font-size:48px;line-height:1.25;text-align:center;text-anchor:middle"
         id="flowPara3847">war nebonan</flowPara><flowPara
         style="font-size:48px;line-height:1.25;text-align:center;text-anchor:middle"
         id="flowPara3849">...</flowPara></flowRoot>    <flowRoot
       xml:space="preserve"
       id="flowRoot2987-4-8-2"
       style="font-style:normal;font-variant:normal;font-weight:normal;font-stretch:normal;line-height:0.01%;font-family:Lavi;-inkscape-font-specification:Lavi;text-align:center;letter-spacing:0px;word-spacing:0px;text-anchor:middle;fill:#000000;fill-opacity:1;stroke:none"
       transform="matrix(1.4179226,0,0,1.4152108,1520.399,1749.9369)"><flowRegion
         id="flowRegion2989-5-9-2"><rect
           id="rect2991-7-4-2"
           width="602.40173"
           height="310.73996"
           x="120.55251"
           y="265.53046"
           style="font-style:normal;font-variant:normal;font-weight:normal;font-stretch:normal;font-family:Lavi;-inkscape-font-specification:Lavi;text-align:center;text-anchor:middle" /></flowRegion><flowPara
         style="font-size:48px;line-height:1.25;text-align:center;text-anchor:middle"
         id="flowPara3798-1-6"> </flowPara><flowPara
         style="font-size:48px;line-height:1.25;text-align:center;text-anchor:middle"
         id="flowPara3849-2">CAAAAAAAA~</flowPara><flowPara
         style="font-size:48px;line-height:1.25;text-align:center;text-anchor:middle"
         id="flowPara3892">~AAARROT !!!</flowPara></flowRoot>  </g>
</svg>
