<?xml version="1.0" encoding="UTF-8" standalone="no"?>
<!-- Created with Inkscape (http://www.inkscape.org/) -->

<svg
   xmlns:dc="http://purl.org/dc/elements/1.1/"
   xmlns:cc="http://creativecommons.org/ns#"
   xmlns:rdf="http://www.w3.org/1999/02/22-rdf-syntax-ns#"
   xmlns:svg="http://www.w3.org/2000/svg"
   xmlns="http://www.w3.org/2000/svg"
   xmlns:xlink="http://www.w3.org/1999/xlink"
   xmlns:sodipodi="http://sodipodi.sourceforge.net/DTD/sodipodi-0.dtd"
   xmlns:inkscape="http://www.inkscape.org/namespaces/inkscape"
   id="svg2"
   version="1.1"
   inkscape:version="0.92.4 (5da689c313, 2019-01-14)"
   width="2481"
   height="3503"
   sodipodi:docname="E19P02.svg">
  <sodipodi:namedview
     pagecolor="#ffffff"
     bordercolor="#666666"
     inkscape:pageopacity="0"
     inkscape:pageshadow="2"
     inkscape:window-width="1813"
     inkscape:window-height="955"
     id="namedview70"
     showgrid="false"
     inkscape:zoom="0.80000001"
     inkscape:cx="1937.5104"
     inkscape:cy="531.24131"
     inkscape:current-layer="layer1"
     inkscape:window-x="0"
     inkscape:window-y="74"
     inkscape:window-maximized="0" />
  <metadata
     id="metadata8">
    <rdf:RDF>
      <cc:Work
         rdf:about="">
        <dc:format>image/svg+xml</dc:format>
        <dc:type
           rdf:resource="http://purl.org/dc/dcmitype/StillImage" />
        <dc:title />
      </cc:Work>
    </rdf:RDF>
  </metadata>
  <defs
     id="defs6">
    <filter
       inkscape:collect="always"
       style="color-interpolation-filters:sRGB"
       id="filter5236-4-16-3"
       x="-0.0089085409"
       width="1.0178171"
       y="-0.027928527"
       height="1.0558571">
      <feGaussianBlur
         inkscape:collect="always"
         stdDeviation="0.49168068"
         id="feGaussianBlur5238-0-4-6" />
    </filter>
    <filter
       inkscape:collect="always"
       style="color-interpolation-filters:sRGB"
       id="filter5236-4-16"
       x="-0.0089085409"
       width="1.0178171"
       y="-0.027928527"
       height="1.0558571">
      <feGaussianBlur
         inkscape:collect="always"
         stdDeviation="0.49168068"
         id="feGaussianBlur5238-0-4" />
    </filter>
  </defs>
  <sodipodi:namedview
     pagecolor="#ffffff"
     bordercolor="#666666"
     borderopacity="1"
     objecttolerance="10"
     gridtolerance="10"
     guidetolerance="10"
     inkscape:pageopacity="0"
     inkscape:pageshadow="2"
     inkscape:window-width="1920"
     inkscape:window-height="1025"
     id="namedview4"
     showgrid="false"
     inkscape:zoom="0.4224276"
     inkscape:cx="1121.6917"
     inkscape:cy="997.33668"
     inkscape:window-x="0"
     inkscape:window-y="26"
     inkscape:window-maximized="1"
     inkscape:current-layer="layer1" />
  <g
     inkscape:groupmode="layer"
     id="layer2"
     inkscape:label="artwork"
     sodipodi:insensitive="true">
    <image
       sodipodi:absref="/felles/omsetting/pepper-carrot/webcomics/ep19_Pollution/lang/nn/../gfx_Pepper-and-Carrot_by-David-Revoy_E19P02.png"
       xlink:href="../gfx_Pepper-and-Carrot_by-David-Revoy_E19P02.png"
       y="0"
       x="0"
       id="image10"
       height="3503"
       width="2481" />
  </g>
  <g
     inkscape:groupmode="layer"
     id="layer4"
     inkscape:label="translatornotes"
     sodipodi:insensitive="true">
    <path
       inkscape:connector-curvature="0"
       id="path3446"
       d="m 2763.8482,1498.4924 0,-189.0352 -203.8301,0 0,90.9805 -10,0 0,-15.6308 -30.9824,26.9824 30.9824,26.9804 0,-16.6171 10,0 0,76.3398 203.8301,0 z"
       style="color:#000000;clip-rule:nonzero;display:inline;overflow:visible;visibility:visible;opacity:0.481;isolation:auto;mix-blend-mode:normal;color-interpolation:sRGB;color-interpolation-filters:linearRGB;solid-color:#000000;solid-opacity:1;fill:#ffe680;fill-opacity:1;fill-rule:nonzero;stroke:#565656;stroke-width:1.20000005;stroke-linecap:butt;stroke-linejoin:miter;stroke-miterlimit:4;stroke-dasharray:none;stroke-dashoffset:0;stroke-opacity:1;marker:none;color-rendering:auto;image-rendering:auto;shape-rendering:auto;text-rendering:auto;enable-background:accumulate" />
    <flowRoot
       transform="translate(2793.4167,295.2096)"
       style="font-style:normal;font-variant:normal;font-weight:normal;font-stretch:normal;line-height:0.01%;font-family:Lavi;-inkscape-font-specification:'Lavi, Normal';text-align:center;letter-spacing:0px;word-spacing:0px;writing-mode:lr-tb;text-anchor:middle;display:inline;opacity:0.481;fill:#000000;fill-opacity:1;stroke:none;stroke-width:1px;stroke-linecap:butt;stroke-linejoin:miter;stroke-opacity:1"
       id="flowRoot3448"
       xml:space="preserve"><flowRegion
         id="flowRegion3450"><rect
           y="1061.6674"
           x="-275.14545"
           height="247.52747"
           width="291.95547"
           id="rect3452" /></flowRegion><flowPara
         id="flowPara3473"
         style="font-size:25.3241539px;line-height:1.25">labels</flowPara><flowPara
         id="flowPara4255"
         style="font-size:25.3241539px;line-height:1.25">in the </flowPara><flowPara
         id="flowPara4257"
         style="font-size:25.3241539px;line-height:1.25">garden :-)</flowPara></flowRoot>  </g>
  <g
     inkscape:groupmode="layer"
     id="layer3"
     inkscape:label="speechbubbles"
     style="display:inline">
    <path
       style="color:#000000;display:inline;overflow:visible;visibility:visible;fill:#ffffff;fill-opacity:1;fill-rule:nonzero;stroke:none;stroke-width:1.03632653px;marker:none;enable-background:accumulate"
       d="m 1059.418,168.54011 c 21.7973,-38.51387 229.8637,-60.52238 295.6124,1.3289 54.8795,51.62637 61.6404,163.76542 20.8701,194.40563 -40.7703,30.64032 -201.905,31.94237 -267.3699,19.24415 -62.3316,-12.09049 -69.6171,-43.60444 -80.8827,-122.30874 -4.5979,-32.1223 9.9725,-54.15596 31.7701,-92.66994 z"
       id="path4040-4"
       inkscape:connector-curvature="0"
       sodipodi:nodetypes="zssssz" />
    <path
       style="color:#000000;display:inline;overflow:visible;visibility:visible;fill:#ffffff;fill-opacity:1;fill-rule:nonzero;stroke:none;stroke-width:1px;marker:none;enable-background:accumulate"
       d="m 1218.6195,471.60657 c 6.8921,-79.99361 75.774,-136.92767 252.0955,-117.45099 94.4472,10.43269 201.7583,18.40618 192.7593,135.61853 -8.999,117.21223 -163.318,110.3469 -195.2332,112.29768 -31.9153,1.9509 -197.6878,-14.49623 -226.0366,-55.15064 -17.7459,-25.44858 -24.5267,-50.5104 -23.585,-75.31458 z"
       id="path4546-6"
       inkscape:connector-curvature="0"
       sodipodi:nodetypes="cssssc" />
    <path
       style="color:#000000;display:inline;overflow:visible;visibility:visible;fill:#ffffff;fill-opacity:1;fill-rule:nonzero;stroke:none;stroke-width:1.04364669px;marker:none;enable-background:accumulate"
       d="m 1327.8169,597.42803 c 37.7758,-66.25394 340.0508,-44.65948 441.7365,-36.12798 151.1971,12.68555 138.5884,74.7034 143.1817,89.6708 4.5928,14.96728 8.1363,92.31621 -42.3887,105.92299 -50.5248,13.60664 -204.932,13.33888 -255.4568,13.33888 -50.5247,0 -217.9983,1.06214 -258.8116,-18.85133 -39.0419,-19.04932 -66.0369,-87.69942 -28.2611,-153.95336 z"
       id="path3330"
       inkscape:connector-curvature="0"
       sodipodi:nodetypes="zsssssz" />
    <path
       style="color:#000000;display:inline;overflow:visible;visibility:visible;fill:#ffffff;fill-opacity:1;fill-rule:nonzero;stroke:none;stroke-width:1px;marker:none;enable-background:accumulate"
       d="m 1537.5273,696.39507 c -4.748,19.68499 -0.6503,33.38997 2.5742,37.35036 3.2245,3.96027 2.3513,12.12365 5.2378,17.57337 2.3614,4.51862 3.5729,10.81257 -0.8434,12.64306 -4.4163,1.83058 -29.4289,3.69855 -33.6755,16.66121 -4.2467,12.96272 3.9771,24.00648 14.1454,30.32451 10.1684,6.31815 24.4145,10.44127 22.2717,20.40102 -2.1427,9.95976 -9.8422,13.23017 -15.8741,13.66024 -6.0318,0.43007 -42.6593,-1.86158 -51.9545,1.56498 -9.295,3.4266 -34.8875,18.35716 -31.0179,31.36521 11.9004,-13.15184 18.3151,-19.01847 27.1348,-20.36055 8.8198,-1.34212 24.7212,-5.09072 34.6744,-1.78852 9.9534,3.30225 30.2251,7.01956 38.1327,2.88942 7.9077,-4.13 22.6869,-13.91278 22.9796,-24.81049 0.2928,-10.89767 -5.2053,-22.98724 -21.3925,-31.19418 -10.1682,-6.31811 -14.5522,-10.2849 -13.6078,-13.29434 0.9444,-3.00939 11.8681,-7.35452 23.4562,-6.13032 11.5882,1.22424 17.0469,-9.49086 18.0108,-15.97871 0.9638,-6.48781 -2.7884,-15.67273 -3.2186,-21.7046 -0.4301,-6.03183 -6.7045,-40.19004 -6.7045,-40.19004 z"
       id="path5058"
       inkscape:connector-curvature="0"
       sodipodi:nodetypes="cscsssssscssssccscccc" />
    <path
       style="color:#000000;display:inline;overflow:visible;visibility:visible;fill:#ffffff;fill-opacity:1;fill-rule:nonzero;stroke:none;stroke-width:0.98156607px;marker:none;enable-background:accumulate"
       d="m 1396.4297,1846.3516 c 6.5283,-69.8494 42.3334,-95.0896 121.0437,-98.7527 39.0795,-1.8188 180.6196,-8.1256 237.9936,4.5118 57.3739,12.6375 106.4857,51.3422 102.1335,102.5251 -4.3521,51.1828 -9.5,90.8284 -72.1584,105.3166 -62.6583,14.4881 -182.827,3.8187 -195.3397,4.4209 -25.025,1.2043 -154.634,-15.7854 -176.2639,-51.7851 -13.5398,-22.5348 -18.4968,-44.559 -17.4088,-66.2366 z"
       id="path4546-6-3"
       inkscape:connector-curvature="0"
       sodipodi:nodetypes="cssssssc" />
    <path
       style="color:#000000;display:inline;overflow:visible;visibility:visible;fill:#ffffff;fill-opacity:1;fill-rule:nonzero;stroke:none;stroke-width:0.9000212px;marker:none;enable-background:accumulate"
       d="m 1760.2068,1983.0096 c -1.7735,-13.9006 17.6717,-72.4119 125.8576,-63.1448 108.186,9.2671 119.4858,20.9339 124.4221,70.8244 1.8245,18.4386 -15.0113,45.3021 -30.9732,49.9356 -15.9618,4.6335 -62.6315,17.7137 -89.2345,14.007 -26.6031,-3.7069 -65.873,-2.8275 -105.0142,-22.2636 -23.6238,-11.7307 -23.2842,-45.6518 -25.0578,-49.3586 z"
       id="path3365"
       inkscape:connector-curvature="0"
       sodipodi:nodetypes="csssssc" />
    <path
       style="fill:#ffffff;fill-opacity:1;stroke:none;stroke-width:0.97636032"
       d="m 1782.5267,2185.6449 c -10.2563,-132.3187 62.7781,-178.2181 257.2915,-178.0304 194.5134,0.1875 273.2191,37.8567 281.3922,116.6381 18.2758,176.1625 -100.3179,228.3626 -165.0983,231.034 -280.8759,11.5828 -312.5076,-19.2566 -338.6047,-56.151 -26.097,-36.8946 -32.7292,-78.8946 -34.9807,-113.4907 z"
       id="path3238"
       inkscape:connector-curvature="0"
       sodipodi:nodetypes="cssssc" />
    <path
       style="color:#000000;display:inline;overflow:visible;visibility:visible;fill:#ffffff;fill-opacity:1;fill-rule:nonzero;stroke:none;stroke-width:1px;marker:none;enable-background:accumulate"
       d="m 1882.8016,2295.7967 c -30.6436,39.5697 -91.823,73.3362 -171.3605,30.1552 76.0815,26.4581 119.8575,-5.9599 145.0149,-45.5895 21.7184,-34.2122 33.4899,-49.0683 33.4899,-49.0683 z"
       id="path4440"
       inkscape:connector-curvature="0"
       sodipodi:nodetypes="ccscc" />
    <path
       style="color:#000000;display:inline;overflow:visible;visibility:visible;fill:#ffffff;fill-opacity:1;fill-rule:nonzero;stroke:none;stroke-width:1.15040398px;marker:none;enable-background:accumulate"
       d="m 139.10428,2822.2821 c 22.79186,-16.694 33.59472,-28.2645 0.39813,-52.2841 6.81601,-0.1824 44.85302,-3.2661 8.48606,-50.1697 11.98993,6.0546 31.16327,22.131 9.58071,-55.7302 12.97703,12.4134 30.97726,52.1051 15.18774,-21.4382 17.0989,24.8558 39.62623,9.1414 35.01471,-3.9158 13.76127,15.8494 40.78691,14.5388 38.47193,1.0897 10.11768,14.6721 37.52677,18.9735 35.37583,-5.6178 8.40693,16.9036 34.4979,15.1623 31.94009,0.8001 22.04179,17.0969 53.90763,27.6346 65.9508,3.7981 10.28341,22.5585 58.11734,15.7464 98.23595,0.3495 0.62844,15.9235 45.28065,18.7187 81.67188,-7.203 0.55079,24.19 13.68294,32.3866 29.73007,14.5847 5.73049,9.9293 4.20104,15.7049 26.72063,-7.8013 -1.07509,16.1645 2.9333,31.0773 18.62343,15.6026 2.73326,9.9998 -7.26882,35.9177 32.38876,-1.9504 0.26216,14.1358 -9.04682,41.8941 25.10119,7.8013 -27.70155,83.9861 -12.34829,74.9971 6.4777,58.5088 -14.65824,49.5442 -33.56392,110.9948 3.68825,108.736 -29.1688,11.4454 -28.65887,28.4644 -24.74084,55.0893 -36.55796,-53.6146 -40.85338,-12.8693 -56.68024,-5.8509 -16.70826,-8.9194 -32.10082,-41.6045 -51.82176,3.9006 -30.21148,-18.7259 -36.20123,-1.55 -46.15391,9.7517 -52.78178,-35.9364 -51.535,-6.8058 -75.30373,-7.8014 -14.05297,-44.4528 -45.7655,-10.9241 -68.82598,-15.6023 -29.14972,-36.4517 -72.52578,-4.4989 -95.21819,9.5523 11.09098,-22.7701 -16.22151,-43.0974 -42.1959,6.2813 12.89835,-41.725 -8.26399,-55.7926 -47.77328,-2.0553 18.56644,-49.4407 -7.11112,-41.5611 -35.86513,-9.8778 28.1416,-48.0437 -1.59593,-52.162 -18.4649,-48.5478 z"
       id="path3557"
       inkscape:connector-curvature="0"
       sodipodi:nodetypes="cccccccccccccccccccccccccccccc" />
    <path
       style="color:#000000;display:inline;overflow:visible;visibility:visible;fill:#ffffff;fill-opacity:1;fill-rule:nonzero;stroke:none;stroke-width:1px;marker:none;enable-background:accumulate"
       d="m 265.05954,2917.5634 c 8.43841,-73.3533 93.40373,-126.6439 311.0341,-111.7966 116.57455,7.953 249.02327,13.4367 238.01599,120.9006 -11.00741,107.4636 -201.47202,103.79 -240.8598,106.116 -39.38777,2.3262 -248.99617,-3.676 -279.01838,-46.6664 -18.19206,-26.0502 -30.3132,-45.8287 -29.17191,-68.5536 z"
       id="path4546"
       inkscape:connector-curvature="0"
       sodipodi:nodetypes="cssssc" />
    <path
       style="color:#000000;display:inline;overflow:visible;visibility:visible;fill:#ffffff;fill-opacity:1;fill-rule:nonzero;stroke:none;stroke-width:1px;marker:none;enable-background:accumulate"
       d="m 1038.8039,3007.7933 c -39.7219,-30.7338 -84.6659,-56.332 -118.3207,-93.0329 l 9.2071,41.4633 c -19.1495,-7.3977 -31.9655,-24.339 -46.9322,-38.0398 l 1.0996,26.2988 c -44.9905,-17.9715 -75.7521,-49.3371 -113.3909,-74.2288 l 5.8989,45.8738 c 41.0512,21.0955 84.9859,35.8216 122.7937,64.0815 l 1.7812,-25.6614 c 14.445,8.0961 28.5921,16.7337 41.4085,27.7896 l -0.8973,-32.5393 z"
       id="path4032-6"
       inkscape:connector-curvature="0"
       sodipodi:nodetypes="cccccccccccc" />
    <path
       style="fill:#ffffff;stroke:none;stroke-width:1.17973363"
       d="m 1699.0788,2763.7364 c 6.5673,-64.7116 46.1763,-91.0294 64.1491,-99.6184 17.9726,-8.5891 93.4233,-19.6071 142.7095,-17.7107 49.2863,1.8964 171.4653,11.2376 192.0128,14.3485 20.5475,3.1109 75.3639,51.6228 74.7758,93.3633 -0.5879,41.7402 -11.579,69.159 -41.5276,93.5283 -29.949,24.3695 -208.6208,29.0956 -219.6288,26.3518 -11.0085,-2.7437 -158.0205,-24.6413 -167.1969,-31.9549 -9.1762,-7.3135 -46.3656,-27.3056 -45.2939,-78.3079 z"
       id="path3278"
       inkscape:connector-curvature="0" />
    <path
       style="color:#000000;display:inline;overflow:visible;visibility:visible;fill:#ffffff;fill-opacity:1;fill-rule:nonzero;stroke:none;stroke-width:1.05248988px;marker:none;enable-background:accumulate"
       d="m 1769.7673,2893.1421 c 26.085,-65.2958 484.0225,-90.9033 511.6501,-11.8885 47.6891,136.3908 -28.9783,252.4785 -82.2848,305.6107 -55.4185,55.2373 -260.6646,47.2704 -322.1694,16.8772 -31.396,-15.5146 -56.4678,-37.6805 -101.3869,-146.6514 -17.0427,-41.3445 -31.894,-98.6522 -5.809,-163.948 z"
       id="path4040"
       inkscape:connector-curvature="0"
       sodipodi:nodetypes="zssssz" />
    <path
       style="display:inline;fill:#ffffff;fill-rule:evenodd;stroke:none;stroke-width:0.98707938px;stroke-linecap:butt;stroke-linejoin:miter;stroke-opacity:1"
       d="m 1908.8631,3172.771 c 46.8905,28.5286 73.6,16.9272 72.7951,-49.3868 22.3712,71.6603 37.8956,87.6873 47.1028,52.3799 29.6179,30.3481 48.1168,21.8353 62.8037,0 5.4741,28.0816 17.2136,16.7498 27.3734,15.3549 3.3462,6.3532 -8.1467,22.1376 38.2849,1.1073 3.0076,8.4093 7.0591,15.651 34.2564,-2.9931 0,0 29.6528,-1.8917 52.8124,-40.4074 -14.4292,47.3518 -8.446,54.0398 9.9914,35.9176 -8.4295,19.4998 -13.4711,34.5948 18.5555,1.4966 -10.9642,35.9927 17.8006,11.2875 64.2311,-40.4072 -23.2252,38.2124 -84.8133,102.6164 -44.2479,97.2767 -5.6572,11.2651 -25.8356,21.0802 34.2564,38.9107 -11.2184,7.6442 -45.4677,-3.5263 -16.8976,28.8398 3.8279,3.7834 -8.9867,6.0937 15.4703,16.0571 -14.4374,-0.6778 -23.2914,1.7436 -9.9916,16.4623 -26.3534,-0.7959 -16.493,14.6808 2.8548,34.4209 -38.1634,-25.3209 -40.2636,-16.1182 -41.3935,-5.9862 -47.8298,-34.521 -50.6374,-23.6523 -57.094,-16.4623 -23.3135,0.2694 -46.627,-4.0779 -69.9406,34.421 -6.1054,-23.9452 -18.3462,-42.3768 -69.9403,-25.4415 22.6537,-30.4626 -9.5741,-11.0548 -34.2566,1.4965 13.5166,-38.0554 -20.7865,-13.0797 -64.231,23.945 24.3287,-42.0237 -3.303,-26.8437 -44.2481,2.9932 15.4704,-41.2842 -9.7245,-61.2497 -69.9403,-62.8558 28.8211,-14.8917 45.628,-33.6324 15.7009,-67.3454 33.7364,9.9269 43.7994,0.7062 19.983,-35.9176 36.7973,30.0605 20.067,-13.5407 5.7094,-53.8762 z"
       id="path4508"
       inkscape:connector-curvature="0"
       sodipodi:nodetypes="cccccccccccccccccccccccccccc" />
    <path
       style="color:#000000;display:inline;overflow:visible;visibility:visible;fill:#ffffff;fill-opacity:1;fill-rule:nonzero;stroke:none;stroke-width:1px;marker:none;enable-background:accumulate"
       d="m 1490.4164,2866.2226 c 36.6716,-30.7338 78.1642,-56.332 109.2346,-93.0329 l -8.5001,41.4633 c 17.679,-7.3977 29.5108,-24.339 43.3282,-38.0398 l -1.0152,26.2988 c 41.5356,-17.9715 69.9349,-49.3371 104.6834,-74.2288 l -5.4459,45.8738 c -37.8988,21.0955 -78.4597,35.8216 -113.3641,64.0815 l -1.6444,-25.6614 c -13.3358,8.0961 -26.3965,16.7337 -38.2287,27.7896 l 0.8284,-32.5393 z"
       id="path4032"
       inkscape:connector-curvature="0"
       sodipodi:nodetypes="cccccccccccc" />
  </g>
  <g
     inkscape:groupmode="layer"
     id="layer1"
     inkscape:label="txt">
    <text
       xml:space="preserve"
       style="font-style:normal;font-variant:normal;font-weight:normal;font-stretch:normal;line-height:0%;font-family:Lavi;-inkscape-font-specification:Lavi;text-align:center;letter-spacing:0px;word-spacing:0px;text-anchor:middle;fill:#000000;fill-opacity:1;stroke:none"
       x="1216.6492"
       y="191.16325"
       id="text4246"><tspan
         sodipodi:role="line"
         style="font-size:45px;line-height:1.25"
         x="1216.6492"
         y="191.16325"
         id="tspan4252">Æh ...</tspan></text>
    <text
       xml:space="preserve"
       style="font-style:normal;font-variant:normal;font-weight:normal;font-stretch:normal;line-height:0%;font-family:Lavi;-inkscape-font-specification:Lavi;text-align:center;letter-spacing:0px;word-spacing:0px;text-anchor:middle;fill:#000000;fill-opacity:1;stroke:none"
       x="1213.1885"
       y="243.91959"
       id="text4246-3"><tspan
         sodipodi:role="line"
         style="font-size:45px;line-height:1.25"
         x="1213.1885"
         y="243.91959"
         id="tspan4164">Eg er jo ikkje</tspan><tspan
         sodipodi:role="line"
         style="font-size:45px;line-height:1.25"
         x="1213.1885"
         y="300.16959"
         id="tspan3831">akkurat nokon</tspan><tspan
         sodipodi:role="line"
         style="font-size:45px;line-height:1.25"
         x="1213.1885"
         y="356.41959"
         id="tspan907">ekspert,</tspan></text>
    <text
       xml:space="preserve"
       style="font-style:normal;font-variant:normal;font-weight:normal;font-stretch:normal;line-height:0%;font-family:Lavi;-inkscape-font-specification:Lavi;text-align:center;letter-spacing:0px;word-spacing:0px;text-anchor:middle;fill:#000000;fill-opacity:1;stroke:none"
       x="1447.9285"
       y="435.09341"
       id="text4246-3-7"><tspan
         sodipodi:role="line"
         style="font-size:45px;line-height:1.25"
         x="1447.9285"
         y="435.09341"
         id="tspan3838">men kjøkenhagen</tspan><tspan
         sodipodi:role="line"
         style="font-size:45px;line-height:1.25"
         x="1447.9285"
         y="491.34341"
         id="tspan901">vår er jo ganske</tspan><tspan
         sodipodi:role="line"
         style="font-size:45px;line-height:1.25"
         x="1447.9285"
         y="547.59338"
         id="tspan3840">merkeleg i år.</tspan></text>
    <text
       xml:space="preserve"
       style="font-style:normal;font-variant:normal;font-weight:normal;font-stretch:normal;line-height:0%;font-family:Lavi;-inkscape-font-specification:Lavi;text-align:center;letter-spacing:0px;word-spacing:0px;text-anchor:middle;fill:#000000;fill-opacity:1;stroke:none"
       x="1611.3901"
       y="619.19336"
       id="text4246-3-7-6"><tspan
         sodipodi:role="line"
         style="font-size:45px;line-height:1.25"
         x="1611.3901"
         y="619.19336"
         id="tspan3849">Og det gjeld for så</tspan><tspan
         sodipodi:role="line"
         style="font-size:45px;line-height:1.25"
         x="1611.3901"
         y="675.44336"
         id="tspan912">vidt mange av dei andre</tspan><tspan
         sodipodi:role="line"
         style="font-size:45px;line-height:1.25"
         x="1611.3901"
         y="731.69336"
         id="tspan914">plantene her omkring òg.</tspan></text>
    <text
       id="text4178-6-5-9-0-7-0-4"
       style="font-style:normal;font-variant:normal;font-weight:normal;font-stretch:normal;line-height:0%;font-family:Lavi;-inkscape-font-specification:Lavi;text-align:center;letter-spacing:0px;word-spacing:0px;text-anchor:middle;opacity:0.63300003;fill:#ffffff;fill-opacity:1;stroke:none;filter:url(#filter5236-4-16)"
       xml:space="preserve"
       y="3129.8394"
       x="1318.7137"
       transform="matrix(0.6851492,-0.06612027,-0.09994133,0.78144216,149.5816,-965.35698)"><tspan
         y="3129.8394"
         x="1318.7137"
         style="font-style:normal;font-variant:normal;font-weight:normal;font-stretch:normal;font-size:40.67671585px;line-height:1.25;font-family:Fondamento;-inkscape-font-specification:Fondamento;fill:#ffffff;fill-opacity:1"
         sodipodi:role="line"
         id="tspan4293-1-6-3-5-0-2">Tomat</tspan></text>
    <text
       id="text4178-6-5-9-0-7-0-4-7"
       style="font-style:normal;font-variant:normal;font-weight:normal;font-stretch:normal;line-height:0%;font-family:Lavi;-inkscape-font-specification:Lavi;text-align:center;letter-spacing:0px;word-spacing:0px;text-anchor:middle;opacity:0.63300003;fill:#ffffff;fill-opacity:1;stroke:none;filter:url(#filter5236-4-16-3)"
       xml:space="preserve"
       y="3129.8394"
       x="1318.7137"
       transform="matrix(0.58543203,0.08325699,-0.38986142,0.70644422,2171.8616,-965.83592)"><tspan
         y="3129.8394"
         x="1318.7137"
         style="font-style:normal;font-variant:normal;font-weight:normal;font-stretch:normal;font-size:40.67671585px;line-height:1.25;font-family:Fondamento;-inkscape-font-specification:Fondamento;fill:#ffffff;fill-opacity:1"
         sodipodi:role="line"
         id="tspan4293-1-6-3-5-0-2-5">Aubergine</tspan></text>
    <text
       xml:space="preserve"
       style="font-style:normal;font-variant:normal;font-weight:normal;font-stretch:normal;line-height:0%;font-family:Lavi;-inkscape-font-specification:Lavi;text-align:center;letter-spacing:0px;word-spacing:0px;text-anchor:middle;fill:#000000;fill-opacity:1;stroke:none"
       x="1627.533"
       y="1807.5331"
       id="text4246-3-2"><tspan
         sodipodi:role="line"
         style="font-size:45px;line-height:1.25"
         x="1627.533"
         y="1807.5331"
         id="tspan3858">Og maurane –</tspan><tspan
         sodipodi:role="line"
         style="font-size:45px;line-height:1.25"
         x="1627.533"
         y="1863.7831"
         id="tspan921">dei har visst noko</tspan><tspan
         sodipodi:role="line"
         style="font-size:45px;line-height:1.25"
         x="1627.533"
         y="1920.0331"
         id="tspan923">underleg på gang.</tspan></text>
    <text
       xml:space="preserve"
       style="font-style:normal;font-variant:normal;font-weight:normal;font-stretch:normal;line-height:0%;font-family:Lavi;-inkscape-font-specification:Lavi;text-align:center;letter-spacing:0px;word-spacing:0px;text-anchor:middle;fill:#000000;fill-opacity:1;stroke:none"
       x="1894.5547"
       y="1997.0601"
       id="text4246-3-2-9"><tspan
         sodipodi:role="line"
         style="font-size:45px;line-height:1.25"
         x="1894.5547"
         y="1997.0601"
         id="tspan4259-0">Så ...</tspan></text>
    <text
       xml:space="preserve"
       style="font-style:normal;font-variant:normal;font-weight:normal;font-stretch:normal;line-height:0%;font-family:Lavi;-inkscape-font-specification:Lavi;text-align:center;letter-spacing:0px;word-spacing:0px;text-anchor:middle;fill:#000000;fill-opacity:1;stroke:none"
       x="2047.186"
       y="2083.1831"
       id="text4246-3-2-9-6"><tspan
         sodipodi:role="line"
         style="font-size:45px;line-height:1.25"
         x="2047.186"
         y="2083.1831"
         id="tspan939">... eg tenkte at me</tspan><tspan
         sodipodi:role="line"
         style="font-size:45px;line-height:1.25"
         x="2047.186"
         y="2139.4331"
         id="tspan904">kanskje har eit lite</tspan><tspan
         sodipodi:role="line"
         style="font-size:45px;line-height:1.25"
         x="2047.186"
         y="2195.6831"
         id="tspan941">forureiningsproblem –</tspan><tspan
         sodipodi:role="line"
         style="font-size:45px;line-height:1.25"
         x="2047.186"
         y="2251.9331"
         id="tspan943">og kanskje burde</tspan><tspan
         sodipodi:role="line"
         style="font-size:45px;line-height:1.25"
         x="2047.186"
         y="2308.1831"
         id="tspan945">reinska opp litt ...</tspan></text>
    <text
       xml:space="preserve"
       style="font-style:normal;font-variant:normal;font-weight:normal;font-stretch:normal;line-height:0%;font-family:Lavi;-inkscape-font-specification:Lavi;text-align:center;letter-spacing:0px;word-spacing:0px;text-anchor:middle;fill:#000000;fill-opacity:1;stroke:none;stroke-width:2.79999995;stroke-miterlimit:4;stroke-dasharray:none"
       x="419.67166"
       y="2700.5779"
       id="text4246-3-2-9-6-6"><tspan
         sodipodi:role="line"
         style="font-size:45px;line-height:1.25;stroke-width:2.79999995;stroke-miterlimit:4;stroke-dasharray:none"
         x="419.67166"
         y="2700.5779"
         id="tspan3892">Høyr her, frøken</tspan><tspan
         sodipodi:role="line"
         style="font-size:45px;line-height:1.25;stroke-width:2.79999995;stroke-miterlimit:4;stroke-dasharray:none"
         x="419.67166"
         y="2756.8279"
         id="tspan3900">«<tspan
   style="stroke:#000000;stroke-width:2.79999995;stroke-miterlimit:4;stroke-dasharray:none;stroke-opacity:1"
   id="tspan4217">eg-øydelegg-alle-</tspan></tspan><tspan
         sodipodi:role="line"
         style="font-size:45px;line-height:1.25;stroke-width:2.79999995;stroke-miterlimit:4;stroke-dasharray:none"
         x="419.67166"
         y="2813.0779"
         id="tspan947"><tspan
   style="stroke:#000000;stroke-width:2.79999995;stroke-miterlimit:4;stroke-dasharray:none;stroke-opacity:1"
   id="tspan949">trylledrikkane-mine</tspan>»:</tspan><tspan
         sodipodi:role="line"
         style="font-size:45px;line-height:1.25;stroke-width:2.79999995;stroke-miterlimit:4;stroke-dasharray:none"
         x="426.70291"
         y="2869.3279"
         id="tspan4378"> </tspan></text>
    <text
       xml:space="preserve"
       style="font-style:normal;font-variant:normal;font-weight:normal;font-stretch:normal;line-height:0%;font-family:Lavi;-inkscape-font-specification:Lavi;text-align:center;letter-spacing:0px;word-spacing:0px;text-anchor:middle;fill:#000000;fill-opacity:1;stroke:none"
       x="541.53906"
       y="2883.3635"
       id="text4246-3-2-9-6-6-7"><tspan
         sodipodi:role="line"
         style="font-size:45px;line-height:1.25;fill:#000000"
         x="541.53906"
         y="2883.3635"
         id="tspan4378-5">Det ser ut til at</tspan><tspan
         sodipodi:role="line"
         style="font-size:45px;line-height:1.25;fill:#000000"
         x="541.53906"
         y="2939.6135"
         id="tspan960">hippiah-heksedrakta har</tspan><tspan
         sodipodi:role="line"
         style="font-size:45px;line-height:1.25;fill:#000000"
         x="541.53906"
         y="2995.8635"
         id="tspan962">gått deg til hovudet.</tspan></text>
    <text
       xml:space="preserve"
       style="font-style:normal;font-variant:normal;font-weight:normal;font-stretch:normal;line-height:0%;font-family:Lavi;-inkscape-font-specification:Lavi;text-align:center;letter-spacing:0px;word-spacing:0px;text-anchor:middle;fill:#000000;fill-opacity:1;stroke:none"
       x="1940.1"
       y="2713.9656"
       id="text4246-3-2-9-6-6-0"><tspan
         sodipodi:role="line"
         style="font-size:45px;line-height:1.25"
         x="1940.1"
         y="2713.9656"
         id="tspan4378-7">I kaosah-magien</tspan><tspan
         sodipodi:role="line"
         style="font-size:45px;line-height:1.25"
         x="1940.1"
         y="2770.2156"
         id="tspan973">gravlegg me alltid</tspan><tspan
         sodipodi:role="line"
         style="font-size:45px;line-height:1.25"
         x="1940.1"
         y="2826.4656"
         id="tspan917">feila våre!</tspan></text>
    <text
       xml:space="preserve"
       style="font-style:normal;font-variant:normal;font-weight:normal;font-stretch:normal;line-height:0%;font-family:Lavi;-inkscape-font-specification:Lavi;text-align:center;letter-spacing:0px;word-spacing:0px;text-anchor:middle;fill:#000000;fill-opacity:1;stroke:none;stroke-width:2.79999995;stroke-miterlimit:4;stroke-dasharray:none"
       x="2023.8911"
       y="2911.8108"
       id="text4246-3-2-9-6-6-0-5"><tspan
         sodipodi:role="line"
         style="font-size:45px;line-height:1.25;stroke-width:2.79999995;stroke-miterlimit:4;stroke-dasharray:none"
         x="2023.8911"
         y="2911.8108"
         id="tspan4414-3">Det har vore tradisjon</tspan><tspan
         sodipodi:role="line"
         style="font-size:45px;line-height:1.25;stroke-width:2.79999995;stroke-miterlimit:4;stroke-dasharray:none"
         x="2023.8911"
         y="2968.0608"
         id="tspan975">i all tid, og eg gjev</tspan><tspan
         sodipodi:role="line"
         style="font-size:45px;line-height:1.25;stroke-width:2.79999995;stroke-miterlimit:4;stroke-dasharray:none"
         x="2023.8911"
         y="3024.3108"
         id="tspan3931">regelrett blaffen i kva</tspan><tspan
         sodipodi:role="line"
         style="font-size:45px;line-height:1.39999998;stroke:#000000;stroke-width:2.79999995;stroke-miterlimit:4;stroke-dasharray:none;stroke-opacity:1"
         x="2023.8911"
         y="3083.9358"
         id="tspan3933"
         dy="2.03">MODER JORD</tspan><tspan
         sodipodi:role="line"
         style="font-size:45px;line-height:1.25;stroke-width:2.79999995;stroke-miterlimit:4;stroke-dasharray:none"
         x="2023.8911"
         y="3143.5608"
         id="tspan3935">måtte meina om</tspan><tspan
         sodipodi:role="line"
         style="font-size:45px;line-height:1.25;stroke-width:2.79999995;stroke-miterlimit:4;stroke-dasharray:none"
         x="2023.8911"
         y="3199.8108"
         id="tspan928">den saka!</tspan><tspan
         sodipodi:role="line"
         style="font-size:45px;line-height:1.25;stroke-width:2.79999995;stroke-miterlimit:4;stroke-dasharray:none"
         x="2030.9224"
         y="3256.0608"
         id="tspan4378-7-6"> </tspan></text>
    <text
       xml:space="preserve"
       style="font-style:normal;font-variant:normal;font-weight:normal;font-stretch:normal;line-height:0%;font-family:Lavi;-inkscape-font-specification:Lavi;text-align:center;letter-spacing:0px;word-spacing:0px;text-anchor:middle;fill:#000000;fill-opacity:1;stroke:none;stroke-width:2.79999995;stroke-miterlimit:4;stroke-dasharray:none"
       x="2105.4753"
       y="3267.5076"
       id="text4246-3-2-9-6-6-0-5-1"><tspan
         sodipodi:role="line"
         style="font-size:45px;line-height:1.25;stroke-width:2.79999995;stroke-miterlimit:4;stroke-dasharray:none"
         x="2105.4753"
         y="3267.5076"
         id="tspan4544">Så klapp igjen</tspan><tspan
         sodipodi:role="line"
         style="font-size:45px;line-height:1.25;stroke-width:2.79999995;stroke-miterlimit:4;stroke-dasharray:none"
         x="2112.5066"
         y="3323.7576"
         id="tspan3939">og <tspan
   style="stroke:#000000;stroke-width:2.79999995;stroke-miterlimit:4;stroke-dasharray:none;stroke-opacity:1"
   id="tspan4219">GRAV</tspan>! </tspan><tspan
         sodipodi:role="line"
         style="font-size:45px;line-height:1.25;stroke-width:2.79999995;stroke-miterlimit:4;stroke-dasharray:none"
         x="2112.5066"
         y="3380.0076"
         id="tspan4378-7-6-4"> </tspan></text>
  </g>
</svg>
