<?xml version="1.0" encoding="UTF-8" standalone="no"?>
<!-- Created with Inkscape (http://www.inkscape.org/) -->

<svg
   xmlns:dc="http://purl.org/dc/elements/1.1/"
   xmlns:cc="http://creativecommons.org/ns#"
   xmlns:rdf="http://www.w3.org/1999/02/22-rdf-syntax-ns#"
   xmlns:svg="http://www.w3.org/2000/svg"
   xmlns="http://www.w3.org/2000/svg"
   xmlns:xlink="http://www.w3.org/1999/xlink"
   xmlns:sodipodi="http://sodipodi.sourceforge.net/DTD/sodipodi-0.dtd"
   xmlns:inkscape="http://www.inkscape.org/namespaces/inkscape"
   id="svg2"
   version="1.1"
   inkscape:version="0.92.4 (5da689c313, 2019-01-14)"
   width="2481"
   height="3503"
   sodipodi:docname="E27P02.svg">
  <metadata
     id="metadata8">
    <rdf:RDF>
      <cc:Work
         rdf:about="">
        <dc:format>image/svg+xml</dc:format>
        <dc:type
           rdf:resource="http://purl.org/dc/dcmitype/StillImage" />
        <dc:title />
      </cc:Work>
    </rdf:RDF>
  </metadata>
  <defs
     id="defs6" />
  <sodipodi:namedview
     pagecolor="#ffffff"
     bordercolor="#666666"
     borderopacity="1"
     objecttolerance="10"
     gridtolerance="10"
     guidetolerance="10"
     inkscape:pageopacity="0"
     inkscape:pageshadow="2"
     inkscape:window-width="1296"
     inkscape:window-height="704"
     id="namedview4"
     showgrid="false"
     inkscape:zoom="0.4574026"
     inkscape:cx="1161.9244"
     inkscape:cy="691.47483"
     inkscape:window-x="70"
     inkscape:window-y="27"
     inkscape:window-maximized="1"
     inkscape:current-layer="layer3"
     inkscape:snap-global="false" />
  <g
     inkscape:groupmode="layer"
     id="layer2"
     inkscape:label="artwork"
     sodipodi:insensitive="true">
    <image
       sodipodi:absref="/home/emmiline/Documents/git/webcomics/ep27_Coriander-s-Invention/lang/da/../gfx_Pepper-and-Carrot_by-David-Revoy_E27P02.png"
       xlink:href="../gfx_Pepper-and-Carrot_by-David-Revoy_E27P02.png"
       width="2481"
       height="3503"
       id="image10"
       x="0"
       y="0" />
  </g>
  <g
     inkscape:groupmode="layer"
     id="layer3"
     inkscape:label="speechbubbles">
    <path
       style="fill:#ffffff;fill-rule:evenodd;stroke:none;stroke-width:0.88987499px;stroke-linecap:butt;stroke-linejoin:miter;stroke-opacity:1"
       d="m 476.64874,195.65824 c 4.49184,1.65539 46.84369,0 50.69384,-0.82769 3.85017,-0.82769 32.72641,-7.44924 39.78506,-5.79385 7.05864,1.65539 55.8274,10.76001 64.81112,11.58771 8.98371,0.82769 51.97724,2.48308 59.67755,7.44925 7.70035,4.96616 17.96746,9.93233 23.74271,18.20927 5.77525,8.27694 14.11727,33.93546 13.47558,39.72932 -0.6417,5.79386 -9.62542,45.52318 -14.75898,51.31703 -5.13354,5.79386 -23.10097,24.83083 -28.23453,27.31392 -5.13358,2.48307 -16.68406,9.10462 -22.45931,11.58771 -5.77526,2.48308 -136.68088,4.96616 -152.72324,5.79386 -16.04236,0.82769 -78.2867,-4.96617 -89.19552,-5.79386 -10.9088,-0.8277 -36.57658,1.65539 -53.26061,-6.62156 -16.68406,-8.27693 -28.23457,-38.90161 -33.3681,-44.69548 -5.13357,-5.79386 -14.11729,-30.62468 -13.47559,-39.72932 0.64169,-9.10464 13.47559,-30.62468 19.89251,-33.10776 6.41694,-2.48309 32.72642,-23.17544 48.12708,-27.31391 15.40066,-4.13847 52.61893,-14.07079 59.67757,-13.2431 9.66191,1.6631 8.64684,0.16512 27.59286,4.13846 z"
       id="path1323"
       inkscape:connector-curvature="0"
       sodipodi:nodetypes="ccsscscsscsssccsscc" />
    <path
       style="fill:#ffffff;fill-rule:evenodd;stroke:none;stroke-width:1.02273285px;stroke-linecap:butt;stroke-linejoin:miter;stroke-opacity:1"
       d="m 172.8578,163.77351 c 11.01752,-19.15682 30.98678,-29.0442 41.31569,-31.51605 10.32893,-2.47185 27.54381,3.08981 37.18415,1.85389 9.64032,-1.23593 46.13585,-12.35924 59.90776,-11.74128 13.77189,0.61796 54.399,4.32573 67.48231,4.9437 13.08329,0.61796 45.44727,3.0898 57.15338,9.88738 11.70613,6.79758 24.78942,14.21312 26.85521,21.0107 2.06578,6.79758 6.88595,19.77478 2.06578,30.89809 -4.82016,11.12331 -16.52627,30.28013 -31.67536,32.13401 -15.14909,1.85389 -90.20596,8.65147 -106.73223,8.0335 -16.52628,-0.61796 -61.97356,0 -72.99108,0 -11.01752,0 -50.95603,-4.32573 -62.66215,-12.35923 -11.70611,-8.0335 -20.65784,-24.10051 -22.03503,-33.9879 -1.3772,-9.88738 4.13157,-19.15681 4.13157,-19.15681 z"
       id="path1325"
       inkscape:connector-curvature="0" />
    <path
       style="fill:#ffffff;fill-rule:evenodd;stroke:none;stroke-width:1px;stroke-linecap:butt;stroke-linejoin:miter;stroke-opacity:1"
       d="m 544.4243,343.97954 c 6.17962,25.33643 -4.94369,76.0093 4.32573,89.60445 9.26943,13.59516 11.12331,11.74128 19.15682,18.53886 -12.35924,15.44904 -17.92089,33.36993 -16.68497,42.63936 1.23592,9.26942 4.32573,33.36993 35.84178,44.49324 -27.19032,-19.15681 -24.71847,-38.31363 -23.48255,-43.87528 1.23593,-5.56166 6.17962,-34.60586 21.62867,-42.0214 -15.44905,-11.74127 -23.48255,-24.71847 -23.48255,-32.13401 0,-7.41554 8.65146,-82.80688 8.65146,-82.80688 z"
       id="path1327"
       inkscape:connector-curvature="0" />
    <path
       style="fill:#ffffff;fill-rule:evenodd;stroke:none;stroke-width:1px;stroke-linecap:butt;stroke-linejoin:miter;stroke-opacity:1"
       d="m 1028.778,99.513979 c -32.42456,17.031151 -62.38624,30.970451 -66.70952,55.949461 -4.32327,24.97901 -16.21228,45.41639 -17.2931,62.44753 -1.08082,17.03115 7.26449,79.16428 14.83022,101.87247 7.56573,22.7082 48.6369,74.93704 54.0409,79.47868 5.4041,4.54163 41.0712,19.30196 58.3643,26.11442 17.2931,6.81246 155.6379,11.35409 180.4967,14.76032 24.8589,3.40623 91.8696,-15.89573 109.1628,-23.8436 17.2931,-7.94787 41.0711,-11.3541 51.8793,-24.97901 10.8082,-13.62491 35.667,-49.95802 39.9903,-65.85375 4.3232,-15.89574 4.3232,-70.3954 4.3232,-81.7495 0,-11.3541 -1.0808,-61.31212 -21.6163,-82.8849 -20.5356,-21.57278 -55.1218,-51.09344 -82.1423,-60.17671 -27.0205,-9.083277 -190.2241,-22.708193 -208.598,-23.843603 -18.374,-1.135409 -116.7285,22.708192 -116.7285,22.708192 z"
       id="path1329"
       inkscape:connector-curvature="0"
       sodipodi:nodetypes="cssscsscscscssc" />
    <path
       style="fill:#ffffff;fill-rule:evenodd;stroke:none;stroke-width:0.75631595px;stroke-linecap:butt;stroke-linejoin:miter;stroke-opacity:1"
       d="m 1085.1794,395.10744 c -19.3467,14.36798 -40.9259,27.83798 -45.3905,37.71597 -4.4647,9.87799 -10.4176,36.81796 -7.4412,49.38996 2.9765,12.57199 12.6499,64.65595 23.8115,74.53394 11.1616,9.87799 46.879,40.40997 64.7375,40.40997 17.8587,0 75.1549,11.67399 84.8285,10.77599 9.6733,-0.898 72.1784,9.87799 88.5489,0.898 16.3704,-8.98 37.2054,-25.14398 49.8553,-30.53198 12.6497,-5.38799 43.1582,-8.08199 52.0875,-27.83798 8.9295,-19.75598 12.925,-55.03303 5.953,-80.81994 -6.7432,-24.93996 -20.835,-46.69595 -43.1584,-60.16595 -22.3232,-13.46998 -93.7577,-43.10396 -93.7577,-43.10396 l -107.1517,-11.67399 c 0,0 -17.1145,8.08199 -34.9732,19.75598 -17.8584,11.67399 -37.9495,20.65399 -37.9495,20.65399 z"
       id="path1331"
       inkscape:connector-curvature="0"
       sodipodi:nodetypes="csccsccccasccsc" />
    <path
       style="fill:#ffffff;fill-rule:evenodd;stroke:none;stroke-width:1px;stroke-linecap:butt;stroke-linejoin:miter;stroke-opacity:1"
       d="m 1351.9814,582.45483 c 0,0 27.0205,22.6972 35.667,37.82867 8.6466,15.13146 27.0205,36.74784 22.6972,76.73814 10.8082,-51.87931 10.8082,-67.01077 -20.5355,-116.72844 -31.3438,-49.71768 -37.8287,2.16163 -37.8287,2.16163 z"
       id="path1333"
       inkscape:connector-curvature="0" />
    <path
       style="fill:#ffffff;fill-rule:evenodd;stroke:none;stroke-width:0.93281043px;stroke-linecap:butt;stroke-linejoin:miter;stroke-opacity:1"
       d="m 1624.2025,215.14785 c 11.2598,-40.41141 15.0129,-63.98475 41.2854,-78.57776 26.2725,-14.59301 133.8646,-26.94094 148.8775,-28.06348 15.0128,-1.12254 60.0513,3.36762 81.3196,3.36762 21.2682,0 131.3624,-2.24508 148.8774,-2.24508 17.5151,0 88.8261,0 107.5922,2.24508 18.7661,2.24507 85.0728,15.71554 96.3325,25.81841 11.2595,10.10284 43.7873,52.75934 45.0385,80.82283 1.2511,28.06348 -1.2512,74.0876 -23.7704,92.04823 -22.5193,17.96062 -75.0643,40.41141 -110.0944,47.14665 -35.0298,6.73524 -206.4266,14.59301 -226.4436,14.59301 -20.0173,0 -105.09,3.36762 -146.3754,-2.24508 -41.2853,-5.61269 -86.3239,-22.45078 -107.5921,-38.16633 -21.2682,-15.71556 -47.5408,-26.94095 -55.0472,-57.24951 -7.5063,-30.30857 0,-59.49459 0,-59.49459 z"
       id="path1335"
       inkscape:connector-curvature="0" />
    <path
       style="fill:#ffffff;fill-rule:evenodd;stroke:none;stroke-width:1px;stroke-linecap:butt;stroke-linejoin:miter;stroke-opacity:1"
       d="m 1746.5526,413.03907 c 27.5116,26.61792 42.8588,47.56076 -11.4058,80.71719 49.1355,-0.72812 43.5728,20.05383 34.2174,45.56614 66.8976,-20.5973 113.7421,-7.40942 120.3948,32.54725 43.9171,-32.2476 50.5645,-26.46532 83.6426,-1.30189 39.6321,-49.89404 62.6056,-15.54139 91.2465,-10.41512 -5.8821,-23.03081 13.5288,-43.92498 62.4748,-10.21797 -17.5693,-18.88765 -10.6126,-65.99877 56.6527,-69.19731 -30.151,-10.89059 -73.1985,-22.51429 -22.8117,-69.00017 -77.6206,-8.98442 -39.9485,-27.33589 -51.9598,-41.66048 l -112.7909,-13.0189 -114.0581,7.81134 -58.2964,5.20756 c -1.4105,20.45876 4.4806,42.79545 -77.3061,42.96236 z"
       id="path1337"
       inkscape:connector-curvature="0"
       sodipodi:nodetypes="cccccccccccccc" />
    <path
       style="fill:#ffffff;fill-rule:evenodd;stroke:none;stroke-width:1px;stroke-linecap:butt;stroke-linejoin:miter;stroke-opacity:1"
       d="m 2083.819,528.58622 c 24.8588,19.45474 57.2834,63.76832 55.1217,92.95043 10.8082,-38.90948 -17.2931,-97.27371 -31.3437,-112.40517 -14.0507,-15.13147 -23.778,19.45474 -23.778,19.45474 z"
       id="path1339"
       inkscape:connector-curvature="0" />
    <path
       style="fill:#ffffff;fill-rule:evenodd;stroke:none;stroke-width:0.92919385px;stroke-linecap:butt;stroke-linejoin:miter;stroke-opacity:1"
       d="m 918.61564,1438.6648 c 9.49289,-34.2595 28.47867,-50.6446 54.24508,-59.5818 25.76642,-8.9372 93.57268,1.4895 111.20238,1.4895 17.6297,0 88.1484,7.4477 97.6412,19.3641 9.4929,11.9164 32.547,37.2387 25.7664,64.0505 -6.7807,26.8118 -14.9175,53.6236 -51.5328,68.519 -36.6156,14.8954 -70.5186,0 -84.08,1.4896 -13.5613,1.4895 -31.1908,8.9372 -69.1624,1.4895 -37.97154,-7.4477 -86.79214,-46.1759 -84.07986,-96.8204 z"
       id="path1341"
       inkscape:connector-curvature="0" />
    <path
       style="fill:#ffffff;fill-rule:evenodd;stroke:none;stroke-width:1px;stroke-linecap:butt;stroke-linejoin:miter;stroke-opacity:1"
       d="m 1321.8416,1549.9601 c -25.1103,-26.3097 -29.3743,-46.7563 -36.94,-53.2412 -7.5658,-6.4849 -52.768,-40.79 -87.3542,-44.0325 -34.5862,-3.2424 -28.1013,24.8589 -28.1013,24.8589 0,0 36.7479,1.0808 51.8793,5.4041 15.1315,4.3232 48.6369,20.5355 54.041,24.8588 5.4041,4.3233 19.4547,27.0205 46.4752,42.1519 z"
       id="path1343"
       inkscape:connector-curvature="0"
       sodipodi:nodetypes="cccccsc" />
    <path
       style="fill:#ffffff;fill-rule:evenodd;stroke:none;stroke-width:1px;stroke-linecap:butt;stroke-linejoin:miter;stroke-opacity:1"
       d="m 1847.0115,1634.8585 c 65.8759,-41.0171 79.5483,-53.4465 129.266,-55.9324 49.7176,-2.4859 59.6612,-29.8306 59.6612,-29.8306 0,0 -34.8024,-1.243 -72.0906,6.2147 -37.2883,7.4576 -95.7066,37.2882 -116.8366,79.5483 z"
       id="path1345"
       inkscape:connector-curvature="0" />
    <path
       style="fill:#ffffff;fill-rule:evenodd;stroke:none;stroke-width:0.99999988px;stroke-linecap:butt;stroke-linejoin:miter;stroke-opacity:1"
       d="m 1980.1886,1519.225 c 17.7997,-20.9727 63.5703,-43.2562 91.5412,-47.1886 27.9708,-3.9323 116.9692,5.2432 136.0403,17.0403 19.071,11.7972 58.4846,20.9728 57.2132,58.9858 -1.2715,38.013 5.0856,55.0534 -24.1567,76.026 -29.2423,20.9728 -132.2261,15.7296 -155.1113,14.4188 -22.8854,-1.3107 -66.1131,-6.5539 -88.9984,-30.1483 -22.8853,-23.5942 -33.0565,-48.4993 -16.5283,-89.134 z"
       id="path1347"
       inkscape:connector-curvature="0" />
    <path
       style="fill:#ffffff;fill-rule:evenodd;stroke:none;stroke-width:0.85674536px;stroke-linecap:butt;stroke-linejoin:miter;stroke-opacity:1"
       d="m 2017.9814,1652.1862 c 18.2043,-27.1679 63.6071,-36.8707 74.1255,-36.8707 10.5184,0 92.4343,5.8216 107.6275,5.8216 15.1933,0 46.6422,-5.8216 64.2083,-3.881 17.5661,1.9405 50.2545,0 64.6326,19.4055 14.3782,19.4057 25.6745,62.0982 22.5044,80.5335 -3.1703,18.4355 5.4527,42.6925 -9.2277,70.8307 -14.6804,28.1381 -20.3296,38.8113 -42.3759,47.5439 -22.0464,8.7325 -127.301,4.8514 -150.7282,1.9406 -23.4273,-2.9109 -68.9539,0 -88.9104,-4.8514 -19.9565,-4.8516 -51.8121,-21.3463 -47.5087,-41.7222 4.3036,-20.376 -8.8883,-38.8113 -3.6812,-73.7416 5.2071,-34.9301 9.3338,-65.0089 9.3338,-65.0089 z"
       id="path1349"
       inkscape:connector-curvature="0" />
    <path
       style="fill:#ffffff;fill-rule:evenodd;stroke:none;stroke-width:0.99999988px;stroke-linecap:butt;stroke-linejoin:miter;stroke-opacity:1"
       d="m 143.5602,2399.1151 c 0,-35.8207 25.87263,-41.7908 42.74608,-41.7908 16.87347,0 71.99341,-4.7762 79.86769,-4.7762 7.87428,0 66.36893,7.1642 76.493,13.1343 10.12407,5.9701 25.87262,10.7462 23.62284,32.2386 -2.2498,21.4925 0,33.4327 -22.49793,39.4028 -22.49795,5.9702 -110.23992,8.3582 -125.98848,7.1642 -15.74855,-1.194 -39.37139,-10.7463 -50.62037,-17.9104 -11.24896,-7.1641 -25.87263,-9.5522 -23.62283,-27.4625 z"
       id="path1351"
       inkscape:connector-curvature="0" />
    <path
       style="fill:#ffffff;fill-rule:evenodd;stroke:none;stroke-width:0.89315701px;stroke-linecap:butt;stroke-linejoin:miter;stroke-opacity:1"
       d="m 309.11422,2416.5428 c 48.15781,-10.6684 82.20391,-8.1376 96.44438,-6.5549 14.9867,1.6657 52.96013,11.5039 64.84914,20.1259 11.889,8.622 27.05014,26.0903 25.96932,36.4367 -1.08082,10.3465 6.91442,38.7754 5.8336,52.5707 -1.08082,13.7951 -12.59967,61.2398 -20.1654,81.0705 -7.56574,19.8306 -25.93966,43.11 -107.00108,47.4211 -81.06142,4.311 -130.77909,2.5865 -162.12284,-4.3111 -31.34375,-6.8975 -71.33406,-11.2085 -82.14225,-43.9722 -10.80819,-32.7637 -14.05064,-69.8383 -10.80819,-85.3579 3.24246,-15.5197 6.48492,-50.0077 10.80819,-56.0431 4.32328,-6.0354 17.38212,-29.5391 27.10949,-34.7123 9.72737,-5.1731 151.22564,-6.6734 151.22564,-6.6734 z"
       id="path1353"
       inkscape:connector-curvature="0"
       sodipodi:nodetypes="csssscscsscsc" />
    <path
       style="fill:#ffffff;fill-rule:evenodd;stroke:none;stroke-width:1px;stroke-linecap:butt;stroke-linejoin:miter;stroke-opacity:1"
       d="m 532.84375,2533.5054 c 1.08082,-19.4547 14.05064,-55.1218 33.50539,-61.6067 19.45474,-6.4849 73.49568,-6.4849 84.30387,-3.2424 10.80819,3.2424 28.1013,27.0204 32.42457,36.7478 4.32328,9.7274 16.21229,44.3136 -3.24245,58.3642 -19.45474,14.0507 -38.90949,24.8589 -59.44505,23.778 -20.53556,-1.0808 -61.60668,-8.6465 -71.33405,-21.6163 -9.72737,-12.9699 -16.21228,-32.4246 -16.21228,-32.4246 z"
       id="path1355"
       inkscape:connector-curvature="0" />
    <path
       style="fill:#ffffff;fill-rule:evenodd;stroke:none;stroke-width:1px;stroke-linecap:butt;stroke-linejoin:miter;stroke-opacity:1"
       d="m 371.0335,2688.1612 c 0,0 10.62431,7.3553 12.25882,23.7003 1.63451,16.3451 -0.81725,35.142 -13.89333,54.7561 28.60391,-32.6902 43.31449,-55.5733 34.32469,-83.36 -8.9898,-27.7866 -32.69018,4.9036 -32.69018,4.9036 z"
       id="path1357"
       inkscape:connector-curvature="0" />
    <path
       style="fill:#ffffff;fill-rule:evenodd;stroke:none;stroke-width:1px;stroke-linecap:butt;stroke-linejoin:miter;stroke-opacity:1"
       d="m 609.41023,2578.6689 c 0,0 17.16235,24.5177 9.80706,38.411 -7.35529,13.8933 -8.9898,18.7968 -25.33489,35.1419 26.9694,-17.9796 37.5937,-31.0556 40.86272,-43.3145 3.26902,-12.2588 5.72078,-35.9592 5.72078,-42.4972 0,-6.538 -31.05567,12.2588 -31.05567,12.2588 z"
       id="path1359"
       inkscape:connector-curvature="0" />
    <path
       style="fill:#ffffff;fill-rule:evenodd;stroke:none;stroke-width:1.03840244px;stroke-linecap:butt;stroke-linejoin:miter;stroke-opacity:1"
       d="m 721.7991,2510.6937 c -9.39843,-42.5634 -7.51874,-84.1134 4.69921,-95.2608 4.75927,-26.065 60.0674,-65.3013 81.7663,-59.7915 16.91717,-4.0536 108.0819,-25.3353 125.93891,-23.3084 17.85701,2.0267 118.32618,4.6109 137.12298,22.8524 18.7969,18.2414 34.2573,28.5276 45.5355,47.7825 11.2781,19.2548 17.716,57.2071 23.3551,63.2875 5.639,6.0806 3.5713,36.3309 -1.1279,53.5589 -4.6992,17.2281 -21.6164,31.4159 -46.0523,37.4963 -24.4359,6.0806 -57.3304,14.1878 -78.9468,15.2013 -21.61634,1.0134 -71.428,1.0134 -109.0217,-2.0268 -44.76237,-9.5027 -72.61993,-9.7453 -117.26947,-14.0847 -8.45859,-1.0133 -64.12015,-18.3446 -65.99983,-45.7067 z"
       id="path1361"
       inkscape:connector-curvature="0"
       sodipodi:nodetypes="ccccccccccccc" />
    <path
       style="fill:#ffffff;fill-rule:evenodd;stroke:none;stroke-width:1px;stroke-linecap:butt;stroke-linejoin:miter;stroke-opacity:1"
       d="m 1048.8643,2539.6614 c 40.4132,37.5937 65.789,69.5483 47.932,102.4428 29.1351,-35.714 14.0976,-69.5483 -24.4359,-117.4803 -38.5336,-47.932 -23.4961,15.0375 -23.4961,15.0375 z"
       id="path1363"
       inkscape:connector-curvature="0" />
    <path
       style="fill:#ffffff;fill-rule:evenodd;stroke:none;stroke-width:1px;stroke-linecap:butt;stroke-linejoin:miter;stroke-opacity:1"
       d="m 1362.7766,2499.8218 c -0.8172,-27.7867 20.4314,-32.6902 31.8729,-34.3247 11.4416,-1.6345 58.8423,-9.807 76.8219,3.269 17.9796,13.0761 22.8832,35.142 14.7106,43.3145 -8.1725,8.1726 -34.3247,20.4314 -50.6698,21.2486 -16.345,0.8173 -51.487,-4.0862 -62.9285,-15.5278 -11.4416,-11.4416 -9.8071,-17.9796 -9.8071,-17.9796 z"
       id="path1365"
       inkscape:connector-curvature="0" />
    <path
       style="fill:#ffffff;fill-rule:evenodd;stroke:none;stroke-width:1px;stroke-linecap:butt;stroke-linejoin:miter;stroke-opacity:1"
       d="m 1445.7231,2523.112 c 0,0 19.6141,10.6243 24.5176,19.6141 4.9035,8.9898 13.0761,31.0556 8.9898,45.7662 13.0761,-26.1521 8.1725,-42.4972 4.9035,-49.8525 -3.269,-7.3553 -23.7004,-34.3247 -23.7004,-34.3247 z"
       id="path1367"
       inkscape:connector-curvature="0" />
    <path
       style="fill:#ffffff;fill-rule:evenodd;stroke:none;stroke-width:1.01778853px;stroke-linecap:butt;stroke-linejoin:miter;stroke-opacity:1"
       d="m 1802.5107,2453.7353 c 4.62,-53.6869 33.4944,-70.1216 53.1291,-77.7912 19.6347,-7.6695 100.4833,-18.626 128.2028,-17.5304 27.7195,1.0957 130.5128,12.0522 147.8375,13.1478 17.3247,1.0957 61.2139,26.2956 64.6788,32.8695 3.465,6.5739 18.4798,24.1043 13.8598,43.8261 -4.6199,19.7216 -31.1845,46.0173 -56.5941,55.878 -25.4096,9.8609 -127.0477,17.5304 -146.6824,15.3392 -19.6347,-2.1913 -53.1291,-5.4783 -72.7638,-5.4783 -19.6347,0 -82.0036,-1.0956 -98.1733,-13.1478 -16.1697,-12.0521 -33.4944,-47.1129 -33.4944,-47.1129 z"
       id="path1369"
       inkscape:connector-curvature="0" />
    <path
       style="fill:#ffffff;fill-rule:evenodd;stroke:none;stroke-width:1.1691165px;stroke-linecap:butt;stroke-linejoin:miter;stroke-opacity:1"
       d="m 1942.6027,2504.2863 c 20.7053,24.9935 8.14,35.7585 -26.9016,36.911 27.102,10.3059 60.9319,16.1361 53.8029,49.2146 30.0894,-0.3881 49.1244,-20.6324 97.144,11.1851 28.3959,-26.2404 56.7917,-13.7442 85.1877,-2.2371 13.6198,-11.7058 38.6961,-12.4507 91.1662,-6.7111 -4.0519,-25.8831 28.875,-37.4174 59.7808,-45.859 -26.1682,-13.6358 -49.739,-28.5087 -32.8795,-62.6367 -38.0273,7.5311 -70.0054,6.9133 -88.1769,-12.3036 -37.7273,4.302 -66.066,22.6562 -118.0675,5.5926 -28.0026,20.6229 -59.2148,22.0309 -91.166,19.0147 7.2813,18.3838 -1.3136,22.2454 -29.8901,7.8295 z"
       id="path1371"
       inkscape:connector-curvature="0"
       sodipodi:nodetypes="cccccccccccc" />
    <path
       style="fill:#ffffff;fill-rule:evenodd;stroke:none;stroke-width:1px;stroke-linecap:butt;stroke-linejoin:miter;stroke-opacity:1"
       d="m 2142.1832,2571.3341 c -3.2425,28.1012 8.6465,79.9806 34.5862,113.4859 -3.2425,16.2123 1.0808,33.5054 15.1315,47.5561 -12.9699,-29.1821 -7.5658,-36.7479 -1.0809,-50.7985 -12.9698,-20.5356 -31.3437,-69.1724 -34.5862,-109.1627 -3.2424,-39.9903 -14.0506,-1.0808 -14.0506,-1.0808 z"
       id="path1373"
       inkscape:connector-curvature="0" />
  </g>
  <g
     inkscape:groupmode="layer"
     id="layer1"
     inkscape:label="txt">
    <text
       xml:space="preserve"
       style="font-style:normal;font-variant:normal;font-weight:normal;font-stretch:normal;line-height:0%;font-family:Lavi;-inkscape-font-specification:Lavi;text-align:center;letter-spacing:0px;word-spacing:0px;text-anchor:middle;fill:#000000;fill-opacity:1;stroke:none"
       x="318.61392"
       y="193.67375"
       id="text4246"><tspan
         sodipodi:role="line"
         style="font-size:45px;line-height:1.20000005"
         x="318.61392"
         y="193.67375"
         id="tspan4252">Ser I...</tspan></text>
    <text
       xml:space="preserve"
       style="font-style:normal;font-variant:normal;font-weight:normal;font-stretch:normal;line-height:0%;font-family:Lavi;-inkscape-font-specification:Lavi;text-align:center;letter-spacing:0px;word-spacing:0px;text-anchor:middle;fill:#000000;fill-opacity:1;stroke:none"
       x="528.04688"
       y="265.45801"
       id="text4246-3"><tspan
         sodipodi:role="line"
         style="font-size:45px;line-height:1.20000005"
         x="528.04688"
         y="265.45801"
         id="tspan899">Jeg tænkte igen</tspan><tspan
         sodipodi:role="line"
         style="font-size:45px;line-height:1.20000005"
         x="528.04688"
         y="319.45801"
         id="tspan95">på sikkerheden...</tspan></text>
    <text
       xml:space="preserve"
       style="font-style:normal;font-variant:normal;font-weight:normal;font-stretch:normal;line-height:0%;font-family:Lavi;-inkscape-font-specification:Lavi;text-align:center;letter-spacing:0px;word-spacing:0px;text-anchor:middle;fill:#000000;fill-opacity:1;stroke:none"
       x="1203.0967"
       y="181.41882"
       id="text4246-3-7"><tspan
         sodipodi:role="line"
         style="font-size:45px;line-height:1.20000005"
         x="1203.0967"
         y="181.41882"
         id="tspan937">Så mange unge</tspan><tspan
         sodipodi:role="line"
         style="font-size:45px;line-height:1.20000005"
         x="1203.0967"
         y="235.41882"
         id="tspan115">konger og dronninger</tspan><tspan
         sodipodi:role="line"
         style="font-size:45px;line-height:1.20000005"
         x="1203.0967"
         y="289.41882"
         id="tspan120">er blevet dræbt på</tspan><tspan
         sodipodi:role="line"
         style="font-size:45px;line-height:1.20000005"
         x="1211.0068"
         y="343.41882"
         id="tspan117">deres kroningsdag. </tspan></text>
    <text
       xml:space="preserve"
       style="font-style:normal;font-variant:normal;font-weight:normal;font-stretch:normal;line-height:0%;font-family:Lavi;-inkscape-font-specification:Lavi;text-align:center;letter-spacing:0px;word-spacing:0px;text-anchor:middle;fill:#000000;fill-opacity:1;stroke:none"
       x="1216.4489"
       y="463.01553"
       id="text4246-3-7-7"><tspan
         sodipodi:role="line"
         style="font-size:45px;line-height:1.20000005"
         x="1216.4489"
         y="463.01553"
         id="tspan903">Min familie</tspan><tspan
         sodipodi:role="line"
         style="font-size:45px;line-height:1.20000005"
         x="1216.4489"
         y="517.01556"
         id="tspan110">er ikke blevet</tspan><tspan
         sodipodi:role="line"
         style="font-size:45px;line-height:1.20000005"
         x="1216.4489"
         y="534.42407"
         id="tspan121" /><tspan
         sodipodi:role="line"
         style="font-size:45px;line-height:1.20000005"
         x="1216.4489"
         y="571.01556"
         id="tspan140">skånet.</tspan></text>
    <text
       xml:space="preserve"
       style="font-style:normal;font-variant:normal;font-weight:normal;font-stretch:normal;line-height:0%;font-family:Lavi;-inkscape-font-specification:Lavi;text-align:center;letter-spacing:0px;word-spacing:0px;text-anchor:middle;fill:#000000;fill-opacity:1;stroke:none"
       x="1961.5282"
       y="176.76515"
       id="text4246-3-7-7-6"><tspan
         sodipodi:role="line"
         style="font-size:45px;line-height:1.20000005"
         x="1961.5282"
         y="176.76515"
         id="tspan986">Og om nogle timer kommer</tspan><tspan
         sodipodi:role="line"
         style="font-size:45px;line-height:1.20000005"
         x="1961.5282"
         y="230.76515"
         id="tspan143">tusindvis af gæster fra hele</tspan><tspan
         sodipodi:role="line"
         style="font-size:45px;line-height:1.20000005"
         x="1961.5282"
         y="284.76517"
         id="tspan147">verden, og jeg får al</tspan><tspan
         sodipodi:role="line"
         style="font-size:45px;line-height:1.20000005"
         x="1969.4384"
         y="338.76517"
         id="tspan132">opmærksomheden. </tspan><tspan
         sodipodi:role="line"
         style="font-size:45px;line-height:1.20000005"
         x="1961.5282"
         y="356.17371"
         id="tspan968" /><tspan
         sodipodi:role="line"
         style="font-size:45px;line-height:1.20000005"
         x="1961.5282"
         y="356.17371"
         id="tspan970" /><tspan
         sodipodi:role="line"
         style="font-size:45px;line-height:1.20000005"
         x="1961.5282"
         y="356.17371"
         id="tspan972" /></text>
    <text
       xml:space="preserve"
       style="font-style:normal;font-variant:normal;font-weight:normal;font-stretch:normal;line-height:0%;font-family:Lavi;-inkscape-font-specification:Lavi;text-align:center;letter-spacing:0px;word-spacing:0px;text-anchor:middle;fill:#000000;fill-opacity:1;stroke:none"
       x="1059.3418"
       y="1445.7167"
       id="text4246-3-7-7-6-7"><tspan
         sodipodi:role="line"
         style="font-size:45px;line-height:1.20000005"
         x="1059.3418"
         y="1445.7167"
         id="tspan1007">Bare rolig,</tspan><tspan
         sodipodi:role="line"
         style="font-size:45px;line-height:1.20000005"
         x="1059.3418"
         y="1499.7167"
         id="tspan155">Koriander</tspan></text>
    <text
       xml:space="preserve"
       style="font-style:normal;font-variant:normal;font-weight:normal;font-stretch:normal;line-height:0%;font-family:Lavi;-inkscape-font-specification:Lavi;text-align:center;letter-spacing:0px;word-spacing:0px;text-anchor:middle;fill:#000000;fill-opacity:1;stroke:none"
       x="1957.3252"
       y="447.72366"
       id="text4246-3-7-7-6-7-7"><tspan
         sodipodi:role="line"
         style="font-size:45px;line-height:1.20000005"
         x="1957.3252"
         y="447.72366"
         id="tspan990">Jeg er virkelig,</tspan><tspan
         sodipodi:role="line"
         style="font-size:45px;line-height:1.20000005"
         x="1957.3252"
         y="501.72366"
         id="tspan151">virkelig bange!</tspan></text>
    <text
       xml:space="preserve"
       style="font-style:normal;font-variant:normal;font-weight:normal;font-stretch:normal;line-height:0%;font-family:Lavi;-inkscape-font-specification:Lavi;text-align:center;letter-spacing:0px;word-spacing:0px;text-anchor:middle;fill:#000000;fill-opacity:1;stroke:none"
       x="2121.4336"
       y="1547.2563"
       id="text4246-3-7-7-6-7-2"><tspan
         sodipodi:role="line"
         style="font-size:45px;line-height:1.20000005"
         x="2121.4336"
         y="1547.2563"
         id="tspan1011">Vi følger</tspan><tspan
         sodipodi:role="line"
         style="font-size:45px;line-height:1.20000005"
         x="2121.4336"
         y="1601.2563"
         id="tspan159">vores plan.</tspan></text>
    <text
       xml:space="preserve"
       style="font-style:normal;font-variant:normal;font-weight:normal;font-stretch:normal;line-height:0%;font-family:Lavi;-inkscape-font-specification:Lavi;text-align:center;letter-spacing:0px;word-spacing:0px;text-anchor:middle;fill:#000000;fill-opacity:1;stroke:none"
       x="2182.6404"
       y="1691.4915"
       id="text4246-3-7-7-6-7-2-9"><tspan
         sodipodi:role="line"
         style="font-size:45px;line-height:1.20000005"
         x="2182.6404"
         y="1691.4915"
         id="tspan1026">Shichimi og jeg</tspan><tspan
         sodipodi:role="line"
         style="font-size:45px;line-height:1.20000005"
         x="2182.6404"
         y="1745.4915"
         id="tspan176">er dine</tspan><tspan
         sodipodi:role="line"
         style="font-size:45px;line-height:1.20000005"
         x="2182.6404"
         y="1762.9"
         id="tspan178" /><tspan
         sodipodi:role="line"
         style="font-size:45px;line-height:1.20000005"
         x="2182.6404"
         y="1762.9"
         id="tspan180" /><tspan
         sodipodi:role="line"
         style="font-size:45px;line-height:1.20000005"
         x="2182.6404"
         y="1762.9"
         id="tspan182" /><tspan
         sodipodi:role="line"
         style="font-size:45px;line-height:1.20000005"
         x="2182.6404"
         y="1762.9"
         id="tspan184" /><tspan
         sodipodi:role="line"
         style="font-size:45px;line-height:1.20000005"
         x="2182.6404"
         y="1762.9"
         id="tspan186" /><tspan
         sodipodi:role="line"
         style="font-size:45px;line-height:1.20000005"
         x="2182.6404"
         y="1762.9"
         id="tspan188" /><tspan
         sodipodi:role="line"
         style="font-size:45px;line-height:1.20000005"
         x="2182.6404"
         y="1762.9"
         id="tspan190" /><tspan
         sodipodi:role="line"
         style="font-size:45px;line-height:1.20000005"
         x="2182.6404"
         y="1762.9"
         id="tspan192" /><tspan
         sodipodi:role="line"
         style="font-size:45px;line-height:1.20000005"
         x="2182.6404"
         y="1762.9"
         id="tspan194" /><tspan
         sodipodi:role="line"
         style="font-size:45px;line-height:1.20000005"
         x="2182.6404"
         y="1762.9"
         id="tspan196" /><tspan
         sodipodi:role="line"
         style="font-size:45px;line-height:1.20000005"
         x="2182.6404"
         y="1762.9"
         id="tspan198" /><tspan
         sodipodi:role="line"
         style="font-size:45px;line-height:1.20000005"
         x="2182.6404"
         y="1762.9"
         id="tspan200" /><tspan
         sodipodi:role="line"
         style="font-size:45px;line-height:1.20000005"
         x="2182.6404"
         y="1762.9"
         id="tspan202" /><tspan
         sodipodi:role="line"
         style="font-size:45px;line-height:1.20000005"
         x="2182.6404"
         y="1762.9"
         id="tspan204" /><tspan
         sodipodi:role="line"
         style="font-size:45px;line-height:1.20000005"
         x="2182.6404"
         y="1762.9"
         id="tspan206" /><tspan
         sodipodi:role="line"
         style="font-size:45px;line-height:1.20000005"
         x="2182.6404"
         y="1762.9"
         id="tspan208" /><tspan
         sodipodi:role="line"
         style="font-size:45px;line-height:1.20000005"
         x="2182.6404"
         y="1762.9"
         id="tspan210" /><tspan
         sodipodi:role="line"
         style="font-size:45px;line-height:1.20000005"
         x="2182.6404"
         y="1762.9"
         id="tspan212" /><tspan
         sodipodi:role="line"
         style="font-size:45px;line-height:1.20000005"
         x="2182.6404"
         y="1762.9"
         id="tspan214" /><tspan
         sodipodi:role="line"
         style="font-size:45px;line-height:1.20000005"
         x="2182.6404"
         y="1799.4915"
         id="tspan232">bodyguards.</tspan></text>
    <text
       xml:space="preserve"
       style="font-style:normal;font-variant:normal;font-weight:normal;font-stretch:normal;line-height:0%;font-family:Lavi;-inkscape-font-specification:Lavi;text-align:center;letter-spacing:0px;word-spacing:0px;text-anchor:middle;fill:#000000;fill-opacity:1;stroke:none"
       x="254.1396"
       y="2407.7466"
       id="text4246-3-7-7-6-7-2-9-6"><tspan
         sodipodi:role="line"
         style="font-size:45px;line-height:1.20000005"
         x="254.1396"
         y="2407.7466"
         id="tspan1121-3">Præcis.</tspan></text>
    <text
       xml:space="preserve"
       style="font-style:normal;font-variant:normal;font-weight:normal;font-stretch:normal;line-height:0%;font-family:Lavi;-inkscape-font-specification:Lavi;text-align:center;letter-spacing:0px;word-spacing:0px;text-anchor:middle;fill:#000000;fill-opacity:1;stroke:none"
       x="310.79276"
       y="2481.5852"
       id="text4246-3-7-7-6-7-2-9-6-1"><tspan
         sodipodi:role="line"
         style="font-size:45px;line-height:1.20000005"
         x="318.70291"
         y="2481.5852"
         id="tspan1046">Du burde tage </tspan><tspan
         sodipodi:role="line"
         style="font-size:45px;line-height:1.20000005"
         x="310.79276"
         y="2498.9937"
         id="tspan265" /><tspan
         sodipodi:role="line"
         style="font-size:45px;line-height:1.20000005"
         x="318.70291"
         y="2535.5852"
         id="tspan271"> en pause og </tspan><tspan
         sodipodi:role="line"
         style="font-size:45px;line-height:1.20000005"
         x="310.79276"
         y="2589.5852"
         id="tspan1050">tænke på noget.</tspan></text>
    <text
       xml:space="preserve"
       style="font-style:normal;font-variant:normal;font-weight:normal;font-stretch:normal;line-height:0%;font-family:Lavi;-inkscape-font-specification:Lavi;text-align:center;letter-spacing:0px;word-spacing:0px;text-anchor:middle;fill:#000000;fill-opacity:1;stroke:none"
       x="612.41107"
       y="2544.4858"
       id="text4246-3-7-7-6-7-2-9-6-1-4"><tspan
         sodipodi:role="line"
         style="font-size:45px;line-height:1.20000005"
         x="612.41107"
         y="2544.4858"
         id="tspan1183-0">OK.</tspan></text>
    <text
       xml:space="preserve"
       style="font-style:normal;font-variant:normal;font-weight:normal;font-stretch:normal;line-height:0%;font-family:Lavi;-inkscape-font-specification:Lavi;text-align:center;letter-spacing:0px;word-spacing:0px;text-anchor:middle;fill:#000000;fill-opacity:1;stroke:none"
       x="930.10059"
       y="2411.3877"
       id="text4246-3-7-7-6-7-2-9-6-1-4-3"><tspan
         sodipodi:role="line"
         style="font-size:45px;line-height:1.20000005"
         x="930.10059"
         y="2411.3877"
         id="tspan1063">Hey! Hvad nu hvis</tspan><tspan
         sodipodi:role="line"
         style="font-size:45px;line-height:1.20000005"
         x="930.10059"
         y="2465.3877"
         id="tspan284">jeg viste jer min</tspan><tspan
         sodipodi:role="line"
         style="font-size:45px;line-height:1.20000005"
         x="930.10059"
         y="2519.3877"
         id="tspan290">nyeste opfindelse?</tspan></text>
    <text
       xml:space="preserve"
       style="font-style:normal;font-variant:normal;font-weight:normal;font-stretch:normal;line-height:0%;font-family:Lavi;-inkscape-font-specification:Lavi;text-align:center;letter-spacing:0px;word-spacing:0px;text-anchor:middle;fill:#000000;fill-opacity:1;stroke:none"
       x="1429.6105"
       y="2501.0703"
       id="text4246-3-7-7-6-7-2-9-6-1-4-3-1"><tspan
         sodipodi:role="line"
         style="font-size:45px;line-height:1.20000005"
         x="1429.6105"
         y="2501.0703"
         id="tspan1249-3">...</tspan></text>
    <text
       xml:space="preserve"
       style="font-style:normal;font-variant:normal;font-weight:normal;font-stretch:normal;line-height:0%;font-family:Lavi;-inkscape-font-specification:Lavi;text-align:center;letter-spacing:0px;word-spacing:0px;text-anchor:middle;fill:#000000;fill-opacity:1;stroke:none"
       x="2014.7648"
       y="2425.7151"
       id="text4246-3-7-7-6-7-2-9-6-1-4-3-1-2"><tspan
         sodipodi:role="line"
         style="font-size:45px;line-height:1.20000005"
         x="2014.7648"
         y="2425.7151"
         id="tspan1076">Den er nede</tspan><tspan
         sodipodi:role="line"
         style="font-size:45px;line-height:1.20000005"
         x="2014.7648"
         y="2479.7151"
         id="tspan294">på mit værksted.</tspan></text>
    <text
       xml:space="preserve"
       style="font-style:normal;font-variant:normal;font-weight:normal;font-stretch:normal;line-height:0%;font-family:Lavi;-inkscape-font-specification:Lavi;text-align:center;letter-spacing:0px;word-spacing:0px;text-anchor:middle;fill:#000000;fill-opacity:1;stroke:none"
       x="2118.0996"
       y="2553.5225"
       id="text4246-3-7-7-6-7-2-9-6-1-4-3-1-2-6"><tspan
         sodipodi:role="line"
         style="font-size:45px;line-height:1.20000005"
         x="2118.0996"
         y="2553.5225"
         id="tspan296">Følg efter mig.</tspan></text>
  </g>
</svg>
