<?xml version="1.0" encoding="UTF-8" standalone="no"?>
<svg
   id="svg2"
   version="1.1"
   inkscape:version="1.1.1 (3bf5ae0d25, 2021-09-20, custom)"
   width="2481"
   height="3503"
   sodipodi:docname="E33P04.svg"
   xmlns:inkscape="http://www.inkscape.org/namespaces/inkscape"
   xmlns:sodipodi="http://sodipodi.sourceforge.net/DTD/sodipodi-0.dtd"
   xmlns:xlink="http://www.w3.org/1999/xlink"
   xmlns="http://www.w3.org/2000/svg"
   xmlns:svg="http://www.w3.org/2000/svg"
   xmlns:rdf="http://www.w3.org/1999/02/22-rdf-syntax-ns#"
   xmlns:cc="http://creativecommons.org/ns#"
   xmlns:dc="http://purl.org/dc/elements/1.1/">
  <metadata
     id="metadata8">
    <rdf:RDF>
      <cc:Work
         rdf:about="">
        <dc:format>image/svg+xml</dc:format>
        <dc:type
           rdf:resource="http://purl.org/dc/dcmitype/StillImage" />
        <dc:title />
      </cc:Work>
    </rdf:RDF>
  </metadata>
  <defs
     id="defs6">
    <filter
       inkscape:label="army-sound"
       height="1.251488"
       y="-0.125744"
       width="1.1016289"
       x="-0.050814454"
       id="filter1058"
       style="color-interpolation-filters:sRGB"
       inkscape:collect="always">
      <feGaussianBlur
         id="feGaussianBlur1060"
         stdDeviation="0.67074246"
         inkscape:collect="always" />
    </filter>
    <filter
       inkscape:label="army-sound_background"
       height="1.4653588"
       y="-0.23267942"
       width="1.1695454"
       x="-0.084772694"
       id="filter987"
       style="color-interpolation-filters:sRGB"
       inkscape:collect="always">
      <feGaussianBlur
         id="feGaussianBlur989"
         stdDeviation="1.036897"
         inkscape:collect="always" />
    </filter>
  </defs>
  <sodipodi:namedview
     pagecolor="#ffffff"
     bordercolor="#666666"
     borderopacity="1"
     objecttolerance="10"
     gridtolerance="10"
     guidetolerance="10"
     inkscape:pageopacity="0"
     inkscape:pageshadow="2"
     inkscape:window-width="1888"
     inkscape:window-height="1146"
     id="namedview4"
     showgrid="false"
     inkscape:zoom="0.23000001"
     inkscape:cx="1173.913"
     inkscape:cy="1393.4782"
     inkscape:window-x="32"
     inkscape:window-y="0"
     inkscape:window-maximized="1"
     inkscape:current-layer="layer1"
     inkscape:document-rotation="0"
     inkscape:snap-global="false"
     inkscape:pagecheckerboard="0" />
  <g
     inkscape:groupmode="layer"
     id="layer2"
     inkscape:label="artwork"
     sodipodi:insensitive="true">
    <image
       xlink:href="../gfx_Pepper-and-Carrot_by-David-Revoy_E33P04.png"
       y="0"
       x="0"
       id="image10"
       height="3503"
       width="2481" />
  </g>
  <g
     style="display:inline"
     inkscape:groupmode="layer"
     id="layer3"
     inkscape:label="speechbubbles">
    <path
       sodipodi:nodetypes="ccccccsc"
       inkscape:connector-curvature="0"
       id="path5901"
       d="m 1302.3416,1319.8982 c -24.8746,9.0048 -67.4708,23.7919 -93.1422,40.3841 -15.4967,7.7702 -49.0139,49.9002 -53.3818,63.5295 -28.0024,1.4421 -56.3566,18.527 -83.4317,53.1858 24.2653,-39.2993 52.2934,-66.9375 76.4015,-69.4094 0.2285,-8.6465 24.7585,-44.5732 46.1338,-59.9591 9.7072,-6.7818 86.9034,-47.1926 117.7711,-62.4432 44.8072,-22.1377 -10.3507,34.7123 -10.3507,34.7123 z"
       style="color:#000000;display:inline;overflow:visible;visibility:visible;fill:#ffffff;fill-opacity:1;fill-rule:nonzero;stroke:none;stroke-width:0.999997px;marker:none;enable-background:accumulate" />
    <path
       sodipodi:nodetypes="cccccccccccccccccccccccccccccccccccccccc"
       inkscape:connector-curvature="0"
       id="path4323-0"
       d="m 1395.6681,1160.2472 c -14.6484,0.3966 -29.2854,1.3853 -43.9419,1.3382 -22.1421,0.1392 -44.2668,-1.1434 -66.3744,-2.4551 -5.3868,0.087 -10.4677,2.5754 -15.4731,4.6944 -5.8523,2.7484 -8.9895,6.9693 -24.0813,-5.6172 10.1559,25.841 -20.3092,29.3962 -40.9133,28.0506 14.888,12.1369 31.095,38.3473 -16.0869,52.8575 -0.935,0.2171 -0.039,1.1557 0.524,0.8272 54.1024,6.7675 13.3052,30.5972 -12.3534,43.7532 9.1377,-1.73 18.346,-3.4986 27.6294,-3.1585 1.2875,7.6885 -8.0073,11.6048 -12.3575,14.9171 37.1659,-1.8771 30.7539,9.1743 8.9544,29.4044 37.3568,-16.3672 69.509,-15.367 48.9628,3.4731 -4.7428,2.7777 -7.8076,16.9187 10.2277,12.1874 52.2388,-23.9633 44.4608,-1.1833 36.4512,16.4946 21.6451,-19.7712 38.6074,-29.0591 37.7276,5.8687 11.2309,-36.0811 25.5702,-39.6652 52.4897,-26.076 -2.7026,-30.1956 41.3358,-2.4723 50.1052,2.3438 -1.7116,-23.417 13.8733,-18.577 37.7855,-0.7212 4.1679,-9.4171 13.1769,-15.0754 21.998,-14.6175 16.0943,-1.3355 32.2325,4.049 46.2258,13.3702 -4.6255,-23.3696 49.5189,-12.098 58.0678,1.1463 1.184,-9.0934 8.4473,-16.5115 16.1952,-16.1271 9.4741,-0.7224 18.8244,1.7455 28.1228,3.5269 9.4679,2.2815 18.6764,5.8188 27.8857,9.2473 2.5399,-4.3129 6.74,-8.1012 11.3827,-7.2837 10.0031,0.8345 19.2587,5.8335 28.7502,9.2482 5.2198,2.1793 10.4363,4.3704 15.6506,6.5685 0.077,-4.3261 -0.8668,-9.2176 1.4879,-12.962 3.9949,-4.8888 10.3175,-5.565 15.6292,-4.0338 10.4077,1.6985 20.5253,5.1715 30.6684,8.3312 -11.5815,-35.1065 30.2919,-18.7012 45.2195,-15.2001 -16.5856,-21.4846 -0.7193,-26.7281 15.8321,-27.8579 -20.1695,-18.3339 -9.158,-30.19 10.7093,-38.1909 -30.9569,-3.1002 -28.2142,-30.7883 8.0216,-43.7833 -37.9473,1.4431 -68.0471,-20.501 7.4433,-39.9801 -100.0402,-7.4074 -242.8025,4.5974 -342.924,-0.6547 -37.2,-1.2945 -74.5081,-2.0344 -111.4684,-7.7121 -4.716,-0.5316 -9.4366,-1.0521 -14.1734,-1.2181 z"
       style="fill:#ffffff;fill-rule:evenodd;stroke:none;stroke-width:0.869018px;stroke-linecap:butt;stroke-linejoin:miter;stroke-opacity:1" />
    <path
       sodipodi:nodetypes="cccccccccccc"
       inkscape:connector-curvature="0"
       id="path4032-7"
       d="m 1181.8075,432.89146 c 41.586,-19.48659 86.9142,-48.07648 110.3061,-55.71528 -12.0034,-5.38932 -26.511,-11.18011 -27.9957,-14.88305 16.5074,-10.725 22.7761,-12.17757 39.4396,-21.02956 -6.6685,-3.42995 -17.8015,-9.51329 -20.5031,-13.67703 31.8801,-33.37962 143.235,-75.0414 240.016,-59.63147 l 16.3308,-25.69172 c -121.3884,-9.14073 -264.417,61.38626 -280.8502,84.69247 l 21.476,13.45135 c -12.4646,8.51999 -25.2829,16.53403 -39.6844,22.29149 7.9799,4.791 13.2038,9.58202 28.4279,14.37302 z"
       style="color:#000000;display:inline;overflow:visible;visibility:visible;fill:#ffffff;fill-opacity:1;fill-rule:nonzero;stroke:none;stroke-width:1px;marker:none;enable-background:accumulate" />
    <path
       sodipodi:nodetypes="ccccccccccccccccccccccccc"
       inkscape:connector-curvature="0"
       id="path4508-2"
       d="m 1450.0628,153.41697 c 84.7121,68.76531 120.6891,35.78334 111.1307,-12.84239 31.5629,44.77791 53.8707,60.15607 65.9778,28.23827 21.279,31.85113 59.1748,36.83036 61.6403,0.34429 20.183,37.13364 40.6139,38.21413 58.454,-4.97751 7.9322,38.28599 26.2626,49.7113 53.5465,3.31952 4.8871,44.93975 24.0333,42.15674 49.6581,-0.40743 -5.9059,66.24891 40.5319,4.58355 70.3111,-30.0225 -22.2998,61.95669 -0.4895,58.94429 23.1626,36.39575 -12.4444,36.63234 27.5902,15.02169 88.6451,-31.7098 -30.5407,34.54409 -99.1016,87.80456 -45.7591,82.97805 -7.439,10.18342 -46.3991,24.01513 32.6204,40.13357 -61.173,11.31898 -32.6253,31.63509 -1.8769,40.58698 -33.1877,3.02975 -62.2823,1.51586 -9.3845,45.99691 -50.1839,-22.88973 -72.6499,-37.33121 -54.4313,-5.41083 -42.1536,-31.0946 -80.092,-27.10062 -72.9828,9.29542 -19.3325,-37.94649 -70.9867,-37.28006 -83.2269,7.121 -7.6989,-42.18132 -33.089,-54.67837 -90.9842,-6.99174 9.8003,-48.94253 -40.7018,-30.96539 -66.5373,-1.40247 17.7738,-34.40178 -25.5794,-37.17414 -63.0524,3.56308 22.397,-41.34162 -22.3933,-56.02814 -69.9266,7.35483 18.5161,-98.2346 -46.8832,-57.72645 -86.5848,-44.92576 30.3582,-30.37779 89.7931,-52.85174 17.3417,-65.32413 73.3763,-0.52645 63.4046,-10.77836 24.1967,-39.91942 43.1148,8.00471 30.9846,-12.99191 -11.9382,-61.39369 z"
       style="display:inline;fill:#ffffff;fill-rule:evenodd;stroke:none;stroke-width:0.853077px;stroke-linecap:butt;stroke-linejoin:miter;stroke-opacity:1" />
    <path
       inkscape:connector-curvature="0"
       id="path3072-56"
       d="m 605.01298,766.03759 c 1.97639,13.68735 4.89813,27.94334 1.54437,41.71842 -2.14174,8.3941 -7.44224,15.62787 -13.25861,21.89179 -7.51416,7.6917 -16.25069,14.2538 -25.79276,19.21693 -14.46,7.41261 -30.74351,11.91558 -43.16159,22.82403 -4.15158,4.87787 -4.72354,13.57308 0.86247,17.62488 7.36472,4.82439 16.60522,5.59784 25.16745,5.01692 10.01613,-1.82804 17.38325,-9.43186 24.53826,-16.06379 16.3121,-14.44251 31.93776,-30.69806 40.74022,-50.93509 7.42676,-20.39544 2.47014,-44.02052 -10.30582,-61.18667 -0.0959,-0.0344 -0.21387,-0.19298 -0.33399,-0.10742 z"
       style="color:#000000;display:inline;overflow:visible;visibility:visible;fill:#ffffff;fill-opacity:1;fill-rule:nonzero;stroke:none;stroke-width:1px;marker:none;enable-background:accumulate" />
    <path
       sodipodi:nodetypes="cccscsc"
       inkscape:connector-curvature="0"
       id="path3970-3"
       d="m 386.79434,792.49385 c -38.041,1.02776 -76.36207,8.98833 -110.26586,26.6729 -14.56585,7.75804 -27.08932,20.47968 -32.10895,36.45818 -7.3485,21.59102 -6.49563,45.41504 0.0395,67.09268 5.13048,16.08112 15.99333,30.43367 30.65344,38.96216 14.43085,8.9624 30.41495,15.34441 46.90239,19.34637 31.29006,7.1445 63.66594,7.35835 95.56432,5.65606 23.39851,-1.89128 46.15505,-8.17627 68.5166,-15.02481 15.42185,-5.11404 30.83938,-12.34641 41.73179,-24.7782 10.73348,-12.22673 16.41293,-28.26056 17.66368,-44.34736 2.36565,-19.81027 0.10629,-40.74282 -9.59904,-58.43408 -7.90721,-13.31568 -21.20168,-22.31145 -34.86442,-28.96035 -26.24751,-12.82798 -55.24729,-19.0278 -84.19675,-21.68686 -9.98757,-0.82774 -20.01631,-1.17475 -30.03674,-0.95669 z"
       style="color:#000000;display:inline;overflow:visible;visibility:visible;fill:#ffffff;fill-opacity:1;fill-rule:nonzero;stroke:none;stroke-width:0.734089px;marker:none;enable-background:accumulate" />
  </g>
  <g
     inkscape:groupmode="layer"
     id="layer1"
     inkscape:label="txt">
    <text
       inkscape:label="kingA"
       id="text4246-7-6-1-7-6"
       y="875.6076"
       x="398.42166"
       style="font-style:normal;font-variant:normal;font-weight:normal;font-stretch:normal;line-height:0%;font-family:Lavi;-inkscape-font-specification:Lavi;text-align:center;letter-spacing:0px;word-spacing:0px;text-anchor:middle;display:inline;fill:#000000;fill-opacity:1;stroke:none"
       xml:space="preserve"><tspan
         y="875.6076"
         x="398.42166"
         style="font-size:45px;line-height:1.25"
         sodipodi:role="line"
         id="tspan57">Za to smo</tspan><tspan
         y="931.8576"
         x="398.42166"
         style="font-size:45px;line-height:1.25"
         sodipodi:role="line"
         id="tspan5079">se izurili.</tspan></text>
    <text
       inkscape:label="kingB"
       transform="matrix(0.95440174,0,-0.25660425,1.0477768,0,0)"
       id="text4246-6-9-8-8"
       y="264.2337"
       x="1890.1622"
       style="font-style:normal;font-variant:normal;font-weight:normal;font-stretch:normal;font-size:14.5372px;line-height:0%;font-family:Lavi;-inkscape-font-specification:Lavi;text-align:center;letter-spacing:0px;word-spacing:0px;text-anchor:middle;fill:#000000;fill-opacity:1;stroke:#000000;stroke-width:2.40001;stroke-miterlimit:4;stroke-dasharray:none;stroke-opacity:1"
       xml:space="preserve"><tspan
         id="tspan4395-0"
         y="264.2337"
         x="1890.1622"
         style="font-size:52.0287px;line-height:1.25;stroke:#000000;stroke-width:2.40001;stroke-miterlimit:4;stroke-dasharray:none;stroke-opacity:1"
         sodipodi:role="line">NA MOJ ZNAK!</tspan></text>
    <text
       inkscape:label="warriorA"
       xml:space="preserve"
       style="font-style:normal;font-variant:normal;font-weight:normal;font-stretch:normal;font-size:8.2448px;line-height:0%;font-family:Lavi;-inkscape-font-specification:Lavi;letter-spacing:1.83751px;word-spacing:0px;display:inline;opacity:0.708356;fill:#b3cfde;fill-opacity:1;stroke:#302820;stroke-width:6.24756;stroke-miterlimit:4;stroke-dasharray:none;stroke-opacity:1;paint-order:stroke fill markers;filter:url(#filter1058)"
       x="1302.3322"
       y="1954.6715"
       id="use4516-8-2"
       transform="matrix(0.87298381,-0.39667522,-0.16116569,1.4302723,1280.2225,-1441.2945)"><tspan
         sodipodi:role="line"
         id="tspan4370-3-6"
         x="1302.3322"
         y="1954.6715"
         style="font-style:normal;font-variant:normal;font-weight:normal;font-stretch:normal;font-size:48.0947px;line-height:1.25;font-family:Lavi;-inkscape-font-specification:Lavi;fill:#ded5c0;fill-opacity:1;stroke:#302820;stroke-width:6.24756;stroke-miterlimit:4;stroke-dasharray:none;stroke-opacity:1;paint-order:stroke fill markers">Da gospodll!</tspan></text>
    <text
       inkscape:label="warriorB"
       transform="matrix(0.87298381,-0.39667522,-0.16116569,1.4302723,1089.34,-1406.6493)"
       id="use4516-8"
       y="1954.6715"
       x="1302.3322"
       style="font-style:normal;font-variant:normal;font-weight:normal;font-stretch:normal;font-size:8.2448px;line-height:0%;font-family:Lavi;-inkscape-font-specification:Lavi;letter-spacing:1.83751px;word-spacing:0px;display:inline;opacity:0.708356;fill:#b3cfde;fill-opacity:1;stroke:#302820;stroke-width:6.24756;stroke-miterlimit:4;stroke-dasharray:none;stroke-opacity:1;paint-order:stroke fill markers;filter:url(#filter1058)"
       xml:space="preserve"><tspan
         style="font-style:normal;font-variant:normal;font-weight:normal;font-stretch:normal;font-size:48.0947px;line-height:1.25;font-family:Lavi;-inkscape-font-specification:Lavi;fill:#ded5c0;fill-opacity:1;stroke:#302820;stroke-width:6.24756;stroke-miterlimit:4;stroke-dasharray:none;stroke-opacity:1;paint-order:stroke fill markers"
         y="1954.6715"
         x="1302.3322"
         id="tspan4370-3"
         sodipodi:role="line">Jaaaa!</tspan></text>
    <text
       inkscape:label="warriorC"
       xml:space="preserve"
       style="font-style:normal;font-variant:normal;font-weight:normal;font-stretch:normal;font-size:8.2448px;line-height:0%;font-family:Lavi;-inkscape-font-specification:Lavi;letter-spacing:1.83751px;word-spacing:0px;display:inline;opacity:0.708356;fill:#b3cfde;fill-opacity:1;stroke:#302820;stroke-width:6.24756;stroke-miterlimit:4;stroke-dasharray:none;stroke-opacity:1;paint-order:stroke fill markers;filter:url(#filter1058)"
       x="1302.3322"
       y="1954.6715"
       id="use4516-8-3"
       transform="matrix(0.87298381,-0.39667522,-0.16116569,1.4302723,918.80163,-1385.7291)"><tspan
         sodipodi:role="line"
         id="tspan4370-3-7"
         x="1302.3322"
         y="1954.6715"
         style="font-style:normal;font-variant:normal;font-weight:normal;font-stretch:normal;font-size:48.0947px;line-height:1.25;font-family:Lavi;-inkscape-font-specification:Lavi;fill:#ded5c0;fill-opacity:1;stroke:#302820;stroke-width:6.24756;stroke-miterlimit:4;stroke-dasharray:none;stroke-opacity:1;paint-order:stroke fill markers">Hoo!</tspan></text>
    <text
       inkscape:label="warriorD"
       transform="matrix(0.50551861,-0.22852645,-0.0933262,0.82398656,1750.9332,-438.88491)"
       id="use4516-8-2-7"
       y="1954.6715"
       x="1302.3322"
       style="font-style:normal;font-variant:normal;font-weight:normal;font-stretch:normal;font-size:8.2448px;line-height:0%;font-family:Lavi;-inkscape-font-specification:Lavi;letter-spacing:1.83751px;word-spacing:0px;display:inline;opacity:0.369456;fill:#b3cfde;fill-opacity:1;stroke:#302820;stroke-width:10.8167;stroke-miterlimit:4;stroke-dasharray:none;stroke-opacity:1;paint-order:stroke fill markers;filter:url(#filter987)"
       xml:space="preserve"><tspan
         style="font-style:normal;font-variant:normal;font-weight:normal;font-stretch:normal;font-size:48.0947px;line-height:1.25;font-family:Lavi;-inkscape-font-specification:Lavi;fill:#ded5c0;fill-opacity:1;stroke:#302820;stroke-width:10.8167;stroke-miterlimit:4;stroke-dasharray:none;stroke-opacity:1;paint-order:stroke fill markers"
         y="1954.6715"
         x="1302.3322"
         id="tspan4370-3-6-5"
         sodipodi:role="line">Hoo!</tspan></text>
    <text
       inkscape:label="warriorE"
       xml:space="preserve"
       style="font-style:normal;font-variant:normal;font-weight:normal;font-stretch:normal;font-size:8.2448px;line-height:0%;font-family:Lavi;-inkscape-font-specification:Lavi;letter-spacing:1.83751px;word-spacing:0px;display:inline;opacity:0.369456;fill:#b3cfde;fill-opacity:1;stroke:#302820;stroke-width:10.8167;stroke-miterlimit:4;stroke-dasharray:none;stroke-opacity:1;paint-order:stroke fill markers;filter:url(#filter987)"
       x="1302.3322"
       y="1954.6715"
       id="use4516-8-2-7-1"
       transform="matrix(0.50551861,-0.22852645,-0.0933262,0.82398656,1579.3719,-403.81422)"><tspan
         sodipodi:role="line"
         id="tspan4370-3-6-5-2"
         x="1302.3322"
         y="1954.6715"
         style="font-style:normal;font-variant:normal;font-weight:normal;font-stretch:normal;font-size:48.0947px;line-height:1.25;font-family:Lavi;-inkscape-font-specification:Lavi;fill:#ded5c0;fill-opacity:1;stroke:#302820;stroke-width:10.8167;stroke-miterlimit:4;stroke-dasharray:none;stroke-opacity:1;paint-order:stroke fill markers">Jaaa!</tspan></text>
    <text
       inkscape:label="warriorF"
       transform="matrix(0.50551861,-0.22852645,-0.0933262,0.82398656,1409.4065,-380.10863)"
       id="use4516-8-2-7-1-1"
       y="1954.6715"
       x="1302.3322"
       style="font-style:normal;font-variant:normal;font-weight:normal;font-stretch:normal;font-size:8.2448px;line-height:0%;font-family:Lavi;-inkscape-font-specification:Lavi;letter-spacing:1.83751px;word-spacing:0px;display:inline;opacity:0.369456;fill:#b3cfde;fill-opacity:1;stroke:#302820;stroke-width:10.8167;stroke-miterlimit:4;stroke-dasharray:none;stroke-opacity:1;paint-order:stroke fill markers;filter:url(#filter987)"
       xml:space="preserve"><tspan
         style="font-style:normal;font-variant:normal;font-weight:normal;font-stretch:normal;font-size:48.0947px;line-height:1.25;font-family:Lavi;-inkscape-font-specification:Lavi;fill:#ded5c0;fill-opacity:1;stroke:#302820;stroke-width:10.8167;stroke-miterlimit:4;stroke-dasharray:none;stroke-opacity:1;paint-order:stroke fill markers"
         y="1954.6715"
         x="1302.3322"
         id="tspan4370-3-6-5-2-5"
         sodipodi:role="line">Hoo!</tspan></text>
    <text
       inkscape:label="warriorG"
       xml:space="preserve"
       style="font-style:normal;font-variant:normal;font-weight:normal;font-stretch:normal;font-size:8.2448px;line-height:0%;font-family:Lavi;-inkscape-font-specification:Lavi;letter-spacing:1.83751px;word-spacing:0px;display:inline;opacity:0.369456;fill:#b3cfde;fill-opacity:1;stroke:#302820;stroke-width:10.8167;stroke-miterlimit:4;stroke-dasharray:none;stroke-opacity:1;paint-order:stroke fill markers;filter:url(#filter987)"
       x="1302.3322"
       y="1954.6715"
       id="use4516-8-2-7-1-1-7"
       transform="matrix(0.50551861,-0.22852645,-0.0933262,0.82398656,1249.3194,-363.84199)"><tspan
         sodipodi:role="line"
         id="tspan4370-3-6-5-2-5-1"
         x="1302.3322"
         y="1954.6715"
         style="font-style:normal;font-variant:normal;font-weight:normal;font-stretch:normal;font-size:48.0947px;line-height:1.25;font-family:Lavi;-inkscape-font-specification:Lavi;fill:#ded5c0;fill-opacity:1;stroke:#302820;stroke-width:10.8167;stroke-miterlimit:4;stroke-dasharray:none;stroke-opacity:1;paint-order:stroke fill markers">Da gospod!</tspan></text>
    <text
       inkscape:label="warriorH"
       transform="matrix(0.50551861,-0.22852645,-0.0933262,0.82398656,1117.8153,-332.94981)"
       id="use4516-8-2-7-1-1-7-9"
       y="1954.6715"
       x="1302.3322"
       style="font-style:normal;font-variant:normal;font-weight:normal;font-stretch:normal;font-size:8.2448px;line-height:0%;font-family:Lavi;-inkscape-font-specification:Lavi;letter-spacing:1.83751px;word-spacing:0px;display:inline;opacity:0.369456;fill:#b3cfde;fill-opacity:1;stroke:#302820;stroke-width:10.8167;stroke-miterlimit:4;stroke-dasharray:none;stroke-opacity:1;paint-order:stroke fill markers;filter:url(#filter987)"
       xml:space="preserve"><tspan
         style="font-style:normal;font-variant:normal;font-weight:normal;font-stretch:normal;font-size:48.0947px;line-height:1.25;font-family:Lavi;-inkscape-font-specification:Lavi;fill:#ded5c0;fill-opacity:1;stroke:#302820;stroke-width:10.8167;stroke-miterlimit:4;stroke-dasharray:none;stroke-opacity:1;paint-order:stroke fill markers"
         y="1954.6715"
         x="1302.3322"
         id="tspan4370-3-6-5-2-5-1-5"
         sodipodi:role="line">Jaa!</tspan></text>
    <text
       inkscape:label="warriorI"
       xml:space="preserve"
       style="font-style:normal;font-variant:normal;font-weight:normal;font-stretch:normal;font-size:8.2448px;line-height:0%;font-family:Lavi;-inkscape-font-specification:Lavi;letter-spacing:1.83751px;word-spacing:0px;display:inline;opacity:0.369456;fill:#b3cfde;fill-opacity:1;stroke:#302820;stroke-width:12.9782;stroke-miterlimit:4;stroke-dasharray:none;stroke-opacity:1;paint-order:stroke fill markers;filter:url(#filter987)"
       x="1302.3322"
       y="1954.6715"
       id="use4516-8-2-7-1-1-7-9-1"
       transform="matrix(0.42167905,-0.19030679,-0.07784818,0.68617982,1055.5205,-94.195675)"><tspan
         sodipodi:role="line"
         id="tspan4370-3-6-5-2-5-1-5-1"
         x="1302.3322"
         y="1954.6715"
         style="font-style:normal;font-variant:normal;font-weight:normal;font-stretch:normal;font-size:48.0947px;line-height:1.25;font-family:Lavi;-inkscape-font-specification:Lavi;fill:#ded5c0;fill-opacity:1;stroke:#302820;stroke-width:12.9782;stroke-miterlimit:4;stroke-dasharray:none;stroke-opacity:1;paint-order:stroke fill markers">Da gospod!</tspan></text>
    <text
       inkscape:label="kingC"
       xml:space="preserve"
       style="font-style:normal;font-variant:normal;font-weight:normal;font-stretch:normal;font-size:18.4247px;line-height:0%;font-family:Lavi;-inkscape-font-specification:Lavi;text-align:center;letter-spacing:0px;word-spacing:0px;text-anchor:middle;fill:#000000;fill-opacity:1;stroke:#000000;stroke-width:2.40001;stroke-miterlimit:4;stroke-dasharray:none;stroke-opacity:1"
       x="1920.3596"
       y="1202.5287"
       id="text4246-6-9-8-8-3"
       transform="matrix(0.9493189,0,-0.25523766,1.0533868,0,0)"><tspan
         sodipodi:role="line"
         style="font-size:65.9419px;line-height:1.25;stroke:#000000;stroke-width:2.40001;stroke-miterlimit:4;stroke-dasharray:none;stroke-opacity:1"
         x="1920.3596"
         y="1202.5287"
         id="tspan4395-0-6">V NAAPAAAAD!!!</tspan></text>
    <text
       inkscape:label="warriorJ"
       xml:space="preserve"
       style="font-style:normal;font-variant:normal;font-weight:normal;font-stretch:normal;font-size:8.2448px;line-height:0%;font-family:Lavi;-inkscape-font-specification:Lavi;letter-spacing:1.83751px;word-spacing:0px;display:inline;opacity:0.386112;fill:#b3cfde;fill-opacity:1;stroke:#302820;stroke-width:8.02114;stroke-miterlimit:4;stroke-dasharray:none;stroke-opacity:1;paint-order:stroke fill markers;filter:url(#filter987)"
       x="1302.3322"
       y="1954.6715"
       id="use4516-8-7"
       transform="matrix(0.76725519,-0.2738102,-0.14164663,0.98726394,369.54189,276.96994)"><tspan
         sodipodi:role="line"
         id="tspan4370-3-0"
         x="1302.3322"
         y="1954.6715"
         style="font-style:normal;font-variant:normal;font-weight:normal;font-stretch:normal;font-size:48.0947px;line-height:1.25;font-family:Lavi;-inkscape-font-specification:Lavi;fill:#ded5c0;fill-opacity:1;stroke:#302820;stroke-width:8.02114;stroke-miterlimit:4;stroke-dasharray:none;stroke-opacity:1;paint-order:stroke fill markers">Jaaa!</tspan></text>
    <text
       inkscape:label="warriorK"
       transform="matrix(0.68010769,-0.24225481,-0.12555791,0.87348622,256.1633,518.50004)"
       id="use4516-8-7-6"
       y="1954.6715"
       x="1302.3322"
       style="font-style:normal;font-variant:normal;font-weight:normal;font-stretch:normal;font-size:8.2448px;line-height:0%;font-family:Lavi;-inkscape-font-specification:Lavi;letter-spacing:1.83751px;word-spacing:0px;display:inline;opacity:0.386112;fill:#b3cfde;fill-opacity:1;stroke:#302820;stroke-width:9.05745;stroke-miterlimit:4;stroke-dasharray:none;stroke-opacity:1;paint-order:stroke fill markers;filter:url(#filter987)"
       xml:space="preserve"><tspan
         style="font-style:normal;font-variant:normal;font-weight:normal;font-stretch:normal;font-size:48.0947px;line-height:1.25;font-family:Lavi;-inkscape-font-specification:Lavi;fill:#ded5c0;fill-opacity:1;stroke:#302820;stroke-width:9.05745;stroke-miterlimit:4;stroke-dasharray:none;stroke-opacity:1;paint-order:stroke fill markers"
         y="1954.6715"
         x="1302.3322"
         id="tspan4370-3-0-4"
         sodipodi:role="line">Los!</tspan></text>
    <text
       inkscape:label="warriorL"
       xml:space="preserve"
       style="font-style:normal;font-variant:normal;font-weight:normal;font-stretch:normal;font-size:8.2448px;line-height:0%;font-family:Lavi;-inkscape-font-specification:Lavi;letter-spacing:1.83751px;word-spacing:0px;display:inline;opacity:0.386112;fill:#b3cfde;fill-opacity:1;stroke:#302820;stroke-width:9.05745;stroke-miterlimit:4;stroke-dasharray:none;stroke-opacity:1;paint-order:stroke fill markers;filter:url(#filter987)"
       x="1302.3322"
       y="1954.6715"
       id="use4516-8-7-6-9"
       transform="matrix(0.68010769,-0.24225481,-0.12555791,0.87348622,520.65577,484.96621)"><tspan
         sodipodi:role="line"
         id="tspan4370-3-0-4-8"
         x="1302.3322"
         y="1954.6715"
         style="font-style:normal;font-variant:normal;font-weight:normal;font-stretch:normal;font-size:48.0947px;line-height:1.25;font-family:Lavi;-inkscape-font-specification:Lavi;fill:#ded5c0;fill-opacity:1;stroke:#302820;stroke-width:9.05745;stroke-miterlimit:4;stroke-dasharray:none;stroke-opacity:1;paint-order:stroke fill markers">Jawoll!</tspan></text>
  </g>
</svg>
