<?xml version="1.0" encoding="UTF-8" standalone="no"?>
<svg
   xmlns:dc="http://purl.org/dc/elements/1.1/"
   xmlns:cc="http://creativecommons.org/ns#"
   xmlns:rdf="http://www.w3.org/1999/02/22-rdf-syntax-ns#"
   xmlns:svg="http://www.w3.org/2000/svg"
   xmlns="http://www.w3.org/2000/svg"
   xmlns:xlink="http://www.w3.org/1999/xlink"
   xmlns:sodipodi="http://sodipodi.sourceforge.net/DTD/sodipodi-0.dtd"
   xmlns:inkscape="http://www.inkscape.org/namespaces/inkscape"
   id="svg2"
   version="1.1"
   inkscape:version="0.92.2 (5c3e80d, 2017-08-06)"
   width="2481"
   height="3503"
   sodipodi:docname="E35P07.svg">
  <metadata
     id="metadata8">
    <rdf:RDF>
      <cc:Work
         rdf:about="">
        <dc:format>image/svg+xml</dc:format>
        <dc:type
           rdf:resource="http://purl.org/dc/dcmitype/StillImage" />
        <dc:title />
      </cc:Work>
    </rdf:RDF>
  </metadata>
  <defs
     id="defs6">
    <filter
       style="color-interpolation-filters:sRGB"
       id="filter4375-4-1-1-1-9-5-8-8-5-5-3-8"
       inkscape:label="soundFX1"
       x="-0.044353127"
       y="-0.0023842071"
       width="1.0467294"
       height="1.0447156">
      <feFlood
         id="feFlood4377-7-9-0-8-1-7-3-1-2-7-6-7"
         flood-opacity="1"
         flood-color="rgb(255,255,255)"
         result="flood" />
      <feComposite
         id="feComposite4379-3-8-8-2-77-4-1-0-6-4-7-9"
         in2="SourceGraphic"
         in="flood"
         operator="in"
         result="composite1"
         baseFrequency="0.053999999999999999 0.053999999999999999" />
      <feMorphology
         id="feMorphology4393-1-0-49-8-9-3-0-1-9-9-5-2"
         operator="dilate"
         radius="2.9756367599225957"
         result="result3" />
      <feComposite
         id="feComposite4385-9-5-7-0-8-8-7-5-4-9-3-0"
         in2="result3"
         in="SourceGraphic"
         operator="over"
         result="fbSourceGraphic" />
      <feColorMatrix
         result="fbSourceGraphicAlpha"
         in="fbSourceGraphic"
         values="0 0 0 -1 0 0 0 0 -1 0 0 0 0 -1 0 0 0 0 1 0"
         id="feColorMatrix4544-9-4-4-5-2" />
      <feTurbulence
         id="feTurbulence4546-3-6-5-6-3"
         type="fractalNoise"
         numOctaves="5"
         seed="174"
         baseFrequency="0.053999999999999999 0.054054054054054057"
         result="turbulence" />
      <feDisplacementMap
         id="feDisplacementMap4548-8-0-9-2-7"
         in2="turbulence"
         in="fbSourceGraphic"
         scale="6.6"
         yChannelSelector="G"
         xChannelSelector="R"
         result="fbSourceGraphic" />
      <feColorMatrix
         result="fbSourceGraphicAlpha"
         in="fbSourceGraphic"
         values="0 0 0 -1 0 0 0 0 -1 0 0 0 0 -1 0 0 0 0 1 0"
         id="feColorMatrix4670-7-7-3-9-5" />
      <feFlood
         id="feFlood4672-4-4-5-1-9"
         flood-opacity="1"
         flood-color="rgb(255,255,255)"
         result="flood"
         in="fbSourceGraphic" />
      <feComposite
         id="feComposite4674-8-3-7-2-22"
         in2="fbSourceGraphic"
         in="flood"
         operator="in"
         result="composite1" />
      <feGaussianBlur
         id="feGaussianBlur4676-3-7-08-7-8"
         in="composite1"
         stdDeviation="0"
         result="blur" />
      <feOffset
         id="feOffset4678-6-9-1-0-9"
         dx="-6.3258232761971414"
         dy="6"
         result="offset" />
      <feComposite
         id="feComposite4680-4-0-9-9-7"
         in2="offset"
         in="fbSourceGraphic"
         operator="over"
         result="composite2" />
    </filter>
  </defs>
  <sodipodi:namedview
     pagecolor="#ffffff"
     bordercolor="#666666"
     borderopacity="1"
     objecttolerance="10"
     gridtolerance="10"
     guidetolerance="10"
     inkscape:pageopacity="0"
     inkscape:pageshadow="2"
     inkscape:window-width="1231"
     inkscape:window-height="1044"
     id="namedview4"
     showgrid="false"
     inkscape:zoom="0.46261216"
     inkscape:cx="1326.4822"
     inkscape:cy="713.88095"
     inkscape:window-x="672"
     inkscape:window-y="1"
     inkscape:window-maximized="0"
     inkscape:current-layer="layer3"
     inkscape:document-rotation="0"
     inkscape:snap-global="false"
     inkscape:pagecheckerboard="0" />
  <g
     inkscape:groupmode="layer"
     id="layer2"
     inkscape:label="artwork"
     sodipodi:insensitive="true">
    <image
       sodipodi:absref="C:\Users\Kari\Documents\Pepper and Carrot\Episode 35\fi\../lang/de/./../gfx_Pepper-and-Carrot_by-David-Revoy_E35P07.png"
       xlink:href="../gfx_Pepper-and-Carrot_by-David-Revoy_E35P07.png"
       width="2481"
       height="3503"
       id="image10"
       x="0"
       y="0" />
  </g>
  <g
     inkscape:groupmode="layer"
     id="layer3"
     inkscape:label="speechbubbles">
    <path
       style="fill:#ffffff;stroke:none;stroke-width:1.13338768"
       d="m 2023.7456,266.53559 c -37.48,0.62121 -75.4687,11.04094 -103.111,31.82479 -26.5601,20.24094 -42.9928,47.72771 -51.6279,76.0306 -5.8455,18.70748 -8.991,38.77479 -2.0792,57.59162 8.3191,21.87867 28.942,39.60801 53.1212,51.04888 35.8077,17.28892 78.3747,23.67593 119.7536,22.608 43.3472,-0.84305 87.0542,-3.80372 128.8585,-13.54318 21.5024,-5.62527 42.3534,-15.67199 54.3834,-31.50831 11.2595,-14.7235 14.071,-32.56645 12.6193,-49.54175 -1.2602,-28.58475 -11.9035,-56.7839 -30.2708,-81.25624 -13.2473,-18.03869 -29.7264,-35.39302 -52.3973,-46.29929 -19.5469,-9.60905 -42.6097,-12.67035 -65.0289,-14.58721 -21.3094,-1.96816 -42.7874,-2.41728 -64.2209,-2.36791 z"
       id="path3280-8"
       inkscape:connector-curvature="0"
       sodipodi:nodetypes="csssc" />
    <path
       style="fill:#ffffff;fill-rule:evenodd;stroke:none;stroke-width:0.934796px;stroke-linecap:butt;stroke-linejoin:miter;stroke-opacity:1"
       d="m 1937.2471,432.07438 c -6.2176,11.12141 -85.6078,33.31577 -108.1931,83.17757 30.1276,-36.25015 118.0705,-48.01797 132.9745,-62.07815 51.3058,-16.19189 -3.5494,-23.72277 -24.7814,-21.09942 z"
       id="path4186"
       inkscape:connector-curvature="0"
       sodipodi:nodetypes="cccc" />
    <path
       style="fill:#ffffff;fill-rule:evenodd;stroke:none;stroke-width:1px;stroke-linecap:butt;stroke-linejoin:miter;stroke-opacity:1"
       d="m 1557.7613,1692.8906 134.1326,-31.6108 -24.0947,-23.8017 91.2177,-24.1969 -16.3502,-24.7111 -106.501,38.013 26.5589,28.0558 z"
       id="path4667"
       inkscape:connector-curvature="0" />
    <path
       style="color:#000000;display:inline;overflow:visible;visibility:visible;fill:#ffffff;fill-opacity:1;fill-rule:nonzero;stroke:none;stroke-width:1.07657051px;marker:none;enable-background:accumulate"
       d="m 391.5769,3165.5034 c -7.23811,16.986 -52.05781,9.3908 -67.0863,5.5238 30.29393,19.9662 29.23779,31.8725 -11.89282,32.6912 66.66118,30.4897 16.76424,31.0076 -4.37526,26.389 34.17899,16.1585 36.20827,30.9179 1.44476,38.3551 62.25111,2.0715 47.18102,13.8762 23.61283,30.8159 27.56221,-10.7858 70.07971,-17.9714 71.58827,12.0767 39.93547,-25.2132 60.54023,-24.1848 74.98161,5.8231 12.06307,-25.2602 53.13847,-29.1479 68.84482,-1.1846 13.53004,-36.9707 61.80672,-30.505 90.54409,-11.7008 -16.13182,-13.1668 -5.1314,-33.9039 49.86772,-28.2727 -4.42692,-11.8097 2.53485,-26.3999 30.3088,-23.7525 -31.99215,-7.8697 -37.88812,-15.3072 21.51402,-21.6588 -45.20156,-1.8934 -87.35236,-4.5071 -34.32109,-29.9249 -16.63734,-1.0653 -58.67096,27.9521 -40.26671,-36.9066 -48.72724,18.0371 -97.37037,18.9089 -94.85121,-21.4867 -18.11546,21.4289 -49.53633,31.4684 -63.20604,3.7906 -11.28433,25.2508 -45.55915,13.6976 -63.36432,-4.1779 -11.76476,16.9998 -19.50089,48.0498 -53.34317,23.6001 z"
       id="path3549-3-7-8"
       inkscape:connector-curvature="0"
       sodipodi:nodetypes="ccccccccccccccccccc" />
    <path
       style="color:#000000;display:inline;overflow:visible;visibility:visible;fill:#ffffff;fill-opacity:1;fill-rule:nonzero;stroke:none;stroke-width:1.23656809px;marker:none;enable-background:accumulate"
       d="m 372.48425,2971.7241 c 58.96255,46.6958 -59.36921,30.4543 -82.06657,24.0162 59.32363,16.4345 46.0229,43.8191 -15.46986,52.4096 106.16843,44.9742 22.90181,59.9513 1.94062,60.609 70.4492,18.9496 55.02312,33.4731 42.4807,56.9499 137.74972,-26.8552 41.66593,46.2035 41.79448,77.4707 6.86467,-14.0641 112.31346,-146.4956 41.43909,-9.2072 53.55985,-45.484 118.07132,-74.8643 123.19373,4.7328 21.58015,-40.0433 43.09553,-56.9669 41.43908,-9.2073 53.46887,-62.1175 131.02055,-45.7552 179.3545,-28.1985 -62.75616,-47.1673 -24.51088,-43.654 45.20995,-30.5302 -81.1187,-32.3441 -74.23098,-47.1121 19.95646,-43.2174 -41.61444,-11.2255 -49.28387,-22.8046 27.98485,-35.2653 -59.38101,-2.0316 -124.59929,-19.2028 -44.6439,-46.1693 -30.11338,2.3658 -142.69293,-3.2773 -49.04824,-69.3398 -73.49635,24.8605 -149.15565,34.9112 -126.70935,-18.0328 -62.65203,32.1536 -69.222,51.6485 -82.21653,8.5439 -22.15947,37.4088 -50.94089,14.2383 -82.42245,-4.1082 22.90814,29.2486 -28.26151,46.494 -82.21656,8.5439 z"
       id="path3549-3-7"
       inkscape:connector-curvature="0"
       sodipodi:nodetypes="ccccccccccccccccccc" />
    <path
       style="fill:#ffffff;fill-rule:evenodd;stroke:none;stroke-width:1.61403px;stroke-linecap:butt;stroke-linejoin:miter;stroke-opacity:1"
       d="m 559.65143,2966.4499 c 7.81388,-49.8207 8.23157,-62.9667 6.02019,-75.0728 -2.2114,-12.106 -16.03862,-8.1385 -26.02653,-3.643 -6.53887,2.9161 -28.34548,24.9309 -13.34891,-11.2886 14.99673,-36.2194 33.04009,-86.6247 37.65555,-102.5126 -15.5946,27.8024 -42.45502,71.0937 -50.25242,84.9947 -7.79723,13.9012 -19.54665,39.459 -22.39666,47.151 -3.46707,9.3577 -1.1372,19.0591 14.63013,17.8664 24.66487,-3.6362 41.86312,-37.8298 13.23772,21.5203 -28.62567,59.3501 4.95095,150.5651 4.95095,150.5651 z"
       id="path1089"
       inkscape:connector-curvature="0"
       sodipodi:nodetypes="csccccscccc" />
    <path
       style="color:#000000;display:inline;overflow:visible;visibility:visible;fill:#ffffff;fill-opacity:1;fill-rule:nonzero;stroke:none;stroke-width:1.1687px;marker:none;enable-background:accumulate"
       d="m 1768.3079,1475.4618 c -2.6977,39.3562 -53.8111,13.8841 -78.0834,3.8653 28.9299,22.1753 50.8906,51.777 -12.8624,49.9172 71.5917,39.3017 23.7309,37.3789 12.1915,47.3439 56.2127,13.5445 40.0575,30.8892 3.9762,40.3253 64.6109,0.5764 48.9696,14.4096 24.5079,34.3158 28.6072,-13.0326 72.7364,-22.4042 74.3022,11.6703 41.4494,-29.767 62.8353,-29.1872 77.8241,4.4729 12.5204,-29.0252 55.1529,-34.6113 71.4547,-3.3088 14.043,-42.3636 64.1498,-36.3993 93.9765,-15.8681 -16.7433,-14.49 -5.3258,-38.3493 51.7584,-33.5242 -4.5948,-13.2829 2.6309,-30.0478 31.4577,-27.834 -33.205,-8.0229 -39.3244,-16.2995 22.3296,-25.2057 -46.9151,-0.8606 -90.6639,-2.626 -35.6222,-32.9988 -17.268,-0.7349 -58.2385,24.609 -39.1365,-49.5587 -50.5745,21.8696 -103.7183,33.0497 -101.1037,-12.8888 -18.8022,24.8479 -51.4142,37.1432 -65.6021,6.1069 -11.7122,28.9924 -47.2864,16.8521 -65.7665,-2.9362 -12.2107,19.6377 -30.4768,32.9013 -65.602,6.1057 z"
       id="path3549-3-7-8-6"
       inkscape:connector-curvature="0"
       sodipodi:nodetypes="ccccccccccccccccccc" />
  </g>
  <g
     inkscape:groupmode="layer"
     id="layer1"
     inkscape:label="txt">
    <text
       xml:space="preserve"
       style="font-style:normal;font-variant:normal;font-weight:normal;font-stretch:normal;font-size:45px;line-height:1.25;font-family:Lavi;-inkscape-font-specification:Lavi;text-align:center;letter-spacing:0px;word-spacing:0px;text-anchor:middle;fill:#000000;fill-opacity:1;stroke:none"
       x="2046.3182"
       y="349.11081"
       id="text4246-3-2-2"><tspan
         style="font-size:45px"
         sodipodi:role="line"
         x="2046.3182"
         y="349.11081"
         id="tspan873">He seuraavat</tspan><tspan
         style="font-size:45px"
         sodipodi:role="line"
         x="2054.2283"
         y="405.36081"
         id="tspan47">meitä! </tspan><tspan
         style="font-size:45px"
         sodipodi:role="line"
         x="2046.3182"
         y="461.61081"
         id="tspan886">Hienoa!</tspan></text>
    <text
       xml:space="preserve"
       style="font-style:normal;font-variant:normal;font-weight:normal;font-stretch:normal;font-size:45px;line-height:1.25;font-family:Lavi;-inkscape-font-specification:Lavi;text-align:center;letter-spacing:0px;word-spacing:0px;text-anchor:middle;fill:#000000;fill-opacity:1;stroke:none"
       x="1895.5864"
       y="1553.5004"
       id="text4246-3-2-2-3"><tspan
         style="font-size:45px"
         sodipodi:role="line"
         x="1895.5864"
         y="1553.5004"
         id="tspan887">Pian pääsemme</tspan><tspan
         style="font-size:45px"
         sodipodi:role="line"
         x="1895.5864"
         y="1609.7504"
         id="tspan922">heistä eroon.</tspan></text>
    <text
       xml:space="preserve"
       style="font-style:normal;font-variant:normal;font-weight:normal;font-stretch:normal;font-size:50.27859879px;line-height:1.25;font-family:Lavi;-inkscape-font-specification:Lavi;text-align:center;letter-spacing:0px;word-spacing:0px;text-anchor:middle;fill:#000000;fill-opacity:1;stroke:none;stroke-width:1.11730003"
       x="531.13611"
       y="3067.8477"
       id="text4246-3-2-2-3-3"><tspan
         style="font-style:normal;font-variant:normal;font-weight:bold;font-stretch:normal;font-size:50.27859879px;font-family:Lavi;-inkscape-font-specification:'Lavi Bold';stroke-width:1.11730003"
         sodipodi:role="line"
         x="531.13611"
         y="3067.8477"
         id="tspan894">En malta odottaa,</tspan><tspan
         style="font-style:normal;font-variant:normal;font-weight:bold;font-stretch:normal;font-size:50.27859879px;font-family:Lavi;-inkscape-font-specification:'Lavi Bold';stroke-width:1.11730003"
         sodipodi:role="line"
         x="531.13611"
         y="3130.6958"
         id="tspan896">että näen sen!</tspan></text>
    <text
       xml:space="preserve"
       style="font-style:normal;font-variant:normal;font-weight:normal;font-stretch:normal;font-size:57.32479858px;line-height:1.25;font-family:Lavi;-inkscape-font-specification:Lavi;text-align:center;letter-spacing:0px;word-spacing:0px;text-anchor:middle;fill:#000000;fill-opacity:1;stroke:none;stroke-width:1.27388"
       x="515.10217"
       y="3250.0544"
       id="text4246-3-2-2-3-3-3"><tspan
         style="font-style:normal;font-variant:normal;font-weight:bold;font-stretch:normal;font-size:57.32479858px;font-family:Lavi;-inkscape-font-specification:'Lavi Bold';stroke-width:1.27388"
         sodipodi:role="line"
         x="515.10217"
         y="3250.0544"
         id="tspan1015">Hahhahhaa!</tspan></text>
    <text
       xml:space="preserve"
       style="font-style:normal;font-variant:normal;font-weight:normal;font-stretch:normal;font-size:105.817px;line-height:1.25;font-family:Lavi;-inkscape-font-specification:Lavi;letter-spacing:0px;word-spacing:0px;fill:#000000;fill-opacity:1;stroke:#030303;stroke-width:0.716208;stroke-miterlimit:4;stroke-dasharray:none;stroke-opacity:1;filter:url(#filter4375-4-1-1-1-9-5-8-8-5-5-3-8)"
       x="787.65729"
       y="1584.5073"
       id="text4580-6-0-0-0-9-3-36"
       transform="matrix(1.0545214,-0.26714456,-0.41513081,1.2309466,1890.7199,857.1408)"><tspan
         style="font-size:195.17px;fill:#000000;fill-opacity:1;stroke:#030303;stroke-width:0.716208;stroke-miterlimit:4;stroke-dasharray:none;stroke-opacity:1"
         sodipodi:role="line"
         id="tspan876-6-1"
         x="787.65729"
         y="1584.5073">!<tspan
   style="font-size:173.821px;fill:#000000;stroke:#030303;stroke-opacity:1"
   id="tspan1317">!</tspan><tspan
   id="tspan1322"
   style="font-size:152.472px;fill:#000000;stroke:#030303;stroke-opacity:1">!</tspan></tspan></text>
  </g>
</svg>
