<?xml version="1.0" encoding="UTF-8" standalone="no"?>
<svg
   xmlns:dc="http://purl.org/dc/elements/1.1/"
   xmlns:cc="http://creativecommons.org/ns#"
   xmlns:rdf="http://www.w3.org/1999/02/22-rdf-syntax-ns#"
   xmlns:svg="http://www.w3.org/2000/svg"
   xmlns="http://www.w3.org/2000/svg"
   xmlns:xlink="http://www.w3.org/1999/xlink"
   xmlns:sodipodi="http://sodipodi.sourceforge.net/DTD/sodipodi-0.dtd"
   xmlns:inkscape="http://www.inkscape.org/namespaces/inkscape"
   id="svg2"
   version="1.1"
   inkscape:version="0.92.2 (5c3e80d, 2017-08-06)"
   width="2481"
   height="3503"
   sodipodi:docname="E35P08.svg">
  <metadata
     id="metadata8">
    <rdf:RDF>
      <cc:Work
         rdf:about="">
        <dc:format>image/svg+xml</dc:format>
        <dc:type
           rdf:resource="http://purl.org/dc/dcmitype/StillImage" />
        <dc:title />
      </cc:Work>
    </rdf:RDF>
  </metadata>
  <defs
     id="defs6" />
  <sodipodi:namedview
     pagecolor="#ffffff"
     bordercolor="#666666"
     borderopacity="1"
     objecttolerance="10"
     gridtolerance="10"
     guidetolerance="10"
     inkscape:pageopacity="0"
     inkscape:pageshadow="2"
     inkscape:window-width="1390"
     inkscape:window-height="1029"
     id="namedview4"
     showgrid="false"
     inkscape:zoom="0.52900001"
     inkscape:cx="1331.758"
     inkscape:cy="418.71458"
     inkscape:window-x="512"
     inkscape:window-y="-4"
     inkscape:window-maximized="0"
     inkscape:current-layer="layer3"
     inkscape:document-rotation="0"
     inkscape:snap-global="false"
     inkscape:pagecheckerboard="0" />
  <g
     inkscape:groupmode="layer"
     id="layer2"
     inkscape:label="artwork"
     sodipodi:insensitive="true">
    <image
       sodipodi:absref="C:\Users\Kari\Documents\Pepper and Carrot\Episode 35\fi\../lang/de/./../gfx_Pepper-and-Carrot_by-David-Revoy_E35P08.png"
       xlink:href="../gfx_Pepper-and-Carrot_by-David-Revoy_E35P08.png"
       width="2481"
       height="3503"
       id="image10"
       x="0"
       y="0" />
  </g>
  <g
     inkscape:groupmode="layer"
     id="layer3"
     inkscape:label="speechbubbles">
    <path
       style="color:#000000;display:inline;overflow:visible;visibility:visible;fill:#ffffff;fill-opacity:1;fill-rule:nonzero;stroke:none;stroke-width:0.98685509px;marker:none;enable-background:accumulate"
       d="m 886.18412,268.4542 c -39.99042,0.38106 -78.79143,12.76205 -106.25286,32.20269 -21.93144,14.87698 -35.4,34.83666 -40.12782,55.46563 -8.513,28.44612 -7.5144,58.71336 7.68665,86.07413 12.87577,21.0654 39.36266,37.61823 70.28694,46.33178 43.61173,12.50332 93.01773,17.1111 139.51206,9.90857 25.01637,-3.95136 47.81711,-13.58192 64.49541,-26.74284 22.9872,-17.53396 35.7269,-40.36335 39.6128,-63.45073 4.8407,-25.04819 2.6097,-51.1615 -10.9069,-74.89151 -10.234,-17.2442 -28.2247,-32.4421 -51.50842,-42.4288 -33.00526,-15.06581 -72.99827,-22.91691 -112.79786,-22.46892 z"
       id="path3525-27"
       inkscape:connector-curvature="0" />
    <path
       style="color:#000000;display:inline;overflow:visible;visibility:visible;fill:#ffffff;fill-opacity:1;fill-rule:nonzero;stroke:none;stroke-width:0.78405482px;marker:none;enable-background:accumulate"
       d="m 1577.9509,428.68564 c -39.5227,0.4189 -78.9329,7.03875 -106.2465,18.8551 -32.1871,13.43678 -50.6964,31.99009 -52.1588,50.74742 -2.256,18.93834 7.6898,38.46272 33.0006,54.52033 13.4245,8.5664 32.3341,15.77224 54.9715,20.08336 30.44,6.02685 65.6121,7.40544 98.7079,4.96627 25.3842,-1.52681 51.7366,-3.15473 73.9369,-8.78135 37.8872,-9.88741 62.5569,-27.84172 62.751,-46.26686 0.3109,-7.23505 -1.0102,-14.46167 -1.9501,-21.68177 -2.1326,-11.56099 -5.5091,-23.23714 -15.0464,-34.21618 -11.4736,-12.83786 -33.4863,-24.39647 -63.4687,-30.73008 -25.8667,-5.52244 -55.4905,-7.73041 -84.4974,-7.49624 z"
       id="path4040-4-5-3-4"
       inkscape:connector-curvature="0"
       sodipodi:nodetypes="zssssz" />
    <path
       style="fill:#ffffff;fill-rule:evenodd;stroke:none;stroke-width:1.14277px;stroke-linecap:butt;stroke-linejoin:miter;stroke-opacity:1"
       d="m 1570.0144,465.67649 c 3.0987,30.83741 11.5856,59.47611 3.7889,66.37874 -5.2069,29.42714 10.8845,84.76829 -27.9726,97.2687 63.0766,-0.64746 49.4439,-89.40053 58.0802,-122.83664 -1.084,-48.93169 -33.8965,-40.8108 -33.8965,-40.8108 z"
       id="path1085"
       inkscape:connector-curvature="0"
       sodipodi:nodetypes="ccccc" />
    <path
       style="fill:#ffffff;fill-rule:evenodd;stroke:none;stroke-width:0.94989771px;stroke-linecap:butt;stroke-linejoin:miter;stroke-opacity:1"
       d="m 1541.7296,1344.4833 c -32.8973,1.8069 -64.695,22.3731 -82.459,53.7713 -7.0505,17.3661 -4.784,36.9437 -7.1394,55.3743 -3.1282,45.952 -2.6913,93.0297 8.6307,137.6342 3.8372,12.3277 12.5874,21.8105 22.4543,28.1602 22.4216,16.5176 50.4767,21.0951 76.626,16.4596 26.9781,-3.1076 54.5783,-12.1404 75.3433,-32.688 13.9686,-13.5661 20.8082,-35.0643 19.3651,-55.6222 -0.2101,-26.7261 -3.1982,-53.3202 -3.2528,-80.0534 -0.969,-27.0139 -5.057,-55.4817 -19.9927,-77.4738 -13.9295,-20.1151 -35.0162,-31.825 -56.0907,-39.5374 -10.8112,-3.8106 -22.1148,-6.4079 -33.4848,-6.0248 z"
       id="path1299"
       inkscape:connector-curvature="0" />
    <path
       style="color:#000000;display:inline;overflow:visible;visibility:visible;fill:#ffffff;fill-opacity:1;fill-rule:nonzero;stroke:none;stroke-width:0.926478px;marker:none;enable-background:accumulate"
       d="m 1531.0092,1596.1183 c -0.6222,20.1649 6.6736,27.0756 10.0721,30.442 3.3984,3.3662 14.9068,8.9022 18.2764,13.791 2.7667,4.0585 10.3483,14.2867 6.9395,16.8185 -3.4088,2.5318 -39.8279,13.4508 -39.569,27.0665 0.2595,13.6163 7.8094,22.062 17.8671,25.0419 10.0575,2.9799 23.1527,7.0659 24.2613,17.1932 1.1078,10.1267 -6.514,17.5302 -11.286,19.742 -27.1053,5.2092 -47.6616,41.4987 -47.6616,41.4987 45.0114,-39.4077 48.8502,-21.7092 63.1997,-38.3236 5.2367,-6.2965 13.2746,-11.5246 11.2311,-22.2221 -2.0434,-10.6976 -1.7938,-21.9409 -17.0229,-26.5544 -9.8097,-4.0323 -14.2999,-6.9835 -14.1441,-10.1193 0.1565,-3.135 5.2164,-10.9397 15.2416,-10.5769 10.0258,0.3634 16.1869,-6.8408 20.9047,-21.0372 5.8565,-14.2808 -11.3944,-28.3269 -12.3251,-34.3003 -5.9525,-9.4188 -20.1936,-48.378 -11.3283,-51.0106 z"
       id="path5058-2"
       inkscape:connector-curvature="0"
       sodipodi:nodetypes="cscsssscccsccscccc" />
    <path
       style="display:inline;fill:#ffffff;fill-rule:evenodd;stroke:none;stroke-width:0.7824px;stroke-linecap:butt;stroke-linejoin:miter;stroke-opacity:1"
       d="m 877.968,2870.1388 -20.1414,-103.137 -20.06484,17.4342 -15.86649,-70.2389 -20.49195,11.5133 26.36659,82.3695 23.57881,-19.15 z"
       id="path4667-2"
       inkscape:connector-curvature="0" />
    <path
       style="display:inline;fill:#ffffff;fill-rule:evenodd;stroke:none;stroke-width:0.800756px;stroke-linecap:butt;stroke-linejoin:miter;stroke-opacity:1"
       d="m 682.33117,2721.47 c 17.58658,-9.7562 33.39725,-42.5286 -3.6892,-77.162 42.20071,11.8434 59.77352,-10.1068 73.68241,-92.6185 34.06991,72.3546 48.80253,51.3106 58.048,24.8341 -2.5869,49.2768 33.04814,42.2858 48.31129,16.0446 -4.9577,76.3831 20.63384,79.0172 43.5994,87.989 -39.26404,11.119 -16.2116,33.6361 -11.28843,52.8383 -46.88903,-15.0176 -61.9634,9.436 -59.2279,55.9848 -18.13836,-12.0405 -41.31769,-48.333 -39.71646,34.5863 -16.29453,-59.6942 -27.92724,-42.7914 -37.92314,1.0069 -5.63912,-20.2619 2.06382,-64.0489 -33.29199,-31.9099 14.15398,-34.8193 6.97849,-60.982 -38.50398,-71.5936 z"
       id="path4584-9"
       inkscape:connector-curvature="0"
       sodipodi:nodetypes="cccccccccccc" />
    <path
       style="color:#000000;display:inline;overflow:visible;visibility:visible;fill:#ffffff;fill-opacity:1;fill-rule:nonzero;stroke:none;stroke-width:1.01599px;marker:none;enable-background:accumulate"
       d="m 915.25633,477.71228 c -4.04952,48.32505 20.65484,106.85492 115.89287,109.89183 -80.33867,-15.35995 -92.0301,-64.16762 -83.52693,-109.83472 7.34037,-39.42391 8.64622,-57.69856 8.64622,-57.69856 z"
       id="path4440-3"
       inkscape:connector-curvature="0"
       sodipodi:nodetypes="ccscc" />
  </g>
  <g
     inkscape:groupmode="layer"
     id="layer1"
     inkscape:label="txt">
    <text
       xml:space="preserve"
       style="font-style:normal;font-variant:normal;font-weight:normal;font-stretch:normal;font-size:45px;line-height:1.25;font-family:Lavi;-inkscape-font-specification:Lavi;text-align:center;letter-spacing:0px;word-spacing:0px;text-anchor:middle;fill:#000000;fill-opacity:1;stroke:none"
       x="897.05707"
       y="337.07599"
       id="text4246-3-2-2-3"><tspan
         style="font-size:45px"
         sodipodi:role="line"
         x="904.96722"
         y="337.07599"
         id="tspan877-5">Hetkinen! </tspan><tspan
         style="font-size:45px"
         sodipodi:role="line"
         x="897.05707"
         y="393.32599"
         id="tspan861">Mikä minusta</tspan><tspan
         style="font-size:45px"
         sodipodi:role="line"
         x="897.05707"
         y="449.57599"
         id="tspan863">on tullut?</tspan></text>
    <text
       xml:space="preserve"
       style="font-style:normal;font-variant:normal;font-weight:normal;font-stretch:normal;font-size:56px;line-height:1.25;font-family:Lavi;-inkscape-font-specification:Lavi;text-align:center;letter-spacing:0px;word-spacing:0px;text-anchor:middle;fill:#000000;fill-opacity:1;stroke:none"
       x="1582.9993"
       y="514.1131"
       id="text4246-3-2-2-3-3"><tspan
         sodipodi:role="line"
         x="1582.9993"
         y="514.1131"
         id="tspan957"
         style="font-style:normal;font-variant:normal;font-weight:bold;font-stretch:normal;font-size:56px;font-family:Lavi;-inkscape-font-specification:'Lavi Bold'">Tappajako?</tspan></text>
    <text
       xml:space="preserve"
       style="font-style:normal;font-variant:normal;font-weight:normal;font-stretch:normal;font-size:53.34049988px;line-height:1.25;font-family:Lavi;-inkscape-font-specification:Lavi;text-align:center;letter-spacing:0px;word-spacing:0px;text-anchor:middle;fill:#000000;fill-opacity:1;stroke:none;stroke-width:1.18534005"
       x="1550.5575"
       y="1439.3575"
       id="text4246-3-2-2-3-9"><tspan
         style="font-size:53.34049988px;stroke-width:1.18534005"
         sodipodi:role="line"
         x="1550.5575"
         y="1439.3575"
         id="tspan877-5-7">Vai</tspan><tspan
         style="font-size:53.34049988px;stroke-width:1.18534005"
         sodipodi:role="line"
         x="1550.5575"
         y="1506.0332"
         id="tspan39">ilkeä</tspan><tspan
         style="font-size:53.34049988px;stroke-width:1.18534005"
         sodipodi:role="line"
         x="1550.5575"
         y="1572.7087"
         id="tspan998">noita?</tspan></text>
    <text
       xml:space="preserve"
       style="font-style:normal;font-variant:normal;font-weight:normal;font-stretch:normal;font-size:104.682px;line-height:1.25;font-family:Lavi;-inkscape-font-specification:Lavi;text-align:center;letter-spacing:0px;word-spacing:0px;text-anchor:middle;fill:#000000;fill-opacity:1;stroke:none;stroke-width:1.18634"
       x="1226.4388"
       y="2652.8953"
       id="text4246-3-2-2-3-9-0"
       transform="matrix(0.90421598,-0.22651773,-0.12390474,1.1369702,0,0)"><tspan
         style="font-style:normal;font-variant:normal;font-weight:bold;font-stretch:normal;font-size:104.682px;font-family:Lavi;-inkscape-font-specification:'Lavi Bold';stroke-width:1.18634"
         sodipodi:role="line"
         x="1226.4388"
         y="2652.8953"
         id="tspan998-6"><tspan
   style="font-size:79.44px;stroke-width:1.18634"
   id="tspan1037">!</tspan><tspan
   id="tspan1045"
   style="font-size:91.8525px;stroke-width:1.18634">!</tspan>!</tspan></text>
  </g>
</svg>
