<?xml version="1.0" encoding="UTF-8" standalone="no"?>
<!-- Created with Inkscape (http://www.inkscape.org/) -->

<svg
   xmlns:dc="http://purl.org/dc/elements/1.1/"
   xmlns:cc="http://creativecommons.org/ns#"
   xmlns:rdf="http://www.w3.org/1999/02/22-rdf-syntax-ns#"
   xmlns:svg="http://www.w3.org/2000/svg"
   xmlns="http://www.w3.org/2000/svg"
   xmlns:xlink="http://www.w3.org/1999/xlink"
   xmlns:sodipodi="http://sodipodi.sourceforge.net/DTD/sodipodi-0.dtd"
   xmlns:inkscape="http://www.inkscape.org/namespaces/inkscape"
   id="svg2"
   version="1.1"
   inkscape:version="0.92.4 (5da689c313, 2019-01-14)"
   width="2481"
   height="3503"
   sodipodi:docname="E36P01.svg">
  <metadata
     id="metadata8">
    <rdf:RDF>
      <cc:Work
         rdf:about="">
        <dc:format>image/svg+xml</dc:format>
        <dc:type
           rdf:resource="http://purl.org/dc/dcmitype/StillImage" />
      </cc:Work>
    </rdf:RDF>
  </metadata>
  <defs
     id="defs6" />
  <sodipodi:namedview
     pagecolor="#1e1e1e"
     bordercolor="#111111"
     borderopacity="1"
     objecttolerance="10"
     gridtolerance="10"
     guidetolerance="10"
     inkscape:pageopacity="0"
     inkscape:pageshadow="2"
     inkscape:window-width="1858"
     inkscape:window-height="1057"
     id="namedview4"
     showgrid="false"
     inkscape:zoom="0.3740595"
     inkscape:cx="1102.8421"
     inkscape:cy="811.2687"
     inkscape:window-x="54"
     inkscape:window-y="-8"
     inkscape:window-maximized="1"
     inkscape:current-layer="layer3"
     inkscape:pagecheckerboard="0"
     inkscape:snap-global="false" />
  <g
     inkscape:groupmode="layer"
     id="layer2"
     inkscape:label="artwork"
     sodipodi:insensitive="true">
    <image
       sodipodi:absref="D:\Documents\Others\webcomics\new-ep36_Title-Here\lang\id\../gfx_Pepper-and-Carrot_by-David-Revoy_E36P01.png"
       xlink:href="../gfx_Pepper-and-Carrot_by-David-Revoy_E36P01.png"
       width="2481"
       height="3503"
       id="image10"
       x="0"
       y="0" />
  </g>
  <g
     inkscape:groupmode="layer"
     id="layer3"
     inkscape:label="speechbubbles"
     style="display:inline">
    <path
       style="display:inline;fill:#ffffff;fill-rule:evenodd;stroke:none;stroke-width:0.7755242px;stroke-linecap:butt;stroke-linejoin:miter;stroke-opacity:1"
       d="m 1013.4266,1839.7271 c 46.0063,19.5248 72.2123,11.5847 71.4225,-33.8011 21.9494,49.0454 37.1814,60.0145 46.2148,35.8496 29.0595,20.7704 47.2095,14.9438 61.6196,0 5.3711,19.2192 14.5009,15.2385 39.849,-5.9897 -4.714,10.5895 -9.6618,36.1608 36.3091,3.9229 -21.1737,18.9838 -5.7593,19.3477 20.9253,6.5876 -8.7553,19.4241 24.4562,5.3325 52.7642,-22.9576 -20.3233,29.2825 -12.131,33.3503 5.9588,20.9476 -8.2706,13.3457 -3.5615,21.4728 22.05,4.659 -10.7575,24.6334 0.5438,14.7843 41.4185,-8.7965 -33.7311,26.0082 -46.533,46.9953 -21.8122,47.7185 -7.649,2.2256 -25.3484,14.4274 33.6107,26.6306 -13.7982,1.1697 -39.4701,4.2304 -15.0998,15.0031 -14.7124,-3.5225 -21.2424,2.7785 -0.7636,13.0148 -14.7359,-1.6365 -31.8167,-5.8253 -8.826,10.1899 -25.8564,-0.5441 -21.9513,3.2139 -2.9682,16.7237 -37.4438,-17.3299 -34.2976,31.3876 -35.4059,38.3225 -46.9282,-23.6268 -34.3449,-11.7307 -40.6797,-6.8095 -22.8741,0.1839 -47.038,-39.0462 -69.9121,-12.6974 -5.9904,-16.3882 -18.0002,-0.9497 -68.6217,10.6411 22.2266,-20.8493 -17.785,-2.3865 -42.0022,6.2035 13.2618,-26.0455 -8.5117,-23.7023 -51.1372,1.6379 23.87,-28.7614 -6.732,-36.8544 -46.905,-16.434 15.1784,-28.2554 -9.5415,-41.9198 -68.622,-43.0194 27.7815,-11.0973 44.7678,-23.0178 15.40499,-46.0912 33.10031,6.7938 42.97371,0.4833 19.60631,-24.5825 36.1035,20.5737 19.6885,-9.2673 5.6018,-36.8734 z"
       id="path4508-2"
       inkscape:connector-curvature="0"
       sodipodi:nodetypes="cccccccccccccccccccccccccccc" />
    <path
       style="display:inline;fill:#ffffff;fill-rule:evenodd;stroke:none;stroke-width:0.71858037px;stroke-linecap:butt;stroke-linejoin:miter;stroke-opacity:1"
       d="m 1370.4499,2121.452 c -35.0492,-24.442 -59.0309,-28.8907 -50.8517,19.3427 -34.2085,-47.2898 -39.0025,-28.279 -45.9732,-2.6713 -30.3467,-36.827 -43.5837,-15.894 -50.1776,0.9374 -6.8302,-34.4278 -18.1216,-8.2848 -25.3927,2.1486 1.9477,-30.2451 -6.7318,-33.9016 -30.6,-0.2277 4.673,-13.4901 11.8597,-38.9191 -23.9822,-10.1461 7.0444,-28.2656 -16.3019,-9.2219 -36.1568,16.4656 11.011,-34.3734 -4.0053,-26.6974 -18.5383,-13.3496 6.5222,-14.1925 21.8972,-36.2881 -10.3856,-19.0515 15.4805,-20.7547 0.3465,-16.244 -28.4932,4.7442 23.9578,-27.0708 45.3677,-47.6596 13.016,-43.2026 4.3967,-8.2107 20.4113,-15.5923 -27.7945,-27.558 8.8793,-5.6822 36.3652,1.8653 13.1853,-21.0567 -3.0996,-2.6723 7.1136,-4.5303 -12.5354,-11.3527 11.542,0.2741 18.5897,-1.6054 7.8029,-12.024 21.064,0.1802 13.017,-10.8372 -2.6568,-24.788 30.7675,17.6964 27.1888,-16.2159 27.9808,-23.5424 38.5912,24.1892 43.2983,8.9609 48.3781,3.6777 18.6236,-0.5419 36.5412,20.9215 54.7474,-7.1986 5.1398,17.1824 15.8309,20.7498 56.8675,7.7629 -17.7667,22.3136 16.9825,7.0284 36.5657,-2.3938 -10.3835,27.6542 13.3022,21.1989 47.608,-6.1584 -18.9785,30.6781 35.036,13.9975 51.8235,4.8699 -2.0588,12.3871 -16.6672,53.757 31.4602,54.0174 -22.8642,11.1721 -30.6295,21.7227 -6.3509,45.5958 -27.0623,-6.6573 -35.0017,0.1444 -15.5735,26.2087 -39.1887,-12.4946 -23.5696,17.0865 -3.973,38.9505 z"
       id="path4508-2-3"
       inkscape:connector-curvature="0"
       sodipodi:nodetypes="cccccccccccccccccccccccccccc" />
    <path
       style="fill:#ffffff;fill-rule:evenodd;stroke:none;stroke-width:1.01927px;stroke-linecap:butt;stroke-linejoin:miter;stroke-opacity:1"
       d="m 795.85859,2075.6026 c 68.17018,-19.9402 107.76468,-24.6985 129.19825,-26.9041 -9.4626,14.6823 -10.93703,18.8605 -3.60753,19.5618 12.56737,1.2024 323.02739,-38.3324 323.02739,-38.3324 l -134.9102,-3.9965 c 0,0 -88.3447,16.493 -115.60557,20.8649 -27.26123,4.3719 -53.63946,7.3565 -53.63946,7.3565 0,0 11.08456,-17.0097 8.79652,-16.5151 -9.73596,2.1047 -32.55208,-8.0957 -153.2594,37.9649 z"
       id="path891"
       inkscape:connector-curvature="0"
       sodipodi:nodetypes="ccsccscsc" />
    <path
       style="display:inline;fill:#ffffff;fill-rule:evenodd;stroke:none;stroke-width:1.29485941px;stroke-linecap:butt;stroke-linejoin:miter;stroke-opacity:1"
       d="m 983.14153,2507.5584 c 31.84857,39.1726 48.30677,69.8452 1.49533,42.5748 23.40904,24.7326 17.13804,28.5431 -3.98115,34.8903 18.62218,16.584 45.48949,53.1451 7.20129,65.2985 55.2151,10.8781 25.6909,42.2196 -3.15382,65.0535 84.26422,-26.2109 74.95192,3.2256 56.25862,33.2238 41.8083,-37.5975 43.7564,-26.4397 24.8201,23.6316 27.2392,-36.1903 34.5132,-46.6629 33.9906,-4.8575 16.8468,-34.5943 38.8066,-56.0806 55.1036,-16.2761 21.984,-57.2163 46.5967,-7.3213 65.2963,12.5131 4.5873,-42.5141 21.78,-53.564 52.6128,-11.407 3.1148,-25.699 29.1615,-24.9791 51.4916,11.8091 -27.9372,-72.2626 20.8087,-7.2017 28.9373,-2.9253 -13.2505,-37.1836 17.5776,-43.5585 72.8184,-11.7342 -39.6363,-34.7159 -32.1622,-50.9119 2.4074,-65.6083 -33.2734,-16.1908 -41.1807,-54.7427 13.5702,-56.3895 -68.4941,-24.5766 -17.7355,-63.3156 14.1436,-86.6359 -59.9187,13.8515 -108.6453,20.4334 -77.2168,-31.3412 -68.5946,33.4908 -56.154,14.8596 -47.408,-1.396 -45.8133,40.7341 -46.7998,3.0539 -45.5279,-8.6479 -61.5444,44.3033 -97.6595,14.7747 -111.4454,-18.2038 -16.1627,46.364 -46.6813,24.2193 -65.472,0.8426 9.8175,43.5938 -9.9936,40.1492 -29.9073,22.1947 4.8997,29.3031 -13.7398,54.6209 -46.1289,13.3401 10.7675,20.4522 9.6495,50.4089 -49.90587,-9.9494 z"
       id="path4289-9"
       inkscape:connector-curvature="0"
       sodipodi:nodetypes="ccccccccccccccccccccccccc" />
    <path
       style="display:inline;fill:#ffffff;fill-rule:evenodd;stroke:none;stroke-width:1px;stroke-linecap:butt;stroke-linejoin:miter;stroke-opacity:1"
       d="m 839.35758,2683.1542 126.85528,-18.3923 -13.09351,-16.3937 103.27445,-9.3803 -13.3725,-26.4414 -117.98262,26.0585 15.22178,19.3955 z"
       id="path4667"
       inkscape:connector-curvature="0"
       sodipodi:nodetypes="cccccccc" />
  </g>
  <g
     inkscape:groupmode="layer"
     id="layer1"
     inkscape:label="txt"
     style="display:inline">
    <text
       xml:space="preserve"
       style="font-style:normal;font-variant:normal;font-weight:normal;font-stretch:normal;font-size:45px;line-height:1.25;font-family:Lavi;-inkscape-font-specification:Lavi;text-align:center;letter-spacing:0px;word-spacing:0px;text-anchor:middle;fill:#000000;fill-opacity:1;stroke:none;stroke-width:0.81838697"
       x="1439.5836"
       y="1915.9778"
       id="text4246-3-2-2-6-3-7-9-3-3-56-9-3-20-3-3-2"
       transform="skewX(-7.1285625)"><tspan
         style="font-style:normal;font-variant:normal;font-weight:bold;font-stretch:normal;font-size:45px;font-family:Lavi;-inkscape-font-specification:'Lavi Bold';stroke-width:0.81838697"
         sodipodi:role="line"
         x="1439.5836"
         y="1915.9778"
         id="tspan146">PERMINTAAN</tspan><tspan
         style="font-style:normal;font-variant:normal;font-weight:bold;font-stretch:normal;font-size:45px;font-family:Lavi;-inkscape-font-specification:'Lavi Bold';stroke-width:0.81838697"
         sodipodi:role="line"
         x="1439.5836"
         y="1972.2278"
         id="tspan271">MAAF?</tspan></text>
    <text
       id="text4246-4-2-7"
       y="2029.4741"
       x="1210.9335"
       style="font-style:normal;font-variant:normal;font-weight:normal;font-stretch:normal;line-height:0%;font-family:Lavi;-inkscape-font-specification:Lavi;text-align:center;letter-spacing:0px;word-spacing:0px;text-anchor:middle;fill:#000000;fill-opacity:1;stroke:none"
       xml:space="preserve"
       inkscape:label="pepperB"><tspan
         y="2029.4741"
         x="1210.9335"
         style="font-size:45px;line-height:1.25"
         sodipodi:role="line"
         id="tspan6461">Jangan</tspan><tspan
         y="2085.7241"
         x="1210.9335"
         style="font-size:45px;line-height:1.25"
         sodipodi:role="line"
         id="tspan275">bercanda!</tspan></text>
    <text
       xml:space="preserve"
       style="font-style:normal;font-variant:normal;font-weight:normal;font-stretch:normal;font-size:45px;line-height:1.25;font-family:Lavi;-inkscape-font-specification:Lavi;text-align:center;letter-spacing:0px;word-spacing:0px;text-anchor:middle;fill:#000000;fill-opacity:1;stroke:none;stroke-width:0.81838697"
       x="1536.3081"
       y="2584.2346"
       id="text4246-3-2-2-6-3-7-9-3-3-56-9-3-20-3-3-2-7"
       transform="skewX(-7.1285625)"><tspan
         style="font-style:normal;font-variant:normal;font-weight:bold;font-stretch:normal;font-size:45px;font-family:Lavi;-inkscape-font-specification:'Lavi Bold';stroke-width:0.81838697"
         sodipodi:role="line"
         x="1536.3081"
         y="2584.2346"
         id="tspan14740">MASUKKAN</tspan><tspan
         style="font-style:normal;font-variant:normal;font-weight:bold;font-stretch:normal;font-size:45px;font-family:Lavi;-inkscape-font-specification:'Lavi Bold';stroke-width:0.81838697"
         sodipodi:role="line"
         x="1536.3081"
         y="2640.4846"
         id="tspan279">ORANG INI KE</tspan><tspan
         style="font-style:normal;font-variant:normal;font-weight:bold;font-stretch:normal;font-size:45px;font-family:Lavi;-inkscape-font-specification:'Lavi Bold';stroke-width:0.81838697"
         sodipodi:role="line"
         x="1536.3081"
         y="2696.7346"
         id="tspan281">PENJARA!</tspan></text>
  </g>
</svg>
