<?xml version="1.0" encoding="UTF-8" standalone="no"?>
<svg
   xmlns:dc="http://purl.org/dc/elements/1.1/"
   xmlns:cc="http://creativecommons.org/ns#"
   xmlns:rdf="http://www.w3.org/1999/02/22-rdf-syntax-ns#"
   xmlns:svg="http://www.w3.org/2000/svg"
   xmlns="http://www.w3.org/2000/svg"
   xmlns:xlink="http://www.w3.org/1999/xlink"
   xmlns:sodipodi="http://sodipodi.sourceforge.net/DTD/sodipodi-0.dtd"
   xmlns:inkscape="http://www.inkscape.org/namespaces/inkscape"
   id="svg2"
   version="1.1"
   inkscape:version="1.0.1 (3bc2e813f5, 2020-09-07)"
   width="2481"
   height="3503"
   sodipodi:docname="E34P10.svg">
  <metadata
     id="metadata8">
    <rdf:RDF>
      <cc:Work
         rdf:about="">
        <dc:format>image/svg+xml</dc:format>
        <dc:type
           rdf:resource="http://purl.org/dc/dcmitype/StillImage" />
        <dc:title />
      </cc:Work>
    </rdf:RDF>
  </metadata>
  <defs
     id="defs6">
    <filter
       style="color-interpolation-filters:sRGB"
       id="filter4375-4-1-1-1-9-5-8-8-5-5-3-3-3-0"
       inkscape:label="soundFX1">
      <feFlood
         id="feFlood4377-7-9-0-8-1-7-3-1-2-7-6-6-5-96"
         flood-opacity="1"
         flood-color="rgb(52,52,52)"
         result="flood" />
      <feComposite
         id="feComposite4379-3-8-8-2-77-4-1-0-6-4-7-7-6-3"
         in2="SourceGraphic"
         in="flood"
         operator="in"
         result="composite1"
         baseFrequency="0.053999999999999999 0.053999999999999999" />
      <feMorphology
         id="feMorphology4393-1-0-49-8-9-3-0-1-9-9-5-5-2-8"
         operator="dilate"
         radius="2.5856550817276021"
         result="result3" />
      <feComposite
         id="feComposite4385-9-5-7-0-8-8-7-5-4-9-3-3-9-5"
         in2="result3"
         in="SourceGraphic"
         operator="over"
         result="fbSourceGraphic" />
      <feColorMatrix
         result="fbSourceGraphicAlpha"
         in="fbSourceGraphic"
         values="0 0 0 -1 0 0 0 0 -1 0 0 0 0 -1 0 0 0 0 1 0"
         id="feColorMatrix4544-9-4-4-5-5-1-6" />
      <feTurbulence
         id="feTurbulence4546-3-6-5-6-6-2-1"
         type="fractalNoise"
         numOctaves="4"
         seed="147"
         baseFrequency="0.046080819231719368"
         result="turbulence" />
      <feDisplacementMap
         id="feDisplacementMap4548-8-0-9-2-2-7-1"
         in2="turbulence"
         in="fbSourceGraphic"
         scale="13.20326"
         yChannelSelector="G"
         xChannelSelector="R"
         result="fbSourceGraphic" />
      <feColorMatrix
         result="fbSourceGraphicAlpha"
         in="fbSourceGraphic"
         values="0 0 0 -1 0 0 0 0 -1 0 0 0 0 -1 0 0 0 0 1 0"
         id="feColorMatrix4670-7-7-3-9-9-0-5" />
      <feFlood
         id="feFlood4672-4-4-5-1-1-9-9"
         flood-opacity="1"
         flood-color="rgb(28,28,28)"
         result="flood"
         in="fbSourceGraphic" />
      <feComposite
         id="feComposite4674-8-3-7-2-2-3-8"
         in2="fbSourceGraphic"
         in="flood"
         operator="in"
         result="composite1" />
      <feGaussianBlur
         id="feGaussianBlur4676-3-7-08-7-7-6-4"
         in="composite1"
         stdDeviation="0"
         result="blur" />
      <feOffset
         id="feOffset4678-6-9-1-0-0-0-8"
         dx="-8.3919392296330813"
         dy="1.5526614972014983"
         result="offset" />
      <feComposite
         id="feComposite4680-4-0-9-9-9-6-1"
         in2="offset"
         in="fbSourceGraphic"
         operator="over"
         result="composite2" />
    </filter>
    <filter
       style="color-interpolation-filters:sRGB"
       id="filter4375-4-1-1-1-9-5-8-8-5-5-3-8"
       inkscape:label="soundFX1">
      <feFlood
         id="feFlood4377-7-9-0-8-1-7-3-1-2-7-6-7"
         flood-opacity="1"
         flood-color="rgb(255,255,255)"
         result="flood" />
      <feComposite
         id="feComposite4379-3-8-8-2-77-4-1-0-6-4-7-9"
         in2="SourceGraphic"
         in="flood"
         operator="in"
         result="composite1"
         baseFrequency="0.053999999999999999 0.053999999999999999" />
      <feMorphology
         id="feMorphology4393-1-0-49-8-9-3-0-1-9-9-5-2"
         operator="dilate"
         radius="2.9756367599225957"
         result="result3" />
      <feComposite
         id="feComposite4385-9-5-7-0-8-8-7-5-4-9-3-0"
         in2="result3"
         in="SourceGraphic"
         operator="over"
         result="fbSourceGraphic" />
      <feColorMatrix
         result="fbSourceGraphicAlpha"
         in="fbSourceGraphic"
         values="0 0 0 -1 0 0 0 0 -1 0 0 0 0 -1 0 0 0 0 1 0"
         id="feColorMatrix4544-9-4-4-5-2" />
      <feTurbulence
         id="feTurbulence4546-3-6-5-6-3"
         type="fractalNoise"
         numOctaves="5"
         seed="174"
         baseFrequency="0.053999999999999999 0.054054054054054057"
         result="turbulence" />
      <feDisplacementMap
         id="feDisplacementMap4548-8-0-9-2-7"
         in2="turbulence"
         in="fbSourceGraphic"
         scale="6.6"
         yChannelSelector="G"
         xChannelSelector="R"
         result="fbSourceGraphic" />
      <feColorMatrix
         result="fbSourceGraphicAlpha"
         in="fbSourceGraphic"
         values="0 0 0 -1 0 0 0 0 -1 0 0 0 0 -1 0 0 0 0 1 0"
         id="feColorMatrix4670-7-7-3-9-5" />
      <feFlood
         id="feFlood4672-4-4-5-1-9"
         flood-opacity="1"
         flood-color="rgb(255,255,255)"
         result="flood"
         in="fbSourceGraphic" />
      <feComposite
         id="feComposite4674-8-3-7-2-22"
         in2="fbSourceGraphic"
         in="flood"
         operator="in"
         result="composite1" />
      <feGaussianBlur
         id="feGaussianBlur4676-3-7-08-7-8"
         in="composite1"
         stdDeviation="0"
         result="blur" />
      <feOffset
         id="feOffset4678-6-9-1-0-9"
         dx="-6.3258232761971414"
         dy="6"
         result="offset" />
      <feComposite
         id="feComposite4680-4-0-9-9-7"
         in2="offset"
         in="fbSourceGraphic"
         operator="over"
         result="composite2" />
    </filter>
    <filter
       style="color-interpolation-filters:sRGB"
       id="filter5561"
       inkscape:label="deevad outline effect">
      <feFlood
         id="feFlood5563"
         flood-opacity="1"
         flood-color="rgb(0,0,0)"
         result="flood" />
      <feComposite
         id="feComposite5565"
         in2="SourceGraphic"
         in="flood"
         operator="in"
         result="composite1" />
      <feMorphology
         id="feMorphology5567"
         operator="dilate"
         radius="1.8999999999999999 6.0999999999999996"
         result="result3" />
      <feComposite
         id="feComposite5569"
         in2="result3"
         in="SourceGraphic"
         operator="over"
         result="composite2" />
    </filter>
    <filter
       style="color-interpolation-filters:sRGB"
       id="filter4375-4-1-1-1-9-5-8-8-5-5-3-8-5"
       inkscape:label="soundFX1">
      <feFlood
         id="feFlood4377-7-9-0-8-1-7-3-1-2-7-6-7-6"
         flood-opacity="1"
         flood-color="rgb(52,52,52)"
         result="flood" />
      <feComposite
         id="feComposite4379-3-8-8-2-77-4-1-0-6-4-7-9-2"
         in2="SourceGraphic"
         in="flood"
         operator="in"
         result="composite1"
         baseFrequency="0.053999999999999999 0.053999999999999999" />
      <feMorphology
         id="feMorphology4393-1-0-49-8-9-3-0-1-9-9-5-2-9"
         operator="dilate"
         radius="2.9756367599225957"
         result="result3" />
      <feComposite
         id="feComposite4385-9-5-7-0-8-8-7-5-4-9-3-0-1"
         in2="result3"
         in="SourceGraphic"
         operator="over"
         result="fbSourceGraphic" />
      <feColorMatrix
         result="fbSourceGraphicAlpha"
         in="fbSourceGraphic"
         values="0 0 0 -1 0 0 0 0 -1 0 0 0 0 -1 0 0 0 0 1 0"
         id="feColorMatrix4544-9-4-4-5-2-2" />
      <feTurbulence
         id="feTurbulence4546-3-6-5-6-3-7"
         type="fractalNoise"
         numOctaves="5"
         seed="174"
         baseFrequency="0.053999999999999999 0.054054054054054057"
         result="turbulence" />
      <feDisplacementMap
         id="feDisplacementMap4548-8-0-9-2-7-0"
         in2="turbulence"
         in="fbSourceGraphic"
         scale="6.6"
         yChannelSelector="G"
         xChannelSelector="R"
         result="fbSourceGraphic" />
      <feColorMatrix
         result="fbSourceGraphicAlpha"
         in="fbSourceGraphic"
         values="0 0 0 -1 0 0 0 0 -1 0 0 0 0 -1 0 0 0 0 1 0"
         id="feColorMatrix4670-7-7-3-9-5-9" />
      <feFlood
         id="feFlood4672-4-4-5-1-9-3"
         flood-opacity="1"
         flood-color="rgb(28,28,28)"
         result="flood"
         in="fbSourceGraphic" />
      <feComposite
         id="feComposite4674-8-3-7-2-22-6"
         in2="fbSourceGraphic"
         in="flood"
         operator="in"
         result="composite1" />
      <feGaussianBlur
         id="feGaussianBlur4676-3-7-08-7-8-0"
         in="composite1"
         stdDeviation="0"
         result="blur" />
      <feOffset
         id="feOffset4678-6-9-1-0-9-6"
         dx="-6.3258232761971414"
         dy="6"
         result="offset" />
      <feComposite
         id="feComposite4680-4-0-9-9-7-2"
         in2="offset"
         in="fbSourceGraphic"
         operator="over"
         result="composite2" />
    </filter>
  </defs>
  <sodipodi:namedview
     pagecolor="#ffffff"
     bordercolor="#666666"
     borderopacity="1"
     objecttolerance="10"
     gridtolerance="10"
     guidetolerance="10"
     inkscape:pageopacity="0"
     inkscape:pageshadow="2"
     inkscape:window-width="1848"
     inkscape:window-height="1016"
     id="namedview4"
     showgrid="false"
     inkscape:zoom="0.46000001"
     inkscape:cx="1163.9869"
     inkscape:cy="2609.7261"
     inkscape:window-x="72"
     inkscape:window-y="27"
     inkscape:window-maximized="1"
     inkscape:current-layer="layer3"
     inkscape:document-rotation="0"
     inkscape:snap-global="false"
     borderlayer="true" />
  <g
     inkscape:groupmode="layer"
     id="layer2"
     inkscape:label="artwork"
     sodipodi:insensitive="true">
    <image
       sodipodi:absref="/home/emmiline/Documents/git/webcomics/new-ep34_The-Knighting-of-Shichimi/lang/gfx_Pepper-and-Carrot_by-David-Revoy_E34P10.png"
       xlink:href="../gfx_Pepper-and-Carrot_by-David-Revoy_E34P10.png"
       width="2481"
       height="3503"
       id="image10"
       x="0"
       y="0" />
  </g>
  <g
     inkscape:groupmode="layer"
     id="layer3"
     inkscape:label="speechbubbles">
    <path
       style="display:inline;fill:#ffffff;stroke:none;stroke-width:0.79213"
       d="m 2082.5127,1307.5287 c -21.7391,0.4465 -44.08,-0.01 -64.8937,6.4657 -15.0152,4.7067 -28.2513,13.7576 -37.1129,25.5637 -14.0722,18.124 -19.785,40.6976 -18.6586,62.5379 1.0298,17.338 6.774,34.8966 18.8492,48.7273 12.1306,13.3942 29.9278,21.6237 48.1421,26.5068 40.0863,11.2109 83.3492,13.2721 124.5564,6.0052 20.9082,-3.729 41.2501,-12.5302 55.4462,-26.9851 10.8791,-11.1313 15.6856,-25.7604 18.6905,-39.9977 2.8175,-14.7541 5.9584,-29.991 2.4479,-44.8776 -3.5628,-14.9538 -14.6649,-27.5055 -27.3385,-37.3593 -19.3931,-15.182 -44.5709,-24.1256 -70.2732,-25.6018 -16.5791,-1.2456 -33.2352,-1.0237 -49.8554,-0.9851 z"
       id="path3280-5-9"
       inkscape:connector-curvature="0"
       sodipodi:nodetypes="csssc" />
    <path
       style="color:#000000;display:inline;overflow:visible;visibility:visible;fill:#ffffff;fill-opacity:1;fill-rule:nonzero;stroke:none;stroke-width:1.10069px;marker:none;enable-background:accumulate"
       d="m 445.82812,1329.7174 c 0,0 49.20979,7.2764 57.0208,11.1947 7.811,3.9179 24.16932,2.774 -30.51358,47.8158 94.64453,-31.5742 88.83678,-23.9308 105.24002,-22.2519 -7.02986,11.1947 -32.38073,31.4557 -32.38073,31.4557 0,0 74.82007,-29.5932 82.63115,-29.034 -2.34328,5.0375 -16.86403,15.9764 -16.86403,15.9764 l 55.56771,-7.4463 -38.74465,28.9462 c 0,0 119.43913,-33.4364 125.01777,-31.8789 6.34145,1.5575 -4.68649,32.4638 -4.68649,32.4638 l 35.61633,-22.9229 -2.02879,11.7288 26.55761,-19.0309 8.59208,10.6349 18.52678,-11.7679 0.21973,12.3277 29.68205,-16.2322 10.15429,1.6796 25.77653,25.7467 9.67499,-13.1813 11.41482,-19.3082 46.08534,21.2954 c -0.80929,-7.6033 0.19143,-17.8933 -1.26623,-25.3954 l 23.13715,15.8803 -2.13983,-16.7789 21.66756,3.9052 c 13.0939,6.3795 30.4564,9.4968 43.4468,16.0832 l -9.5078,-19.8669 32.3521,11.1185 -15.6587,-19.0989 c 14.0424,3.5822 32.2841,5.4922 44.6625,12.8831 l -17.166,-13.8184 c 35.9243,3.8351 62.9459,9.1136 96.861,15.0036 l -43.7644,-28.6114 -10.9353,-7.8356 39.8364,-7.8361 -22.273,-7.4097 25.6363,-18.4109 5.968,-45.8169 -15.0023,-23.2018 -669.26795,-1.3435 23.56866,22.3211 -63.45017,-19.0191 43.7723,29.4105 -89.17461,-4.0075 77.03221,32.414 -33.08334,5.9578 34.3687,8.3961 -33.58755,12.8737 21.08981,8.9552 z"
       id="path3931-4"
       inkscape:connector-curvature="0"
       sodipodi:nodetypes="cccccccccccccccccccccccccccccccccccccccccccccccccccc" />
    <path
       style="color:#000000;display:inline;overflow:visible;visibility:visible;fill:#ffffff;fill-opacity:1;fill-rule:nonzero;stroke:none;stroke-width:0.789892px;marker:none;enable-background:accumulate"
       d="m 1917.8333,178.93355 c -23.7906,0.27643 -47.9678,4.38122 -69.7668,16.19023 -10.036,5.76369 -19.7312,13.83599 -25.2668,25.6302 -4.8375,11.61609 -4.642,25.22637 -2.3828,37.63133 2.3991,11.46841 9.0193,21.47917 17.7216,27.15664 12.7197,9.13914 27.5391,12.67154 42.0078,15.58414 24.6933,4.71396 49.7636,5.80884 74.7373,5.76809 23.8123,-0.3214 47.7077,-2.27031 71.0814,-7.88813 11.2866,-3.27908 22.4527,-9.89237 29.4179,-21.29477 7.5428,-11.89973 10.442,-28.46738 5.6669,-42.52728 -4.298,-13.39226 -13.7229,-23.46838 -24.0338,-30.35612 -14.1747,-9.85698 -29.8294,-16.40707 -45.7517,-20.95817 -22.3258,-5.58 -45.2659,-4.67375 -67.9431,-4.9377 -1.8293,5.1e-4 -3.6587,9.5e-4 -5.4879,0.002 z"
       id="path4040-2"
       inkscape:connector-curvature="0"
       sodipodi:nodetypes="zssssz" />
    <path
       style="display:inline;fill:#ffffff;fill-rule:evenodd;stroke:none;stroke-width:1.10165px;stroke-linecap:butt;stroke-linejoin:miter;stroke-opacity:1"
       d="m 1676.8478,242.35094 c -70.7906,-23.84478 -121.1349,-27.25632 -71.5727,24.23946 -72.1284,-52.11875 -108.4235,-41.58993 -94.07,-14.00843 -45.0549,-26.24149 -72.4367,-17.72175 -93.7588,2.71392 -8.9483,-25.22923 -26.1607,-14.44588 -41.2897,-12.74141 -5.1711,-5.61772 11.5503,-20.42796 -57.1856,0.64967 -4.7224,-7.49549 -10.9711,-13.88794 -51.0584,4.19477 -11.462,-30.64874 -44.2158,2.99731 -77.7259,38.92587 20.2324,-43.56429 11.1153,-49.37133 -15.9088,-32.14071 12.0452,-18.04763 19.1549,-31.95481 -27.7426,-0.55496 15.3738,-33.11366 -26.8861,-9.46693 -94.773,39.41932 33.6167,-35.65739 123.7807,-96.72331 63.3691,-90.12851 8.1338,-10.46021 37.9867,-20.23284 -52.2162,-33.80573 16.5361,-7.41767 67.9754,1.23296 24.429,-26.88413 -5.8192,-3.26556 13.2476,-5.91478 -23.5392,-13.89337 21.5719,-0.008 34.723,-2.58763 14.4614,-15.3599 39.3645,-0.41785 24.2164,-14.026894 -5.2132,-31.091452 57.6732,21.313252 58.4122,-16.191124 59.8189,-25.428816 72.3585,29.239302 76.2498,19.261352 85.69,12.461824 34.7968,-1.251302 69.7212,1.683016 103.4619,-34.237141 9.7767,21.450853 28.5601,37.636904 105.1161,20.049156 -32.9774,28.604933 14.5986,9.611369 51.0997,-2.837103 -19.1269,35.095083 31.3935,10.963383 95.2279,-24.490294 -35.1585,39.160875 5.6727,24.200389 65.9745,-4.626528 -21.9543,38.107673 18.3526,84.192514 108.2923,83.047394 -42.6151,14.74941 -67.188,32.4709 -21.5785,61.75045 -50.6389,-7.5439 -65.4071,1.25244 -28.8398,33.436 -55.7649,-25.67052 -66.3795,10.68935 -20.4684,41.34065 z"
       id="path4508-2"
       inkscape:connector-curvature="0"
       sodipodi:nodetypes="cccccccccccccccccccccccccccc" />
    <path
       style="fill:#ffffff;fill-rule:evenodd;stroke:none;stroke-width:0.948103px;stroke-linecap:butt;stroke-linejoin:miter;stroke-opacity:1"
       d="m 1769.5044,423.01474 c 63.9612,-15.98879 63.9232,-32.79495 71.6929,-40.62661 54.4882,-5.72993 87.7448,-47.55926 77.6703,-102.20871 -3.5879,-16.85606 18.9915,-15.2184 19.391,4.83139 -1.0987,60.691 -16.1574,91.15186 -91.941,107.14119 -13.3423,25.71642 -40.0046,26.09144 -76.8132,30.86274 z"
       id="path4272-2"
       inkscape:connector-curvature="0"
       sodipodi:nodetypes="cccccc" />
    <path
       style="color:#000000;display:inline;overflow:visible;visibility:visible;fill:#ffffff;fill-opacity:1;fill-rule:nonzero;stroke:none;stroke-width:1.15076px;marker:none;enable-background:accumulate"
       d="m 451.5565,1524.1672 c 77.73068,-52.6757 108.17029,-66.4987 176.8647,-111.3306 l -5.71608,28.8704 c 60.48451,-34.1783 93.06945,-54.7177 138.95581,-81.4871 l 64.72178,-3.0505 c -49.31969,23.1577 -186.82827,93.8637 -233.75953,124.887 l 2.854,-25.9346 c -80.19296,32.7945 -87.07813,44.4174 -143.92068,68.0454 z"
       id="path4032-1"
       inkscape:connector-curvature="0"
       sodipodi:nodetypes="cccccccc" />
    <path
       style="color:#000000;display:inline;overflow:visible;visibility:visible;fill:#ffffff;fill-opacity:1;fill-rule:nonzero;stroke:none;stroke-width:0.946773px;marker:none;enable-background:accumulate"
       d="m 1953.8541,1506.2575 c 74.843,1.2486 77.07,-86.4065 88.8547,-128.5666 l 26.4517,50.7412 c 0,0 -44.075,103.6484 -115.3064,77.8254 z"
       id="path3072-56"
       inkscape:connector-curvature="0"
       sodipodi:nodetypes="cccc" />
    <path
       style="color:#000000;display:inline;overflow:visible;visibility:visible;fill:#ffffff;fill-opacity:1;fill-rule:nonzero;stroke:none;stroke-width:0.688871px;marker:none;enable-background:accumulate"
       d="m 2136.0816,1363.3613 c 6.2795,-12.3381 38.7707,-12.1191 50.6084,-9.0971 -23.4884,-14.9996 -17.2064,-25.642 15.5413,-25.7162 -42.2079,-19.339 -13.7335,-18.1248 -0.6402,-18.0491 -37.6869,-9.8371 -26.0773,-22.4588 -6.1666,-29.1598 -37.8267,0.8481 -40.3393,-1.2993 -29.0383,-17.1189 -14.2604,6.1177 -49.005,20.7234 -44.9512,-10.0418 -27.3696,16.0988 -53.3528,25.7346 -70.616,-2.0817 -13.959,17.9298 -41.1132,22.102 -63.7311,-5.6943 5.2762,29.1751 -24.2073,19.2557 -53.4015,10.0092 15.0317,15.6483 -6.3018,28.809 -34.8237,18.6728 19.1013,13.4109 -5.56,14.2513 -24.8414,16.9951 25.2107,6.1686 29.6734,11.6865 -17.7802,15.5752 35.9031,1.9644 60.4404,2.4468 26.3869,22.3394 20.6234,-4.9112 68.1324,-9.7222 29.602,29.4744 36.422,-16.5278 55.5321,-20.101 41.4862,5.3582 15.0696,-15.4509 71.6549,-23.7983 81.6813,-3.3673 4.2624,-8.375 20.5888,-10.9476 34.3512,-10.7975 5.1736,3.5964 10.4633,8.4125 15.9316,14.6651 9.8813,-12.2907 24.2272,-20.2913 50.4013,-1.9657 z"
       id="path3549-3-7-1"
       inkscape:connector-curvature="0"
       sodipodi:nodetypes="cccccccccccccccccccc" />
  </g>
  <g
     inkscape:groupmode="layer"
     id="layer1"
     inkscape:label="txt">
    <text
       xml:space="preserve"
       style="font-style:normal;font-variant:normal;font-weight:normal;font-stretch:normal;font-size:105.817px;line-height:1.25;font-family:Lavi;-inkscape-font-specification:Lavi;letter-spacing:0px;word-spacing:0px;fill:#000000;fill-opacity:1;stroke:#030303;stroke-width:0.716208;stroke-miterlimit:4;stroke-dasharray:none;stroke-opacity:1;filter:url(#filter4375-4-1-1-1-9-5-8-8-5-5-3-8)"
       x="787.65729"
       y="1584.5073"
       id="text4580-6-0-0-0-9-3-36"
       transform="matrix(1.0231031,-0.37102511,-0.35076992,1.3038401,-25.652514,-621.71416)"><tspan
         style="font-size:152.472px;fill:#000000;fill-opacity:1;stroke:#030303;stroke-width:0.716208;stroke-miterlimit:4;stroke-dasharray:none;stroke-opacity:1"
         sodipodi:role="line"
         id="tspan876-6-1"
         x="787.65729"
         y="1584.5073">?<tspan
   style="font-size:127.883px"
   id="tspan925">!</tspan></tspan></text>
    <text
       xml:space="preserve"
       style="font-style:normal;font-variant:normal;font-weight:normal;font-stretch:normal;font-size:69.0366px;line-height:1.25;font-family:Lavi;-inkscape-font-specification:Lavi;text-align:center;letter-spacing:0px;word-spacing:0px;text-anchor:middle;fill:#000000;fill-opacity:1;stroke:none;stroke-width:1.53413"
       x="1419.605"
       y="191.08641"
       id="text4246-3-2-2-6-3-7-9-3-3-56-9-3-20-3-3-2-7-2"
       transform="matrix(0.99725425,0,-0.12471947,1.0027533,0,0)"><tspan
         style="font-style:normal;font-variant:normal;font-weight:bold;font-stretch:normal;font-size:69.0366px;font-family:Lavi;-inkscape-font-specification:'Lavi Bold';stroke-width:1.53413"
         sodipodi:role="line"
         x="1419.605"
         y="191.08641"
         id="tspan1414-3">FANG HENDE!!!</tspan></text>
    <text
       xml:space="preserve"
       style="font-style:normal;font-variant:normal;font-weight:normal;font-stretch:normal;font-size:45px;line-height:1.25;font-family:Lavi;-inkscape-font-specification:Lavi;text-align:center;letter-spacing:0px;word-spacing:0px;text-anchor:middle;fill:#000000;fill-opacity:1;stroke:none"
       x="1943.2986"
       y="257.62378"
       id="text4246-3-2-2-6"><tspan
         style="font-size:45px"
         sodipodi:role="line"
         id="tspan1097-2"
         x="1943.2986"
         y="257.62378">Åh gud.</tspan></text>
    <text
       xml:space="preserve"
       style="font-style:normal;font-variant:normal;font-weight:normal;font-stretch:normal;font-size:51.4356px;line-height:1.25;font-family:Lavi;-inkscape-font-specification:Lavi;text-align:center;letter-spacing:0px;word-spacing:0px;text-anchor:middle;fill:#000000;fill-opacity:1;stroke:none;stroke-width:1.14301"
       x="820.15143"
       y="1326.6313"
       id="text4246-3-2-2-6-3"><tspan
         style="font-size:51.4356px;stroke-width:1.14301"
         sodipodi:role="line"
         id="tspan1097-2-6"
         x="820.15143"
         y="1326.6313">Pepper, tag min kost!</tspan></text>
    <text
       xml:space="preserve"
       style="font-style:normal;font-variant:normal;font-weight:normal;font-stretch:normal;font-size:8.55136px;line-height:0%;font-family:Lavi;-inkscape-font-specification:Lavi;letter-spacing:0px;word-spacing:0px;fill:#000000;fill-opacity:1;stroke:#000000;stroke-width:8.1307;stroke-miterlimit:4;stroke-dasharray:none;stroke-opacity:1;paint-order:stroke fill markers"
       x="1769.7273"
       y="1956.4039"
       id="text4580-25"
       transform="matrix(1.0352599,-0.3538216,-0.45318147,1.1208252,0,0)"><tspan
         sodipodi:role="line"
         id="tspan4582-4"
         x="1769.7273"
         y="1956.4039"
         style="font-size:49.8829px;line-height:100%;letter-spacing:3.48001px;fill:#ffffff;stroke:#000000;stroke-width:8.1307;stroke-miterlimit:4;stroke-dasharray:none;stroke-opacity:1;paint-order:stroke fill markers"><tspan
           style="font-size:57.2942px;line-height:100%;letter-spacing:3.48001px;stroke:#000000;stroke-width:8.1307;stroke-miterlimit:4;stroke-dasharray:none;stroke-opacity:1;paint-order:stroke fill markers"
           id="tspan4617-9">Fisss!</tspan></tspan></text>
    <text
       xml:space="preserve"
       style="font-style:normal;font-variant:normal;font-weight:normal;font-stretch:normal;font-size:53.122px;line-height:1.25;font-family:Lavi;-inkscape-font-specification:Lavi;text-align:center;letter-spacing:0px;word-spacing:0px;text-anchor:middle;fill:#000000;fill-opacity:1;stroke:none;stroke-width:1.18049"
       x="2036.292"
       y="1325.7084"
       id="text4246-3-2-2-6-0"><tspan
         style="font-size:53.122px;stroke-width:1.18049"
         sodipodi:role="line"
         x="2036.292"
         y="1325.7084"
         id="tspan1235">Åh wow!</tspan></text>
    <text
       xml:space="preserve"
       style="font-style:normal;font-variant:normal;font-weight:normal;font-stretch:normal;font-size:45px;line-height:1.25;font-family:Lavi;-inkscape-font-specification:Lavi;text-align:center;letter-spacing:0px;word-spacing:0px;text-anchor:middle;fill:#000000;fill-opacity:1;stroke:none"
       x="2103.4827"
       y="1394.8405"
       id="text4246-3-2-2-6-0-7"><tspan
         style="font-size:45px"
         sodipodi:role="line"
         x="2103.4827"
         y="1394.8405"
         id="tspan1235-3">Mange tak,</tspan><tspan
         style="font-size:45px"
         sodipodi:role="line"
         x="2103.4827"
         y="1451.0905"
         id="tspan98">Safran!</tspan></text>
    <text
       xml:space="preserve"
       style="font-style:normal;font-variant:normal;font-weight:normal;font-stretch:normal;font-size:7.13716px;line-height:0%;font-family:Lavi;-inkscape-font-specification:Lavi;letter-spacing:0px;word-spacing:0px;fill:#000000;fill-opacity:1;stroke:#000000;stroke-width:6.78607;stroke-miterlimit:4;stroke-dasharray:none;stroke-opacity:1;paint-order:stroke fill markers"
       x="2509.1191"
       y="2128.6602"
       id="text4580-25-7"
       transform="matrix(0.94891997,-0.36282871,-0.2498382,1.1493577,0,0)"><tspan
         sodipodi:role="line"
         id="tspan4582-4-5"
         x="2509.1191"
         y="2128.6602"
         style="font-size:41.6334px;line-height:100%;letter-spacing:2.9045px;fill:#ffffff;stroke:#000000;stroke-width:6.78607;stroke-miterlimit:4;stroke-dasharray:none;stroke-opacity:1;paint-order:stroke fill markers"><tspan
           style="font-size:47.819px;line-height:100%;letter-spacing:2.9045px;stroke:#000000;stroke-width:6.78607;stroke-miterlimit:4;stroke-dasharray:none;stroke-opacity:1;paint-order:stroke fill markers"
           id="tspan4617-9-3">Tok!</tspan></tspan></text>
    <text
       xml:space="preserve"
       style="font-style:normal;font-variant:normal;font-weight:normal;font-stretch:normal;font-size:99.1307px;line-height:1.25;font-family:Lavi;-inkscape-font-specification:Lavi;letter-spacing:0px;word-spacing:0px;fill:#ffffff;fill-opacity:1;stroke:#ffffff;stroke-width:0.716208;stroke-miterlimit:4;stroke-dasharray:none;stroke-opacity:1;filter:url(#filter4375-4-1-1-1-9-5-8-8-5-5-3-8-5)"
       id="text4580-6-0-0-0-9-3-36-6"
       transform="matrix(0.83569631,-0.05703359,0,0.91800268,450.98089,-394.64664)"><textPath
         xlink:href="#path974"
         id="textPath1153"><tspan
           style="font-size:99.1307px;fill:#ffffff;fill-opacity:1;stroke:#ffffff;stroke-width:0.716208;stroke-miterlimit:4;stroke-dasharray:none;stroke-opacity:1"
           id="tspan876-6-1-1"><tspan
             style="font-size:73.6547px;fill:#ffffff;fill-opacity:1;stroke-width:0.716208"
             id="tspan884-0-2"
             rotate="0 0 0 0 0"><tspan
   style="font-size:87.3025px;fill:#ffffff;stroke-width:0.716208"
   id="tspan976-9"
   rotate="0 0 0 0 0">ziuu</tspan>U<tspan
   style="font-size:100.95px;fill:#ffffff;stroke-width:0.716208"
   id="tspan972-3"
   rotate="0 0 0">U<tspan
   style="font-size:121.782px"
   id="tspan99">U</tspan></tspan></tspan><tspan
             style="font-size:182.838px;fill:#ffffff;stroke-width:0.716208"
             id="tspan958-9"
             rotate="0 0 0 0"><tspan
   style="font-size:152.227px"
   id="tspan101">U</tspan>U!</tspan></tspan></textPath></text>
    <path
       style="fill:none;fill-rule:evenodd;stroke:none;stroke-width:0.989149px;stroke-linecap:butt;stroke-linejoin:miter;stroke-opacity:1"
       d="M 587.57621,4024.2799 C 1026.33,4092.146 1310.4295,3793.5377 1509.4977,3369.7215"
       id="path974"
       sodipodi:nodetypes="cc" />
    <text
       xml:space="preserve"
       style="font-style:normal;font-variant:normal;font-weight:normal;font-stretch:normal;font-size:46.9748px;line-height:1.25;font-family:Lavi;-inkscape-font-specification:Lavi;text-align:center;letter-spacing:0px;word-spacing:0px;text-anchor:middle;fill:#000000;fill-opacity:1;stroke:none;stroke-width:1.04388"
       x="2641.2473"
       y="3161.5713"
       id="text4246-3-2-2-6-3-8"
       transform="matrix(0.91327378,0,-0.07872707,1.0949619,0,0)"><tspan
         style="font-style:normal;font-variant:normal;font-weight:bold;font-stretch:normal;font-size:46.9748px;font-family:Lavi;-inkscape-font-specification:'Lavi Bold';stroke-width:1.04388"
         sodipodi:role="line"
         id="tspan1097-2-6-7"
         x="2641.2473"
         y="3161.5713">FORTSÆTTES...</tspan></text>
  </g>
</svg>
