<?xml version="1.0" encoding="UTF-8" standalone="no"?>
<!-- Created with Inkscape (http://www.inkscape.org/) -->

<svg
   id="svg2"
   version="1.1"
   inkscape:version="1.1.2 (1:1.1+202202050950+0a00cf5339)"
   width="2481"
   height="3503"
   sodipodi:docname="E36P12.svg"
   xmlns:inkscape="http://www.inkscape.org/namespaces/inkscape"
   xmlns:sodipodi="http://sodipodi.sourceforge.net/DTD/sodipodi-0.dtd"
   xmlns:xlink="http://www.w3.org/1999/xlink"
   xmlns="http://www.w3.org/2000/svg"
   xmlns:svg="http://www.w3.org/2000/svg"
   xmlns:rdf="http://www.w3.org/1999/02/22-rdf-syntax-ns#"
   xmlns:cc="http://creativecommons.org/ns#"
   xmlns:dc="http://purl.org/dc/elements/1.1/">
  <metadata
     id="metadata8">
    <rdf:RDF>
      <cc:Work
         rdf:about="">
        <dc:format>image/svg+xml</dc:format>
        <dc:type
           rdf:resource="http://purl.org/dc/dcmitype/StillImage" />
        <dc:title />
      </cc:Work>
    </rdf:RDF>
  </metadata>
  <defs
     id="defs6">
    <filter
       style="color-interpolation-filters:sRGB"
       id="filter5561-7"
       inkscape:label="Roughen"
       x="-0.0011581863"
       y="-0.0077208326"
       width="1.0023164"
       height="1.0154417">
      <feFlood
         id="feFlood5563-4"
         flood-opacity="1"
         flood-color="rgb(65,124,138)"
         result="flood" />
      <feComposite
         id="feComposite5565-6"
         in2="SourceGraphic"
         in="flood"
         operator="in"
         result="composite1" />
      <feMorphology
         id="feMorphology5567-3"
         operator="dilate"
         radius="4.7000000000000002"
         result="result3" />
      <feComposite
         id="feComposite5569-6"
         in2="result3"
         in="SourceGraphic"
         operator="over"
         result="fbSourceGraphic"
         radius="3.3999999999999999" />
      <feColorMatrix
         result="fbSourceGraphicAlpha"
         in="fbSourceGraphic"
         values="0 0 0 -1 0 0 0 0 -1 0 0 0 0 -1 0 0 0 0 1 0"
         id="feColorMatrix4681" />
      <feTurbulence
         id="feTurbulence4683"
         type="fractalNoise"
         numOctaves="1"
         seed="33"
         baseFrequency="0.0080000000000000002 0.044999999999999998"
         result="turbulence" />
      <feDisplacementMap
         id="feDisplacementMap4685"
         in2="turbulence"
         in="fbSourceGraphic"
         scale="37.8"
         yChannelSelector="G"
         xChannelSelector="R" />
    </filter>
    <filter
       style="color-interpolation-filters:sRGB"
       id="filter4375-4-1-1-1-9-5-8-87"
       inkscape:label="Drop Shadow"
       x="-0.0013199663"
       y="-0.0041980981"
       width="1.0236318"
       height="1.07516">
      <feFlood
         id="feFlood4377-7-9-0-8-1-7-3-9"
         flood-opacity="1"
         flood-color="rgb(165,138,223)"
         result="flood" />
      <feComposite
         id="feComposite4379-3-8-8-2-77-4-1-2"
         in2="SourceGraphic"
         in="flood"
         operator="in"
         result="composite1" />
      <feMorphology
         id="feMorphology4393-1-0-49-8-9-3-0-0"
         operator="dilate"
         radius="6.2000000000000002"
         result="result3" />
      <feComposite
         id="feComposite4385-9-5-7-0-8-8-7-2"
         in2="result3"
         in="SourceGraphic"
         operator="over"
         result="fbSourceGraphic" />
      <feColorMatrix
         result="fbSourceGraphicAlpha"
         in="fbSourceGraphic"
         values="0 0 0 -1 0 0 0 0 -1 0 0 0 0 -1 0 0 0 0 1 0"
         id="feColorMatrix4544-3" />
      <feTurbulence
         id="feTurbulence4546-7"
         type="fractalNoise"
         numOctaves="3"
         seed="37"
         baseFrequency="0.129 0.0050000000000000001"
         result="turbulence" />
      <feDisplacementMap
         id="feDisplacementMap4548-5"
         in2="turbulence"
         in="fbSourceGraphic"
         scale="6.6"
         yChannelSelector="G"
         xChannelSelector="R"
         result="fbSourceGraphic" />
      <feColorMatrix
         result="fbSourceGraphicAlpha"
         in="fbSourceGraphic"
         values="0 0 0 -1 0 0 0 0 -1 0 0 0 0 -1 0 0 0 0 1 0"
         id="feColorMatrix4670-9" />
      <feFlood
         id="feFlood4672-2"
         flood-opacity="1"
         flood-color="rgb(48,14,7)"
         result="flood"
         in="fbSourceGraphic" />
      <feComposite
         id="feComposite4674-2"
         in2="fbSourceGraphic"
         in="flood"
         operator="in"
         result="composite1" />
      <feGaussianBlur
         id="feGaussianBlur4676-8"
         in="composite1"
         stdDeviation="0"
         result="blur" />
      <feOffset
         id="feOffset4678-9"
         dx="6"
         dy="6"
         result="offset" />
      <feComposite
         id="feComposite4680-7"
         in2="offset"
         in="fbSourceGraphic"
         operator="over"
         result="composite2" />
    </filter>
    <filter
       style="color-interpolation-filters:sRGB"
       id="filter3018-3-2-2-7-3"
       inkscape:label="Lapping"
       inkscape:menu="Distort"
       inkscape:menu-tooltip="Something like a water noise"
       height="1.04377"
       y="-0.021884987"
       width="1.0285637"
       x="-0.014281866">
      <feTurbulence
         id="feTurbulence3020-6-9-0-4-7"
         numOctaves="5"
         seed="0"
         type="fractalNoise"
         baseFrequency="0.1"
         result="result1" />
      <feGaussianBlur
         id="feGaussianBlur3022-7-1-2-4-5"
         stdDeviation="2"
         result="result2" />
      <feDisplacementMap
         id="feDisplacementMap3024-5-2-3-3-9"
         in2="result2"
         scale="50"
         yChannelSelector="B"
         xChannelSelector="R"
         in="SourceGraphic" />
    </filter>
    <filter
       style="color-interpolation-filters:sRGB"
       id="filter3018-3-2-2-7-3-3"
       inkscape:label="Lapping"
       inkscape:menu="Distort"
       inkscape:menu-tooltip="Something like a water noise"
       height="1.0469759"
       y="-0.023487931"
       width="1.0179244"
       x="-0.0089622212">
      <feTurbulence
         id="feTurbulence3020-6-9-0-4-7-6"
         numOctaves="5"
         seed="0"
         type="fractalNoise"
         baseFrequency="0.1"
         result="result1" />
      <feGaussianBlur
         id="feGaussianBlur3022-7-1-2-4-5-1"
         stdDeviation="2"
         result="result2" />
      <feDisplacementMap
         id="feDisplacementMap3024-5-2-3-3-9-0"
         in2="result2"
         scale="50"
         yChannelSelector="B"
         xChannelSelector="R"
         in="SourceGraphic" />
    </filter>
    <filter
       style="color-interpolation-filters:sRGB"
       id="filter3018-3-2-2-7-3-32"
       inkscape:label="Lapping"
       inkscape:menu="Distort"
       inkscape:menu-tooltip="Something like a water noise"
       height="1.0470109"
       y="-0.023505455"
       width="1.0195043"
       x="-0.0097521289">
      <feTurbulence
         id="feTurbulence3020-6-9-0-4-7-0"
         numOctaves="5"
         seed="0"
         type="fractalNoise"
         baseFrequency="0.1"
         result="result1" />
      <feGaussianBlur
         id="feGaussianBlur3022-7-1-2-4-5-6"
         stdDeviation="2"
         result="result2" />
      <feDisplacementMap
         id="feDisplacementMap3024-5-2-3-3-9-1"
         in2="result2"
         scale="50"
         yChannelSelector="B"
         xChannelSelector="R"
         in="SourceGraphic" />
    </filter>
    <filter
       style="color-interpolation-filters:sRGB"
       id="filter3018-3-2-2-7-3-32-5"
       inkscape:label="Lapping"
       inkscape:menu="Distort"
       inkscape:menu-tooltip="Something like a water noise"
       height="1.0536249"
       y="-0.026812465"
       width="1.0222004"
       x="-0.011100205">
      <feTurbulence
         id="feTurbulence3020-6-9-0-4-7-0-4"
         numOctaves="5"
         seed="0"
         type="fractalNoise"
         baseFrequency="0.1"
         result="result1" />
      <feGaussianBlur
         id="feGaussianBlur3022-7-1-2-4-5-6-7"
         stdDeviation="2"
         result="result2" />
      <feDisplacementMap
         id="feDisplacementMap3024-5-2-3-3-9-1-6"
         in2="result2"
         scale="50"
         yChannelSelector="B"
         xChannelSelector="R"
         in="SourceGraphic" />
    </filter>
    <filter
       style="color-interpolation-filters:sRGB"
       id="filter3018-3-2-2-2-0-0-2"
       inkscape:label="Lapping"
       inkscape:menu="Distort"
       inkscape:menu-tooltip="Something like a water noise"
       height="1.0432166"
       y="-0.021608322"
       width="1.0263697"
       x="-0.013184857">
      <feTurbulence
         id="feTurbulence3020-6-9-0-9-9-6-2"
         numOctaves="5"
         seed="0"
         type="fractalNoise"
         baseFrequency="0.1"
         result="result1" />
      <feGaussianBlur
         id="feGaussianBlur3022-7-1-2-3-3-2-8"
         stdDeviation="2"
         result="result2" />
      <feDisplacementMap
         id="feDisplacementMap3024-5-2-3-1-6-6-9"
         in2="result2"
         scale="50"
         yChannelSelector="B"
         xChannelSelector="R"
         in="SourceGraphic" />
    </filter>
    <filter
       style="color-interpolation-filters:sRGB"
       id="filter3018-3-2-2-7-3-32-9"
       inkscape:label="Lapping"
       inkscape:menu="Distort"
       inkscape:menu-tooltip="Something like a water noise"
       height="1.0789522"
       y="-0.039476093"
       width="1.0318718"
       x="-0.015935903">
      <feTurbulence
         id="feTurbulence3020-6-9-0-4-7-0-3"
         numOctaves="5"
         seed="0"
         type="fractalNoise"
         baseFrequency="0.1"
         result="result1" />
      <feGaussianBlur
         id="feGaussianBlur3022-7-1-2-4-5-6-74"
         stdDeviation="2"
         result="result2" />
      <feDisplacementMap
         id="feDisplacementMap3024-5-2-3-3-9-1-5"
         in2="result2"
         scale="50"
         yChannelSelector="B"
         xChannelSelector="R"
         in="SourceGraphic" />
    </filter>
    <filter
       style="color-interpolation-filters:sRGB"
       id="filter3018-3-2-2-7-3-32-9-5"
       inkscape:label="Lapping"
       inkscape:menu="Distort"
       inkscape:menu-tooltip="Something like a water noise"
       height="1.0552805"
       y="-0.027640256"
       width="1.0227914"
       x="-0.011395685">
      <feTurbulence
         id="feTurbulence3020-6-9-0-4-7-0-3-4"
         numOctaves="5"
         seed="0"
         type="fractalNoise"
         baseFrequency="0.1"
         result="result1" />
      <feGaussianBlur
         id="feGaussianBlur3022-7-1-2-4-5-6-74-7"
         stdDeviation="2"
         result="result2" />
      <feDisplacementMap
         id="feDisplacementMap3024-5-2-3-3-9-1-5-4"
         in2="result2"
         scale="50"
         yChannelSelector="B"
         xChannelSelector="R"
         in="SourceGraphic" />
    </filter>
  </defs>
  <sodipodi:namedview
     pagecolor="#1e1e1e"
     bordercolor="#111111"
     borderopacity="1"
     objecttolerance="10"
     gridtolerance="10"
     guidetolerance="10"
     inkscape:pageopacity="0"
     inkscape:pageshadow="2"
     inkscape:window-width="1216"
     inkscape:window-height="704"
     id="namedview4"
     showgrid="false"
     inkscape:zoom="0.65423241"
     inkscape:cx="1561.3718"
     inkscape:cy="2456.3137"
     inkscape:window-x="0"
     inkscape:window-y="0"
     inkscape:window-maximized="0"
     inkscape:current-layer="layer1"
     inkscape:pagecheckerboard="0"
     inkscape:snap-global="false" />
  <g
     inkscape:groupmode="layer"
     id="layer2"
     inkscape:label="artwork"
     sodipodi:insensitive="true">
    <image
       xlink:href="../gfx_Pepper-and-Carrot_by-David-Revoy_E36P12.png"
       y="0"
       x="0"
       id="image10"
       height="3503"
       width="2481" />
  </g>
  <g
     inkscape:groupmode="layer"
     id="layer3"
     inkscape:label="speechbubbles"
     style="display:inline">
    <path
       style="color:#000000;display:inline;overflow:visible;visibility:visible;fill:#000000;fill-opacity:1;fill-rule:nonzero;stroke:none;stroke-width:1.03417px;marker:none;filter:url(#filter3018-3-2-2-7-3);enable-background:accumulate"
       d="m 394.27091,240.75553 c -44.20675,2.16367 -88.76166,3.35218 -132.26278,18.34295 -19.44424,6.02269 -34.48216,36.29932 -36.91173,69.12349 -1.44834,25.61851 1.22823,51.92051 7.59122,75.26771 4.04411,14.38623 9.38418,28.0579 16.52915,38.51321 9.06455,12.62057 20.98356,17.68772 32.52115,17.7431 22.08231,1.59729 44.13806,-3.33707 66.2205,-1.36755 24.34658,0.90935 48.7846,2.59053 73.05417,-1.86016 17.58351,-3.33091 35.33626,-1.48685 52.85669,1.98233 23.72822,2.19967 48.34399,-7.12988 67.86212,-30.87085 11.36614,-13.5175 18.46507,-36.51271 18.93734,-60.03839 1.28767,-31.45154 -6.72232,-64.57301 -22.14782,-82.7878 -11.73966,-13.16819 -25.85832,-17.32898 -39.34818,-22.34896 -22.63857,-7.23925 -45.34065,-14.19097 -68.24828,-18.47185 -12.17352,-2.1549 -24.41136,-3.38894 -36.65355,-3.22723 z"
       id="path3986-3-7-0"
       inkscape:connector-curvature="0"
       sodipodi:nodetypes="csssssccccccccc"
       transform="matrix(1.3287176,0,0,1.0999884,369.91593,432.41414)" />
    <path
       style="color:#000000;display:inline;overflow:visible;visibility:visible;fill:#000000;fill-opacity:1;fill-rule:nonzero;stroke:none;stroke-width:1.03417px;marker:none;filter:url(#filter3018-3-2-2-7-3-32);enable-background:accumulate"
       d="m 483.60742,227.74023 c -54.14135,1.05773 -108.20506,4.31462 -162.2951,6.71386 -19.62712,1.33102 -39.5476,2.71284 -58.37097,8.82813 -16.44292,6.59375 -28.23942,21.59597 -34.12924,37.94814 -7.60017,20.07178 -7.36258,42.01634 -5.47413,63.08638 2.1488,21.46698 8.92992,43.02618 22.66931,59.96918 13.74988,17.68239 36.24147,27.28249 58.38924,27.49021 17.05582,0.57 34.10602,-0.58887 51.16219,-0.60626 36.27964,-0.77176 72.5833,-0.9846 108.85492,0.23864 36.78687,0.14467 73.46244,-3.89209 110.2513,-3.46044 26.70089,0.7616 54.00496,3.50958 80.15977,-3.49662 19.83236,-5.48613 38.18215,-18.40639 47.61186,-37.01103 8.30507,-15.97092 9.67226,-34.27431 11.24938,-51.88951 1.19167,-16.27948 1.31859,-32.89345 -2.46837,-48.86021 -4.27745,-13.87002 -15.60219,-25.33813 -29.50874,-29.59023 -15.65777,-5.79948 -32.25697,-8.23714 -48.43145,-12.12631 -47.64649,-9.86713 -96.10065,-16.75575 -144.82324,-17.24842 -1.61557,6.1e-4 -3.23116,0.0103 -4.84673,0.0145 z"
       id="path3986-3-7-0-5"
       inkscape:connector-curvature="0"
       sodipodi:nodetypes="csssssc"
       transform="matrix(1.1879498,0,0,1.0374458,-148.61992,1421.7426)" />
    <path
       style="color:#000000;display:inline;overflow:visible;visibility:visible;fill:#000000;fill-opacity:1;fill-rule:nonzero;stroke:none;stroke-width:1.03417px;marker:none;filter:url(#filter3018-3-2-2-7-3-32-9);enable-background:accumulate"
       d="m 382.61236,227.73437 c -33.13231,0.62981 -66.21712,2.56907 -99.31804,3.99767 -12.01101,0.79253 -24.20154,1.61532 -35.72068,5.25658 -10.0624,3.92615 -17.28138,12.859 -20.88571,22.59565 -4.651,11.95145 -4.50561,25.01801 -3.34995,37.56385 1.31498,12.7822 5.46475,25.61931 13.8727,35.70776 8.41437,10.52872 22.17832,16.24496 35.73186,16.36864 10.43747,0.3394 20.87151,-0.35063 31.30919,-0.36099 22.20168,-0.45953 44.41805,-0.58626 66.61482,0.1421 22.51207,0.0861 44.95604,-2.31749 67.46934,-2.06047 16.33986,0.45348 33.04885,2.08973 49.05454,-2.08201 12.1366,-3.26663 23.36593,-10.95981 29.13654,-22.03767 5.08236,-9.50965 5.91903,-20.40813 6.88416,-30.89684 0.72926,-9.69337 0.80693,-19.58592 -1.51054,-29.09309 -2.61763,-8.2587 -9.54791,-15.08721 -18.05816,-17.61906 -9.58192,-3.45322 -19.73996,-4.90469 -29.63809,-7.22043 -29.15773,-5.87524 -58.80972,-9.97697 -88.62597,-10.27032 -0.98867,3.6e-4 -2.96601,1.1534 -2.96601,0.009 z"
       id="path3986-3-7-0-5-2"
       inkscape:connector-curvature="0"
       sodipodi:nodetypes="cssssscccccccccccsc"
       transform="matrix(1.2009221,0,0,1.0371677,1021.5406,1934.0842)" />
    <path
       style="color:#000000;display:inline;overflow:visible;visibility:visible;fill:#000000;fill-opacity:1;fill-rule:nonzero;stroke:none;stroke-width:1.03417px;marker:none;filter:url(#filter3018-3-2-2-7-3-32-9-5);enable-background:accumulate"
       d="m 526.69141,225.37109 c -29.17056,1.02861 -58.32573,3.41056 -87.53347,2.60424 -31.09213,0.65809 -62.15149,2.30698 -93.22207,3.57253 -24.46067,1.18807 -48.97109,2.28304 -73.27428,5.42 -12.42496,2.09746 -25.14804,6.86193 -33.45391,16.76673 -11.08553,12.57211 -15.74498,29.53771 -16.47663,45.99585 -1.19535,20.65628 1.5884,41.86492 10.2084,60.80081 7.78682,15.85635 21.40545,29.43098 38.53899,34.68153 14.75992,4.80142 30.49267,3.93142 45.77304,3.3485 42.71066,-1.00345 85.43679,-0.50688 128.15305,-0.56128 36.46384,-1.01639 72.96248,-3.66823 109.4384,-1.57988 17.96375,0.15282 36.6244,-1.82244 52.62323,-10.60012 18.20851,-10.13974 29.9124,-29.92034 32.1767,-50.40472 3.64033,-19.81832 6.08946,-40.43982 1.63865,-60.33822 -3.6452,-12.59623 -13.79834,-22.54072 -25.64945,-27.69177 -13.88821,-7.0894 -28.63774,-12.41387 -43.64964,-16.56498 -14.78574,-3.72158 -30.04287,-5.57801 -45.29101,-5.44922 z"
       id="path3986-3-7-0-5-2-4"
       inkscape:connector-curvature="0"
       sodipodi:nodetypes="cssssscccccccccccsc"
       transform="matrix(1.1149174,0,0,1.1535591,1018.6958,1999.3329)" />
    <path
       style="color:#000000;display:inline;overflow:visible;visibility:visible;fill:#000000;fill-opacity:1;fill-rule:nonzero;stroke:none;stroke-width:1.03417px;marker:none;filter:url(#filter3018-3-2-2-7-3-32-5);enable-background:accumulate"
       d="m 485.14062,228.50977 c -22.38898,0.44871 -44.77247,1.24013 -67.15981,1.80784 -50.85134,1.54788 -101.89817,3.80139 -152.10348,12.50834 -22.02613,6.67655 -37.40751,28.58062 -38.87616,51.17478 -1.73915,21.58426 2.61507,43.86953 13.36769,62.74554 9.76127,16.84459 25.61239,30.54258 44.57758,35.73469 16.98495,5.12056 34.89855,4.19682 52.41235,4.56815 27.72829,1.1386 55.06982,6.21507 82.53526,9.77246 32.5238,2.69736 64.97641,-2.79577 96.80939,-8.91434 23.65027,-4.01615 47.6143,-5.94722 71.58416,-6.47147 13.4477,-0.82319 27.78354,-2.04139 39.20654,-9.8967 10.52685,-8.15757 14.97614,-21.668 16.15463,-34.48938 2.88348,-20.9783 3.64122,-42.28844 8.63485,-62.94187 2.17299,-10.35693 5.42997,-20.55319 6.77061,-31.04337 -1.18612,-10.24153 -12.01325,-17.27664 -21.90218,-16.04479 -19.02938,-1.11783 -38.09258,-1.74655 -57.07315,-3.58049 -31.6047,-2.29645 -63.22217,-5.06553 -94.93828,-4.92939 z"
       id="path3986-3-7-0-5-5"
       inkscape:connector-curvature="0"
       sodipodi:nodetypes="csssssc"
       transform="matrix(1.2009221,0,0,1.0371677,-141.64381,1544.8887)" />
    <path
       style="color:#000000;display:inline;overflow:visible;visibility:visible;fill:#000000;fill-opacity:1;fill-rule:nonzero;stroke:none;stroke-width:1.03417px;marker:none;filter:url(#filter3018-3-2-2-7-3-3);enable-background:accumulate"
       d="m 485.59961,227.56836 c -66.3276,1.85011 -133.00996,3.3729 -198.50586,15 -13.15073,2.31931 -26.71205,5.48782 -37.61053,13.62074 -23.79957,16.99286 -36.19737,47.95357 -31.81143,76.72663 2.56369,29.64398 14.6898,58.89722 35.90155,80.04652 14.20922,12.78922 33.56971,18.76037 52.47447,18.83295 14.62789,0.26604 29.26134,0.10128 43.88461,-0.35687 24.36501,-0.73229 48.7551,-1.72186 73.12635,-0.66234 32.30278,0.76006 64.6731,1.32632 96.9226,-1.11864 19.7921,-1.30575 39.66073,-3.31603 59.49608,-1.6224 23.93116,1.4757 48.09529,4.469 71.97622,0.76856 27.33138,-4.06158 54.07228,-14.50139 75.59246,-32.0551 15.13492,-13.61496 23.52396,-33.71574 24.63916,-53.8616 2.02917,-22.09572 -0.15185,-45.06224 -9.55443,-65.37509 -5.7855,-11.19359 -16.8051,-19.63772 -29.27022,-21.81894 -15.13386,-3.92338 -30.16533,-8.23511 -45.18594,-12.56003 -21.5419,-4.95867 -43.88723,-0.44025 -65.53525,-4.50396 -28.39082,-4.34291 -56.83257,-8.78797 -85.55088,-10.24423 -10.31828,-0.58764 -20.65394,-0.86681 -30.98896,-0.8162 z"
       id="path3986-3-7-0-6"
       inkscape:connector-curvature="0"
       sodipodi:nodetypes="csssssc"
       transform="matrix(1.207269,0,0,0.99584092,455.14267,660.25922)" />
    <path
       style="color:#000000;display:inline;overflow:visible;visibility:visible;fill:#000000;fill-opacity:1;fill-rule:nonzero;stroke:none;stroke-width:0.968079px;marker:none;enable-background:accumulate"
       d="m 860.53788,799.2116 c 39.48467,-52.05686 65.27173,-86.69602 11.91641,-106.52394 -77.03525,-23.94301 -23.10751,-93.27323 36.75456,-120.24803 -136.71158,39.38859 -109.94782,130.56148 -51.64967,144.80872 36.72519,2.71507 -15.97284,60.10777 -31.58689,82.35485 z"
       id="path5066-3"
       inkscape:connector-curvature="0"
       sodipodi:nodetypes="cccccc" />
    <path
       style="color:#000000;display:inline;overflow:visible;visibility:visible;fill:#ffffff;fill-opacity:1;fill-rule:nonzero;stroke:none;stroke-width:0.662251px;marker:none;enable-background:accumulate"
       d="m 258.54346,149.85113 c 12.72034,-21.95259 169.63667,-37.58634 205.88606,12.06235 25.26224,34.59978 15.51683,100.95226 -6.13614,118.22442 -21.65297,17.27303 -126.19201,22.138 -155.90382,13.3412 -26.7184,-7.90958 -54.76335,-24.93568 -56.24192,-70.25139 -0.60344,-18.49469 -0.32451,-51.42487 12.39582,-73.37658 z"
       id="path4040-5"
       inkscape:connector-curvature="0"
       sodipodi:nodetypes="zssssz"
       inkscape:transform-center-x="-81.844197"
       inkscape:transform-center-y="94.194949" />
    <path
       style="fill:#ffffff;stroke:none;stroke-width:1.1801"
       d="m 2090.92,109.34182 c 46.5464,0.60309 93.5969,3.19833 138.7437,16.80058 22.0411,6.65461 43.1939,19.35905 58.0627,38.96 15.3586,20.43402 21.8965,47.72366 21.1533,74.03714 -0.6553,18.68593 -4.4204,37.26411 -11.0302,54.46012 -8.0931,20.80801 -20.6638,39.86834 -37.4332,52.99058 -15.7308,11.76504 -34.7382,15.85907 -53.147,19.05272 -85.2443,15.61726 -172.4695,22.69998 -258.4973,10.97952 -21.9096,-3.08058 -44.2662,-7.11813 -64.0318,-18.68187 -31.5184,-17.82441 -56.1524,-50.70852 -64.9384,-88.95007 -6.8036,-28.5201 -5.2993,-60.07819 7.0214,-86.518 11.3232,-24.06774 31.7537,-41.74667 54.4249,-51.11517 24.5741,-10.31626 50.5814,-15.82441 76.6935,-18.36175 36.1852,-3.47308 72.5431,-2.96252 108.8261,-3.44434 8.0508,-0.0533 16.1013,-0.20962 24.1523,-0.20946 z"
       id="path3100-2"
       inkscape:connector-curvature="0" />
    <path
       style="color:#000000;display:inline;overflow:visible;visibility:visible;fill:#ffffff;fill-opacity:1;fill-rule:nonzero;stroke:none;stroke-width:1px;marker:none;enable-background:accumulate"
       d="m 1950.8179,446.42592 c -26.0571,-33.37163 -33.4024,-46.80656 -9.6016,-92.39578 23.8009,-45.58921 7.2022,-53.27962 7.2022,-53.27962 l -29.7869,18.08107 c 0,0 -44.2031,100.44862 32.1863,127.59433 z"
       id="path3072-6"
       inkscape:connector-curvature="0" />
    <path
       style="display:inline;fill:#ffffff;stroke:none;stroke-width:1.31551"
       d="m 2016.517,856.25956 c -27.014,0.31954 -54.0009,1.8913 -80.9241,3.99794 -21.6872,1.90506 -43.5508,3.37079 -64.7816,8.31687 -12.34,2.7334 -24.1003,7.88785 -34.1935,15.29805 -17.9742,12.90422 -30.5728,32.40627 -35.0206,53.5923 -3.9311,18.64241 -2.5239,38.30067 3.7341,56.32091 4.0247,11.15197 9.9934,21.86197 18.5345,30.38847 13.9899,13.136 33.5057,19.3908 52.6722,20.5942 26.4097,2.2842 52.9239,0.2719 79.3801,0.3684 51.5204,-0.7346 103.0585,0.2889 154.5698,-1.1731 23.0403,-0.5144 46.1037,-0.6603 69.1275,0.48 24.6821,0.8232 50.0277,0.8606 73.696,-6.8695 17.5737,-5.6806 34.6624,-15.1232 45.453,-30.0702 18.939,-25.95725 20.9191,-62.04303 6.0317,-90.2081 -8.2905,-16.0185 -22.0566,-29.58958 -39.1961,-36.68084 -15.8724,-6.85904 -32.9637,-10.39666 -49.7936,-14.29782 -51.5712,-11.02803 -104.6819,-7.45788 -157.0597,-9.34385 -14.0741,-0.34967 -28.1494,-0.76646 -42.2297,-0.71373 z"
       id="path3280-64"
       inkscape:connector-curvature="0"
       sodipodi:nodetypes="csssc" />
    <path
       style="color:#000000;display:inline;overflow:visible;visibility:visible;fill:#ffffff;fill-opacity:1;fill-rule:nonzero;stroke:none;stroke-width:1px;marker:none;enable-background:accumulate"
       d="m 2192.2255,866.90962 c 36.7612,6.11688 106.2222,-53.88927 42.7129,-111.31616 32.1329,25.74735 89.1166,71.19017 -7.0479,144.58617 -25.1788,19.21727 -22.5153,3.48316 -27.9516,-1.52572 -5.4365,-5.00906 -30.6812,-42.4713 -7.7134,-31.74429 z"
       id="path4064-5"
       inkscape:connector-curvature="0"
       sodipodi:nodetypes="ccszc" />
    <path
       style="color:#000000;display:inline;overflow:visible;visibility:visible;fill:#000000;fill-opacity:1;fill-rule:nonzero;stroke:none;stroke-width:0.712918px;marker:none;filter:url(#filter3018-3-2-2-2-0-0-2);enable-background:accumulate"
       d="m 445.23438,278.21484 c -7.6012,3.03495 -11.23207,11.0488 -13.96051,18.20728 -3.48892,8.53777 -7.13147,17.21842 -13.10199,24.36499 -7.23454,-0.0849 -12.43587,-6.39705 -15.04212,-12.55504 -5.71848,-9.3241 -10.70604,-19.33954 -18.64734,-27.04457 -7.80086,-0.67853 -13.72969,8.3208 -11.3589,15.43421 -0.45655,7.72029 -0.42994,15.68229 -3.29344,22.99157 -7.63802,2.95843 -15.60138,-0.54968 -22.9682,-2.65044 -20.65563,-6.22556 -40.93967,-13.69624 -61.86579,-19.00972 2.62765,8.18244 11.18563,12.19383 15.07001,19.60035 4.90818,6.74432 8.95075,15.2654 7.09954,23.76586 -2.82331,4.29528 -9.48188,3.67361 -12.73601,0.23656 -3.6869,-1.81352 -7.93141,-4.2535 -12.12104,-2.61644 -2.41442,4.45048 0.9327,9.51169 4.62332,12.02276 5.52504,7.01436 10.80447,15.49104 9.7634,24.80927 -3.37932,11.3775 -13.55559,18.56601 -19.72851,28.25586 -0.27286,3.4766 3.96465,4.22877 6.6048,4.25937 13.1686,2.84163 27.34053,3.83906 38.89465,11.41793 5.2602,5.5489 3.67727,14.85551 -1.42606,19.95678 -3.69296,5.97403 -8.33119,12.27074 -7.75699,19.67452 2.68803,4.50147 8.90433,4.41941 13.24036,2.69779 21.20995,-4.13531 42.64145,-10.0627 64.44714,-7.70951 5.91308,0.31573 12.25648,5.12389 11.18436,11.60473 -0.0989,3.46637 1.16271,7.63246 4.93869,8.59058 7.80829,3.20914 16.35038,1.10426 24.46632,0.80363 20.83029,-2.35516 41.0182,-10.49745 62.2265,-9.04321 12.43616,2.63715 21.72741,11.91744 31.50925,19.34705 8.79287,6.91465 18.57783,14.05106 30.14622,14.71217 6.24098,-1.00704 8.48122,-9.69215 4.4939,-14.20055 -2.53773,-5.08815 -0.17045,-12.20624 5.46076,-13.96379 7.11779,-3.13234 15.08625,-2.58442 22.61994,-3.82415 14.00423,-1.45195 28.75596,-3.14593 40.76461,-11.12607 1.76348,-1.54583 0.22406,-4.06425 -1.86133,-4.10547 -2.92322,-0.23505 -5.58108,2.28463 -8.53783,0.96909 -4.86096,-1.37691 -7.86341,-6.5983 -7.25223,-11.5038 -0.44714,-10.98304 4.00671,-21.74889 10.61782,-30.34566 5.36239,-6.63928 12.50326,-11.53748 18.88168,-17.04628 1.75427,-5.72027 -2.87814,-11.16451 -7.82818,-13.3881 -6.92906,-4.9163 -15.59376,-8.503 -19.71326,-16.38584 -1.28579,-8.42229 3.75879,-15.93157 5.23913,-23.96483 4.38126,-14.06101 9.78027,-28.11383 10.36631,-42.99474 -3.20618,-3.5627 -8.50834,-1.89399 -12.23908,-0.18939 -22.6594,7.21134 -45.89551,12.44027 -68.53045,19.73236 -3.68119,-4.65122 -3.66572,-10.92952 -6.12038,-16.15951 -2.48651,-7.60237 -5.26522,-15.82256 -11.74658,-20.96553 -5.20569,-1.73822 -9.98359,2.28752 -13.2247,5.9126 -9.52686,9.55047 -16.72819,21.8966 -28.90323,28.45422 -7.03717,1.82113 -13.80922,-3.21424 -17.27216,-8.99507 -7.12759,-9.87825 -13.03699,-21.47028 -23.97319,-27.74085 -0.43736,-0.24908 -0.95049,-0.3411 -1.44921,-0.29297 z"
       id="path3986-3-7-9-1"
       inkscape:connector-curvature="0"
       sodipodi:nodetypes="ccsccssssssssccsssssssc"
       transform="matrix(1.7619306,-0.11603488,0.0727601,1.0464793,-412.7478,1643.8941)" />
    <path
       style="color:#000000;display:inline;overflow:visible;visibility:visible;fill:#000000;fill-opacity:1;fill-rule:nonzero;stroke:none;stroke-width:0.854261px;marker:none;enable-background:accumulate"
       d="m 448.58136,1665.0588 c 22.51508,-4.9921 33.68159,7.6862 53.69484,-12.5268 3.48206,-4.1494 9.16655,-47.7155 16.22548,-50.3156 7.05887,-2.6 24.35468,8.4904 28.17932,5.5181 3.82411,-2.9724 7.57802,-29.4608 13.36206,-31.07 5.78414,-1.6092 38.19373,5.9123 41.0541,3.2083 2.86028,-2.7043 18.43669,-17.2156 38.02784,-23.3024 -28.88204,29.663 -28.38035,40.3372 -35.43945,42.9374 -7.05897,2.6001 -27.52591,-5.0638 -32.93567,-0.3781 -5.41013,4.6856 -9.50636,29.9972 -17.21855,32.1428 -7.71222,2.1457 -21.05686,-4.3192 -21.05686,-4.3192 2.08702,8.9611 7.07999,56.5518 -29.08359,75.5186 -36.16337,18.9667 -54.80952,-37.4131 -54.80952,-37.4131 z"
       id="path5050-7"
       inkscape:connector-curvature="0"
       sodipodi:nodetypes="cccccccccccsc" />
    <path
       style="display:inline;fill:#ffffff;stroke:none;stroke-width:1.58547"
       d="m 986.89259,1969.9783 c -0.60709,-67.9691 37.13881,-129.0846 215.70841,-118.1761 178.5696,10.9084 237.302,18.2317 239.9445,110.9043 2.7655,96.9863 -85.3393,119.7974 -220.2045,123.5516 -139.0316,3.8696 -232.91348,-35.5444 -235.44841,-116.2798 z"
       id="path3280-64-6"
       inkscape:connector-curvature="0"
       sodipodi:nodetypes="csssc" />
    <path
       style="color:#000000;display:inline;overflow:visible;visibility:visible;fill:#ffffff;fill-opacity:1;fill-rule:nonzero;stroke:none;stroke-width:0.861105px;marker:none;enable-background:accumulate"
       d="m 1426.0186,1758.7864 c -12.4926,-4.8792 -25.4537,-10.1778 -38.987,-7.893 -3.8423,0.7542 -7.7952,1.882 -11.3121,4.2458 -3.2907,3.4887 -4.1216,9.4086 -3.172,14.3064 0.9846,7.2303 4.3512,14.0959 2.9585,21.8078 -1.1166,5.5901 -5.4657,8.179 -8.9847,10.7586 -9.0575,6.352 -18.7482,11.1925 -27.0754,19.3375 -9.7933,8.4112 -19.6759,18.1523 -25.3728,31.8688 -2.1869,5.4703 -3.9073,11.5436 -3.4081,17.6061 0.7353,15.6734 8.4106,30.4397 19.8543,35.2524 7.5688,2.1454 16.8148,-4.6539 18.4926,-15.1446 0.9487,-5.5252 -1.0768,-10.7544 -3.86,-14.4303 -4.0853,-8.0909 -4.1532,-19.1142 -0.8648,-28.2774 2.6223,-7.6114 6.9974,-14.2227 12.2261,-19.0745 5.8954,-8.9424 14.9525,-11.3767 22.7948,-15.7491 3.5641,-2.0626 7.2622,-4.57 9.7942,-8.5826 2.6223,-6.7563 0.4693,-14.0496 -1.9118,-19.897 -2.3328,-6.1252 -5.5866,-12.8392 -3.8859,-20.245 0.6593,-5.3027 5.4624,-5.6417 8.5486,-7.3336 10.3985,-3.7958 21.3626,-3.37 31.4299,0 0.9358,0.4156 1.8354,0.9293 2.7356,1.4478 z"
       id="path4496-9"
       inkscape:connector-curvature="0"
       inkscape:transform-center-x="5.2592053"
       inkscape:transform-center-y="41.785498" />
    <path
       style="color:#000000;display:inline;overflow:visible;visibility:visible;fill:#ffffff;fill-opacity:1;fill-rule:nonzero;stroke:none;stroke-width:1.36789px;marker:none;enable-background:accumulate"
       d="m 281.89258,2165.9943 c -34.86657,0.5522 -70.37069,7.0755 -101.26367,24.3252 -30.7146,17.5527 -53.52046,47.5703 -66.13282,80.9466 -17.048872,44.8902 -17.352537,96.805 1.5667,141.1426 10.48494,25.5639 29.09032,47.9328 53.18156,60.8293 21.00492,11.6958 44.1493,18.4305 67.06269,24.9241 44.77488,11.8111 91.11071,15.7808 137.20955,16.7081 62.42455,2.2118 125.23334,4.8406 187.37397,-3.3615 34.53167,-4.8524 69.03554,-15.4094 97.91712,-35.9767 23.56564,-16.6008 42.31604,-40.5695 52.07986,-68.2312 10.62398,-29.2108 12.1142,-61.0978 9.07023,-91.8735 -3.0352,-28.9066 -12.28397,-57.748 -30.07657,-80.6965 -18.46783,-24.2028 -44.97855,-41.2264 -73.59527,-49.7521 -17.7663,-5.3397 -36.10181,-8.3456 -54.40161,-10.9993 -30.36117,-4.1609 -60.96166,-6.3101 -91.56816,-7.2624 -56.44187,-1.0913 -112.90258,1.4739 -169.3349,-0.5328 -6.36182,-0.148 -12.72522,-0.2199 -19.08868,-0.1899 z"
       id="path4546-7"
       inkscape:connector-curvature="0"
       sodipodi:nodetypes="cssssc" />
    <path
       style="color:#000000;display:inline;overflow:visible;visibility:visible;fill:#ffffff;fill-opacity:1;fill-rule:nonzero;stroke:none;stroke-width:0.961416px;marker:none;enable-background:accumulate"
       d="m 296.46051,2537.511 c 3.75598,-45.807 56.32375,-79.961 194.22816,-73.1252 73.86911,3.661 157.72061,5.6072 153.07471,72.6995 -4.64598,67.0924 -125.13591,66.9186 -149.98656,68.8053 -24.85076,1.8876 -154.46697,-3.4751 -177.39856,-25.9826 -14.35469,-14.089 -20.15017,-28.2226 -19.91775,-42.397 z"
       id="path4546-6-21"
       inkscape:connector-curvature="0"
       sodipodi:nodetypes="cssssc" />
    <path
       style="color:#000000;display:inline;overflow:visible;visibility:visible;fill:#ffffff;fill-opacity:1;fill-rule:nonzero;stroke:none;stroke-width:1px;marker:none;enable-background:accumulate"
       d="m 328.06146,2661.634 c -3.53584,-28.3889 -4.23254,-71.3083 42.14279,-95.9562 33.63259,-33.3725 13.77107,-44.4282 13.77107,-44.4282 l -27.53754,23.6383 c 0,0 -78.26131,47.7819 -28.37632,116.7461 z"
       id="path3072-56"
       inkscape:connector-curvature="0"
       inkscape:transform-center-x="29.490859"
       inkscape:transform-center-y="1.9711227"
       sodipodi:nodetypes="ccccc" />
    <path
       style="color:#000000;display:inline;overflow:visible;visibility:visible;fill:#ffffff;fill-opacity:1;fill-rule:nonzero;stroke:none;stroke-width:1.21484px;marker:none;enable-background:accumulate"
       d="m 557.39944,3127.5057 c 5.23721,57.9966 49.16404,100.4281 159.73356,89.516 59.22704,-5.8453 126.56472,-9.6777 119.5819,-94.639 -6.98292,-84.9612 -103.87037,-82.7765 -123.94616,-84.7634 -20.07588,-1.987 -124.05142,6.9228 -141.40348,35.8235 -10.86198,18.0923 -14.83867,36.1014 -13.96582,54.0629 z"
       id="path4546-2"
       inkscape:connector-curvature="0"
       sodipodi:nodetypes="cssssc" />
    <path
       style="fill:#ffffff;fill-rule:evenodd;stroke:none;stroke-width:1.36254px;stroke-linecap:butt;stroke-linejoin:miter;stroke-opacity:1"
       d="m 696.11417,3049.1859 c 8.73312,-27.1543 2.7226,-56.019 -34.57194,-93.5591 21.64595,12.3853 54.01582,40.8949 57.79628,74.5472 5.90008,52.5208 -21.4439,21.9642 -21.4439,21.9642 z"
       id="path4248"
       inkscape:connector-curvature="0"
       sodipodi:nodetypes="ccscc"
       inkscape:transform-center-x="4.4254168"
       inkscape:transform-center-y="0.80191812" />
    <path
       style="color:#000000;display:inline;overflow:visible;visibility:visible;fill:#000000;fill-opacity:1;fill-rule:nonzero;stroke:none;stroke-width:1.39871px;marker:none;enable-background:accumulate"
       d="m 1619.7281,2420.5906 c -13.7939,34.2699 -25.0651,71.7917 -27.1151,85.5938 16.9838,-5.9635 32.7895,-8.2946 45.102,-10.3336 -6.0874,25.4983 -41.9588,105.9081 -58.432,123.6481 42.621,-42.5459 82.7489,-106.1707 89.4017,-148.3756 -16.4607,-0.1375 -24.5111,0.6902 -33.1563,0.4035 2.2456,-21.1387 26.2653,-51.2278 26.2653,-51.2278 z"
       id="path5066"
       inkscape:connector-curvature="0"
       sodipodi:nodetypes="cccccccc" />
    <path
       style="fill:#ffffff;fill-rule:evenodd;stroke:none;stroke-width:1.06598px;stroke-linecap:butt;stroke-linejoin:miter;stroke-opacity:1"
       d="m 422.70347,402.65363 c 31.42908,-18.28023 37.24768,-32.63495 33.46304,-45.79307 -3.15723,-10.97681 -43.23831,-10.20186 -44.21149,-21.21007 -0.97318,-11.00821 28.75956,-22.61856 22.77163,-65.30275 -2.37802,-16.95137 -37.05217,-5.30261 -31.61889,13.28685 10.45812,35.78146 -18.21243,42.79199 -13.06977,57.71454 8.57685,24.88621 38.9953,15.31251 49.10045,20.55083 5.88951,6.40885 12.5681,3.87537 -16.43497,40.75367 z"
       id="path4272-2"
       inkscape:connector-curvature="0"
       sodipodi:nodetypes="cssssscc" />
  </g>
  <g
     inkscape:groupmode="layer"
     id="layer1"
     inkscape:label="txt"
     style="display:inline">
    <text
       id="text4246-4-2-7"
       y="198.125"
       x="360.28757"
       style="font-style:normal;font-variant:normal;font-weight:normal;font-stretch:normal;line-height:0%;font-family:Lavi;-inkscape-font-specification:Lavi;text-align:center;letter-spacing:0px;word-spacing:0px;text-anchor:middle;fill:#000000;fill-opacity:1;stroke:none"
       xml:space="preserve"><tspan
         y="198.125"
         x="360.28757"
         style="font-size:45px;line-height:1.25"
         sodipodi:role="line"
         id="tspan907">Sed</tspan><tspan
         y="254.375"
         x="360.28757"
         style="font-size:45px;line-height:1.25"
         sodipodi:role="line"
         id="tspan5205">kiel ?</tspan></text>
    <text
       id="text4246-4-2-7-3"
       y="768.76929"
       x="894.72815"
       style="font-style:normal;font-variant:normal;font-weight:normal;font-stretch:normal;font-size:50.816px;line-height:0%;font-family:Lavi;-inkscape-font-specification:Lavi;text-align:center;letter-spacing:0px;word-spacing:0px;text-anchor:middle;fill:#ffffff;fill-opacity:1;stroke:none;stroke-width:0.97723"
       xml:space="preserve"><tspan
         y="768.76929"
         x="894.72815"
         style="font-style:normal;font-variant:normal;font-weight:normal;font-stretch:normal;font-size:50.816px;line-height:1.25;font-family:Drukah;-inkscape-font-specification:Drukah;fill:#ffffff;stroke-width:0.97723"
         sodipodi:role="line"
         id="tspan5205-7">Jes, kiel</tspan><tspan
         y="832.28931"
         x="894.72815"
         style="font-style:normal;font-variant:normal;font-weight:normal;font-stretch:normal;font-size:50.816px;line-height:1.25;font-family:Drukah;-inkscape-font-specification:Drukah;fill:#ffffff;stroke-width:0.97723"
         sodipodi:role="line"
         id="tspan11385">vi planas fari tion</tspan><tspan
         y="895.80927"
         x="894.72815"
         style="font-style:normal;font-variant:normal;font-weight:normal;font-stretch:normal;font-size:50.816px;line-height:1.25;font-family:Drukah;-inkscape-font-specification:Drukah;fill:#ffffff;stroke-width:0.97723"
         sodipodi:role="line"
         id="tspan10289">sorĉistino ?</tspan></text>
    <text
       id="text4246-4-2-7-3-5"
       y="972.40991"
       x="1049.4791"
       style="font-style:normal;font-variant:normal;font-weight:normal;font-stretch:normal;font-size:50.816px;line-height:0%;font-family:Lavi;-inkscape-font-specification:Lavi;text-align:center;letter-spacing:0px;word-spacing:0px;text-anchor:middle;fill:#ffffff;fill-opacity:1;stroke:none;stroke-width:0.97723"
       xml:space="preserve"><tspan
         y="972.40991"
         x="1049.4791"
         style="font-style:normal;font-variant:normal;font-weight:normal;font-stretch:normal;font-size:50.816px;line-height:1.25;font-family:Drukah;-inkscape-font-specification:Drukah;fill:#ffffff;stroke-width:0.97723"
         sodipodi:role="line"
         id="tspan14611">Vi ne reakiris multon da</tspan><tspan
         y="1035.9299"
         x="1049.4791"
         style="font-style:normal;font-variant:normal;font-weight:normal;font-stretch:normal;font-size:50.816px;line-height:1.25;font-family:Drukah;-inkscape-font-specification:Drukah;fill:#ffffff;stroke-width:0.97723"
         sodipodi:role="line"
         id="tspan14613">Reo, mi povas senti tion.</tspan></text>
    <text
       id="text4246-4-2-7-3-5-6"
       y="177.07812"
       x="2059.6321"
       style="font-style:normal;font-variant:normal;font-weight:normal;font-stretch:normal;line-height:0%;font-family:Lavi;-inkscape-font-specification:Lavi;text-align:center;letter-spacing:0px;word-spacing:0px;text-anchor:middle;fill:#000000;fill-opacity:1;stroke:none"
       xml:space="preserve"><tspan
         y="177.07812"
         x="2059.6321"
         style="font-size:45px;line-height:1.25"
         sodipodi:role="line"
         id="tspan14613-1">Vi tute pravas,</tspan><tspan
         y="233.32812"
         x="2059.6321"
         style="font-size:45px;line-height:1.25"
         sodipodi:role="line"
         id="tspan17183">sed mi havas sorĉon,</tspan><tspan
         y="289.57812"
         x="2059.6321"
         style="font-size:45px;line-height:1.25"
         sodipodi:role="line"
         id="tspan17185">kiu povus ĉion</tspan><tspan
         y="345.82812"
         x="2059.6321"
         style="font-size:45px;line-height:1.25"
         sodipodi:role="line"
         id="tspan17187">reordigi.</tspan></text>
    <text
       id="text4246-4-2-7-3-5-6-2"
       y="936.57513"
       x="2058.0872"
       style="font-style:normal;font-variant:normal;font-weight:normal;font-stretch:normal;line-height:0%;font-family:Lavi;-inkscape-font-specification:Lavi;text-align:center;letter-spacing:0px;word-spacing:0px;text-anchor:middle;fill:#000000;fill-opacity:1;stroke:none"
       xml:space="preserve"><tspan
         y="936.57513"
         x="2058.0872"
         style="font-size:45px;line-height:1.25"
         sodipodi:role="line"
         id="tspan23534">Mi nur bezonos vian</tspan><tspan
         y="992.82513"
         x="2058.0872"
         style="font-size:45px;line-height:1.25"
         sodipodi:role="line"
         id="tspan23540">Reon por atingi ĉiujn.</tspan></text>
    <text
       id="text4246-4-2-7-3-5-6-2-0"
       y="1747.1217"
       x="404.69937"
       style="font-style:normal;font-variant:normal;font-weight:normal;font-stretch:normal;font-size:58.5163px;line-height:0%;font-family:Lavi;-inkscape-font-specification:Lavi;text-align:center;letter-spacing:0px;word-spacing:0px;text-anchor:middle;fill:#000000;fill-opacity:1;stroke:none;stroke-width:1.12532"
       xml:space="preserve"><tspan
         y="1747.1217"
         x="404.69937"
         style="font-style:normal;font-variant:normal;font-weight:normal;font-stretch:normal;font-size:58.5163px;line-height:1.25;font-family:Drukah;-inkscape-font-specification:Drukah;fill:#ffffff;stroke-width:1.12532"
         sodipodi:role="line"
         id="tspan23540-8">Doni energion</tspan><tspan
         y="1820.2671"
         x="404.69937"
         style="font-style:normal;font-variant:normal;font-weight:normal;font-stretch:normal;font-size:58.5163px;line-height:1.25;font-family:Drukah;-inkscape-font-specification:Drukah;fill:#ffffff;stroke-width:1.12532"
         sodipodi:role="line"
         id="tspan27381">al sorĉistino ?</tspan></text>
    <text
       id="text4246-4-2-7-3-5-6-2-0-7"
       y="1905.5267"
       x="392.52005"
       style="font-style:normal;font-variant:normal;font-weight:normal;font-stretch:normal;font-size:64.1327px;line-height:0%;font-family:Lavi;-inkscape-font-specification:Lavi;text-align:center;letter-spacing:0px;word-spacing:0px;text-anchor:middle;fill:#000000;fill-opacity:1;stroke:none;stroke-width:1.23332"
       xml:space="preserve"><tspan
         y="1905.5267"
         x="392.52005"
         style="font-style:normal;font-variant:normal;font-weight:normal;font-stretch:normal;font-size:64.1327px;line-height:1.25;font-family:Drukah;-inkscape-font-specification:Drukah;fill:#ffffff;stroke-width:1.23332"
         sodipodi:role="line"
         id="tspan27381-2">Malpermesite !</tspan></text>
    <text
       id="text4246-4-2-7-3-5-6-2-0-7-0"
       y="2008.2633"
       x="426.44583"
       style="font-style:normal;font-variant:normal;font-weight:normal;font-stretch:normal;font-size:60px;line-height:0%;font-family:Lavi;-inkscape-font-specification:Lavi;text-align:center;letter-spacing:0px;word-spacing:0px;text-anchor:middle;fill:#000000;fill-opacity:1;stroke:none;stroke-width:2.1;stroke-miterlimit:4;stroke-dasharray:none"
       xml:space="preserve"><tspan
         y="2008.2633"
         x="426.44583"
         style="font-style:normal;font-variant:normal;font-weight:normal;font-stretch:normal;font-size:60px;line-height:1.25;font-family:Drukah;-inkscape-font-specification:Drukah;fill:#ffffff;fill-opacity:1;stroke:#ffffff;stroke-width:2.1;stroke-miterlimit:4;stroke-dasharray:none;stroke-opacity:1"
         sodipodi:role="line"
         id="tspan27381-2-2">NENIAM ! FORGESU !</tspan></text>
    <text
       id="text4246-4-2-7-3-5-6-2-3"
       y="1932.4625"
       x="1212.7758"
       style="font-style:normal;font-variant:normal;font-weight:normal;font-stretch:normal;line-height:0%;font-family:Lavi;-inkscape-font-specification:Lavi;text-align:center;letter-spacing:0px;word-spacing:0px;text-anchor:middle;fill:#000000;fill-opacity:1;stroke:none"
       xml:space="preserve"><tspan
         y="1932.4625"
         x="1212.7758"
         style="font-size:45px;line-height:1.25"
         sodipodi:role="line"
         id="tspan86035">Ĉu vi do preferas</tspan><tspan
         y="1988.7125"
         x="1212.7758"
         style="font-size:45px;line-height:1.25"
         sodipodi:role="line"
         id="tspan23038">lasi ilin mortigi</tspan><tspan
         y="2044.9625"
         x="1212.7758"
         style="font-size:45px;line-height:1.25"
         sodipodi:role="line"
         id="tspan31016">unu la alian ?</tspan></text>
    <text
       id="text4246-4-2-7-3-5-6-2-3-8"
       y="2246.824"
       x="412.47205"
       style="font-style:normal;font-variant:normal;font-weight:normal;font-stretch:normal;line-height:0%;font-family:Lavi;-inkscape-font-specification:Lavi;text-align:center;letter-spacing:0px;word-spacing:0px;text-anchor:middle;fill:#000000;fill-opacity:1;stroke:none"
       xml:space="preserve"><tspan
         y="2246.824"
         x="412.47205"
         style="font-size:45px;line-height:1.25"
         sodipodi:role="line"
         id="tspan86035-3">Bonvole, Arao. Faru</tspan><tspan
         y="2303.074"
         x="412.47205"
         style="font-size:45px;line-height:1.25"
         sodipodi:role="line"
         id="tspan90993">escepton. La knabinoj</tspan><tspan
         y="2359.324"
         x="412.47205"
         style="font-size:45px;line-height:1.25"
         sodipodi:role="line"
         id="tspan90997">kaj la drakoj, kiuj batalas,</tspan><tspan
         y="2415.574"
         x="412.47205"
         style="font-size:45px;line-height:1.25"
         sodipodi:role="line"
         id="tspan62249">ankoraŭ restas nia lernejo,</tspan><tspan
         y="2471.824"
         x="412.47205"
         style="font-size:45px;line-height:1.25"
         sodipodi:role="line"
         id="tspan90999">nia familio.</tspan></text>
    <text
       id="text4246-4-2-7-3-5-6-2-3-8-6"
       y="2553.6975"
       x="474.18976"
       style="font-style:normal;font-variant:normal;font-weight:normal;font-stretch:normal;line-height:0%;font-family:Lavi;-inkscape-font-specification:Lavi;text-align:center;letter-spacing:0px;word-spacing:0px;text-anchor:middle;fill:#000000;fill-opacity:1;stroke:none"
       xml:space="preserve"><tspan
         y="2553.6975"
         x="474.18976"
         style="font-size:45px;line-height:1.25"
         sodipodi:role="line"
         id="tspan90999-1">Eĉ por vi.</tspan></text>
    <text
       id="text4246-4-2-7-3-5-6-2-3-8-6-9"
       y="3119.8652"
       x="701.19684"
       style="font-style:normal;font-variant:normal;font-weight:normal;font-stretch:normal;font-size:10.9177px;line-height:0%;font-family:Lavi;-inkscape-font-specification:Lavi;text-align:center;letter-spacing:0px;word-spacing:0px;text-anchor:middle;fill:#000000;fill-opacity:1;stroke:none;stroke-width:0.909808"
       xml:space="preserve"><tspan
         y="3119.8652"
         x="701.19684"
         style="font-size:40.9413px;line-height:1.25;stroke-width:0.909808"
         sodipodi:role="line"
         id="tspan103789">Jes, bonvolu,</tspan><tspan
         y="3171.0417"
         x="701.19684"
         style="font-size:40.9413px;line-height:1.25;stroke-width:0.909808"
         sodipodi:role="line"
         id="tspan103793">Arao.</tspan></text>
    <text
       id="text4246-4-2-7-3-7"
       y="2249.8684"
       x="1475.6832"
       style="font-style:normal;font-variant:normal;font-weight:normal;font-stretch:normal;font-size:58.3096px;line-height:0%;font-family:Lavi;-inkscape-font-specification:Lavi;text-align:center;letter-spacing:0px;word-spacing:0px;text-anchor:middle;fill:#ffffff;fill-opacity:1;stroke:none;stroke-width:1.12134"
       xml:space="preserve"><tspan
         y="2249.8684"
         x="1475.6832"
         style="font-style:normal;font-variant:normal;font-weight:normal;font-stretch:normal;font-size:58.3096px;line-height:1.25;font-family:Drukah;-inkscape-font-specification:Drukah;fill:#ffffff;stroke-width:1.12134"
         sodipodi:role="line"
         id="tspan10289-4">PFF ! Bone !</tspan></text>
    <text
       id="text4246-4-2-7-3-7-5"
       y="2341.3735"
       x="1504.9569"
       style="font-style:normal;font-variant:normal;font-weight:normal;font-stretch:normal;font-size:58.3096px;line-height:0%;font-family:Lavi;-inkscape-font-specification:Lavi;text-align:center;letter-spacing:0px;word-spacing:0px;text-anchor:middle;fill:#ffffff;fill-opacity:1;stroke:none;stroke-width:1.12134"
       xml:space="preserve"><tspan
         y="2341.3735"
         x="1504.9569"
         style="font-style:normal;font-variant:normal;font-weight:normal;font-stretch:normal;font-size:58.3096px;line-height:1.25;font-family:Drukah;-inkscape-font-specification:Drukah;fill:#ffffff;stroke-width:1.12134"
         sodipodi:role="line"
         id="tspan10289-4-0">Sed nur je ŝia</tspan><tspan
         y="2414.2605"
         x="1504.9569"
         style="font-style:normal;font-variant:normal;font-weight:normal;font-stretch:normal;font-size:58.3096px;line-height:1.25;font-family:Drukah;-inkscape-font-specification:Drukah;fill:#ffffff;stroke-width:1.12134"
         sodipodi:role="line"
         id="tspan110466">propra risko !</tspan></text>
  </g>
</svg>
