<?xml version="1.0" encoding="UTF-8" standalone="no"?>
<svg
   xmlns:dc="http://purl.org/dc/elements/1.1/"
   xmlns:cc="http://creativecommons.org/ns#"
   xmlns:rdf="http://www.w3.org/1999/02/22-rdf-syntax-ns#"
   xmlns:svg="http://www.w3.org/2000/svg"
   xmlns="http://www.w3.org/2000/svg"
   xmlns:xlink="http://www.w3.org/1999/xlink"
   xmlns:sodipodi="http://sodipodi.sourceforge.net/DTD/sodipodi-0.dtd"
   xmlns:inkscape="http://www.inkscape.org/namespaces/inkscape"
   id="svg2"
   version="1.1"
   inkscape:version="1.0 (4035a4fb49, 2020-05-01)"
   width="2481"
   height="3503"
   sodipodi:docname="E34P04.svg">
  <metadata
     id="metadata8">
    <rdf:RDF>
      <cc:Work
         rdf:about="">
        <dc:format>image/svg+xml</dc:format>
        <dc:type
           rdf:resource="http://purl.org/dc/dcmitype/StillImage" />
        <dc:title />
      </cc:Work>
    </rdf:RDF>
  </metadata>
  <defs
     id="defs6">
    <filter
       style="color-interpolation-filters:sRGB"
       id="filter4375-4-1-1-1-9-5-8-8-5-5-3-8"
       inkscape:label="soundFX1">
      <feFlood
         id="feFlood4377-7-9-0-8-1-7-3-1-2-7-6-7"
         flood-opacity="1"
         flood-color="rgb(255,255,255)"
         result="flood" />
      <feComposite
         id="feComposite4379-3-8-8-2-77-4-1-0-6-4-7-9"
         in2="SourceGraphic"
         in="flood"
         operator="in"
         result="composite1"
         baseFrequency="0.053999999999999999 0.053999999999999999" />
      <feMorphology
         id="feMorphology4393-1-0-49-8-9-3-0-1-9-9-5-2"
         operator="dilate"
         radius="2.9756367599225957"
         result="result3" />
      <feComposite
         id="feComposite4385-9-5-7-0-8-8-7-5-4-9-3-0"
         in2="result3"
         in="SourceGraphic"
         operator="over"
         result="fbSourceGraphic" />
      <feColorMatrix
         result="fbSourceGraphicAlpha"
         in="fbSourceGraphic"
         values="0 0 0 -1 0 0 0 0 -1 0 0 0 0 -1 0 0 0 0 1 0"
         id="feColorMatrix4544-9-4-4-5-2" />
      <feTurbulence
         id="feTurbulence4546-3-6-5-6-3"
         type="fractalNoise"
         numOctaves="5"
         seed="174"
         baseFrequency="0.053999999999999999 0.054054054054054057"
         result="turbulence" />
      <feDisplacementMap
         id="feDisplacementMap4548-8-0-9-2-7"
         in2="turbulence"
         in="fbSourceGraphic"
         scale="6.6"
         yChannelSelector="G"
         xChannelSelector="R"
         result="fbSourceGraphic" />
      <feColorMatrix
         result="fbSourceGraphicAlpha"
         in="fbSourceGraphic"
         values="0 0 0 -1 0 0 0 0 -1 0 0 0 0 -1 0 0 0 0 1 0"
         id="feColorMatrix4670-7-7-3-9-5" />
      <feFlood
         id="feFlood4672-4-4-5-1-9"
         flood-opacity="1"
         flood-color="rgb(255,255,255)"
         result="flood"
         in="fbSourceGraphic" />
      <feComposite
         id="feComposite4674-8-3-7-2-22"
         in2="fbSourceGraphic"
         in="flood"
         operator="in"
         result="composite1" />
      <feGaussianBlur
         id="feGaussianBlur4676-3-7-08-7-8"
         in="composite1"
         stdDeviation="0"
         result="blur" />
      <feOffset
         id="feOffset4678-6-9-1-0-9"
         dx="-6.3258232761971414"
         dy="6"
         result="offset" />
      <feComposite
         id="feComposite4680-4-0-9-9-7"
         in2="offset"
         in="fbSourceGraphic"
         operator="over"
         result="composite2" />
    </filter>
  </defs>
  <sodipodi:namedview
     pagecolor="#ffffff"
     bordercolor="#666666"
     borderopacity="1"
     objecttolerance="10"
     gridtolerance="10"
     guidetolerance="10"
     inkscape:pageopacity="0"
     inkscape:pageshadow="2"
     inkscape:window-width="1920"
     inkscape:window-height="1027"
     id="namedview4"
     showgrid="false"
     inkscape:zoom="0.52900002"
     inkscape:cx="1292.1249"
     inkscape:cy="2606.7863"
     inkscape:window-x="-8"
     inkscape:window-y="-8"
     inkscape:window-maximized="1"
     inkscape:current-layer="layer3"
     inkscape:document-rotation="0"
     borderlayer="true"
     inkscape:snap-global="false" />
  <g
     inkscape:groupmode="layer"
     id="layer2"
     inkscape:label="artwork"
     sodipodi:insensitive="true">
    <image
       sodipodi:absref="D:\Pepper&amp;Carrot translation\peppercarrot_ep34_The-Knighting-of-Shichimi\lang\gfx_Pepper-and-Carrot_by-David-Revoy_E34P04.png"
       xlink:href="../gfx_Pepper-and-Carrot_by-David-Revoy_E34P04.png"
       width="2481"
       height="3503"
       id="image10"
       x="0"
       y="0" />
  </g>
  <g
     inkscape:groupmode="layer"
     id="layer3"
     inkscape:label="speechbubbles"
     style="display:inline">
    <path
       style="color:#000000;display:inline;overflow:visible;visibility:visible;fill:#ffffff;fill-opacity:1;fill-rule:nonzero;stroke:none;stroke-width:0.703701px;marker:none;enable-background:accumulate"
       d="m 942.60024,155.31049 c -31.91919,0.13933 -64.48071,3.27255 -93.3829,12.63121 -21.5604,7.17239 -37.65135,20.72281 -44.08438,36.0199 -6.35327,13.31033 -6.97011,28.30814 1.87995,41.198 9.00782,12.36446 27.00418,21.09082 46.55449,25.1222 40.78419,9.83581 84.4479,13.39484 127.68419,13.63517 34.39011,-0.35666 69.30881,-6.09511 98.03251,-18.90207 14.0693,-6.48629 25.0342,-16.10799 29.279,-27.1628 7.5949,-17.80784 1.7202,-37.76238 -14.7554,-52.65824 -10.7189,-9.4655 -26.2154,-16.46923 -43.4158,-19.72157 -18.618,-4.00594 -38.0268,-6.04766 -57.32486,-8.02998 -16.72361,-1.46481 -33.59579,-2.19415 -50.4668,-2.13182 z"
       id="path4040-4-5-3-5"
       inkscape:connector-curvature="0"
       sodipodi:nodetypes="zssssz" />
    <path
       style="color:#000000;display:inline;overflow:visible;visibility:visible;fill:#ffffff;fill-opacity:1;fill-rule:nonzero;stroke:none;stroke-width:0.979522px;marker:none;enable-background:accumulate"
       d="m 956.89275,247.44402 c -41.13618,1.04235 -81.6738,6.75268 -121.56557,13.50228 -22.87554,4.55344 -44.03935,13.23327 -60.67969,25.09745 -19.36976,13.14773 -34.4089,30.18477 -38.10561,49.0873 -4.2637,21.36154 5.90371,44.33473 28.74464,59.1807 19.15622,12.67617 45.26077,19.41191 71.3817,20.64594 50.15444,3.50204 100.49739,5.9035 150.91451,6.231 30.05167,0.20379 60.14047,-0.0737 90.12447,-1.56238 27.5142,-2.0789 54.9341,-6.92403 79.4054,-16.10682 20.4609,-8.83406 32.7351,-25.49529 32.7299,-42.13808 0.5961,-19.12143 -6.5779,-38.43165 -21.3951,-54.59175 -12.2122,-13.3847 -27.0619,-25.99699 -46.2531,-34.77272 -15.8144,-7.32318 -34.3217,-11.04929 -52.5935,-14.14 -19.5136,-3.10566 -39.0867,-6.13187 -58.9537,-7.92958 -17.80897,-1.67956 -35.77818,-2.59607 -53.75435,-2.50334 z"
       id="path4040-4-5-3"
       inkscape:connector-curvature="0"
       sodipodi:nodetypes="zssssz" />
    <path
       style="color:#000000;display:inline;overflow:visible;visibility:visible;fill:#ffffff;fill-opacity:1;fill-rule:nonzero;stroke:none;stroke-width:1px;marker:none;enable-background:accumulate"
       d="m 854.28662,475.93325 c 72.99905,-2.53565 65.7638,-63.19299 71.48587,-78.47444 l 37.78086,7.15422 c 0,0 -26.16471,95.6219 -109.26673,71.32022 z"
       id="path3072-5-5"
       inkscape:connector-curvature="0"
       sodipodi:nodetypes="cccc" />
    <path
       style="display:inline;fill:#ffffff;fill-rule:evenodd;stroke:none;stroke-width:1.408px;stroke-linecap:butt;stroke-linejoin:miter;stroke-opacity:1"
       d="M 1633.0857,1499.8078 C 1369.6238,1311.143 913.48319,1301.33 644.96045,1330.1698 l -8.73311,23.8296 c 289.95695,-44.5653 772.14596,6.8513 996.85836,145.8084 z"
       id="path1094"
       inkscape:connector-curvature="0"
       sodipodi:nodetypes="cccc" />
    <path
       style="color:#000000;display:inline;overflow:visible;visibility:visible;fill:#ffffff;fill-opacity:1;fill-rule:nonzero;stroke:none;stroke-width:1.18245px;marker:none;enable-background:accumulate"
       d="m 1211.9228,1287.0801 c -41.3244,-0.2625 -83.1474,3.3148 -121.2708,13.4402 -24.2076,6.4784 -46.4152,16.6468 -61.4468,30.4459 -17.8986,16.3072 -22.8237,38.4918 -10.8976,57.2798 11.6488,18.3477 34.4137,33.3813 61.2294,43.1811 22.2956,8.0043 47.7871,11.3936 72.9559,12.6998 32.9941,1.9007 66.1669,1.3493 99.0414,-0.539 17.3002,-0.9962 34.5819,-2.179 51.7513,-3.7995 26.5523,-2.9302 52.5534,-9.6044 72.5829,-21.1612 18.6282,-10.4841 33.7967,-23.9732 40.1581,-39.4671 5.3717,-14.089 -0.4566,-29.7772 -15.2726,-41.0066 -22.802,-19.201 -55.0876,-33.6727 -90.7613,-41.3997 -31.5281,-6.934 -64.9814,-9.4786 -98.0699,-9.6737 z"
       id="path3365-3"
       inkscape:connector-curvature="0"
       sodipodi:nodetypes="cssccc" />
    <path
       style="fill:#ffffff;fill-rule:evenodd;stroke:none;stroke-width:0.756124px;stroke-linecap:butt;stroke-linejoin:miter;stroke-opacity:1"
       d="m 496.65675,1252.2599 c -33.98181,0.4002 -68.01236,-0.1174 -101.93876,1.9818 -18.84593,1.7685 -37.85044,3.5669 -56.06704,8.4719 -18.7489,6.3078 -36.81033,15.3608 -50.50902,28.6947 -10.90878,11.138 -18.63573,25.1765 -20.06207,40.0773 -0.57507,10.7978 3.85601,21.2005 9.39957,30.5855 8.35062,14.3783 20.87528,27.1031 36.90205,34.8059 13.78809,6.7367 29.35617,9.6625 44.71698,11.8537 17.744,2.3929 35.68532,3.2473 53.58748,4.0573 53.13477,1.8772 106.32453,-1.0339 159.19988,-5.6696 20.9597,-2.1123 42.03887,-4.6545 62.17409,-10.5064 15.09164,-4.9288 29.20959,-13.418 38.13411,-25.6154 7.27013,-10.2069 11.28606,-21.9155 14.9298,-33.4859 1.90882,-8.8689 -1.22298,-17.8362 -5.20649,-25.8796 -5.16714,-10.5153 -12.11471,-20.3673 -20.75063,-28.8558 -6.01458,-5.6256 -13.53042,-9.7994 -21.54614,-12.7109 -12.16984,-4.7422 -24.92191,-8.1396 -37.69875,-11.2711 -19.68634,-4.5015 -40.03411,-6.5257 -60.33535,-6.3258 -14.97478,-0.2548 -29.95305,-0.2067 -44.92971,-0.2076 z"
       id="path1079"
       inkscape:connector-curvature="0" />
    <path
       id="path5050-5"
       style="color:#000000;display:inline;overflow:visible;visibility:visible;fill:#ffffff;fill-opacity:1;fill-rule:nonzero;stroke:none;stroke-width:1.10542px;marker:none;enable-background:accumulate"
       d="m 1055.3066,2327.9473 c -6.7695,3.1849 -13.5391,6.3698 -20.3086,9.5547 -5.4515,8.7234 -8.4665,18.631 -12.08,28.1855 0.2877,8.9888 4.778,17.1081 7.4112,25.5492 4.8043,13.3509 10.142,27.6669 6.8338,42.0256 -3.4158,16.5674 -11.898,31.5008 -16.4345,47.7397 -0.956,12.8214 5.6959,25.4955 16.2957,32.604 7.6345,5.5383 17.8577,10.6572 22.2668,17.4448 4.4091,6.7876 3.9198,12.9565 3.0275,20.0069 -0.8923,7.0504 -6.8233,13.4216 -10.106,20.1773 -2.5543,5.2297 -6.5724,10.2065 -4.8898,16.3644 0.5485,8.6419 3.5528,16.9498 8.2569,24.18 1.9155,5.167 7.5375,11.5732 1.5157,15.9953 -3.2977,3.3341 -6.6403,6.6236 -10.0035,9.8933 6.6199,-4.2691 13.2848,-8.7213 18.4668,-14.7364 2.2175,-7.1316 -0.2102,-14.5787 -3.3587,-21.0008 -3.3881,-9.4513 -0.8017,-19.8562 4.2602,-28.1901 5.6073,-9.9289 13.8919,-19.3951 13.8982,-31.4245 0.5595,-12.2965 -5.2038,-24.6049 -15.0512,-32.0084 -6.3523,-5.6552 -13.9693,-10.3956 -18.4457,-17.7889 -5.2096,-11.3685 -1.3783,-24.1347 3.0069,-35.0894 5.3982,-14.2627 13.5704,-28.4586 12.1858,-44.2358 -1.3898,-17.7099 -13.4465,-33.5966 -10.8255,-51.7808 1.5634,-10.2967 5.5548,-20.0386 7.2382,-30.3113 -0.044,-1.6098 -1.4268,-3.3809 -3.1602,-3.1543 z"
       sodipodi:nodetypes="ccccccczzcccccccccccccccc" />
    <path
       id="path1086-2"
       style="display:inline;fill:#ffffff;fill-rule:evenodd;stroke:none;stroke-width:1.72192px;stroke-linecap:butt;stroke-linejoin:miter;stroke-opacity:1"
       d="m 969.49288,2362.244 c -22.05887,2.072 -43.10903,11.2864 -65.53602,10.1905 -16.18698,-0.046 -33.37431,-3.2616 -48.52731,4.1788 -11.78466,5.7666 -24.17795,12.7516 -30.91546,24.4734 -7.39475,14.5227 -9.92206,33.1117 -0.76509,47.4824 12.40948,19.6335 35.12294,32.5447 58.45033,32.4581 19.80037,0.1222 39.61778,2.0994 58.81628,7.0853 15.31402,3.5903 31.44686,5.4007 46.8387,1.128 14.92249,-3.5641 30.30029,-7.7909 45.72809,-4.9333 19.4406,2.8709 38.8582,8.7921 58.6981,5.9357 24.4445,-2.8639 48.3035,-12.2598 73.2355,-9.4962 14.712,1.1364 30.902,2.2363 43.5759,-6.8501 20.7512,-13.656 28.7839,-43.783 17.4388,-65.8698 -8.7079,-13.4201 -24.4854,-19.8261 -39.1024,-24.6114 -22.1315,-6.8718 -46.0305,-1.9296 -68.0695,-9.3646 -13.7036,-4.261 -27.8503,-8.1533 -42.3539,-6.9259 -25.8828,1.1429 -52.2063,6.2281 -77.78622,-0.3296 -9.7978,-2.1008 -19.64553,-4.5119 -29.72582,-4.5513 z" />
    <path
       id="path1086"
       style="display:inline;fill:#ffffff;fill-rule:evenodd;stroke:none;stroke-width:1.00719px;stroke-linecap:butt;stroke-linejoin:miter;stroke-opacity:1"
       d="m 947.43359,2287.7817 c 8.82004,-13.0131 23.57274,-20.4085 38.14551,-25.1206 15.0538,-4.8304 30.8852,-6.7484 46.6522,-6.9132 14.578,-0.3452 29.6546,-1.505 43.7023,3.2629 6.7924,2.5751 13.0533,6.3476 19.4048,9.8373 8.4831,5.0191 17.3386,11.2049 20.7323,20.9226 2.2132,6.2472 0.5455,12.8861 0.5676,19.3176 -0.4021,9.8612 -0.9237,20.7155 -7.6676,28.5913 -6.5316,8.1476 -16.9354,11.2975 -26.5148,14.2544 -15.8254,4.4306 -32.0655,7.4298 -48.4168,9.0531 -10.5283,1.0974 -21.2935,2.1776 -31.7308,-0.2271 -12.51679,-2.6873 -23.76377,-9.3127 -34.18732,-16.513 -8.39648,-6.1764 -16.72503,-13.394 -20.85941,-23.2141 -2.47795,-7.1043 -1.99245,-14.833 -1.463,-22.2214 0.3553,-3.7008 0.87341,-7.3899 1.63502,-11.0298 z" />
    <path
       style="color:#000000;display:inline;overflow:visible;visibility:visible;fill:#ffffff;fill-opacity:1;fill-rule:nonzero;stroke:none;stroke-width:1.00142px;marker:none;enable-background:accumulate"
       d="m 1551.4802,2844.6354 c -29.2718,23.6335 -49.9774,61.4772 -38.0228,102.9845 11.9549,41.5072 -6.8025,41.4052 -6.8025,41.4052 l -37.425,-15.5296 c 0,0 -6.4717,-90.5725 82.2503,-128.8601 z"
       id="path3072-6"
       inkscape:connector-curvature="0"
       sodipodi:nodetypes="csccc" />
    <path
       style="display:inline;fill:#ffffff;stroke:none;stroke-width:0.585478"
       d="m 1448.146,3053.189 c -37.1291,0.5773 -74.5207,7.301 -106.022,21.3178 -24.7261,11.4239 -43.5853,29.523 -49.3756,50.0064 -3.4337,13.4154 0.1548,27.0456 4.07,40.2035 5.0827,16.7535 18.368,32.269 37.4268,43.0516 13.0526,7.4152 28.3686,12.6912 44.2259,16.4672 19.9759,4.6883 41.0864,6.5432 62.0865,6.8301 34.6761,0.9893 69.395,0.4514 104.0707,-0.2429 29.5391,-0.982 59.4824,-3.6761 86.9389,-11.758 28.4263,-8.4911 53.0995,-23.8756 66.3117,-43.5878 12.1192,-18.1459 13.9996,-39.8444 3.2352,-58.5354 -9.4602,-15.6644 -27.48,-28.0798 -47.7144,-37.117 -19.6797,-8.782 -42.1731,-14.0286 -65.0173,-16.9956 -25.2066,-3.5021 -50.7651,-5.5311 -76.265,-7.651 -21.2501,-1.4855 -42.6171,-2.1432 -63.9714,-1.9889 z"
       id="path3280-5"
       inkscape:connector-curvature="0"
       sodipodi:nodetypes="csssc" />
    <path
       style="fill:#ffffff;stroke:none;stroke-width:0.443367"
       d="m 1453.9232,2957.5206 c -25.9687,0.5517 -52.3735,3.2277 -76.7027,12.1712 -13.6803,5.0536 -27.1481,11.4073 -37.815,20.8773 -6.6476,5.9034 -11.6982,13.2855 -14.2784,21.3969 -3.6597,11.0213 -3.8962,22.8775 -1.277,34.0542 2.1286,8.2742 7.3905,16.0403 15.3984,20.5923 10.7389,6.6522 23.364,10.1549 35.8122,13.2272 25.1016,5.4348 51.1315,5.2071 76.8211,5.6553 29.4733,0.3756 59.0293,0.6795 88.4281,-2.0167 17.0422,-1.6372 34.4614,-3.1713 50.4618,-9.2483 10.0949,-3.9147 19.1189,-10.5448 24.4397,-19.3718 10.1028,-16.1297 9.09,-37.7775 -3.7441,-52.2438 -10.4112,-11.9323 -25.4102,-19.6016 -40.6278,-25.475 -27.1512,-10.6852 -56.3454,-17.0278 -85.9231,-18.9953 -10.3051,-0.7201 -20.6537,-0.8552 -30.9932,-0.6235 z"
       id="path3280-8-0"
       inkscape:connector-curvature="0"
       sodipodi:nodetypes="csssc" />
  </g>
  <g
     inkscape:groupmode="layer"
     id="layer1"
     inkscape:label="txt">
    <text
       xml:space="preserve"
       style="font-style:normal;font-variant:normal;font-weight:normal;font-stretch:normal;font-size:45px;line-height:1.25;font-family:'小赖字体 SC';-inkscape-font-specification:'小赖字体 SC';text-align:center;letter-spacing:0px;word-spacing:0px;text-anchor:middle;fill:#000000;fill-opacity:1;stroke:none"
       x="971.38531"
       y="229.51616"
       id="text4246-3-2-2-6-3-7-9-3"><tspan
         style="font-style:normal;font-variant:normal;font-weight:normal;font-stretch:normal;font-size:45px;font-family:'小赖字体 SC';-inkscape-font-specification:'小赖字体 SC'"
         sodipodi:role="line"
         x="971.38531"
         y="229.51616"
         id="tspan68">是的，殿下。</tspan></text>
    <text
       xml:space="preserve"
       style="font-style:normal;font-variant:normal;font-weight:normal;font-stretch:normal;font-size:45px;line-height:1.25;font-family:'小赖字体 SC';-inkscape-font-specification:'小赖字体 SC';text-align:center;letter-spacing:0px;word-spacing:0px;text-anchor:middle;fill:#000000;fill-opacity:1;stroke:none"
       x="981.24237"
       y="319.15771"
       id="text4246-3-2-2-6-3-7-9-3-3"><tspan
         style="font-style:normal;font-variant:normal;font-weight:normal;font-stretch:normal;font-size:45px;font-family:'小赖字体 SC';-inkscape-font-specification:'小赖字体 SC'"
         sodipodi:role="line"
         x="981.24237"
         y="319.15771"
         id="tspan81">她叫小辣椒，</tspan><tspan
         id="tspan74"
         style="font-style:normal;font-variant:normal;font-weight:normal;font-stretch:normal;font-size:45px;font-family:'小赖字体 SC';-inkscape-font-specification:'小赖字体 SC'"
         sodipodi:role="line"
         x="981.24237"
         y="375.40771">来自混沌阿学校。</tspan></text>
    <text
       xml:space="preserve"
       style="font-style:normal;font-variant:normal;font-weight:normal;font-stretch:normal;font-size:45px;line-height:1.25;font-family:'小赖字体 SC';-inkscape-font-specification:'小赖字体 SC';text-align:center;letter-spacing:0px;word-spacing:0px;text-anchor:middle;fill:#000000;fill-opacity:1;stroke:none"
       x="485.1925"
       y="1313.6101"
       id="text4246-3-2-2-6-3-7-9-3-3-3"><tspan
         style="font-style:normal;font-variant:normal;font-weight:normal;font-stretch:normal;font-size:45px;font-family:'小赖字体 SC';-inkscape-font-specification:'小赖字体 SC'"
         sodipodi:role="line"
         x="485.1925"
         y="1313.6101"
         id="tspan90">她的出现玷污了</tspan><tspan
         id="tspan80"
         style="font-style:normal;font-variant:normal;font-weight:normal;font-stretch:normal;font-size:45px;font-family:'小赖字体 SC';-inkscape-font-specification:'小赖字体 SC'"
         sodipodi:role="line"
         x="485.1925"
         y="1369.8601">本校圣洁的氛围。</tspan></text>
    <text
       xml:space="preserve"
       style="font-style:normal;font-variant:normal;font-weight:normal;font-stretch:normal;font-size:45px;line-height:1.25;font-family:'小赖字体 SC';-inkscape-font-specification:'小赖字体 SC';text-align:center;letter-spacing:0px;word-spacing:0px;text-anchor:middle;fill:#000000;fill-opacity:1;stroke:none"
       x="1213.9652"
       y="1352.095"
       id="text4246-3-2-2-6-3-7-9-3-3-3-9"><tspan
         style="font-style:normal;font-variant:normal;font-weight:normal;font-stretch:normal;font-size:45px;font-family:'小赖字体 SC';-inkscape-font-specification:'小赖字体 SC'"
         sodipodi:role="line"
         x="1213.9652"
         y="1352.095"
         id="tspan101">立即将她</tspan><tspan
         id="tspan86"
         style="font-style:normal;font-variant:normal;font-weight:normal;font-stretch:normal;font-size:45px;font-family:'小赖字体 SC';-inkscape-font-specification:'小赖字体 SC'"
         sodipodi:role="line"
         x="1213.9652"
         y="1408.345">带出我的视线。</tspan></text>
    <text
       xml:space="preserve"
       style="font-style:normal;font-variant:normal;font-weight:normal;font-stretch:normal;font-size:45px;line-height:1.25;font-family:'小赖字体 SC';-inkscape-font-specification:'小赖字体 SC';text-align:center;letter-spacing:0px;word-spacing:0px;text-anchor:middle;fill:#000000;fill-opacity:1;stroke:none"
       x="1041.905"
       y="2320.762"
       id="text4246-3-2-2-6-3-7-9-3-3-3-9-0-0"><tspan
         style="font-style:normal;font-variant:normal;font-weight:normal;font-stretch:normal;font-size:45px;font-family:'小赖字体 SC';-inkscape-font-specification:'小赖字体 SC'"
         sodipodi:role="line"
         x="1041.905"
         y="2320.762"
         id="tspan1031-6-6">可是…</tspan></text>
    <text
       xml:space="preserve"
       style="font-style:normal;font-variant:normal;font-weight:normal;font-stretch:normal;font-size:45px;line-height:1.25;font-family:'小赖字体 SC';-inkscape-font-specification:'小赖字体 SC';text-align:center;letter-spacing:0px;word-spacing:0px;text-anchor:middle;fill:#000000;fill-opacity:1;stroke:none"
       x="1028.5508"
       y="2444.2068"
       id="text4246-3-2-2-6-3-7-9-3-3-3-9-0"><tspan
         style="font-style:normal;font-variant:normal;font-weight:normal;font-stretch:normal;font-size:45px;font-family:'小赖字体 SC';-inkscape-font-specification:'小赖字体 SC'"
         sodipodi:role="line"
         x="1028.5508"
         y="2444.2068"
         id="tspan1031-6">绿芥末导师…</tspan></text>
    <text
       xml:space="preserve"
       style="font-style:normal;font-variant:normal;font-weight:normal;font-stretch:normal;font-size:45px;line-height:1.25;font-family:'小赖字体 SC';-inkscape-font-specification:'小赖字体 SC';text-align:center;letter-spacing:0px;word-spacing:0px;text-anchor:middle;fill:#000000;fill-opacity:1;stroke:none"
       x="1487.9255"
       y="3034.2124"
       id="text4246-3-2-2-6-3-7-9-3-3-3-9-0-6"><tspan
         style="font-style:normal;font-variant:normal;font-weight:normal;font-stretch:normal;font-size:45px;font-family:'小赖字体 SC';-inkscape-font-specification:'小赖字体 SC'"
         sodipodi:role="line"
         x="1487.9255"
         y="3034.2124"
         id="tspan1199">可是什么？</tspan></text>
    <text
       xml:space="preserve"
       style="font-style:normal;font-variant:normal;font-weight:normal;font-stretch:normal;font-size:45px;line-height:1.25;font-family:'小赖字体 SC';-inkscape-font-specification:'小赖字体 SC';text-align:center;letter-spacing:0px;word-spacing:0px;text-anchor:middle;fill:#000000;fill-opacity:1;stroke:none"
       x="1501.2689"
       y="3120.325"
       id="text4246-3-2-2-6-3-7-9-3-3-3-9-0-6-8"><tspan
         style="font-style:normal;font-variant:normal;font-weight:normal;font-stretch:normal;font-size:45px;font-family:'小赖字体 SC';-inkscape-font-specification:'小赖字体 SC'"
         sodipodi:role="line"
         x="1501.2689"
         y="3120.325"
         id="tspan110">你总不会</tspan><tspan
         id="tspan93"
         style="font-style:normal;font-variant:normal;font-weight:normal;font-stretch:normal;font-size:45px;font-family:'小赖字体 SC';-inkscape-font-specification:'小赖字体 SC'"
         sodipodi:role="line"
         x="1501.2689"
         y="3176.575">想被学校开除吧？</tspan></text>
    <text
       xml:space="preserve"
       style="font-style:normal;font-variant:normal;font-weight:normal;font-stretch:normal;font-size:105.817px;line-height:1.25;font-family:'小赖字体 SC';-inkscape-font-specification:'小赖字体 SC';letter-spacing:0px;word-spacing:0px;fill:#000000;fill-opacity:1;stroke:#030303;stroke-width:0.716208;stroke-miterlimit:4;stroke-dasharray:none;stroke-opacity:1;filter:url(#filter4375-4-1-1-1-9-5-8-8-5-5-3-8);"
       x="787.65729"
       y="1584.5073"
       id="text4580-6-0-0-0-9-3-36"
       transform="matrix(0.78722097,-0.19942868,-0.30990333,0.91892591,1994.5561,1995.3356)"><tspan
         style="font-size:195.17px;fill:#000000;fill-opacity:1;stroke:#030303;stroke-width:0.716208;stroke-miterlimit:4;stroke-dasharray:none;stroke-opacity:1;-inkscape-font-specification:'小赖字体 SC';font-family:'小赖字体 SC';font-weight:normal;font-style:normal;font-stretch:normal;font-variant:normal;"
         sodipodi:role="line"
         id="tspan876-6-1"
         x="787.65729"
         y="1584.5073">!<tspan
   style="font-size:173.821px;fill:#000000;stroke:#030303;stroke-opacity:1;-inkscape-font-specification:'小赖字体 SC';font-family:'小赖字体 SC';font-weight:normal;font-style:normal;font-stretch:normal;font-variant:normal;"
   id="tspan1317">!</tspan><tspan
   id="tspan1322"
   style="font-size:152.472px;fill:#000000;stroke:#030303;stroke-opacity:1;-inkscape-font-specification:'小赖字体 SC';font-family:'小赖字体 SC';font-weight:normal;font-style:normal;font-stretch:normal;font-variant:normal;">!</tspan></tspan></text>
  </g>
</svg>
