<?xml version="1.0" encoding="UTF-8" standalone="no"?>
<svg
   xmlns:dc="http://purl.org/dc/elements/1.1/"
   xmlns:cc="http://creativecommons.org/ns#"
   xmlns:rdf="http://www.w3.org/1999/02/22-rdf-syntax-ns#"
   xmlns:svg="http://www.w3.org/2000/svg"
   xmlns="http://www.w3.org/2000/svg"
   xmlns:xlink="http://www.w3.org/1999/xlink"
   xmlns:sodipodi="http://sodipodi.sourceforge.net/DTD/sodipodi-0.dtd"
   xmlns:inkscape="http://www.inkscape.org/namespaces/inkscape"
   id="svg2"
   version="1.1"
   inkscape:version="1.0.2 (e86c870879, 2021-01-15)"
   width="2481"
   height="3503"
   sodipodi:docname="E35P10.svg">
  <metadata
     id="metadata8">
    <rdf:RDF>
      <cc:Work
         rdf:about="">
        <dc:format>image/svg+xml</dc:format>
        <dc:type
           rdf:resource="http://purl.org/dc/dcmitype/StillImage" />
        <dc:title />
      </cc:Work>
    </rdf:RDF>
  </metadata>
  <defs
     id="defs6" />
  <sodipodi:namedview
     pagecolor="#ffffff"
     bordercolor="#666666"
     borderopacity="1"
     objecttolerance="10"
     gridtolerance="10"
     guidetolerance="10"
     inkscape:pageopacity="0"
     inkscape:pageshadow="2"
     inkscape:window-width="1920"
     inkscape:window-height="967"
     id="namedview4"
     showgrid="false"
     inkscape:zoom="0.266002"
     inkscape:cx="1055.1505"
     inkscape:cy="1776.0191"
     inkscape:window-x="0"
     inkscape:window-y="72"
     inkscape:window-maximized="1"
     inkscape:current-layer="layer1"
     inkscape:document-rotation="0"
     inkscape:snap-global="false"
     inkscape:pagecheckerboard="0" />
  <g
     inkscape:groupmode="layer"
     id="layer2"
     inkscape:label="artwork"
     sodipodi:insensitive="true">
    <image
       sodipodi:absref="/felles/omsetting/pepper-carrot/webcomics/new-ep35_The-Reflection/lang/gfx_Pepper-and-Carrot_by-David-Revoy_E35P10.png"
       xlink:href="../gfx_Pepper-and-Carrot_by-David-Revoy_E35P10.png"
       y="0"
       x="0"
       id="image10"
       height="3503"
       width="2481" />
  </g>
  <g
     inkscape:groupmode="layer"
     id="layer3"
     inkscape:label="speechbubbles">
    <path
       style="fill:#ffffff;stroke:none;stroke-width:0.953511"
       d="m 1330.3192,120.77177 c -49.9102,0.33122 -100.3666,-0.54032 -149.4336,12.31234 -20.4018,5.1987 -44.3277,7.96974 -59.0868,24.87815 -18.7324,21.46031 -24.5426,40.81082 -25.3813,63.63078 -2.1216,57.72771 10.6743,125.10736 52.2182,165.24577 25.1193,24.26944 75.2376,23.8462 100.9419,28.11727 25.7043,4.27108 71.9786,8.43326 111.8979,9.32458 48.2281,1.70713 70.9116,-5.02053 118.9636,-7.65869 41.8545,-3.70493 72.3625,-0.3328 101.3003,-18.8315 25.7753,-16.47706 37.3232,-39.89965 53.1022,-74.85246 15.4675,-36.4512 14.4595,-63.88995 24.3583,-118.28467 -3.0336,-56.63399 -36.0034,-57.07613 -89.0915,-74.23303 -35.7239,-6.92477 -71.9713,-7.83509 -108.0579,-8.99818 -43.4294,-0.80701 -86.8658,-0.61988 -130.2983,-0.66269 -0.4777,0.005 -0.9555,0.008 -1.433,0.0123 z"
       id="path3100-98"
       inkscape:connector-curvature="0"
       sodipodi:nodetypes="zssaazccacccccsz" />
    <path
       style="color:#000000;display:inline;overflow:visible;visibility:visible;fill:#ffffff;fill-opacity:1;fill-rule:nonzero;stroke:none;stroke-width:0.83737px;marker:none;enable-background:accumulate"
       d="m 1448.7795,517.63055 c 2.403,-24.32977 -9.2766,-33.6163 -20.6628,-38.28253 -11.3869,-4.66626 -19.0826,-5.58729 -28.1978,-26.0826 -9.1142,-20.49521 -0.7357,-41.29642 -4.8853,-52.46499 -11.4569,-16.24953 -34.9307,-26.06627 -44.5289,-30.51513 -21.6856,-10.05119 11.3091,-23.29909 11.3091,-23.29909 8.77,-0.30545 47.7455,23.68713 57.7575,33.72157 14.4084,14.44054 -4.0636,48.20741 4.0399,65.52593 7.5675,16.17219 18.2749,17.40774 23.9472,28.63593 5.6729,11.22843 4.8219,31.66667 1.2211,42.76091 z"
       id="path4538-8"
       inkscape:connector-curvature="0"
       sodipodi:nodetypes="csscscsssc" />
    <path
       style="color:#000000;display:inline;overflow:visible;visibility:visible;fill:#ffffff;fill-opacity:1;fill-rule:nonzero;stroke:none;stroke-width:1.21196px;marker:none;enable-background:accumulate"
       d="m 146.48662,1521.6618 c 3.92334,-52.835 4.48653,-103.8757 56.38063,-134.3848 51.89399,-30.5077 143.31727,-38.1731 258.15109,-29.2988 61.51111,4.7531 138.99923,11.1057 188.04953,33.0647 49.05032,21.9591 69.66293,59.5245 64.62943,136.9162 -5.03352,77.3916 -32.19663,110.9507 -88.85831,130.2669 -56.66159,19.3177 -142.82196,24.3928 -163.56925,26.3926 -20.74727,1.9996 -85.09616,-0.5587 -148.93964,-10.1499 -63.84336,-9.5912 -107.51199,-16.2888 -126.2375,-42.4256 -29.35531,-33.1568 -41.39114,-71.9148 -39.60598,-110.3813 z"
       id="path4546-6-2-0"
       inkscape:connector-curvature="0"
       sodipodi:nodetypes="cssssssscc" />
    <path
       style="fill:#ffffff;fill-rule:evenodd;stroke:none;stroke-width:1.12465px;stroke-linecap:butt;stroke-linejoin:miter;stroke-opacity:1"
       d="m 566.83527,1651.6586 c 4.43847,-15.3188 61.8645,41.4938 43.56991,104.2767 2.42387,27.4208 22.18027,42.2423 21.12076,57.0045 -1.05963,24.2524 -9.53608,35.8508 -36.02508,55.8848 33.90594,-15.8168 54.23301,-33.7608 55.29264,-58.0121 1.05951,-24.2524 -17.71625,-25.1329 -17.14842,-60.0829 1.05952,-10.5449 25.79381,-65.3353 -26.69151,-120.7385 19.07205,-20.0341 -40.1183,21.6675 -40.1183,21.6675 z"
       id="path1303"
       inkscape:connector-curvature="0"
       sodipodi:nodetypes="cccccccc" />
    <path
       style="color:#000000;display:inline;overflow:visible;visibility:visible;fill:#ffffff;fill-opacity:1;fill-rule:nonzero;stroke:none;stroke-width:0.79738px;marker:none;enable-background:accumulate"
       d="m 1330.3104,1536.3568 c 2.0538,-39.1311 2.3487,-76.9332 29.5156,-99.5292 27.1666,-22.5948 75.0272,-28.272 135.1432,-21.6994 32.2014,3.5202 72.7666,8.2252 98.4447,24.4886 25.6781,16.2635 36.4687,44.0855 33.8337,101.4039 -2.6348,57.3184 -16.8549,82.1732 -46.5175,96.4793 -29.6627,14.3073 -74.768,18.066 -85.6293,19.5471 -10.8612,1.481 -44.5484,-0.4138 -77.9707,-7.5173 -33.4223,-7.1034 -56.2829,-12.0639 -66.0857,-31.4215 -15.3676,-24.5569 -21.6686,-53.2622 -20.734,-81.7515 z"
       id="path4546-6-2-0-3"
       inkscape:connector-curvature="0"
       sodipodi:nodetypes="cssssssscc" />
    <path
       style="color:#000000;display:inline;overflow:visible;visibility:visible;fill:#ffffff;fill-opacity:1;fill-rule:nonzero;stroke:none;stroke-width:0.785671px;marker:none;enable-background:accumulate"
       d="m 1351.3076,1759.375 c 2.5122,-41.1512 2.8727,-80.9047 36.1014,-104.6672 33.2285,-23.7613 91.7684,-29.7316 165.2979,-22.8197 39.3866,3.702 89.0033,8.6498 120.4111,25.7529 31.4077,17.1029 44.6063,46.3614 41.3833,106.6388 -3.2231,60.2772 -20.6161,86.415 -56.8973,101.4599 -36.2813,15.0458 -91.4512,18.9986 -104.736,20.556 -13.2848,1.5576 -54.4885,-0.4349 -95.3683,-7.9053 -40.8799,-7.4703 -68.8415,-12.6866 -80.8318,-33.0436 -18.7966,-25.8245 -26.5033,-56.0116 -25.3603,-85.9718 z"
       id="path4546-6-2-0-3-6"
       inkscape:connector-curvature="0"
       sodipodi:nodetypes="cssssssscc" />
    <path
       style="color:#000000;display:inline;overflow:visible;visibility:visible;fill:#ffffff;fill-opacity:1;fill-rule:nonzero;stroke:none;stroke-width:1.47843px;marker:none;enable-background:accumulate"
       d="m 1474.8245,1844.8292 c 6.1533,73.3287 -47.1663,130.4434 -118.01,146.3855 114.7363,-9.2052 166.2605,-106.0374 160.9588,-137.1332 -5.191,-30.4467 -42.9488,-9.2523 -42.9488,-9.2523 z"
       id="path5010-4"
       inkscape:connector-curvature="0"
       sodipodi:nodetypes="ccsc" />
  </g>
  <g
     inkscape:groupmode="layer"
     id="layer1"
     inkscape:label="txt">
    <text
       xml:space="preserve"
       style="font-style:normal;font-variant:normal;font-weight:normal;font-stretch:normal;font-size:45px;line-height:1.25;font-family:Lavi;-inkscape-font-specification:Lavi;text-align:center;letter-spacing:0px;word-spacing:0px;text-anchor:middle;fill:#000000;fill-opacity:1;stroke:none"
       x="1375.2762"
       y="199.67334"
       id="text4246-3-2-2"><tspan
         style="font-size:45px"
         sodipodi:role="line"
         x="1375.2762"
         y="199.67334"
         id="tspan9078">Du veit at det umogleg</tspan><tspan
         style="font-size:45px"
         sodipodi:role="line"
         x="1375.2762"
         y="255.92334"
         id="tspan861">kan enda godt for deg</tspan><tspan
         style="font-size:45px"
         sodipodi:role="line"
         x="1375.2762"
         y="312.17334"
         id="tspan9080">om du overgjev deg</tspan><tspan
         style="font-size:45px"
         sodipodi:role="line"
         x="1375.2762"
         y="368.42334"
         id="tspan877">til meister Wasabi?</tspan></text>
    <text
       xml:space="preserve"
       style="font-style:normal;font-variant:normal;font-weight:normal;font-stretch:normal;font-size:45px;line-height:1.25;font-family:Lavi;-inkscape-font-specification:Lavi;text-align:center;letter-spacing:0px;word-spacing:0px;text-anchor:middle;fill:#000000;fill-opacity:1;stroke:none"
       x="430.22131"
       y="1452.8612"
       id="text4246-3-2-2-3"><tspan
         style="font-size:45px"
         sodipodi:role="line"
         x="430.22131"
         y="1452.8612"
         id="tspan892">Eg er klar over det.</tspan><tspan
         style="font-size:45px"
         sodipodi:role="line"
         x="430.22131"
         y="1509.1112"
         id="tspan9101">Men eg trur likevel det</tspan><tspan
         style="font-size:45px"
         sodipodi:role="line"
         x="430.22131"
         y="1565.3612"
         id="tspan9107">finst ein måte å få</tspan><tspan
         style="font-size:45px"
         sodipodi:role="line"
         x="430.22131"
         y="1621.6112"
         id="tspan9111">henne til å forstå.</tspan></text>
    <text
       xml:space="preserve"
       style="font-style:normal;font-variant:normal;font-weight:normal;font-stretch:normal;font-size:45px;line-height:1.25;font-family:Lavi;-inkscape-font-specification:Lavi;text-align:center;letter-spacing:0px;word-spacing:0px;text-anchor:middle;fill:#000000;fill-opacity:1;stroke:none"
       x="1480.2451"
       y="1488.6346"
       id="text4246-3-2-2-3-3"><tspan
         style="font-size:45px"
         sodipodi:role="line"
         x="1480.2451"
         y="1488.6346"
         id="tspan896">Alt kan</tspan><tspan
         style="font-size:45px"
         sodipodi:role="line"
         x="1480.2451"
         y="1544.8846"
         id="tspan9133">gjerast</tspan><tspan
         style="font-size:45px"
         sodipodi:role="line"
         x="1480.2451"
         y="1601.1346"
         id="tspan9135">godt att.</tspan></text>
    <text
       xml:space="preserve"
       style="font-style:normal;font-variant:normal;font-weight:normal;font-stretch:normal;font-size:45px;line-height:1.25;font-family:Lavi;-inkscape-font-specification:Lavi;text-align:center;letter-spacing:0px;word-spacing:0px;text-anchor:middle;fill:#000000;fill-opacity:1;stroke:none"
       x="1534.2284"
       y="1719.9688"
       id="text4246-3-2-2-3-3-1"><tspan
         style="font-size:45px"
         sodipodi:role="line"
         x="1534.2284"
         y="1719.9688"
         id="tspan913">Det lærte eg</tspan><tspan
         style="font-size:45px"
         sodipodi:role="line"
         x="1534.2284"
         y="1776.2188"
         id="tspan9149">av ei god</tspan><tspan
         style="font-size:45px"
         sodipodi:role="line"
         x="1534.2284"
         y="1832.4688"
         id="tspan9153">veninne.</tspan></text>
  </g>
</svg>
