<?xml version="1.0" encoding="UTF-8" standalone="no"?>
<svg
   inkscape:export-ydpi="90"
   inkscape:export-xdpi="90"
   inkscape:export-filename="credit.png"
   sodipodi:docname="E36P16.svg"
   height="6200"
   width="2481"
   inkscape:version="1.1 (c68e22c387, 2021-05-23)"
   version="1.1"
   id="svg2"
   xmlns:inkscape="http://www.inkscape.org/namespaces/inkscape"
   xmlns:sodipodi="http://sodipodi.sourceforge.net/DTD/sodipodi-0.dtd"
   xmlns:xlink="http://www.w3.org/1999/xlink"
   xmlns="http://www.w3.org/2000/svg"
   xmlns:svg="http://www.w3.org/2000/svg"
   xmlns:rdf="http://www.w3.org/1999/02/22-rdf-syntax-ns#"
   xmlns:cc="http://creativecommons.org/ns#"
   xmlns:dc="http://purl.org/dc/elements/1.1/">
  <metadata
     id="metadata8">
    <rdf:RDF>
      <cc:Work
         rdf:about="">
        <dc:format>image/svg+xml</dc:format>
        <dc:type
           rdf:resource="http://purl.org/dc/dcmitype/StillImage" />
        <dc:title />
      </cc:Work>
    </rdf:RDF>
  </metadata>
  <defs
     id="defs6">
    <rect
       id="rect6361"
       height="164.79263"
       width="296.41278"
       y="940.34177"
       x="359.14022" />
  </defs>
  <sodipodi:namedview
     inkscape:pagecheckerboard="0"
     inkscape:document-rotation="0"
     inkscape:snap-global="false"
     inkscape:guide-bbox="true"
     showguides="true"
     inkscape:object-nodes="true"
     inkscape:current-layer="layer2"
     inkscape:window-maximized="1"
     inkscape:window-y="-8"
     inkscape:window-x="-8"
     inkscape:cy="5739.4459"
     inkscape:cx="1233.0436"
     inkscape:zoom="0.53080037"
     showgrid="false"
     id="namedview4"
     inkscape:window-height="1017"
     inkscape:window-width="1920"
     inkscape:pageshadow="2"
     inkscape:pageopacity="0"
     guidetolerance="10"
     gridtolerance="10"
     objecttolerance="10"
     borderopacity="1"
     bordercolor="#666666"
     pagecolor="#ffffff">
    <sodipodi:guide
       inkscape:locked="false"
       id="guide171"
       orientation="0,1"
       position="1570,6115" />
  </sodipodi:namedview>
  <g
     sodipodi:insensitive="true"
     transform="translate(0,2224)"
     style="display:inline"
     inkscape:label="artwork"
     id="layer1"
     inkscape:groupmode="layer">
    <image
       xlink:href="../gfx_Pepper-and-Carrot_by-David-Revoy_E36P16.png"
       width="2481"
       height="6200"
       preserveAspectRatio="none"
       style="image-rendering:optimizeQuality"
       id="image4223"
       x="0"
       y="-2224.0303" />
  </g>
  <g
     transform="translate(0,2224)"
     style="display:inline"
     inkscape:label="speechbubbles"
     id="layer3"
     inkscape:groupmode="layer">
    <path
       sodipodi:nodetypes="cssssc"
       inkscape:connector-curvature="0"
       id="path4546-6"
       d="m 1171.1605,-863.41961 c 8.4291,-96.03833 38.5336,-111.4684 303.9341,-114.02793 145.3706,-1.40196 336.7212,-7.10646 336.4395,145.8491 -0.2977,161.61978 -215.5408,126.60933 -339.728,125.54893 -144.4884,-1.23372 -243.2115,-5.15197 -274.4428,-35.64636 -28.5791,-27.905 -27.026,-91.9779 -26.2028,-121.72374 z"
       style="color:#000000;display:inline;overflow:visible;visibility:visible;opacity:1;fill:#ffffff;fill-opacity:1;fill-rule:nonzero;stroke:none;stroke-width:0.961076px;marker:none;enable-background:accumulate" />
    <path
       sodipodi:nodetypes="cscccc"
       inkscape:connector-curvature="0"
       id="path3365"
       d="m 1733.3202,-737.46995 c -9.3109,-67.32478 -29.3733,-157.54449 247.9064,-147.14606 213.4705,8.00549 260.9512,37.0348 260.5241,153.47161 -1.7425,42.16977 -9.2969,87.98919 -85.3726,118.07558 -49.773,19.66298 -135.6065,8.48277 -218.1234,15.68418 -88.7446,0.93995 -201.6878,-41.30786 -204.9345,-140.08531 z"
       style="color:#000000;display:inline;overflow:visible;visibility:visible;fill:#ffffff;fill-opacity:1;fill-rule:nonzero;stroke:none;stroke-width:1.05316px;marker:none;enable-background:accumulate" />
    <path
       sodipodi:nodetypes="cscccc"
       inkscape:connector-curvature="0"
       id="path3063"
       d="m 872.55605,-963.13496 c 50.81358,-32.3879 129.46405,-43.64824 168.21135,0.1997 23.4771,26.56752 33.1071,45.02242 33.1071,45.02242 l 23.8879,-32.88042 -23.9282,-31.3954 c 0,0 -88.73129,-64.76174 -201.27815,19.0537 z"
       style="fill:#ffffff;stroke:none;stroke-width:1" />
    <path
       sodipodi:nodetypes="zssssz"
       inkscape:connector-curvature="0"
       id="path4040"
       d="m 329.68079,3299.4499 c 46.77949,-45.5094 408.89845,-87.8557 525.2951,10.7498 116.39665,98.6057 33.32412,263.1448 -42.22974,298.0762 -75.55377,34.9315 -337.45928,48.1675 -431.20899,14.6361 -93.74984,-33.5317 -122.69647,-111.4289 -118.42443,-207.4648 1.74357,-39.1957 19.78835,-70.4874 66.56806,-115.9973 z"
       style="color:#000000;display:inline;overflow:visible;visibility:visible;fill:#ffffff;fill-opacity:1;fill-rule:nonzero;stroke:none;stroke-width:1.02967px;marker:none;enable-background:accumulate" />
    <path
       sodipodi:nodetypes="cccsscc"
       inkscape:connector-curvature="0"
       id="path3517"
       d="m 804.83544,3495.6318 c -3.13621,-85.3983 16.65327,-126.2703 89.2382,-162.8572 69.16415,-26.6667 253.62966,-16.833 282.96506,19.5216 29.3355,36.3545 52.6637,73.4357 49.2787,105.9637 -3.3848,32.5277 2.4701,67.2942 -54.9048,108.6274 -39.5887,28.5201 -158.6493,24.1477 -219.35721,20.7084 -52.42864,-3.4391 -151.73314,-17.3413 -147.21995,-91.9639 z"
       style="color:#000000;display:inline;overflow:visible;visibility:visible;fill:#ffffff;fill-opacity:1;fill-rule:nonzero;stroke:none;stroke-width:0.998258px;marker:none;enable-background:accumulate" />
    <path
       sodipodi:nodetypes="csccc"
       inkscape:connector-curvature="0"
       id="path4974"
       d="m 1162.1295,3512.1578 c -6.7822,-79.4216 144.2051,-91.7761 254.052,-90.971 109.8471,0.8049 252.899,28.1807 258.8884,86.5159 10.8528,98.9579 -165.6552,112.3653 -262.694,113.4632 -45.4388,0.068 -263.4797,-8.7796 -250.2464,-109.0081 z"
       style="color:#000000;display:inline;overflow:visible;visibility:visible;fill:#ffffff;fill-opacity:1;fill-rule:nonzero;stroke:none;stroke-width:0.989021px;marker:none;enable-background:accumulate" />
    <path
       sodipodi:nodetypes="cssssc"
       inkscape:connector-curvature="0"
       id="path3659-8"
       d="m 2085.7323,3704.4328 c -2.7009,-28.4373 15.213,-42.5834 31.5238,-49.2846 20.6715,-8.4927 155.7518,-5.9031 180.7674,13.5169 22.0807,17.1418 35.368,54.5557 -14.1179,74.4652 -49.4858,19.9094 -132.0742,9.0041 -146.1326,5.3843 -14.0586,-3.62 -49.2291,-13.3128 -52.0407,-44.0818 z"
       style="fill:#ffffff;fill-opacity:1;stroke:none;stroke-width:1.04774" />
    <path
       sodipodi:nodetypes="csccc"
       inkscape:connector-curvature="0"
       id="path3072"
       d="m 1815.9787,3458.3614 c -145.0577,-17.8084 -151.3521,38.1867 -173.8389,41.2954 -47.8722,6.6181 -34.2474,16.1578 -34.2474,16.1578 l 14.6011,-30.4558 c 0,0 76.6292,-84.3387 193.4852,-26.9974 z"
       style="color:#000000;display:inline;overflow:visible;visibility:visible;fill:#ffffff;fill-opacity:1;fill-rule:nonzero;stroke:none;stroke-width:1px;marker:none;enable-background:accumulate" />
    <path
       inkscape:connector-curvature="0"
       id="path5010"
       d="m 2144.8841,3684.561 c -34.7278,-9.2362 -63.5331,-24.713 -62.0215,-60.0508 -13.1987,53.9008 44.5176,88.9089 63.4118,97.7471 18.8944,8.8383 -1.3903,-37.6963 -1.3903,-37.6963 z"
       style="color:#000000;display:inline;overflow:visible;visibility:visible;fill:#ffffff;fill-opacity:1;fill-rule:nonzero;stroke:none;stroke-width:1px;marker:none;enable-background:accumulate" />
    <path
       sodipodi:nodetypes="cssssc"
       inkscape:connector-curvature="0"
       id="path4546-6-4"
       d="m 1252.7013,-916.55194 c -4.15,56.05753 -15.9257,64.82543 -118.5005,64.11844 -56.1844,-0.38727 -130.1754,1.35842 -128.6445,-88.03084 1.6175,-94.45276 84.4622,-72.20506 132.4383,-70.55456 55.8189,1.9203 93.9292,5.0296 105.7136,23.11064 10.7836,16.5457 9.5877,53.97882 8.9931,71.35632 z"
       style="color:#000000;display:inline;overflow:visible;visibility:visible;opacity:1;fill:#ffffff;fill-opacity:1;fill-rule:nonzero;stroke:none;stroke-width:1px;marker:none;enable-background:accumulate" />
    <g
       style="display:inline;opacity:0.607;stroke-width:0.453865"
       transform="matrix(2.2032985,0,0,2.2032985,1108.3021,-1137.6565)"
       inkscape:label="Layer 1"
       id="layer1-8">
      <g
         style="stroke-width:0.453865"
         transform="matrix(0.9937728,0,0,0.9936696,-177.69267,6.25128e-7)"
         id="g260"
         inkscape:export-filename="/mnt/hgfs/Bov/Documents/Work/2007/cc/identity/srr buttons/big/by.png"
         inkscape:export-xdpi="300.23013"
         inkscape:export-ydpi="300.23013">
        <path
           inkscape:connector-curvature="0"
           id="path3817_1_"
           nodetypes="ccccccc"
           d="m 181.96579,0.51074 114.06396,0.20264 c 1.59375,0 3.01758,-0.23633 3.01758,3.18066 l -0.13965,37.56689 H 179.08737 V 3.75439 c 0,-1.68505 0.16309,-3.24365 2.87842,-3.24365 z"
           style="fill:#aab2ab;stroke-width:0.453865" />
        <path
           style="stroke-width:0.453865"
           inkscape:connector-curvature="0"
           d="m 297.29636,0 h -116.229 c -1.24658,0 -2.26123,1.01416 -2.26123,2.26074 v 39.49658 c 0,0.28174 0.229,0.51025 0.51074,0.51025 h 119.73047 c 0.28174,0 0.51074,-0.22852 0.51074,-0.51025 V 2.26074 C 299.55807,1.01416 298.54343,0 297.29636,0 Z M 181.06735,1.02148 h 116.229 c 0.68408,0 1.24023,0.55566 1.24023,1.23926 0,0 0,15.94824 0,27.44971 h -83.34424 c -3.04492,5.50586 -8.91113,9.24414 -15.64355,9.24414 -6.73535,0 -12.6001,-3.73486 -15.64355,-9.24414 h -4.07764 c 0,-11.50146 0,-27.44971 0,-27.44971 1e-5,-0.68359 0.55616,-1.23926 1.23975,-1.23926 z"
           id="path263" />
        <g
           style="stroke-width:0.453865"
           enable-background="new    "
           id="g265">
          <path
             inkscape:connector-curvature="0"
             d="m 253.07761,32.95605 c 0.31738,0 0.60742,0.02832 0.87012,0.08398 0.26172,0.05566 0.48535,0.14746 0.67285,0.27539 0.18652,0.12695 0.33203,0.29688 0.43457,0.50781 0.10254,0.21191 0.1543,0.47266 0.1543,0.78418 0,0.33594 -0.0762,0.61523 -0.22949,0.83887 -0.15234,0.22461 -0.37891,0.40723 -0.67773,0.55078 0.41211,0.11816 0.71973,0.3252 0.92285,0.62109 0.20312,0.29589 0.30469,0.65234 0.30469,1.06934 0,0.33594 -0.0654,0.62695 -0.19629,0.87305 -0.13086,0.24512 -0.30762,0.44629 -0.52832,0.60156 -0.22168,0.15625 -0.47461,0.27148 -0.75781,0.3457 -0.28418,0.0752 -0.5752,0.1123 -0.875,0.1123 H 249.936 v -6.66406 h 3.14161 z m -0.1875,2.69532 c 0.26172,0 0.47656,-0.0625 0.64551,-0.18652 0.16797,-0.12402 0.25195,-0.3252 0.25195,-0.60449 0,-0.15527 -0.0283,-0.2832 -0.084,-0.38184 -0.0566,-0.09961 -0.13086,-0.17676 -0.22461,-0.2334 -0.0937,-0.05566 -0.20117,-0.09473 -0.32227,-0.11621 -0.1211,-0.02148 -0.24805,-0.03223 -0.37793,-0.03223 h -1.37402 v 1.55469 z m 0.0859,2.82812 c 0.14355,0 0.28027,-0.01367 0.41113,-0.04199 0.13086,-0.02832 0.24609,-0.0752 0.34668,-0.13965 0.0996,-0.06543 0.17871,-0.1543 0.23828,-0.2666 0.0596,-0.11133 0.0889,-0.25488 0.0889,-0.42871 0,-0.3418 -0.0967,-0.58594 -0.29004,-0.73242 -0.19336,-0.14551 -0.44922,-0.21875 -0.7666,-0.21875 h -1.59961 v 1.82812 z"
             id="path267"
             style="fill:#ffffff;stroke-width:0.453865" />
          <path
             inkscape:connector-curvature="0"
             d="m 255.78854,32.95605 h 1.64355 l 1.56055,2.63184 1.55078,-2.63184 h 1.63379 l -2.47363,4.10645 v 2.55762 h -1.46875 v -2.59473 z"
             id="path269"
             style="fill:#ffffff;stroke-width:0.453865" />
        </g>
        <g
           style="stroke-width:0.453865"
           id="g5908_1_"
           transform="matrix(0.872921,0,0,0.872921,50.12536,143.2144)">
          <path
             inkscape:connector-curvature="0"
             id="path5906_1_"
             cx="296.35416"
             ry="22.939548"
             cy="264.3577"
             type="arc"
             rx="22.939548"
             d="m 186.90065,-141.46002 c 0.006,8.68079 -7.02786,15.7215 -15.70808,15.72711 -8.68022,0.006 -15.72206,-7.02734 -15.7271,-15.70807 0,-0.006 0,-0.0123 0,-0.019 -0.005,-8.68079 7.02786,-15.7215 15.70808,-15.72656 8.68135,-0.006 15.72206,7.02734 15.7271,15.70813 0,0.006 0,0.0123 0,0.0184 z"
             style="fill:#ffffff;stroke-width:0.453865" />
          <g
             style="stroke-width:0.453865"
             id="g5706_1_"
             transform="translate(-289.6157,99.0653)">
            <path
               style="stroke-width:0.453865"
               inkscape:connector-curvature="0"
               id="path5708_1_"
               d="m 473.57574,-253.32751 c 3.48541,3.48541 5.22839,7.75391 5.22839,12.80219 0,5.04938 -1.71277,9.27203 -5.13831,12.66791 -3.63531,3.5766 -7.93182,5.36432 -12.88947,5.36432 -4.89777,0 -9.11987,-1.77319 -12.66513,-5.31952 -3.54581,-3.54584 -5.31845,-7.78302 -5.31845,-12.71271 0,-4.92859 1.77264,-9.19598 5.31845,-12.80219 3.4552,-3.48651 7.67728,-5.22949 12.66513,-5.22949 5.0483,-10e-6 9.31404,1.74297 12.79939,5.22949 z m -23.11798,2.34484 c -2.94672,2.97638 -4.41953,6.46289 -4.41953,10.46234 0,3.99835 1.45828,7.45526 4.37424,10.37067 2.9165,2.9165 6.38849,4.37421 10.41705,4.37421 4.02856,0 7.53015,-1.47223 10.50653,-4.4184 2.82593,-2.73645 4.23944,-6.17706 4.23944,-10.32648 0,-4.11804 -1.43646,-7.61346 -4.30768,-10.48468 -2.87067,-2.87067 -6.34991,-4.30658 -10.43829,-4.30658 -4.0884,1e-5 -7.54638,1.44318 -10.37176,4.32892 z m 7.75449,8.70319 c -0.45029,-0.98169 -1.1243,-1.47284 -2.02322,-1.47284 -1.58917,0 -2.38345,1.07007 -2.38345,3.20911 0,2.13953 0.79428,3.2085 2.38345,3.2085 1.04938,0 1.79892,-0.52075 2.24866,-1.56451 l 2.20276,1.17297 c -1.04993,1.86548 -2.62509,2.79846 -4.72549,2.79846 -1.6199,0 -2.91763,-0.4967 -3.89206,-1.48901 -0.9761,-0.99341 -1.46274,-2.36273 -1.46274,-4.10852 0,-1.71503 0.50229,-3.07654 1.50748,-4.08502 1.00519,-1.00854 2.25702,-1.51257 3.75781,-1.51257 2.22012,0 3.80981,0.87488 4.77081,2.62286 z m 10.36337,0 c -0.45087,-0.98169 -1.11145,-1.47284 -1.98242,-1.47284 -1.62103,0 -2.43213,1.07007 -2.43213,3.20911 0,2.13953 0.8111,3.2085 2.43213,3.2085 1.05109,0 1.78717,-0.52075 2.20728,-1.56451 l 2.25201,1.17297 c -1.04828,1.86548 -2.62122,2.79846 -4.71771,2.79846 -1.61768,0 -2.9126,-0.4967 -3.88647,-1.48901 -0.97217,-0.99341 -1.45935,-2.36273 -1.45935,-4.10852 0,-1.71503 0.49445,-3.07654 1.48285,-4.08502 0.98785,-1.00854 2.2453,-1.51257 3.7735,-1.51257 2.21619,0 3.80365,0.87488 4.76129,2.62286 z" />
          </g>
        </g>
        <g
           style="stroke-width:0.453865"
           id="g275">
          <circle
             cx="255.55124"
             cy="15.31348"
             r="10.80664"
             id="circle277"
             style="fill:#ffffff;stroke-width:0.453865" />
          <g
             style="stroke-width:0.453865"
             id="g279">
            <path
               style="stroke-width:0.453865"
               inkscape:connector-curvature="0"
               d="m 258.67819,12.18701 c 0,-0.4165 -0.33789,-0.75391 -0.75293,-0.75391 h -4.77344 c -0.41504,0 -0.75293,0.3374 -0.75293,0.75391 v 4.77295 h 1.33105 v 5.65186 h 3.61719 v -5.65186 h 1.33105 v -4.77295 z"
               id="path281" />
            <circle
               style="stroke-width:0.453865"
               cx="255.53854"
               cy="9.1723604"
               r="1.63281"
               id="circle283" />
          </g>
          <path
             inkscape:connector-curvature="0"
             d="m 255.5239,3.40723 c -3.23242,0 -5.96875,1.12793 -8.20801,3.38379 -2.29785,2.3335 -3.44629,5.0957 -3.44629,8.28467 0,3.18897 1.14844,5.93164 3.44629,8.22656 2.29785,2.29443 5.03418,3.44189 8.20801,3.44189 3.21289,0 5.99805,-1.15625 8.35352,-3.47119 2.21973,-2.19727 3.33008,-4.92969 3.33008,-8.19727 0,-3.26758 -1.12988,-6.02881 -3.3877,-8.28467 -2.25977,-2.25585 -5.02442,-3.38378 -8.2959,-3.38378 z m 0.0293,2.09961 c 2.64844,0 4.89746,0.93408 6.74707,2.80127 1.86914,1.84717 2.80371,4.10303 2.80371,6.76758 0,2.68359 -0.91504,4.91064 -2.74512,6.68018 -1.92871,1.90625 -4.19629,2.85889 -6.80566,2.85889 -2.61035,0 -4.85938,-0.94287 -6.74707,-2.82959 -1.88965,-1.88672 -2.83301,-4.12305 -2.83301,-6.70947 0,-2.58691 0.9541,-4.84229 2.8623,-6.76758 1.83009,-1.8672 4.06934,-2.80128 6.71778,-2.80128 z"
             id="path285"
             style="clip-rule:evenodd;fill-rule:evenodd;stroke-width:0.453865" />
        </g>
      </g>
    </g>
  </g>
  <g
     transform="translate(0,2224)"
     style="display:inline;opacity:1"
     inkscape:label="text"
     id="layer2"
     inkscape:groupmode="layer">
    <text
       transform="scale(0.99514974,1.0048739)"
       xml:space="preserve"
       style="color:#000000;font-style:normal;font-variant:normal;font-weight:normal;font-stretch:normal;font-size:11.7994px;line-height:0%;font-family:Lavi;-inkscape-font-specification:Lavi;text-indent:0;text-align:center;text-decoration:none;text-decoration-line:none;letter-spacing:0px;word-spacing:0px;text-transform:none;writing-mode:lr-tb;direction:ltr;baseline-shift:baseline;text-anchor:middle;display:inline;overflow:visible;visibility:visible;opacity:0.855;fill:#ffffff;fill-opacity:1;fill-rule:nonzero;stroke:none;stroke-width:1.02725;enable-background:accumulate"
       x="1251.3319"
       y="-2078.3752"
       id="text4151"><tspan
         id="tspan4170"
         sodipodi:role="line"
         style="color:#000000;font-style:normal;font-variant:normal;font-weight:bold;font-stretch:normal;font-size:34.4511px;line-height:125%;font-family:Lavi;-inkscape-font-specification:Lavi;text-indent:0;text-align:center;text-decoration:none;text-decoration-line:none;word-spacing:0px;text-transform:none;writing-mode:lr-tb;direction:ltr;baseline-shift:baseline;text-anchor:middle;display:inline;overflow:visible;visibility:visible;fill:#ffffff;fill-opacity:1;fill-rule:nonzero;stroke:none;stroke-width:1.02725;enable-background:accumulate"
         x="1251.3319"
         y="-2078.3752">15 de dezembro de 2021</tspan><tspan
         id="tspan4150"
         sodipodi:role="line"
         style="color:#000000;font-style:normal;font-variant:normal;font-weight:normal;font-stretch:normal;font-size:39.3727px;line-height:125%;font-family:Lavi;-inkscape-font-specification:Lavi;text-indent:0;text-align:center;text-decoration:none;text-decoration-line:none;word-spacing:0px;text-transform:none;writing-mode:lr-tb;direction:ltr;baseline-shift:baseline;text-anchor:middle;display:inline;overflow:visible;visibility:visible;fill:#ffffff;fill-opacity:1;fill-rule:nonzero;stroke:none;stroke-width:1.02725;enable-background:accumulate"
         x="1251.3319"
         y="-2030.4017"> </tspan><tspan
         id="tspan1101"
         sodipodi:role="line"
         style="color:#000000;font-style:normal;font-variant:normal;font-weight:normal;font-stretch:normal;font-size:39.3727px;line-height:125%;font-family:Lavi;-inkscape-font-specification:Lavi;text-indent:0;text-align:center;text-decoration:none;text-decoration-line:none;word-spacing:0px;text-transform:none;writing-mode:lr-tb;direction:ltr;baseline-shift:baseline;text-anchor:middle;display:inline;overflow:visible;visibility:visible;fill:#ffffff;fill-opacity:1;fill-rule:nonzero;stroke:none;stroke-width:1.02725;enable-background:accumulate"
         x="1251.3319"
         y="-1981.1858"><tspan
   style="font-weight:bold"
   id="tspan3078">Arte e roteiro:</tspan> David Revoy.</tspan><tspan
         id="tspan943"
         sodipodi:role="line"
         x="1251.3319"
         y="-1964.1313"
         style="stroke-width:1.02725" /><tspan
         id="tspan1003"
         sodipodi:role="line"
         style="color:#000000;font-style:normal;font-variant:normal;font-weight:bold;font-stretch:normal;font-size:34.4511px;line-height:125%;font-family:Lavi;-inkscape-font-specification:'Lavi Bold';text-indent:0;text-align:center;text-decoration:none;text-decoration-line:none;word-spacing:0px;text-transform:none;writing-mode:lr-tb;direction:ltr;baseline-shift:baseline;text-anchor:middle;display:inline;overflow:visible;visibility:visible;fill:#ffffff;fill-opacity:1;fill-rule:nonzero;stroke:none;stroke-width:1.02725;enable-background:accumulate"
         x="1251.3319"
         y="-1936.0156">Leitores beta:<tspan
   style="font-weight:normal;stroke-width:1.02725"
   id="tspan80970"> Arlo James Barnes, Bhoren, Bobby Hiltz, Craig Maloney, </tspan></tspan><tspan
         sodipodi:role="line"
         style="color:#000000;font-style:normal;font-variant:normal;font-weight:normal;font-stretch:normal;font-size:34.4511px;line-height:125%;font-family:Lavi;-inkscape-font-specification:'Lavi Bold';text-indent:0;text-align:center;text-decoration:none;text-decoration-line:none;word-spacing:0px;text-transform:none;writing-mode:lr-tb;direction:ltr;baseline-shift:baseline;text-anchor:middle;display:inline;overflow:visible;visibility:visible;fill:#ffffff;fill-opacity:1;fill-rule:nonzero;stroke:none;stroke-width:1.02725;enable-background:accumulate"
         x="1251.3319"
         y="-1892.5486"
         id="tspan40710">Estefania de Vasconcellos Guimaraes, GunChleoc, Karl Ove Hufthammer, </tspan><tspan
         sodipodi:role="line"
         style="color:#000000;font-style:normal;font-variant:normal;font-weight:normal;font-stretch:normal;font-size:34.4511px;line-height:125%;font-family:Lavi;-inkscape-font-specification:'Lavi Bold';text-indent:0;text-align:center;text-decoration:none;text-decoration-line:none;word-spacing:0px;text-transform:none;writing-mode:lr-tb;direction:ltr;baseline-shift:baseline;text-anchor:middle;display:inline;overflow:visible;visibility:visible;fill:#ffffff;fill-opacity:1;fill-rule:nonzero;stroke:none;stroke-width:1.02725;enable-background:accumulate"
         x="1251.3319"
         y="-1849.0815"
         id="tspan76824">Nicolas Artance, Pierre-Antoine Angelini, Valvin.</tspan><tspan
         id="tspan988"
         sodipodi:role="line"
         style="color:#000000;font-style:normal;font-variant:normal;font-weight:bold;font-stretch:normal;font-size:34.4511px;line-height:125%;font-family:Lavi;-inkscape-font-specification:'Lavi Bold';text-indent:0;text-align:center;text-decoration:none;text-decoration-line:none;word-spacing:0px;text-transform:none;writing-mode:lr-tb;direction:ltr;baseline-shift:baseline;text-anchor:middle;display:inline;overflow:visible;visibility:visible;fill:#ffffff;fill-opacity:1;fill-rule:nonzero;stroke:none;stroke-width:1.02725;enable-background:accumulate"
         x="1251.3319"
         y="-1806.0177"> </tspan><tspan
         sodipodi:role="line"
         style="color:#000000;font-style:normal;font-variant:normal;font-weight:normal;font-stretch:normal;font-size:34.4511px;line-height:125%;font-family:Lavi;-inkscape-font-specification:'Lavi Bold';text-indent:0;text-align:center;text-decoration:none;text-decoration-line:none;word-spacing:0px;text-transform:none;writing-mode:lr-tb;direction:ltr;baseline-shift:baseline;text-anchor:middle;display:inline;overflow:visible;visibility:visible;fill:#ffffff;fill-opacity:1;fill-rule:nonzero;stroke:none;stroke-width:1.02725;enable-background:accumulate"
         x="1251.3319"
         y="-1762.5507"
         id="tspan2450"><tspan
   style="font-weight:bold"
   id="tspan1552">Tradução para Português:</tspan> Alexandre E. Almeida, </tspan><tspan
         sodipodi:role="line"
         style="color:#000000;font-style:normal;font-variant:normal;font-weight:normal;font-stretch:normal;font-size:34.4511px;line-height:125%;font-family:Lavi;-inkscape-font-specification:'Lavi Bold';text-indent:0;text-align:center;text-decoration:none;text-decoration-line:none;word-spacing:0px;text-transform:none;writing-mode:lr-tb;direction:ltr;baseline-shift:baseline;text-anchor:middle;display:inline;overflow:visible;visibility:visible;fill:#ffffff;fill-opacity:1;fill-rule:nonzero;stroke:none;stroke-width:1.02725;enable-background:accumulate"
         x="1251.3319"
         y="-1719.0835"
         id="tspan9134">Estefania de Vasconcellos Guimaraes. </tspan><tspan
         sodipodi:role="line"
         style="color:#000000;font-style:normal;font-variant:normal;font-weight:bold;font-stretch:normal;font-size:39.3727px;line-height:125%;font-family:Lavi;-inkscape-font-specification:'Lavi Bold';text-indent:0;text-align:center;text-decoration:none;text-decoration-line:none;word-spacing:0px;text-transform:none;writing-mode:lr-tb;direction:ltr;baseline-shift:baseline;text-anchor:middle;display:inline;overflow:visible;visibility:visible;fill:#ffffff;fill-opacity:1;fill-rule:nonzero;stroke:none;stroke-width:1.02725;enable-background:accumulate"
         x="1251.3319"
         y="-1671.5708"
         id="tspan9993"> </tspan><tspan
         id="tspan985"
         sodipodi:role="line"
         style="color:#000000;font-style:normal;font-variant:normal;font-weight:bold;font-stretch:normal;font-size:29.5295px;line-height:125%;font-family:Lavi;-inkscape-font-specification:Lavi;text-indent:0;text-align:center;text-decoration:none;text-decoration-line:none;word-spacing:0px;text-transform:none;writing-mode:lr-tb;direction:ltr;baseline-shift:baseline;text-anchor:middle;display:inline;overflow:visible;visibility:visible;fill:#ffffff;fill-opacity:1;fill-rule:nonzero;stroke:none;stroke-width:1.02725;enable-background:accumulate"
         x="1251.3319"
         y="-1630.9071">Baseado no universo de Hereva</tspan><tspan
         sodipodi:role="line"
         style="color:#000000;font-style:normal;font-variant:normal;font-weight:bold;font-stretch:normal;font-size:29.5295px;line-height:125%;font-family:Lavi;-inkscape-font-specification:Lavi;text-indent:0;text-align:center;text-decoration:none;text-decoration-line:none;word-spacing:0px;text-transform:none;writing-mode:lr-tb;direction:ltr;baseline-shift:baseline;text-anchor:middle;display:inline;overflow:visible;visibility:visible;fill:#ffffff;fill-opacity:1;fill-rule:nonzero;stroke:none;stroke-width:1.02725;enable-background:accumulate"
         x="1251.3319"
         y="-1593.6497"
         id="tspan67277">Criador: <tspan
   style="font-weight:normal;stroke-width:1.02725"
   id="tspan76521">David Revoy.</tspan></tspan><tspan
         sodipodi:role="line"
         style="color:#000000;font-style:normal;font-variant:normal;font-weight:bold;font-stretch:normal;font-size:29.5295px;line-height:125%;font-family:Lavi;-inkscape-font-specification:Lavi;text-indent:0;text-align:center;text-decoration:none;text-decoration-line:none;word-spacing:0px;text-transform:none;writing-mode:lr-tb;direction:ltr;baseline-shift:baseline;text-anchor:middle;display:inline;overflow:visible;visibility:visible;fill:#ffffff;fill-opacity:1;fill-rule:nonzero;stroke:none;stroke-width:1.02725;enable-background:accumulate"
         x="1251.3319"
         y="-1556.3922"
         id="tspan67279">Mantenedor principal: <tspan
   style="font-weight:normal;stroke-width:1.02725"
   id="tspan78243">Craig Maloney.</tspan></tspan><tspan
         sodipodi:role="line"
         style="color:#000000;font-style:normal;font-variant:normal;font-weight:bold;font-stretch:normal;font-size:29.5295px;line-height:125%;font-family:Lavi;-inkscape-font-specification:Lavi;text-indent:0;text-align:center;text-decoration:none;text-decoration-line:none;word-spacing:0px;text-transform:none;writing-mode:lr-tb;direction:ltr;baseline-shift:baseline;text-anchor:middle;display:inline;overflow:visible;visibility:visible;fill:#ffffff;fill-opacity:1;fill-rule:nonzero;stroke:none;stroke-width:1.02725;enable-background:accumulate"
         x="1251.3319"
         y="-1519.1348"
         id="tspan67281">Escritores: <tspan
   style="font-weight:normal;stroke-width:1.02725"
   id="tspan80173">Craig Maloney, Nicolas Artance, Scribblemaniac, Valvin.</tspan></tspan><tspan
         sodipodi:role="line"
         style="color:#000000;font-style:normal;font-variant:normal;font-weight:normal;font-stretch:normal;font-size:29.5295px;line-height:125%;font-family:Lavi;-inkscape-font-specification:Lavi;text-indent:0;text-align:center;text-decoration:none;text-decoration-line:none;word-spacing:0px;text-transform:none;writing-mode:lr-tb;direction:ltr;baseline-shift:baseline;text-anchor:middle;display:inline;overflow:visible;visibility:visible;fill:#ffffff;fill-opacity:1;fill-rule:nonzero;stroke:none;stroke-width:1.02725;enable-background:accumulate"
         x="1251.3319"
         y="-1481.8772"
         id="tspan67283"><tspan
   style="font-weight:bold"
   id="tspan6038">Corretores:</tspan> Willem Sonke, Moini, Hali, CGand, Alex Gryson.</tspan><tspan
         id="tspan1052"
         sodipodi:role="line"
         style="color:#000000;font-style:normal;font-variant:normal;font-weight:normal;font-stretch:normal;font-size:39.3727px;line-height:125%;font-family:Lavi;-inkscape-font-specification:Lavi;text-indent:0;text-align:center;text-decoration:none;text-decoration-line:none;word-spacing:0px;text-transform:none;writing-mode:lr-tb;direction:ltr;baseline-shift:baseline;text-anchor:middle;display:inline;overflow:visible;visibility:visible;fill:#ffffff;fill-opacity:1;fill-rule:nonzero;stroke:none;stroke-width:1.02725;enable-background:accumulate"
         x="1251.3319"
         y="-1435.6068"> </tspan><tspan
         id="tspan995"
         sodipodi:role="line"
         x="1251.3319"
         y="-1419.0131"
         style="stroke-width:1.02725" /><tspan
         id="tspan842"
         sodipodi:role="line"
         style="color:#000000;font-style:normal;font-variant:normal;font-weight:bold;font-stretch:normal;font-size:34.4511px;line-height:125%;font-family:Lavi;-inkscape-font-specification:'Lavi Bold';text-indent:0;text-align:center;text-decoration:none;text-decoration-line:none;word-spacing:0px;text-transform:none;writing-mode:lr-tb;direction:ltr;baseline-shift:baseline;text-anchor:middle;display:inline;overflow:visible;visibility:visible;fill:#ffffff;fill-opacity:1;fill-rule:nonzero;stroke:none;stroke-width:1.02725;enable-background:accumulate"
         x="1251.3319"
         y="-1390.8975">Software: <tspan
   style="font-weight:normal;stroke-width:1.02725"
   id="tspan98165">Krita 5.0β, Inkscape 1.1 no Kubuntu Linux 20.04.</tspan></tspan><tspan
         sodipodi:role="line"
         style="color:#000000;font-style:normal;font-variant:normal;font-weight:bold;font-stretch:normal;font-size:34.4511px;line-height:125%;font-family:Lavi;-inkscape-font-specification:'Lavi Bold';text-indent:0;text-align:center;text-decoration:none;text-decoration-line:none;word-spacing:0px;text-transform:none;writing-mode:lr-tb;direction:ltr;baseline-shift:baseline;text-anchor:middle;display:inline;overflow:visible;visibility:visible;fill:#ffffff;fill-opacity:1;fill-rule:nonzero;stroke:none;stroke-width:1.02725;enable-background:accumulate"
         x="1251.3319"
         y="-1346.8679"
         id="tspan89089">Licença: <tspan
   style="font-weight:normal;stroke-width:1.02725"
   id="tspan100727">Creative Commons Attribution 4.0.</tspan></tspan><tspan
         sodipodi:role="line"
         style="color:#000000;font-style:normal;font-variant:normal;font-weight:bold;font-stretch:normal;font-size:52.907px;line-height:125%;font-family:Lavi;-inkscape-font-specification:'Lavi Bold';text-indent:0;text-align:center;text-decoration:none;text-decoration-line:none;word-spacing:0px;text-transform:none;writing-mode:lr-tb;direction:ltr;baseline-shift:baseline;text-anchor:middle;display:inline;overflow:visible;visibility:visible;fill:#ffffff;fill-opacity:1;fill-rule:nonzero;stroke:none;stroke-width:1.02725;enable-background:accumulate"
         x="1251.3319"
         y="-1287.1208"
         id="tspan89091">www.peppercarrot.com</tspan></text>
    <text
       id="text4246-3-2-2-3-3"
       y="-947.22498"
       x="1130.334"
       style="font-style:normal;font-variant:normal;font-weight:normal;font-stretch:normal;font-size:45px;line-height:1.25;font-family:Lavi;-inkscape-font-specification:Lavi;text-align:center;letter-spacing:0px;word-spacing:0px;text-anchor:middle;fill:#000000;fill-opacity:1;stroke:none"
       xml:space="preserve"><tspan
         y="-947.22498"
         x="1130.334"
         sodipodi:role="line"
         style="font-size:45px;fill:#000000"
         id="tspan115647">Você </tspan><tspan
         y="-890.97498"
         x="1130.334"
         sodipodi:role="line"
         style="font-size:45px;fill:#000000"
         id="tspan24299">sabia?</tspan></text>
    <text
       id="text4246-3-2-2-3-3-3"
       y="-900.35962"
       x="1495.5352"
       style="font-style:normal;font-variant:normal;font-weight:normal;font-stretch:normal;font-size:39.6051px;line-height:1.25;font-family:Lavi;-inkscape-font-specification:Lavi;text-align:center;letter-spacing:0px;word-spacing:0px;text-anchor:middle;display:inline;opacity:0.855;fill:#000000;fill-opacity:1;stroke:none;stroke-width:0.880114"
       xml:space="preserve"><tspan
         y="-900.35962"
         x="1495.5352"
         sodipodi:role="line"
         style="font-size:39.6051px;stroke-width:0.880114"
         id="tspan136080">Pepper&amp;Carrot é totalmente </tspan><tspan
         y="-850.85327"
         x="1495.5352"
         sodipodi:role="line"
         style="font-size:39.6051px;stroke-width:0.880114"
         id="tspan15229">livre, com código aberto e </tspan><tspan
         y="-801.34686"
         x="1495.5352"
         sodipodi:role="line"
         style="font-size:39.6051px;stroke-width:0.880114"
         id="tspan16447">patrocinada graças a gentil </tspan><tspan
         y="-751.84052"
         x="1495.5352"
         sodipodi:role="line"
         style="font-size:39.6051px;stroke-width:0.880114"
         id="tspan15239">contribuição dos seus leitores.</tspan></text>
    <text
       id="text4246-3-2-2-3-3-3-5"
       y="-788.23187"
       x="1994.7957"
       style="font-style:normal;font-variant:normal;font-weight:normal;font-stretch:normal;font-size:51.579px;line-height:1.25;font-family:Lavi;-inkscape-font-specification:Lavi;text-align:center;letter-spacing:0px;word-spacing:0px;text-anchor:middle;display:inline;opacity:0.855;fill:#000000;fill-opacity:1;stroke:none;stroke-width:1.1462"
       xml:space="preserve"><tspan
         y="-788.23187"
         x="1994.7957"
         sodipodi:role="line"
         style="font-size:51.579px;fill:#000000;stroke-width:1.1462"
         id="tspan153383">Para este episódio, </tspan><tspan
         y="-723.75812"
         x="1994.7957"
         sodipodi:role="line"
         style="font-size:51.579px;fill:#000000;stroke-width:1.1462"
         id="tspan15243">agradecemos a </tspan><tspan
         y="-659.28436"
         x="1994.7957"
         sodipodi:role="line"
         style="font-size:51.579px;fill:#000000;stroke-width:1.1462"
         id="tspan15247">1036 patronos!</tspan></text>
    <text
       id="text4246-3-2-2-3-3-3-5-9"
       y="3339.0728"
       x="590.81378"
       style="font-style:normal;font-variant:normal;font-weight:normal;font-stretch:normal;font-size:47.9172px;line-height:1.25;font-family:Lavi;-inkscape-font-specification:Lavi;text-align:center;letter-spacing:0px;word-spacing:0px;text-anchor:middle;display:inline;opacity:0.855;fill:#000000;fill-opacity:1;stroke:none;stroke-width:1.06483"
       xml:space="preserve"><tspan
         y="3339.0728"
         x="590.81378"
         sodipodi:role="line"
         style="font-style:normal;font-variant:normal;font-weight:normal;font-stretch:normal;font-size:47.9172px;font-family:Lavi;-inkscape-font-specification:'Lavi Bold';fill:#000000;stroke-width:1.06483"
         id="tspan16455">Você também </tspan><tspan
         y="3399.53"
         x="590.81378"
         sodipodi:role="line"
         style="font-style:normal;font-variant:normal;font-weight:bold;font-stretch:normal;font-size:47.9172px;font-family:Lavi;-inkscape-font-specification:'Lavi Bold';fill:#000000;stroke-width:1.06483"
         id="tspan16463"><tspan
           style="font-weight:normal"
           id="tspan26635">pode se  tornar </tspan></tspan><tspan
         y="3459.9873"
         x="590.81378"
         sodipodi:role="line"
         style="font-style:normal;font-variant:normal;font-weight:bold;font-stretch:normal;font-size:47.9172px;font-family:Lavi;-inkscape-font-specification:'Lavi Bold';fill:#000000;stroke-width:1.06483"
         id="tspan26641"><tspan
           style="font-weight:normal"
           id="tspan26643">um(a) patrono(a) de </tspan></tspan><tspan
         y="3520.4446"
         x="590.81378"
         sodipodi:role="line"
         style="font-style:normal;font-variant:normal;font-weight:bold;font-stretch:normal;font-size:47.9172px;font-family:Lavi;-inkscape-font-specification:'Lavi Bold';fill:#000000;stroke-width:1.06483"
         id="tspan26645"><tspan
           style="font-weight:normal"
           id="tspan26647">Pepper&amp;Carrot e </tspan></tspan><tspan
         y="3580.9019"
         x="590.81378"
         sodipodi:role="line"
         style="font-style:normal;font-variant:normal;font-weight:bold;font-stretch:normal;font-size:47.9172px;font-family:Lavi;-inkscape-font-specification:'Lavi Bold';fill:#000000;stroke-width:1.06483"
         id="tspan26649"><tspan
   style="font-weight:normal"
   id="tspan26651">ter </tspan>o seu nome aqui!</tspan></text>
    <text
       id="text4246-3-2-2-3-3-3-5-9-0"
       y="3398.3831"
       x="1022.2619"
       style="font-style:normal;font-variant:normal;font-weight:normal;font-stretch:normal;font-size:38.151px;line-height:1.25;font-family:Lavi;-inkscape-font-specification:Lavi;text-align:center;letter-spacing:0px;word-spacing:0px;text-anchor:middle;display:inline;opacity:0.855;fill:#000000;fill-opacity:1;stroke:none;stroke-width:0.8478"
       xml:space="preserve"><tspan
         y="3398.3831"
         x="1022.2619"
         sodipodi:role="line"
         style="font-style:normal;font-variant:normal;font-weight:normal;font-stretch:normal;font-size:38.151px;font-family:Lavi;-inkscape-font-specification:Lavi;fill:#000000;stroke-width:0.8478"
         id="tspan200061">Nós estamos no </tspan><tspan
         y="3446.0718"
         x="1022.2619"
         sodipodi:role="line"
         style="font-style:normal;font-variant:normal;font-weight:normal;font-stretch:normal;font-size:38.151px;font-family:Lavi;-inkscape-font-specification:Lavi;fill:#000000;stroke-width:0.8478"
         id="tspan27441">Patreon, Tipeee, </tspan><tspan
         y="3493.7605"
         x="1022.2619"
         sodipodi:role="line"
         style="font-style:normal;font-variant:normal;font-weight:normal;font-stretch:normal;font-size:38.151px;font-family:Lavi;-inkscape-font-specification:Lavi;fill:#000000;stroke-width:0.8478"
         id="tspan27443">PayPal, Liberapay... </tspan><tspan
         y="3541.4492"
         x="1022.2619"
         sodipodi:role="line"
         style="font-style:normal;font-variant:normal;font-weight:normal;font-stretch:normal;font-size:38.151px;font-family:Lavi;-inkscape-font-specification:Lavi;fill:#000000;stroke-width:0.8478"
         id="tspan27445">e mais!</tspan></text>
    <text
       id="text4246-3-2-2-3-3-3-5-9-0-6"
       y="3473.6934"
       x="1421.6935"
       style="font-style:normal;font-variant:normal;font-weight:normal;font-stretch:normal;font-size:38.151px;line-height:1.25;font-family:Lavi;-inkscape-font-specification:Lavi;text-align:center;letter-spacing:0px;word-spacing:0px;text-anchor:middle;display:inline;opacity:0.855;fill:#000000;fill-opacity:1;stroke:none;stroke-width:0.8478"
       xml:space="preserve"><tspan
         y="3473.6934"
         x="1421.6935"
         sodipodi:role="line"
         style="font-style:normal;font-variant:normal;font-weight:normal;font-stretch:normal;font-size:38.151px;font-family:Lavi;-inkscape-font-specification:Lavi;fill:#000000;stroke-width:0.8478"
         id="tspan214220">Acesse </tspan><tspan
         y="3521.3821"
         x="1421.6935"
         sodipodi:role="line"
         style="font-style:normal;font-variant:normal;font-weight:normal;font-stretch:normal;font-size:38.151px;font-family:Lavi;-inkscape-font-specification:Lavi;fill:#000000;stroke-width:0.8478"
         id="tspan27447">www.peppercarrot.com </tspan><tspan
         y="3569.0708"
         x="1421.6935"
         sodipodi:role="line"
         style="font-style:normal;font-variant:normal;font-weight:normal;font-stretch:normal;font-size:38.151px;font-family:Lavi;-inkscape-font-specification:Lavi;fill:#000000;stroke-width:0.8478"
         id="tspan27449">para mais informações!</tspan></text>
    <text
       id="text4246-3-2-2-3-3-3-5-9-0-6-2"
       y="3713.4358"
       x="2201.3484"
       style="font-style:normal;font-variant:normal;font-weight:normal;font-stretch:normal;font-size:35.1564px;line-height:1.25;font-family:Lavi;-inkscape-font-specification:Lavi;text-align:center;letter-spacing:0px;word-spacing:0px;text-anchor:middle;display:inline;opacity:0.855;fill:#000000;fill-opacity:1;stroke:none;stroke-width:0.781254"
       xml:space="preserve"><tspan
         id="tspan1117"
         y="3713.4358"
         x="2201.3484"
         sodipodi:role="line"
         style="font-style:normal;font-variant:normal;font-weight:normal;font-stretch:normal;font-size:35.1564px;font-family:Lavi;-inkscape-font-specification:Lavi;fill:#000000;stroke-width:0.781254">Obrigada!</tspan></text>
    <text
       xml:space="preserve"
       style="font-size:21.3333px;line-height:1.25;font-family:'Baskerville Old Face';-inkscape-font-specification:'Baskerville Old Face';letter-spacing:0px;word-spacing:0px"
       x="1192.5387"
       y="-2084.5879"
       id="text28903"><tspan
         sodipodi:role="line"
         id="tspan28901"
         x="1192.5387"
         y="-2084.5879">1</tspan></text>
  </g>
  <g
     sodipodi:insensitive="true"
     transform="translate(0,850)"
     style="opacity:0.557"
     inkscape:label="notes"
     id="layer4"
     inkscape:groupmode="layer">
    <flowRoot
       transform="translate(0,-850)"
       style="font-style:normal;font-variant:normal;font-weight:normal;font-stretch:normal;font-size:13.3333px;line-height:140%;font-family:sans-serif;-inkscape-font-specification:'sans-serif, Normal';font-variant-ligatures:normal;font-variant-caps:normal;font-variant-numeric:normal;font-feature-settings:normal;text-align:center;letter-spacing:0px;word-spacing:0px;writing-mode:lr-tb;text-anchor:middle;fill:#000000;fill-opacity:1;stroke:none;stroke-width:1px;stroke-linecap:butt;stroke-linejoin:miter;stroke-opacity:1"
       id="flowRoot147"
       xml:space="preserve"><flowRegion
         id="flowRegion149"><rect
           y="445.68756"
           x="-209.875"
           height="74.75"
           width="127.9375"
           id="rect151" /></flowRegion><flowPara
         id="flowPara153" /></flowRoot>
    <path
       sodipodi:nodetypes="cccccccc"
       inkscape:connector-curvature="0"
       id="rect4191-6"
       d="m -687.60986,-494.48155 v 348.52795 h 504.87202 v -295.00919 l 17.16539,-15.34704 -17.16539,-11.92212 v -26.2496 z"
       style="color:#000000;clip-rule:nonzero;display:inline;overflow:visible;visibility:visible;isolation:auto;mix-blend-mode:normal;color-interpolation:sRGB;color-interpolation-filters:linearRGB;solid-color:#000000;solid-opacity:1;fill:#fff3c0;fill-opacity:1;fill-rule:nonzero;stroke:#565656;stroke-width:1.31302;stroke-linecap:butt;stroke-linejoin:miter;stroke-miterlimit:4;stroke-dasharray:none;stroke-dashoffset:0;stroke-opacity:1;marker:none;color-rendering:auto;image-rendering:auto;shape-rendering:auto;text-rendering:auto;enable-background:accumulate" />
    <path
       style="color:#000000;clip-rule:nonzero;display:inline;overflow:visible;visibility:visible;isolation:auto;mix-blend-mode:normal;color-interpolation:sRGB;color-interpolation-filters:linearRGB;solid-color:#000000;solid-opacity:1;fill:#fff3c0;fill-opacity:1;fill-rule:nonzero;stroke:#565656;stroke-width:1.2;stroke-linecap:butt;stroke-linejoin:miter;stroke-miterlimit:4;stroke-dasharray:none;stroke-dashoffset:0;stroke-opacity:1;marker:none;color-rendering:auto;image-rendering:auto;shape-rendering:auto;text-rendering:auto;enable-background:accumulate"
       d="M -687.66637,-902.27584 V -790.127 h 504.98504 v -112.14884 z"
       id="path1126"
       inkscape:connector-curvature="0"
       sodipodi:nodetypes="ccccc" />
    <flowRoot
       xml:space="preserve"
       id="flowRoot1089"
       style="font-style:normal;font-variant:normal;font-weight:normal;font-stretch:normal;font-size:32.5133px;line-height:0.01%;font-family:Lavi;-inkscape-font-specification:'Lavi, Normal';font-variant-ligatures:normal;font-variant-caps:normal;font-variant-numeric:normal;font-feature-settings:normal;text-align:start;letter-spacing:0px;word-spacing:0px;writing-mode:lr-tb;text-anchor:start;display:inline;opacity:0.86;fill:#000000;fill-opacity:1;stroke:none;stroke-width:0.903147px;stroke-linecap:butt;stroke-linejoin:miter;stroke-opacity:1"
       transform="matrix(1.1072392,0,0,1.1072392,-265.119,-2064.5414)"><flowRegion
         id="flowRegion1067"
         style="font-style:normal;font-variant:normal;font-weight:normal;font-stretch:normal;font-size:32.5133px;font-family:Lavi;-inkscape-font-specification:'Lavi, Normal';font-variant-ligatures:normal;font-variant-caps:normal;font-variant-numeric:normal;font-feature-settings:normal;text-align:start;writing-mode:lr-tb;text-anchor:start;stroke-width:0.903147px"><rect
           id="rect1065"
           width="328.94995"
           height="150.45786"
           x="-275.14545"
           y="1061.6674"
           style="font-style:normal;font-variant:normal;font-weight:normal;font-stretch:normal;font-size:32.51329803px;font-family:Lavi;-inkscape-font-specification:'Lavi, Normal';font-variant-ligatures:normal;font-variant-caps:normal;font-variant-numeric:normal;font-feature-settings:normal;text-align:start;writing-mode:lr-tb;text-anchor:start;stroke-width:0.90314716px" /></flowRegion><flowPara
         style="font-style:normal;font-variant:normal;font-weight:normal;font-stretch:normal;font-size:32.5133px;line-height:1.25;font-family:Lavi;-inkscape-font-specification:'Lavi, Normal';font-variant-ligatures:normal;font-variant-caps:normal;font-variant-numeric:normal;font-feature-settings:normal;text-align:start;writing-mode:lr-tb;text-anchor:start;stroke-width:0.903147px"
         id="flowPara1087">You can also translate</flowPara><flowPara
         id="flowPara1115"
         style="font-style:normal;font-variant:normal;font-weight:normal;font-stretch:normal;font-size:32.5133px;line-height:1.25;font-family:Lavi;-inkscape-font-specification:'Lavi, Normal';font-variant-ligatures:normal;font-variant-caps:normal;font-variant-numeric:normal;font-feature-settings:normal;text-align:start;writing-mode:lr-tb;text-anchor:start;stroke-width:0.903147px">this page if you want.</flowPara></flowRoot>
    <rect
       style="vector-effect:none;fill:#ffffff;fill-opacity:1;fill-rule:nonzero;stroke:#565656;stroke-width:2;stroke-linecap:butt;stroke-linejoin:miter;stroke-miterlimit:4;stroke-dasharray:none;stroke-dashoffset:0;stroke-opacity:1;paint-order:fill markers stroke"
       id="rect1119"
       width="40.609375"
       height="40.609375"
       x="-663.32471"
       y="-878.03601"
       rx="6.828125"
       ry="6.828125" />
    <flowRoot
       transform="matrix(1.1072392,0,0,1.1072392,-367.244,-1647.6186)"
       style="font-style:normal;font-variant:normal;font-weight:normal;font-stretch:normal;font-size:32.5133px;line-height:0.01%;font-family:Lavi;-inkscape-font-specification:'Lavi, Normal';font-variant-ligatures:normal;font-variant-caps:normal;font-variant-numeric:normal;font-feature-settings:normal;text-align:center;letter-spacing:0px;word-spacing:0px;writing-mode:lr-tb;text-anchor:middle;display:inline;opacity:0.86;fill:#000000;fill-opacity:1;stroke:none;stroke-width:0.903147px;stroke-linecap:butt;stroke-linejoin:miter;stroke-opacity:1"
       id="flowRoot4212-7"
       xml:space="preserve"><flowRegion
         style="font-style:normal;font-variant:normal;font-weight:normal;font-stretch:normal;font-size:32.5133px;font-family:Lavi;-inkscape-font-specification:'Lavi, Normal';font-variant-ligatures:normal;font-variant-caps:normal;font-variant-numeric:normal;font-feature-settings:normal;text-align:center;writing-mode:lr-tb;text-anchor:middle;stroke-width:0.903147px"
         id="flowRegion4214-5"><rect
           style="font-style:normal;font-variant:normal;font-weight:normal;font-stretch:normal;font-size:32.51329803px;font-family:Lavi;-inkscape-font-specification:'Lavi, Normal';font-variant-ligatures:normal;font-variant-caps:normal;font-variant-numeric:normal;font-feature-settings:normal;text-align:center;writing-mode:lr-tb;text-anchor:middle;stroke-width:0.90314716px"
           y="1061.6674"
           x="-275.14545"
           height="405.5687"
           width="426.3205"
           id="rect4216-3" /></flowRegion><flowPara
         id="flowPara885"
         style="font-style:normal;font-variant:normal;font-weight:bold;font-stretch:normal;font-size:24.0839px;line-height:1.25;font-family:Lavi;-inkscape-font-specification:'Lavi, Normal';font-variant-ligatures:normal;font-variant-caps:normal;font-variant-numeric:normal;font-feature-settings:normal;text-align:center;writing-mode:lr-tb;text-anchor:middle;stroke-width:0.903147px">NOTE FOR TRANSLATORS</flowPara><flowPara
         id="flowPara145"
         style="font-style:normal;font-variant:normal;font-weight:normal;font-stretch:normal;font-size:12.042px;line-height:1.25;font-family:Lavi;-inkscape-font-specification:'Lavi, Normal';font-variant-ligatures:normal;font-variant-caps:normal;font-variant-numeric:normal;font-feature-settings:normal;text-align:center;writing-mode:lr-tb;text-anchor:middle;stroke-width:0.903147px"> </flowPara><flowPara
         id="flowPara877"
         style="font-style:normal;font-variant:normal;font-weight:normal;font-stretch:normal;font-size:32.5133px;line-height:1.25;font-family:Lavi;-inkscape-font-specification:'Lavi, Normal';font-variant-ligatures:normal;font-variant-caps:normal;font-variant-numeric:normal;font-feature-settings:normal;text-align:center;writing-mode:lr-tb;text-anchor:middle;stroke-width:0.903147px" /><flowPara
         id="flowPara542"
         style="font-style:normal;font-variant:normal;font-weight:normal;font-stretch:normal;font-size:32.5133px;line-height:1.25;font-family:Lavi;-inkscape-font-specification:'Lavi, Normal';font-variant-ligatures:normal;font-variant-caps:normal;font-variant-numeric:normal;font-feature-settings:normal;text-align:center;writing-mode:lr-tb;text-anchor:middle;stroke-width:0.903147px">Replace this section, e.g.:</flowPara><flowPara
         id="flowPara552"
         style="font-style:normal;font-variant:normal;font-weight:normal;font-stretch:normal;font-size:12.042px;line-height:1.25;font-family:Lavi;-inkscape-font-specification:'Lavi, Normal';font-variant-ligatures:normal;font-variant-caps:normal;font-variant-numeric:normal;font-feature-settings:normal;text-align:center;writing-mode:lr-tb;text-anchor:middle;stroke-width:0.903147px"> </flowPara><flowPara
         id="flowPara544"
         style="font-style:normal;font-variant:normal;font-weight:bold;font-stretch:normal;font-size:32.5133px;line-height:1.25;font-family:Lavi;-inkscape-font-specification:'Lavi, Normal';font-variant-ligatures:normal;font-variant-caps:normal;font-variant-numeric:normal;font-feature-settings:normal;text-align:center;writing-mode:lr-tb;text-anchor:middle;stroke-width:0.903147px">French version</flowPara><flowPara
         id="flowPara554"
         style="font-style:normal;font-variant:normal;font-weight:normal;font-stretch:normal;font-size:32.5133px;line-height:1.25;font-family:Lavi;-inkscape-font-specification:'Lavi, Normal';font-variant-ligatures:normal;font-variant-caps:normal;font-variant-numeric:normal;font-feature-settings:normal;text-align:center;writing-mode:lr-tb;text-anchor:middle;stroke-width:0.903147px"><flowSpan
   id="flowSpan155"
   style="font-weight:bold">Translation:</flowSpan> My Name.</flowPara><flowPara
         id="flowPara1038"
         style="font-style:normal;font-variant:normal;font-weight:normal;font-stretch:normal;font-size:32.5133px;line-height:1.25;font-family:Lavi;-inkscape-font-specification:'Lavi, Normal';font-variant-ligatures:normal;font-variant-caps:normal;font-variant-numeric:normal;font-feature-settings:normal;text-align:center;writing-mode:lr-tb;text-anchor:middle;stroke-width:0.903147px"><flowSpan
   id="flowSpan157"
   style="font-weight:bold">Proofreading:</flowSpan> Other Name.</flowPara></flowRoot>
    <rect
       ry="6.828125"
       rx="6.828125"
       y="-853.05945"
       x="-629.36377"
       height="40.609375"
       width="40.609375"
       id="rect1053"
       style="vector-effect:none;fill:#ffffff;fill-opacity:1;fill-rule:nonzero;stroke:#565656;stroke-width:2;stroke-linecap:butt;stroke-linejoin:miter;stroke-miterlimit:4;stroke-dasharray:none;stroke-dashoffset:0;stroke-opacity:1;paint-order:fill markers stroke" />
    <g
       transform="matrix(0.59407669,0,0,0.59407669,-276.24278,-728.01149)"
       id="text1042"
       style="font-style:normal;font-variant:normal;font-weight:500;font-stretch:normal;font-size:53.3333px;line-height:140%;font-family:Beteckna;-inkscape-font-specification:'Beteckna, Medium';font-variant-ligatures:normal;font-variant-caps:normal;font-variant-numeric:normal;font-feature-settings:normal;text-align:center;letter-spacing:0px;word-spacing:0px;writing-mode:lr-tb;text-anchor:middle;opacity:0.557;fill:#000000;fill-opacity:1;stroke:#000000;stroke-width:1px;stroke-linecap:butt;stroke-linejoin:miter;stroke-opacity:1"
       aria-label="文">
      <path
         style="stroke:#000000;stroke-opacity:1"
         inkscape:connector-curvature="0"
         id="path1044"
         d="m -579.73479,-186.8389 q -1.06667,0 -1.81333,-0.74666 -0.74667,-0.74667 -0.74667,-1.81334 0,-1.01333 0.74667,-1.76 0.74666,-0.74666 1.81333,-0.74666 h 17.49333 q 0.48,0 0.48,-0.48 v -4.21334 q 0,-1.22666 0.85334,-2.08 0.90666,-0.85333 2.08,-0.85333 1.17333,0 2.02666,0.85333 0.90667,0.85334 0.90667,2.08 v 4.21334 q 0,0.48 0.48,0.48 h 17.54666 q 1.01334,0 1.76,0.74666 0.74667,0.69334 0.74667,1.76 0,1.06667 -0.74667,1.81334 -0.74666,0.74666 -1.76,0.74666 h -4.26666 q -0.42667,0 -0.58667,0.42667 -4.58667,13.92 -11.57333,21.12 -0.32,0.32 0.0533,0.58667 6.02667,4.16 16.48,7.46666 1.01333,0.32 1.49333,1.28 0.48,0.96 0.16,1.97334 -0.37333,1.06666 -1.33333,1.54666 -0.96,0.48 -1.97333,0.16 -11.89334,-3.68 -19.04,-8.8 -0.37333,-0.26666 -0.74667,0 -7.14666,5.17334 -19.04,8.8 -1.01333,0.32 -1.97333,-0.16 -0.96,-0.48 -1.33333,-1.54666 -0.32,-1.01334 0.16,-1.97334 0.48,-0.96 1.49333,-1.28 10.50667,-3.36 16.48,-7.52 0.37333,-0.21333 0.0533,-0.53333 -5.81333,-5.97333 -9.76,-15.68 -0.42666,-1.01333 0.10667,-2.02667 0.53333,-1.06666 1.65333,-1.33333 1.17334,-0.32 2.18667,0.26667 1.06667,0.53333 1.49333,1.65333 3.36,8.42667 8.48,13.6 0.26667,0.26667 0.58667,-0.0533 5.76,-6.08 9.70666,-17.54667 0.10667,-0.42667 -0.32,-0.42667 z" />
    </g>
    <path
       sodipodi:nodetypes="cccccccc"
       inkscape:connector-curvature="0"
       id="path158"
       d="m -690.5407,-734.42235 v 205.24103 h 504.56236 v -49.61042 l 15.46636,-18.00777 -15.46636,-15.8247 v -121.79814 z"
       style="color:#000000;clip-rule:nonzero;display:inline;overflow:visible;visibility:visible;isolation:auto;mix-blend-mode:normal;color-interpolation:sRGB;color-interpolation-filters:linearRGB;solid-color:#000000;solid-opacity:1;fill:#fff3c0;fill-opacity:1;fill-rule:nonzero;stroke:#565656;stroke-width:1.62268;stroke-linecap:butt;stroke-linejoin:miter;stroke-miterlimit:4;stroke-dasharray:none;stroke-dashoffset:0;stroke-opacity:1;marker:none;color-rendering:auto;image-rendering:auto;shape-rendering:auto;text-rendering:auto;enable-background:accumulate" />
    <flowRoot
       transform="matrix(1.1072392,0,0,1.1072392,-283.45166,-1896.8992)"
       style="font-style:normal;font-variant:normal;font-weight:normal;font-stretch:normal;font-size:32.5133px;line-height:0.01%;font-family:Lavi;-inkscape-font-specification:'Lavi, Normal';font-variant-ligatures:normal;font-variant-caps:normal;font-variant-numeric:normal;font-feature-settings:normal;text-align:start;letter-spacing:0px;word-spacing:0px;writing-mode:lr-tb;text-anchor:start;display:inline;opacity:0.86;fill:#000000;fill-opacity:1;stroke:none;stroke-width:0.903147px;stroke-linecap:butt;stroke-linejoin:miter;stroke-opacity:1"
       id="flowRoot180"
       xml:space="preserve"><flowRegion
         style="font-style:normal;font-variant:normal;font-weight:normal;font-stretch:normal;font-size:32.5133px;font-family:Lavi;-inkscape-font-specification:'Lavi, Normal';font-variant-ligatures:normal;font-variant-caps:normal;font-variant-numeric:normal;font-feature-settings:normal;text-align:start;writing-mode:lr-tb;text-anchor:start;stroke-width:0.903147px"
         id="flowRegion174"><rect
           style="font-style:normal;font-variant:normal;font-weight:normal;font-stretch:normal;font-size:32.51329803px;font-family:Lavi;-inkscape-font-specification:'Lavi, Normal';font-variant-ligatures:normal;font-variant-caps:normal;font-variant-numeric:normal;font-feature-settings:normal;text-align:start;writing-mode:lr-tb;text-anchor:start;stroke-width:0.90314716px"
           y="1061.6674"
           x="-275.14545"
           height="212.88319"
           width="353.73645"
           id="rect172" /></flowRegion><flowPara
         style="font-style:normal;font-variant:normal;font-weight:normal;font-stretch:normal;font-size:32.5133px;line-height:1.25;font-family:Lavi;-inkscape-font-specification:'Lavi, Normal';font-variant-ligatures:normal;font-variant-caps:normal;font-variant-numeric:normal;font-feature-settings:normal;text-align:start;writing-mode:lr-tb;text-anchor:start;stroke-width:0.903147px"
         id="flowPara178"><flowSpan
   id="flowSpan1014"
   style="font-weight:bold">Beta readers</flowSpan> help with the story, <flowSpan
   id="flowSpan1016"
   style="font-weight:bold">proofreaders</flowSpan> give feedback about the text.</flowPara></flowRoot>
    <g
       style="opacity:0.557"
       transform="translate(-124.19757,52.142761)"
       id="g1043">
      <path
         style="opacity:1;vector-effect:none;fill:#cccccc;fill-opacity:1;fill-rule:nonzero;stroke:#787878;stroke-width:2;stroke-linecap:butt;stroke-linejoin:miter;stroke-miterlimit:4;stroke-dasharray:none;stroke-dashoffset:0;stroke-opacity:1;paint-order:fill markers stroke"
         d="m -518.53699,-666.84645 c -0.61422,0 -1.11032,0.44692 -1.11032,1.00248 v 12.91861 c 0,0.55556 0.4961,1.00249 1.11032,1.00249 h 1.73686 v 0.60907 c 0,0.76558 0.61574,1.38132 1.38132,1.38132 h 6.37043 c 0.76558,0 1.38133,-0.61574 1.38133,-1.38132 v -0.60907 h 1.73685 c 0.61423,0 1.11031,-0.44693 1.11031,-1.00249 v -12.91861 c 0,-0.55556 -0.49608,-1.00248 -1.11031,-1.00248 z"
         id="rect192"
         inkscape:connector-curvature="0" />
      <path
         style="opacity:1;vector-effect:none;fill:#ffff98;fill-opacity:1;fill-rule:nonzero;stroke:#787878;stroke-width:2;stroke-linecap:butt;stroke-linejoin:miter;stroke-miterlimit:4;stroke-dasharray:none;stroke-dashoffset:0;stroke-opacity:1;paint-order:fill markers stroke"
         d="m -512.23359,-731.76886 c -20.17859,0 -27.20983,14.91405 -27.20983,25.74398 0,18.52719 18.63045,25.28436 18.63045,37.26089 v 2.29638 c 0,0.73518 0.59075,1.32595 1.32595,1.32595 h 14.50685 c 0.7352,0 1.32597,-0.59077 1.32597,-1.32595 v -2.29638 c 0,-11.97653 18.63043,-18.7337 18.63043,-37.26089 0,-10.82993 -7.03125,-25.74398 -27.20982,-25.74398 z"
         id="path184"
         inkscape:connector-curvature="0"
         sodipodi:nodetypes="ssscsscsss" />
      <path
         id="path1016"
         style="fill:none;fill-rule:evenodd;stroke:#787878;stroke-width:1px;stroke-linecap:butt;stroke-linejoin:miter;stroke-opacity:1"
         d="m -507.44236,-664.67965 c -2.02309,-12.0089 -0.93024,-25.69888 3.20539,-31.87898 l 2e-5,-1.4e-4 c -0.69465,2.89489 -6.40555,2.16513 -6.6718,-0.75503 -1.0292,0.75759 -2.788,0.37964 -3.26183,0.2394 -0.0566,5.19286 -5.00817,-2.69192 -6.34424,0.51563 3.22578,4.01626 4.8117,19.84006 3.01482,31.87912"
         inkscape:connector-curvature="0"
         sodipodi:nodetypes="ccccccc" />
    </g>
  </g>
</svg>
