<?xml version="1.0" encoding="UTF-8" standalone="no"?>
<!-- Created with Inkscape (http://www.inkscape.org/) -->

<svg
   id="svg2"
   version="1.1"
   inkscape:version="1.1 (c68e22c387, 2021-05-23)"
   width="2481"
   height="3503"
   sodipodi:docname="E36P07.svg"
   xmlns:inkscape="http://www.inkscape.org/namespaces/inkscape"
   xmlns:sodipodi="http://sodipodi.sourceforge.net/DTD/sodipodi-0.dtd"
   xmlns:xlink="http://www.w3.org/1999/xlink"
   xmlns="http://www.w3.org/2000/svg"
   xmlns:svg="http://www.w3.org/2000/svg"
   xmlns:rdf="http://www.w3.org/1999/02/22-rdf-syntax-ns#"
   xmlns:cc="http://creativecommons.org/ns#"
   xmlns:dc="http://purl.org/dc/elements/1.1/">
  <metadata
     id="metadata8">
    <rdf:RDF>
      <cc:Work
         rdf:about="">
        <dc:format>image/svg+xml</dc:format>
        <dc:type
           rdf:resource="http://purl.org/dc/dcmitype/StillImage" />
        <dc:title />
      </cc:Work>
    </rdf:RDF>
  </metadata>
  <defs
     id="defs6" />
  <sodipodi:namedview
     pagecolor="#1e1e1e"
     bordercolor="#111111"
     borderopacity="1"
     objecttolerance="10"
     gridtolerance="10"
     guidetolerance="10"
     inkscape:pageopacity="0"
     inkscape:pageshadow="2"
     inkscape:window-width="1920"
     inkscape:window-height="1017"
     id="namedview4"
     showgrid="false"
     inkscape:zoom="0.52900001"
     inkscape:cx="1242.9111"
     inkscape:cy="2655.0094"
     inkscape:window-x="-8"
     inkscape:window-y="-8"
     inkscape:window-maximized="1"
     inkscape:current-layer="layer1"
     inkscape:pagecheckerboard="0"
     inkscape:snap-global="false" />
  <g
     inkscape:groupmode="layer"
     id="layer2"
     inkscape:label="artwork"
     sodipodi:insensitive="true">
    <image
       xlink:href="../gfx_Pepper-and-Carrot_by-David-Revoy_E36P07.png"
       y="0"
       x="0"
       id="image10"
       height="3503"
       width="2481" />
  </g>
  <g
     inkscape:groupmode="layer"
     id="layer3"
     inkscape:label="speechbubbles"
     style="display:inline">
    <path
       style="color:#000000;display:inline;overflow:visible;visibility:visible;fill:#ffffff;fill-opacity:1;fill-rule:nonzero;stroke:none;stroke-width:0.723436px;marker:none;enable-background:accumulate"
       d="m 1378.4487,2367.9277 c -38.0273,0.6342 -76.0618,5.4468 -112.3614,15.0258 -26.3825,8.688 -45.1049,30.7195 -47.6103,54.2435 -2.2867,16.8841 -0.6814,34.1137 4.0393,50.6168 3.9833,13.1635 10.0505,26.1425 19.7176,37.1211 14.0713,12.9121 34.5289,18.5793 53.8786,23.6607 65.4146,16.9245 136.1429,15.5872 202.2394,2.0661 19.6526,-4.2263 39.4453,-8.9592 57.3502,-17.1082 19.6929,-11.3662 30.3221,-31.2418 32.0231,-50.8347 3.1039,-18.0217 6.0373,-37.0875 -1.7411,-54.5955 -8.8924,-18.9097 -28.5952,-32.666 -49.7492,-41.6628 -32.7631,-13.8223 -70.0204,-17.0638 -106.1942,-17.7767 -17.195,-0.3376 -34.3894,-0.8758 -51.592,-0.7561 z"
       id="path4546-6-3"
       inkscape:connector-curvature="0"
       sodipodi:nodetypes="cssssssc" />
    <path
       style="color:#000000;display:inline;overflow:visible;visibility:visible;fill:#ffffff;fill-opacity:1;fill-rule:nonzero;stroke:none;stroke-width:1.12849px;marker:none;enable-background:accumulate"
       d="m 1265.0774,3123.2879 c -56.719,1.1115 -114.1758,9.9281 -166.0915,32.2546 -21.937,9.4515 -41.5673,25.2017 -51.162,46.022 -21.4938,42.2639 -16.5055,95.2993 14.6433,131.8953 12.3737,14.7764 32.58,21.8102 52.2149,24.1535 42.2003,7.2537 84.8856,12.6341 127.8972,14.0039 58.412,2.5609 116.9542,1.5026 175.4372,0.5792 30.6873,-0.7393 61.5502,-3.5221 91.2399,-11.3152 17.4887,-3.9627 36.0569,-8.2447 49.6431,-19.9145 15.4908,-14.1624 21.8418,-34.4628 23.6606,-53.9016 3.729,-37.7405 -6.9187,-77.1641 -32.6051,-106.8383 -16.5058,-18.5268 -40.0018,-30.6292 -64.554,-37.9464 -37.2429,-11.4935 -76.738,-14.955 -115.8041,-17.5359 -34.7704,-1.9635 -69.6712,-1.9402 -104.5195,-1.4566 z"
       id="path3330-0"
       inkscape:connector-curvature="0"
       sodipodi:nodetypes="zsssssz" />
    <path
       style="color:#000000;display:inline;overflow:visible;visibility:visible;fill:#ffffff;fill-opacity:1;fill-rule:nonzero;stroke:none;stroke-width:1px;marker:none;enable-background:accumulate"
       d="m 1415.0769,2516.9442 c 13.078,48.3092 -10.2417,132.5122 -94.8507,157.2445 61.4826,-42.714 67.542,-99.1938 51.107,-143.1634 -14.1878,-37.9586 -18.9368,-56.3084 -18.9368,-56.3084 z"
       id="path4440-3"
       inkscape:connector-curvature="0"
       sodipodi:nodetypes="ccscc" />
    <path
       style="color:#000000;display:inline;overflow:visible;visibility:visible;fill:#ffffff;fill-opacity:1;fill-rule:nonzero;stroke:none;stroke-width:1.05023px;marker:none;enable-background:accumulate"
       d="m 1884.5303,3223.7198 c 2.2085,-31.7629 12.1073,-31.4913 46.1902,-2.7607 -8.9937,-56.6463 36.7658,-59.3247 79.4131,-65.0705 -4.8912,-15.916 -11.6693,-38.2895 36.129,-53.5443 -45.7166,-2.1974 -47.656,-17.2553 -33.086,-32.6716 -34.0385,7.3462 -58.3861,14.6762 -18.1274,-19.5049 -37.997,19.4188 -60.9707,29.4286 -46.6405,-20.4338 -14.3883,6.7868 -58.5903,35.1678 -78.7695,-25.9462 -0.638,33.2488 -57.184,60.6052 -84.9534,17.683 14.0583,35.7635 3.0629,71.3915 -53.6329,48.0907 54.4907,39.0305 2.2272,39.6552 -13.9489,42.9402 45.9271,5.3047 36.7135,17.4578 4.9221,37.6185 94.5952,3.1469 42.5371,23.176 43.0006,36.7345 57.5862,-12.4701 53.8853,12.8638 62.1299,31.6447 54.8403,-57.2852 38.1795,-47.0534 57.3737,5.2204 z"
       id="path3549-3-1"
       inkscape:connector-curvature="0"
       sodipodi:nodetypes="ccccccccccccccc" />
    <path
       style="fill:#ffffff;fill-rule:evenodd;stroke:none;stroke-width:1.2125px;stroke-linecap:butt;stroke-linejoin:miter;stroke-opacity:1"
       d="m 1989.5466,3114.1273 c -78.4907,1.8443 -156.6875,9.4447 -235.0565,13.6345 -34.5412,4.3023 -68.6243,19.0724 -92.534,44.8316 -12.1807,15.5124 -18.1647,34.6643 -24.1333,53.1726 -11.3025,39.2421 -4.2193,84.0056 20.887,116.5509 11.0702,14.4399 26.2087,25.7572 43.4494,31.7061 18.6213,6.5777 38.1452,10.1112 57.539,13.5638 22.1146,3.761 44.4175,6.2841 66.7908,7.8559 51.4054,4.0809 103.0657,6.6643 154.6066,3.6755 33.5353,-1.7951 67.1006,-2.9318 100.6786,-3.5094 16.7847,-0.6008 33.7272,0.1046 50.3092,-3.0387 36.6143,-6.3778 71.2907,-25.529 94.507,-54.798 13.3494,-16.587 22.4642,-37.1781 22.7111,-58.6997 0.9216,-23.9252 -4.0209,-47.7165 -11.2505,-70.4071 -10.862,-29.9949 -32.8196,-56.9271 -62.5484,-69.6369 -25.1105,-10.8018 -52.579,-13.5674 -79.2725,-18.1075 -35.308,-5.0788 -71.0192,-7.28 -106.6835,-6.7936 z"
       id="path1289"
       inkscape:connector-curvature="0"
       sodipodi:nodetypes="csssssssscc" />
    <path
       style="color:#000000;display:inline;overflow:visible;visibility:visible;fill:#ffffff;fill-opacity:1;fill-rule:nonzero;stroke:none;stroke-width:1.20459px;marker:none;enable-background:accumulate"
       d="m 457.85125,3178.3461 c 10.02174,-15.2948 52.2845,-13.2985 67.2416,-8.8438 -28.3305,-20.2401 -25.45867,-31.1953 17.18155,-29.5557 -65.86905,-37.6508 -8.59608,-28.2088 4.16741,-35.4235 -53.99935,-15.4528 -26.82219,-27.2125 -14.68148,-40.1001 -64.04088,-5.5458 -39.51673,-25.8031 -39.39855,-43.4742 -6.75905,7.7618 -36.61133,30.6558 -33.6785,2.7654 -46.68983,23.1348 -100.53592,36.2037 -97.10105,-10.4783 -20.85593,21.9701 -39.48478,30.479 -33.67862,2.7653 -48.1832,32.8282 -84.125,16.7937 -120.74425,3.5382 -11.81621,10.1245 -15.69809,26.8076 -47.5828,20.3017 2.81082,11.1849 -9.37148,17.7561 -34.88213,20.2115 31.89449,9.1464 36.87757,16.3708 -25.477586,18.7855 46.442866,4.3877 89.624476,9.2622 31.004716,29.6889 17.03911,1.9557 61.03318,-15.4784 32.31139,43.4614 32.59275,-17.0164 65.75628,-25.2072 98.63319,18.4447 21.93013,-18.7712 55.91165,-26.2298 65.90431,0.1768 6.80256,-10.3819 28.44081,-12.7755 46.33333,-11.8575 6.19627,4.8286 12.36083,11.2082 18.54324,19.4168 14.70327,-15.0441 34.57592,-24.4177 65.90423,0.1769 z"
       id="path3549-3-7-5"
       inkscape:connector-curvature="0"
       sodipodi:nodetypes="cccccccccccccccccccc" />
    <path
       style="color:#000000;display:inline;overflow:visible;visibility:visible;fill:#ffffff;fill-opacity:1;fill-rule:nonzero;stroke:none;stroke-width:1.04204px;marker:none;enable-background:accumulate"
       d="m 361.32537,3117.1259 c -63.61402,0.8869 -127.97615,12.1999 -185.46157,39.3464 -36.67889,20.281 -56.0371,63.0309 -52.75009,103.0838 1.04836,24.5664 7.76717,51.6174 28.87326,67.3162 23.07618,17.0439 51.18642,26.2094 79.08186,32.7563 58.03134,12.5958 117.88188,9.9362 176.92037,10.478 52.59024,-0.1388 105.36053,1.4082 157.7669,-3.7365 24.46168,-2.4792 49.87513,-7.8495 69.22431,-23.5242 23.12667,-17.5376 38.29592,-44.8883 39.01455,-73.5141 3.93861,-49.5273 -26.80437,-100.9155 -75.23947,-118.8182 -51.23424,-21.6058 -107.69976,-25.4501 -162.61111,-30.7378 -24.88492,-1.9162 -49.85214,-2.9936 -74.81901,-2.6499 z"
       id="path3970-3"
       inkscape:connector-curvature="0"
       sodipodi:nodetypes="cccscsc" />
    <path
       style="color:#000000;display:inline;overflow:visible;visibility:visible;fill:#ffffff;fill-opacity:1;fill-rule:nonzero;stroke:none;stroke-width:1.35295px;marker:none;enable-background:accumulate"
       d="m 655.60209,3020.9694 c 36.37209,56.4559 22.81983,82.4225 15.3529,101.9191 -8.64995,-2.3738 -25.16043,-4.9757 -25.16043,-4.9757 0,0 -35.04306,58.5581 -44.82978,72.5197 -9.78688,13.9616 -38.13341,-23.0686 -38.13341,-23.0686 0,0 68.63867,-58.196 66.88456,-75.5935 13.71733,3.6481 17.96983,3.6232 26.02992,4.8839 8.53279,-9.9614 11.95899,-55.362 -0.14376,-75.6849 z"
       id="path4456-8"
       inkscape:connector-curvature="0"
       sodipodi:nodetypes="cccscccc" />
    <path
       style="color:#000000;display:inline;overflow:visible;visibility:visible;fill:#ffffff;fill-opacity:1;fill-rule:nonzero;stroke:none;stroke-width:0.979134px;marker:none;enable-background:accumulate"
       d="m 1279.5978,3141.166 c 37.0189,-51.8094 10.4316,-107.7029 -22.8129,-123.0094 56.1643,10.3304 79.8618,67.0698 67.3523,120.7861 -6.1858,26.5623 -44.5394,2.2233 -44.5394,2.2233 z"
       id="path5010-4"
       inkscape:connector-curvature="0"
       sodipodi:nodetypes="ccsc"
       inkscape:transform-center-x="-17.477815"
       inkscape:transform-center-y="-10.798976" />
    <path
       style="color:#000000;display:inline;overflow:visible;visibility:visible;fill:#ffffff;fill-opacity:1;fill-rule:nonzero;stroke:none;stroke-width:1.49141px;marker:none;enable-background:accumulate"
       d="m 1916.7743,3082.8445 c -3.1414,-3.557 32.154,-46.7146 32.154,-46.7146 0,0 1.8091,-18.6763 2.2497,-22.5415 7.8248,-6.4155 25.8113,-4.3144 25.8113,-4.3144 l -34.365,-47.8529 16.512,38.7245 -25.6669,-0.2625 -0.1009,31.7053 c -10.1565,5.7069 -22.8946,9.8614 -42.2141,10.0585 z"
       id="path4448"
       inkscape:connector-curvature="0"
       sodipodi:nodetypes="cccccccccc" />
  </g>
  <g
     inkscape:groupmode="layer"
     id="layer1"
     inkscape:label="txt"
     style="display:inline">
    <text
       xml:space="preserve"
       style="font-style:normal;font-variant:normal;font-weight:normal;font-stretch:normal;font-size:14.5146px;line-height:0%;font-family:Lavi;-inkscape-font-specification:Lavi;text-align:center;letter-spacing:0px;word-spacing:0px;text-anchor:middle;fill:#000000;fill-opacity:1;stroke:none;stroke-width:1.20955"
       x="334.33972"
       y="3108.5491"
       id="text4246-3-3"><tspan
         sodipodi:role="line"
         x="334.33972"
         y="3108.5491"
         id="tspan852"
         style="font-style:normal;font-variant:normal;font-weight:bold;font-stretch:normal;font-size:54.4298px;line-height:1.25;font-family:Lavi;-inkscape-font-specification:'Lavi Bold';stroke-width:1.20955">Comandante!</tspan></text>
    <text
       xml:space="preserve"
       style="font-style:normal;font-variant:normal;font-weight:normal;font-stretch:normal;line-height:0%;font-family:Lavi;-inkscape-font-specification:Lavi;text-align:center;letter-spacing:0px;word-spacing:0px;text-anchor:middle;fill:#000000;fill-opacity:1;stroke:none"
       x="406.04767"
       y="3213.5732"
       id="text4246-3-5-9"><tspan
         sodipodi:role="line"
         style="font-size:45px;line-height:1.25"
         x="406.04767"
         y="3213.5732"
         id="tspan2926">Você está certo de que </tspan><tspan
         sodipodi:role="line"
         style="font-size:45px;line-height:1.25"
         x="406.04767"
         y="3269.8232"
         id="tspan2930">esse é o templo </tspan><tspan
         sodipodi:role="line"
         style="font-size:45px;line-height:1.25"
         x="406.04767"
         y="3326.0732"
         id="tspan2932">daquela bruxa?</tspan></text>
    <text
       xml:space="preserve"
       style="font-style:normal;font-variant:normal;font-weight:normal;font-stretch:normal;line-height:0%;font-family:Lavi;-inkscape-font-specification:Lavi;text-align:center;letter-spacing:0px;word-spacing:0px;text-anchor:middle;fill:#000000;fill-opacity:1;stroke:none"
       x="1415.2664"
       y="2457.6616"
       id="text4246-3-5-9-3"><tspan
         sodipodi:role="line"
         style="font-size:45px;line-height:1.25"
         x="1415.2664"
         y="2457.6616"
         id="tspan2934">É muito provável, </tspan><tspan
         sodipodi:role="line"
         style="font-size:45px;line-height:1.25"
         x="1415.2664"
         y="2513.9116"
         id="tspan2942">senhor!</tspan></text>
    <text
       xml:space="preserve"
       style="font-style:normal;font-variant:normal;font-weight:normal;font-stretch:normal;line-height:0%;font-family:Lavi;-inkscape-font-specification:Lavi;text-align:center;letter-spacing:0px;word-spacing:0px;text-anchor:middle;fill:#000000;fill-opacity:1;stroke:none"
       x="1315.355"
       y="3202.9702"
       id="text4246-3-5-9-3-3-6"><tspan
         sodipodi:role="line"
         style="font-size:45px;line-height:1.25"
         x="1315.355"
         y="3202.9702"
         id="tspan36535">Vários de nossos </tspan><tspan
         sodipodi:role="line"
         style="font-size:45px;line-height:1.25"
         x="1315.355"
         y="3259.2202"
         id="tspan2944">informantes a viram </tspan><tspan
         sodipodi:role="line"
         style="font-size:45px;line-height:1.25"
         x="1315.355"
         y="3315.4702"
         id="tspan2946">por aqui recentemente.</tspan></text>
    <text
       xml:space="preserve"
       style="font-style:normal;font-variant:normal;font-weight:normal;font-stretch:normal;line-height:0%;font-family:Lavi;-inkscape-font-specification:Lavi;text-align:center;letter-spacing:0px;word-spacing:0px;text-anchor:middle;fill:#000000;fill-opacity:1;stroke:none"
       x="1887.0986"
       y="3113.49"
       id="text4246-3-3-7"><tspan
         sodipodi:role="line"
         style="font-style:normal;font-variant:normal;font-weight:bold;font-stretch:normal;font-size:45px;line-height:1.25;font-family:Lavi;-inkscape-font-specification:'Lavi Bold'"
         x="1887.0986"
         y="3113.49"
         id="tspan67-0">GRrrr...</tspan><tspan
         sodipodi:role="line"
         x="1887.0986"
         y="3132.55"
         id="tspan852-9" /></text>
    <text
       xml:space="preserve"
       style="font-style:normal;font-variant:normal;font-weight:normal;font-stretch:normal;line-height:0%;font-family:Lavi;-inkscape-font-specification:Lavi;text-align:center;letter-spacing:0px;word-spacing:0px;text-anchor:middle;fill:#000000;fill-opacity:1;stroke:none"
       x="1948.9606"
       y="3197.1111"
       id="text4246-3-5-9-3-3-6-3"><tspan
         sodipodi:role="line"
         style="font-size:45px;line-height:1.25;fill:#000000"
         x="1948.9606"
         y="3197.1111"
         id="tspan2955">Então é aqui que mora </tspan><tspan
         sodipodi:role="line"
         style="font-size:45px;line-height:1.25;fill:#000000"
         x="1948.9606"
         y="3253.3611"
         id="tspan2967">aquela <tspan
   style="font-weight:bold"
   id="tspan350">ameaça</tspan> às nossas </tspan><tspan
         sodipodi:role="line"
         style="font-size:45px;line-height:1.25;fill:#000000"
         x="1948.9606"
         y="3310.1377"
         id="tspan2982"><tspan
           style="font-weight:bold"
           id="tspan2976">artes de guerra e </tspan></tspan><tspan
         sodipodi:role="line"
         style="font-size:45px;line-height:1.25;fill:#000000"
         x="1948.9606"
         y="3366.9143"
         id="tspan2990"><tspan
   style="font-weight:bold"
   id="tspan2992">tradições</tspan>!</tspan></text>
  </g>
</svg>
