<?xml version="1.0" encoding="UTF-8" standalone="no"?>
<!-- Created with Inkscape (http://www.inkscape.org/) -->

<svg
   id="svg2"
   version="1.1"
   inkscape:version="1.1 (c68e22c387, 2021-05-23)"
   width="2481"
   height="3503"
   sodipodi:docname="E36P06.svg"
   xmlns:inkscape="http://www.inkscape.org/namespaces/inkscape"
   xmlns:sodipodi="http://sodipodi.sourceforge.net/DTD/sodipodi-0.dtd"
   xmlns:xlink="http://www.w3.org/1999/xlink"
   xmlns="http://www.w3.org/2000/svg"
   xmlns:svg="http://www.w3.org/2000/svg"
   xmlns:rdf="http://www.w3.org/1999/02/22-rdf-syntax-ns#"
   xmlns:cc="http://creativecommons.org/ns#"
   xmlns:dc="http://purl.org/dc/elements/1.1/">
  <metadata
     id="metadata8">
    <rdf:RDF>
      <cc:Work
         rdf:about="">
        <dc:format>image/svg+xml</dc:format>
        <dc:type
           rdf:resource="http://purl.org/dc/dcmitype/StillImage" />
        <dc:title />
      </cc:Work>
    </rdf:RDF>
  </metadata>
  <defs
     id="defs6" />
  <sodipodi:namedview
     pagecolor="#1e1e1e"
     bordercolor="#111111"
     borderopacity="1"
     objecttolerance="10"
     gridtolerance="10"
     guidetolerance="10"
     inkscape:pageopacity="0"
     inkscape:pageshadow="2"
     inkscape:window-width="1920"
     inkscape:window-height="1017"
     id="namedview4"
     showgrid="false"
     inkscape:zoom="0.6956522"
     inkscape:cx="1261.4062"
     inkscape:cy="2529.2812"
     inkscape:window-x="-8"
     inkscape:window-y="-8"
     inkscape:window-maximized="1"
     inkscape:current-layer="layer1"
     inkscape:pagecheckerboard="0"
     inkscape:snap-global="false" />
  <g
     inkscape:groupmode="layer"
     id="layer2"
     inkscape:label="artwork"
     sodipodi:insensitive="true">
    <image
       xlink:href="../gfx_Pepper-and-Carrot_by-David-Revoy_E36P06.png"
       y="0"
       x="0"
       id="image10"
       height="3503"
       width="2481" />
  </g>
  <g
     inkscape:groupmode="layer"
     id="layer4"
     inkscape:label="notes"
     sodipodi:insensitive="true">
    <rect
       style="color:#000000;overflow:visible;fill:#605a4b;fill-opacity:1;stroke-width:0.722782px;-inkscape-stroke:none;stop-color:#000000"
       id="rect32569"
       width="414.47931"
       height="168.0433"
       x="-491.3877"
       y="2463.2815" />
    <path
       style="fill:#605a4b;fill-opacity:1;fill-rule:evenodd;stroke:none;stroke-width:1px;stroke-linecap:butt;stroke-linejoin:miter;stroke-opacity:1"
       d="m -92.707642,2531.525 h 27.431054 v -16.847 l 21.712733,25.6342 -22.023354,21.7956 v -16.0619 l -27.826327,-0.1858 z"
       id="path32702"
       sodipodi:nodetypes="cccccccc" />
    <g
       inkscape:label="Hershey Text"
       style="fill:none;stroke:#000000;stroke-linecap:round;stroke-linejoin:round"
       id="g5948"
       transform="matrix(0.48563261,0,0,0.50029412,-26.303361,1246.2512)">
      <g
         transform="translate(-837.288,2510.78)"
         id="g5830">
        <path
           d="M 220,662 V 0 M 220,662 662,0 m 0,662 V 0"
           style="stroke-width:0.5635in"
           transform="scale(0.0573333,-0.0573333)"
           id="path5790" />
        <path
           d="M 346,441 284,410 220,346 189,252 V 189 L 220,94.5 284,31.5 346,0 h 95 l 63,31.5 63,63 31,94.5 v 63 l -31,94 -63,64 -63,31 h -95"
           style="stroke-width:0.5635in"
           transform="matrix(0.0573333,0,0,-0.0573333,39.732,0)"
           id="path5792" />
        <path
           d="M 252,662 V 126 L 284,31.5 346,0 h 64 M 158,441 h 220"
           style="stroke-width:0.5635in"
           transform="matrix(0.0573333,0,0,-0.0573333,74.0173,0)"
           id="path5794" />
        <path
           d="m 189,252 h 378 v 63 l -31,63 -32,32 -63,31 H 346 L 284,410 220,346 189,252 V 189 L 220,94.5 284,31.5 346,0 h 95 l 63,31.5 63,63"
           style="stroke-width:0.5635in"
           transform="matrix(0.0573333,0,0,-0.0573333,95.6893,0)"
           id="path5796" />
        <path
           d="m 536,346 -32,64 -94,31 h -95 l -95,-31 -31,-64 31,-62 64,-32 157,-32 63,-31 32,-63 V 94.5 L 504,31.5 410,0 h -95 l -95,31.5 -31,63"
           style="stroke-width:0.5635in"
           transform="matrix(0.0573333,0,0,-0.0573333,128.197,0)"
           id="path5798" />
        <path
           d="M 410,662 H 346 L 284,630 252,536 V 0 m -94,441 h 220"
           style="stroke-width:0.5635in"
           transform="matrix(0.0573333,0,0,-0.0573333,180.6,0)"
           id="path5800" />
        <path
           d="M 346,441 284,410 220,346 189,252 V 189 L 220,94.5 284,31.5 346,0 h 95 l 63,31.5 63,63 31,94.5 v 63 l -31,94 -63,64 -63,31 h -95"
           style="stroke-width:0.5635in"
           transform="matrix(0.0573333,0,0,-0.0573333,202.272,0)"
           id="path5802" />
        <path
           d="M 220,441 V 0 m 0,252 32,94 63,64 63,31 h 94"
           style="stroke-width:0.5635in"
           transform="matrix(0.0573333,0,0,-0.0573333,236.557,0)"
           id="path5804" />
        <path
           d="M 252,662 V 126 L 284,31.5 346,0 h 64 M 158,441 h 220"
           style="stroke-width:0.5635in"
           transform="matrix(0.0573333,0,0,-0.0573333,281.736,0)"
           id="path5806" />
        <path
           d="M 220,441 V 0 m 0,252 32,94 63,64 63,31 h 94"
           style="stroke-width:0.5635in"
           transform="matrix(0.0573333,0,0,-0.0573333,303.408,0)"
           id="path5808" />
        <path
           d="M 567,441 V 0 m 0,346 -63,64 -63,31 H 346 L 284,410 220,346 189,252 V 189 L 220,94.5 284,31.5 346,0 h 95 l 63,31.5 63,63"
           style="stroke-width:0.5635in"
           transform="matrix(0.0573333,0,0,-0.0573333,326.914,0)"
           id="path5810" />
        <path
           d="M 220,441 V 0 m 0,315 95,95 63,31 h 94 l 64,-31 31,-95 V 0"
           style="stroke-width:0.5635in"
           transform="matrix(0.0573333,0,0,-0.0573333,361.2,0)"
           id="path5812" />
        <path
           d="m 536,346 -32,64 -94,31 h -95 l -95,-31 -31,-64 31,-62 64,-32 157,-32 63,-31 32,-63 V 94.5 L 504,31.5 410,0 h -95 l -95,31.5 -31,63"
           style="stroke-width:0.5635in"
           transform="matrix(0.0573333,0,0,-0.0573333,395.485,0)"
           id="path5814" />
        <path
           d="M 220,662 V 0"
           style="stroke-width:0.5635in"
           transform="matrix(0.0573333,0,0,-0.0573333,426.216,0)"
           id="path5816" />
        <path
           d="M 567,441 V 0 m 0,346 -63,64 -63,31 H 346 L 284,410 220,346 189,252 V 189 L 220,94.5 284,31.5 346,0 h 95 l 63,31.5 63,63"
           style="stroke-width:0.5635in"
           transform="matrix(0.0573333,0,0,-0.0573333,440.664,0)"
           id="path5818" />
        <path
           d="M 252,662 V 126 L 284,31.5 346,0 h 64 M 158,441 h 220"
           style="stroke-width:0.5635in"
           transform="matrix(0.0573333,0,0,-0.0573333,474.949,0)"
           id="path5820" />
        <path
           d="M 346,441 284,410 220,346 189,252 V 189 L 220,94.5 284,31.5 346,0 h 95 l 63,31.5 63,63 31,94.5 v 63 l -31,94 -63,64 -63,31 h -95"
           style="stroke-width:0.5635in"
           transform="matrix(0.0573333,0,0,-0.0573333,496.621,0)"
           id="path5822" />
        <path
           d="M 220,441 V 0 m 0,252 32,94 63,64 63,31 h 94"
           style="stroke-width:0.5635in"
           transform="matrix(0.0573333,0,0,-0.0573333,530.906,0)"
           id="path5824" />
        <path
           d="m 536,346 -32,64 -94,31 h -95 l -95,-31 -31,-64 31,-62 64,-32 157,-32 63,-31 32,-63 V 94.5 L 504,31.5 410,0 h -95 l -95,31.5 -31,63"
           style="stroke-width:0.5635in"
           transform="matrix(0.0573333,0,0,-0.0573333,554.413,0)"
           id="path5826" />
        <path
           d="m 220,378 -31,-32 31,-31 32,31 -32,32 m 0,-220 -31,-32 31,-31.5 32,31.5 -32,32"
           style="stroke-width:0.5635in"
           transform="matrix(0.0573333,0,0,-0.0573333,585.144,0)"
           id="path5828" />
      </g>
      <g
         transform="translate(-903.221,2582.45)"
         id="g5876">
        <path
           d="m 252,598 -32,32 32,32 32,-32 v -63 l -32,-63 -32,-32"
           style="stroke-width:0.5635in"
           transform="scale(0.0573333,-0.0573333)"
           id="path5832" />
        <path
           d="M 158,441 346,0 M 536,441 346,0 l -62,-126 -64,-63 -62,-31 h -32"
           style="stroke-width:0.5635in"
           transform="matrix(0.0573333,0,0,-0.0573333,18.06,0)"
           id="path5834" />
        <path
           d="M 346,441 284,410 220,346 189,252 V 189 L 220,94.5 284,31.5 346,0 h 95 l 63,31.5 63,63 31,94.5 v 63 l -31,94 -63,64 -63,31 h -95"
           style="stroke-width:0.5635in"
           transform="matrix(0.0573333,0,0,-0.0573333,46.956,0)"
           id="path5836" />
        <path
           d="M 220,441 V 126 L 252,31.5 315,0 h 95 l 62,31.5 95,94.5 m 0,315 V 0"
           style="stroke-width:0.5635in"
           transform="matrix(0.0573333,0,0,-0.0573333,81.2413,0)"
           id="path5838" />
        <path
           d="M 220,441 V 0 m 0,252 32,94 63,64 63,31 h 94"
           style="stroke-width:0.5635in"
           transform="matrix(0.0573333,0,0,-0.0573333,115.527,0)"
           id="path5840" />
        <path
           d="m 252,598 -32,32 32,32 32,-32 v -63 l -32,-63 -32,-32"
           style="stroke-width:0.5635in"
           transform="matrix(0.0573333,0,0,-0.0573333,139.033,0)"
           id="path5842" />
        <path
           d="M 220,441 V 0 m 0,252 32,94 63,64 63,31 h 94"
           style="stroke-width:0.5635in"
           transform="matrix(0.0573333,0,0,-0.0573333,178.765,0)"
           id="path5844" />
        <path
           d="m 189,252 h 378 v 63 l -31,63 -32,32 -63,31 H 346 L 284,410 220,346 189,252 V 189 L 220,94.5 284,31.5 346,0 h 95 l 63,31.5 63,63"
           style="stroke-width:0.5635in"
           transform="matrix(0.0573333,0,0,-0.0573333,202.272,0)"
           id="path5846" />
        <path
           d="M 410,662 H 346 L 284,630 252,536 V 0 m -94,441 h 220"
           style="stroke-width:0.5635in"
           transform="matrix(0.0573333,0,0,-0.0573333,234.78,0)"
           id="path5848" />
        <path
           d="m 189,252 h 378 v 63 l -31,63 -32,32 -63,31 H 346 L 284,410 220,346 189,252 V 189 L 220,94.5 284,31.5 346,0 h 95 l 63,31.5 63,63"
           style="stroke-width:0.5635in"
           transform="matrix(0.0573333,0,0,-0.0573333,256.452,0)"
           id="path5850" />
        <path
           d="M 220,441 V 0 m 0,252 32,94 63,64 63,31 h 94"
           style="stroke-width:0.5635in"
           transform="matrix(0.0573333,0,0,-0.0573333,288.96,0)"
           id="path5852" />
        <path
           d="m 536,346 -32,64 -94,31 h -95 l -95,-31 -31,-64 31,-62 64,-32 157,-32 63,-31 32,-63 V 94.5 L 504,31.5 410,0 h -95 l -95,31.5 -31,63"
           style="stroke-width:0.5635in"
           transform="matrix(0.0573333,0,0,-0.0573333,312.466,0)"
           id="path5854" />
        <path
           d="m 189,662 31,-32 32,32 -32,31 -31,-31 M 220,441 V 0"
           style="stroke-width:0.5635in"
           transform="matrix(0.0573333,0,0,-0.0573333,386.541,0)"
           id="path5856" />
        <path
           d="M 220,441 V 0 m 0,315 95,95 63,31 h 94 l 64,-31 31,-95 V 0"
           style="stroke-width:0.5635in"
           transform="matrix(0.0573333,0,0,-0.0573333,400.989,0)"
           id="path5858" />
        <path
           d="M 252,662 V 126 L 284,31.5 346,0 h 64 M 158,441 h 220"
           style="stroke-width:0.5635in"
           transform="matrix(0.0573333,0,0,-0.0573333,456.946,0)"
           id="path5860" />
        <path
           d="M 220,662 V 0 m 0,315 95,95 63,31 h 94 l 64,-31 31,-95 V 0"
           style="stroke-width:0.5635in"
           transform="matrix(0.0573333,0,0,-0.0573333,478.618,0)"
           id="path5862" />
        <path
           d="m 189,662 31,-32 32,32 -32,31 -31,-31 M 220,441 V 0"
           style="stroke-width:0.5635in"
           transform="matrix(0.0573333,0,0,-0.0573333,512.904,0)"
           id="path5864" />
        <path
           d="m 536,346 -32,64 -94,31 h -95 l -95,-31 -31,-64 31,-62 64,-32 157,-32 63,-31 32,-63 V 94.5 L 504,31.5 410,0 h -95 l -95,31.5 -31,63"
           style="stroke-width:0.5635in"
           transform="matrix(0.0573333,0,0,-0.0573333,527.352,0)"
           id="path5866" />
        <path
           d="m 567,346 -63,64 -63,31 H 346 L 284,410 220,346 189,252 V 189 L 220,94.5 284,31.5 346,0 h 95 l 63,31.5 63,63"
           style="stroke-width:0.5635in"
           transform="matrix(0.0573333,0,0,-0.0573333,579.754,0)"
           id="path5868" />
        <path
           d="M 567,441 V 0 m 0,346 -63,64 -63,31 H 346 L 284,410 220,346 189,252 V 189 L 220,94.5 284,31.5 346,0 h 95 l 63,31.5 63,63"
           style="stroke-width:0.5635in"
           transform="matrix(0.0573333,0,0,-0.0573333,612.262,0)"
           id="path5870" />
        <path
           d="m 536,346 -32,64 -94,31 h -95 l -95,-31 -31,-64 31,-62 64,-32 157,-32 63,-31 32,-63 V 94.5 L 504,31.5 410,0 h -95 l -95,31.5 -31,63"
           style="stroke-width:0.5635in"
           transform="matrix(0.0573333,0,0,-0.0573333,646.548,0)"
           id="path5872" />
        <path
           d="m 189,252 h 378 v 63 l -31,63 -32,32 -63,31 H 346 L 284,410 220,346 189,252 V 189 L 220,94.5 284,31.5 346,0 h 95 l 63,31.5 63,63"
           style="stroke-width:0.5635in"
           transform="matrix(0.0573333,0,0,-0.0573333,677.278,0)"
           id="path5874" />
      </g>
      <g
         transform="translate(-913.054,2654.29)"
         id="g5922">
        <path
           d="M 252,662 V 126 L 284,31.5 346,0 h 64 M 158,441 h 220"
           style="stroke-width:0.5635in"
           transform="scale(0.0573333,-0.0573333)"
           id="path5878" />
        <path
           d="M 346,441 284,410 220,346 189,252 V 189 L 220,94.5 284,31.5 346,0 h 95 l 63,31.5 63,63 31,94.5 v 63 l -31,94 -63,64 -63,31 h -95"
           style="stroke-width:0.5635in"
           transform="matrix(0.0573333,0,0,-0.0573333,21.672,0)"
           id="path5880" />
        <path
           d="M 252,662 V 126 L 284,31.5 346,0 h 64 M 158,441 h 220"
           style="stroke-width:0.5635in"
           transform="matrix(0.0573333,0,0,-0.0573333,77.6293,0)"
           id="path5882" />
        <path
           d="M 220,662 V 0 m 0,315 95,95 63,31 h 94 l 64,-31 31,-95 V 0"
           style="stroke-width:0.5635in"
           transform="matrix(0.0573333,0,0,-0.0573333,99.3013,0)"
           id="path5884" />
        <path
           d="m 189,252 h 378 v 63 l -31,63 -32,32 -63,31 H 346 L 284,410 220,346 189,252 V 189 L 220,94.5 284,31.5 346,0 h 95 l 63,31.5 63,63"
           style="stroke-width:0.5635in"
           transform="matrix(0.0573333,0,0,-0.0573333,133.587,0)"
           id="path5886" />
        <path
           d="M 158,662 315,0 M 472,662 315,0 M 472,662 630,0 M 788,662 630,0"
           style="stroke-width:0.5635in"
           transform="matrix(0.0573333,0,0,-0.0573333,187.767,0)"
           id="path5888" />
        <path
           d="m 189,662 31,-32 32,32 -32,31 -31,-31 M 220,441 V 0"
           style="stroke-width:0.5635in"
           transform="matrix(0.0573333,0,0,-0.0573333,231.111,0)"
           id="path5890" />
        <path
           d="M 252,662 V 126 L 284,31.5 346,0 h 64 M 158,441 h 220"
           style="stroke-width:0.5635in"
           transform="matrix(0.0573333,0,0,-0.0573333,245.559,0)"
           id="path5892" />
        <path
           d="m 567,346 -63,64 -63,31 H 346 L 284,410 220,346 189,252 V 189 L 220,94.5 284,31.5 346,0 h 95 l 63,31.5 63,63"
           style="stroke-width:0.5635in"
           transform="matrix(0.0573333,0,0,-0.0573333,267.231,0)"
           id="path5894" />
        <path
           d="M 220,662 V 0 m 0,315 95,95 63,31 h 94 l 64,-31 31,-95 V 0"
           style="stroke-width:0.5635in"
           transform="matrix(0.0573333,0,0,-0.0573333,299.738,0)"
           id="path5896" />
        <path
           d="m 189,252 h 378 v 63 l -31,63 -32,32 -63,31 H 346 L 284,410 220,346 189,252 V 189 L 220,94.5 284,31.5 346,0 h 95 l 63,31.5 63,63"
           style="stroke-width:0.5635in"
           transform="matrix(0.0573333,0,0,-0.0573333,334.024,0)"
           id="path5898" />
        <path
           d="m 536,346 -32,64 -94,31 h -95 l -95,-31 -31,-64 31,-62 64,-32 157,-32 63,-31 32,-63 V 94.5 L 504,31.5 410,0 h -95 l -95,31.5 -31,63"
           style="stroke-width:0.5635in"
           transform="matrix(0.0573333,0,0,-0.0573333,366.532,0)"
           id="path5900" />
        <path
           d="M 346,441 284,410 220,346 189,252 V 189 L 220,94.5 284,31.5 346,0 h 95 l 63,31.5 63,63 31,94.5 v 63 l -31,94 -63,64 -63,31 h -95"
           style="stroke-width:0.5635in"
           transform="matrix(0.0573333,0,0,-0.0573333,418.934,0)"
           id="path5902" />
        <path
           d="M 410,662 H 346 L 284,630 252,536 V 0 m -94,441 h 220"
           style="stroke-width:0.5635in"
           transform="matrix(0.0573333,0,0,-0.0573333,453.22,0)"
           id="path5904" />
        <path
           d="m 662,504 -32,63 -63,63 -63,32 H 378 L 315,630 252,567 220,504 189,410 V 252 l 31,-94 32,-63.5 63,-63 L 378,0 h 126 l 63,31.5 63,63 32,63.5"
           style="stroke-width:0.5635in"
           transform="matrix(0.0573333,0,0,-0.0573333,496.564,0)"
           id="path5906" />
        <path
           d="M 220,662 V 0 m 0,315 95,95 63,31 h 94 l 64,-31 31,-95 V 0"
           style="stroke-width:0.5635in"
           transform="matrix(0.0573333,0,0,-0.0573333,534.518,0)"
           id="path5908" />
        <path
           d="M 567,441 V 0 m 0,346 -63,64 -63,31 H 346 L 284,410 220,346 189,252 V 189 L 220,94.5 284,31.5 346,0 h 95 l 63,31.5 63,63"
           style="stroke-width:0.5635in"
           transform="matrix(0.0573333,0,0,-0.0573333,568.804,0)"
           id="path5910" />
        <path
           d="M 346,441 284,410 220,346 189,252 V 189 L 220,94.5 284,31.5 346,0 h 95 l 63,31.5 63,63 31,94.5 v 63 l -31,94 -63,64 -63,31 h -95"
           style="stroke-width:0.5635in"
           transform="matrix(0.0573333,0,0,-0.0573333,603.089,0)"
           id="path5912" />
        <path
           d="m 536,346 -32,64 -94,31 h -95 l -95,-31 -31,-64 31,-62 64,-32 157,-32 63,-31 32,-63 V 94.5 L 504,31.5 410,0 h -95 l -95,31.5 -31,63"
           style="stroke-width:0.5635in"
           transform="matrix(0.0573333,0,0,-0.0573333,637.374,0)"
           id="path5914" />
        <path
           d="M 567,441 V 0 m 0,346 -63,64 -63,31 H 346 L 284,410 220,346 189,252 V 189 L 220,94.5 284,31.5 346,0 h 95 l 63,31.5 63,63"
           style="stroke-width:0.5635in"
           transform="matrix(0.0573333,0,0,-0.0573333,668.105,0)"
           id="path5916" />
        <path
           d="M 220,662 V 0 m 0,315 95,95 63,31 h 94 l 64,-31 31,-95 V 0"
           style="stroke-width:0.5635in"
           transform="matrix(0.0573333,0,0,-0.0573333,702.39,0)"
           id="path5918" />
        <path
           d="m 252,126 -32,-31.5 -31,31.5 31,32 32,-32 V 63 L 189,0"
           style="stroke-width:0.5635in"
           transform="matrix(0.0573333,0,0,-0.0573333,736.676,0)"
           id="path5920" />
      </g>
      <g
         transform="translate(-711.699,2725.96)"
         id="g5946">
        <path
           d="M 567,441 V 0 m 0,346 -63,64 -63,31 H 346 L 284,410 220,346 189,252 V 189 L 220,94.5 284,31.5 346,0 h 95 l 63,31.5 63,63"
           style="stroke-width:0.5635in"
           transform="scale(0.0573333,-0.0573333)"
           id="path5924" />
        <path
           d="m 220,441 v -661 m 0,566 64,64 62,31 h 95 l 63,-31 63,-64 31,-94 V 189 L 567,94.5 504,31.5 441,0 h -95 l -62,31.5 -64,63"
           style="stroke-width:0.5635in"
           transform="matrix(0.0573333,0,0,-0.0573333,55.9573,0)"
           id="path5926" />
        <path
           d="M 220,662 V 0"
           style="stroke-width:0.5635in"
           transform="matrix(0.0573333,0,0,-0.0573333,90.2426,0)"
           id="path5928" />
        <path
           d="M 220,441 V 126 L 252,31.5 315,0 h 95 l 62,31.5 95,94.5 m 0,315 V 0"
           style="stroke-width:0.5635in"
           transform="matrix(0.0573333,0,0,-0.0573333,104.691,0)"
           id="path5930" />
        <path
           d="M 220,441 V 0 m 0,252 32,94 63,64 63,31 h 94"
           style="stroke-width:0.5635in"
           transform="matrix(0.0573333,0,0,-0.0573333,138.976,0)"
           id="path5932" />
        <path
           d="M 567,441 V 0 m 0,346 -63,64 -63,31 H 346 L 284,410 220,346 189,252 V 189 L 220,94.5 284,31.5 346,0 h 95 l 63,31.5 63,63"
           style="stroke-width:0.5635in"
           transform="matrix(0.0573333,0,0,-0.0573333,162.483,0)"
           id="path5934" />
        <path
           d="M 220,662 V 0"
           style="stroke-width:0.5635in"
           transform="matrix(0.0573333,0,0,-0.0573333,196.768,0)"
           id="path5936" />
        <path
           d="M 346,441 284,410 220,346 189,252 V 189 L 220,94.5 284,31.5 346,0 h 95 l 63,31.5 63,63 31,94.5 v 63 l -31,94 -63,64 -63,31 h -95"
           style="stroke-width:0.5635in"
           transform="matrix(0.0573333,0,0,-0.0573333,232.888,0)"
           id="path5938" />
        <path
           d="M 220,441 V 0 m 0,315 95,95 63,31 h 94 l 64,-31 31,-95 V 0"
           style="stroke-width:0.5635in"
           transform="matrix(0.0573333,0,0,-0.0573333,267.173,0)"
           id="path5940" />
        <path
           d="m 189,252 h 378 v 63 l -31,63 -32,32 -63,31 H 346 L 284,410 220,346 189,252 V 189 L 220,94.5 284,31.5 346,0 h 95 l 63,31.5 63,63"
           style="stroke-width:0.5635in"
           transform="matrix(0.0573333,0,0,-0.0573333,301.458,0)"
           id="path5942" />
        <path
           d="m 220,158 -31,-32 31,-31.5 32,31.5 -32,32"
           style="stroke-width:0.5635in"
           transform="matrix(0.0573333,0,0,-0.0573333,333.966,0)"
           id="path5944" />
      </g>
    </g>
  </g>
  <g
     inkscape:groupmode="layer"
     id="layer3"
     inkscape:label="speechbubbles"
     style="display:inline">
    <path
       style="color:#000000;display:inline;overflow:visible;visibility:visible;fill:#ffffff;fill-opacity:1;fill-rule:nonzero;stroke:none;stroke-width:0.825943px;marker:none;enable-background:accumulate"
       d="m 577.39062,1890.3496 c 13.55459,4.6614 27.39899,10.6876 36.98583,21.7461 6.87829,8.625 7.56098,20.6709 4.66066,30.9708 -1.44275,5.9611 -3.11819,12.8374 0.29351,18.4496 3.25292,4.4413 8.97247,5.7004 13.65335,8.0759 1.68146,0.5503 3.16657,2.0604 4.93205,2.0447 3.65441,-0.7862 8.30688,-4.5636 7.78517,-7.7805 0.4108,-14.3571 1.10006,-28.425 -3.6806,-42.3235 -4.09402,-10.8462 -16.4336,-19.4968 -27.02744,-23.2608 -13.09899,-5.2184 -27.0995,-7.7878 -41.09862,-9.0336 1.16537,0.3704 2.33073,0.7409 3.49609,1.1113 z"
       id="path4064-5-5"
       inkscape:connector-curvature="0"
       sodipodi:nodetypes="ccszccccccc" />
    <path
       style="color:#000000;display:inline;overflow:visible;visibility:visible;fill:#ffffff;fill-opacity:1;fill-rule:nonzero;stroke:none;stroke-width:1.1757px;marker:none;enable-background:accumulate"
       d="m 464.57454,2065.9711 c -0.0337,-37.3433 25.33715,-72.8613 62.07121,-94.4911 27.45273,-16.3962 61.97241,-25.1836 96.0574,-22.9471 37.65897,1.3719 75.48106,9.853 106.69656,27.4394 27.29409,15.1532 49.89284,37.833 56.04139,64.7652 7.04657,29.232 -8.73663,59.8463 -35.30441,79.5352 -16.44729,12.4038 -37.14647,20.7471 -59.05776,24.4628 -47.70914,8.4696 -97.85325,8.1351 -145.2418,-1.5858 -40.97839,-12.1532 -71.53565,-42.9508 -81.26259,-77.1786 z"
       id="path3365-8"
       inkscape:connector-curvature="0"
       sodipodi:nodetypes="cssccsc" />
    <path
       style="color:#000000;display:inline;overflow:visible;visibility:visible;fill:#ffffff;fill-opacity:1;fill-rule:nonzero;stroke:none;stroke-width:1.48514px;marker:none;enable-background:accumulate"
       d="m 1893.0469,1570.3017 c -56.6883,6.1761 -126.1336,-1.1979 -166.2258,47.4363 -39.7269,55.411 -32.9822,137.28 9.439,189.1728 44.5465,39.7481 109.4242,35.4544 165.4807,40.9499 61.9844,1.4706 126.7501,0.2417 185.1236,-21.9167 51.481,-29.1242 63.9132,-94.6813 52.9865,-148.1498 -4.2933,-49.6514 -42.1481,-95.1973 -94.242,-98.7057 -50.377,-8.0424 -101.7833,-5.726 -152.562,-8.7868 z"
       id="path3525-1"
       inkscape:connector-curvature="0"
       sodipodi:nodetypes="ccccc" />
    <path
       style="color:#000000;display:inline;overflow:visible;visibility:visible;fill:#ffffff;fill-opacity:1;fill-rule:nonzero;stroke:none;stroke-width:0.844663px;marker:none;enable-background:accumulate"
       d="m 1973.1118,1889.6755 c -18.1752,-11.0216 -34.1079,-35.6909 -38.6041,-62.1813 -3.212,-15.891 -4.9491,-32.3534 -3.0603,-47.1809 2.5292,-4.9506 8.5452,-3.2093 12.36,1.2176 6.174,5.2735 12.9392,8.5628 18.8573,14.6149 3.5725,5.1778 3.8133,12.417 2.6585,17.788 -1.1636,10.2097 -2.5765,21.1708 0.8478,32.3369 4.2315,15.7365 13.9898,28.6271 24.2515,37.2817 12.3531,10.7595 26.1526,15.1864 39.0912,15.7949 0.045,0.4487 -1.409,0.4203 -1.8941,0.6592 -17.1414,4.2654 -36.4098,1.3261 -54.5078,-10.331 z"
       id="path4064-5"
       inkscape:connector-curvature="0"
       sodipodi:nodetypes="ccszc" />
    <path
       style="fill:#ffffff;stroke:none;stroke-width:1.29168"
       d="m 430.72327,2274.0126 c -63.74565,0.6284 -127.98639,0.4014 -190.9023,8.6835 -23.10588,3.0517 -46.40358,7.2504 -66.80599,15.7822 -15.75824,6.5921 -29.03841,16.2923 -36.93004,28.04 -10.72114,15.8739 -12.46505,34.3109 -7.47853,51.4093 6.3023,21.4261 24.19333,41.3759 50.42085,53.242 20.16479,9.2754 44.05953,13.7753 67.88552,14.9326 44.8652,3.3798 89.83461,6.048 134.86906,7.9969 31.43615,1.3952 62.88302,2.7582 94.36206,3.5511 64.86646,1.0652 129.85212,-2.1044 193.9629,-9.1268 23.55849,-2.9868 47.30283,-8.5531 65.75697,-19.7182 17.23023,-10.4206 27.53726,-25.569 31.96949,-41.1063 4.00897,-13.2807 5.10263,-27.0233 3.15952,-40.5338 -2.20736,-12.3988 -8.91726,-24.6952 -21.31336,-33.789 -13.76743,-10.7108 -32.45186,-17.9575 -52.29612,-21.2336 -21.14488,-4.1285 -42.9798,-5.9637 -64.55142,-8.5902 -66.8604,-7.0703 -134.54281,-9.7687 -202.10861,-9.5397 z"
       id="path3100-2"
       inkscape:connector-curvature="0" />
    <path
       style="fill:#ffffff;stroke:none;stroke-width:1.15228"
       d="m 432.34272,2411.1355 c -57.69023,1.4255 -116.18902,1.592 -172.31646,14.9613 -22.82183,5.5849 -45.61052,16.109 -59.02389,34.6065 -18.19834,26.9283 -15.9672,62.8095 0.80947,90.1445 15.15351,24.9652 44.32323,41.749 74.99204,44.4582 40.48286,4.2758 81.13333,6.9026 121.80868,8.5905 21.04122,0.8358 42.06567,2.1318 63.10838,2.863 53.40991,1.2179 106.84794,-2.3285 159.59023,-9.5113 22.40029,-3.1885 45.3844,-8.9344 62.85774,-22.783 12.20121,-9.4092 19.94486,-22.8156 23.96101,-36.8796 5.6775,-19.3058 5.76644,-39.7754 2.73889,-59.5531 -2.9411,-15.7827 -10.99402,-32.1256 -26.59543,-40.5249 -16.71343,-9.0909 -36.47798,-10.1793 -55.04157,-13.6435 -65.0203,-10.3541 -131.08482,-13.9631 -196.88909,-12.7286 z"
       id="path3100-2-1"
       inkscape:connector-curvature="0" />
    <path
       style="fill:#ffffff;stroke:none;stroke-width:1.25761"
       d="m 536.8811,2564.2213 c -92.98191,3.2557 -190.76154,-0.022 -277.17435,30.8316 -45.05235,18.7498 -64.96637,60.2161 -60.35997,98.0957 2.30132,49.6041 45.83524,102.4889 113.66215,108.7634 68.91074,6.6848 138.43725,9.9193 207.82351,12.4244 91.08034,2.0134 184.24456,-0.3719 271.79857,-21.4517 44.45376,-13.7635 69.51449,-49.8269 72.37452,-85.4257 9.43004,-44.6192 -10.48654,-97.2272 -66.16251,-118.4303 -49.0838,-15.4717 -103.3387,-16.9512 -155.45539,-21.8202 -35.41682,-2.2685 -70.97041,-3.2354 -106.50653,-2.9872 z"
       id="path3100-2-1-9"
       inkscape:connector-curvature="0" />
    <path
       style="fill:#ffffff;fill-rule:evenodd;stroke:none;stroke-width:1px;stroke-linecap:butt;stroke-linejoin:miter;stroke-opacity:1"
       d="m 565.35803,2748.8183 c 0,0 15.49435,31.1557 18.76123,47.2541 3.26688,16.0984 -2.23396,98.2886 -54.0297,124.672 60.58129,-13.8373 97.25045,-97.2182 74.9118,-174.2445 -8.13467,-28.0492 -39.64333,2.3184 -39.64333,2.3184 z"
       id="path1357"
       inkscape:connector-curvature="0"
       sodipodi:nodetypes="cscsc" />
    <path
       style="color:#000000;display:inline;overflow:visible;visibility:visible;fill:#ffffff;fill-opacity:1;fill-rule:nonzero;stroke:none;stroke-width:1.00343px;marker:none;enable-background:accumulate"
       d="m 1115.0679,1613.416 c -19.9497,0.665 -40.3736,4.8405 -58.2014,17.7518 -15.2818,11.7343 -25.9237,32.595 -31.362,55.0672 -3.8081,14.3929 -6.003,30.6636 -2.1011,45.4728 4.8159,18.412 16.9001,31.7974 30.1621,37.9765 21.287,11.2748 44.4063,12.4073 66.9455,13.4689 24.4324,0.8833 48.9352,1.6213 73.3218,-1.086 13.2897,-1.7873 26.7492,-6.7791 37.5359,-17.9635 8.8716,-8.7548 16.1287,-21.8232 17.3551,-37.0517 1.7802,-17.9924 -1.7049,-36.2294 -7.2418,-52.4672 -7.5255,-21.0264 -20.9145,-38.1831 -37.0812,-46.1168 -20.5849,-10.962 -42.9111,-12.5985 -64.7237,-14.3303 -8.1943,-0.5894 -16.4029,-0.9884 -24.6092,-0.7217 z"
       id="path4546-6-89"
       inkscape:connector-curvature="0"
       sodipodi:nodetypes="cssssc" />
    <path
       style="color:#000000;display:inline;overflow:visible;visibility:visible;fill:#ffffff;fill-opacity:1;fill-rule:nonzero;stroke:none;stroke-width:1px;marker:none;enable-background:accumulate"
       d="m 1191.4693,1723.1631 c 34.2678,49.2543 68.9523,97.6924 121.3421,87.479 -53.9312,29.956 -129.2913,-39.4416 -157.7344,-79.0515 -24.1583,-33.6427 36.3923,-8.4275 36.3923,-8.4275 z"
       id="path4480-3"
       inkscape:connector-curvature="0"
       sodipodi:nodetypes="ccsc" />
    <path
       style="color:#000000;display:inline;overflow:visible;visibility:visible;fill:#ffffff;fill-opacity:1;fill-rule:nonzero;stroke:none;stroke-width:0.95977px;marker:none;enable-background:accumulate"
       d="m 926.821,2384.7386 c 1.0541,-41.5238 55.68419,-72.0916 205.335,-64.8041 80.161,3.9043 171.0095,6.3303 170.3913,67.1567 -0.6184,60.8263 -130.9903,59.7186 -157.753,61.2348 -26.7623,1.5161 -167.34902,-4.3702 -193.63802,-24.9684 -16.45634,-12.8943 -23.65532,-25.7617 -24.33528,-38.619 z"
       id="path4546-6-89-3"
       inkscape:connector-curvature="0"
       sodipodi:nodetypes="cssssc" />
    <path
       style="fill:#ffffff;stroke:none;stroke-width:0.839867"
       d="m 1191.6612,2424.9112 c 139.5256,6.2934 191.5057,18.2924 200.0502,145.4044 11.8268,175.9229 -106.4572,184.701 -270.1451,176.5139 -176.60867,-8.8335 -179.73698,-112.4756 -176.43638,-197.0237 5.69513,-145.9021 103.44558,-127.8186 246.53128,-124.8946 z"
       id="path3280-8-0"
       inkscape:connector-curvature="0"
       sodipodi:nodetypes="csssc" />
    <path
       style="color:#000000;display:inline;overflow:visible;visibility:visible;fill:#ffffff;fill-opacity:1;fill-rule:nonzero;stroke:none;stroke-width:1px;marker:none;enable-background:accumulate"
       d="m 1210.7284,2694.9039 c -14.7937,34.7302 -29.7284,103.9977 49.732,149.2666 -38.7431,-11.0789 -115.7589,-45.8618 -84.4037,-150.4179 9.0983,-30.339 16.322,-15.8945 23.6557,-14.9665 7.3338,0.9279 11.016,16.1178 11.016,16.1178 z"
       id="path4064-3"
       inkscape:connector-curvature="0"
       sodipodi:nodetypes="ccszc" />
    <path
       style="color:#000000;display:inline;overflow:visible;visibility:visible;fill:#ffffff;fill-opacity:1;fill-rule:nonzero;stroke:none;stroke-width:0.704533px;marker:none;enable-background:accumulate"
       d="m 1664.1129,2304.8762 c 30.7091,-39.6682 83.2317,-42.2159 127.8856,-42.2394 42.041,1.0129 85.9619,3.7125 124.5656,22.7913 24.8767,12.2041 41.694,44.8101 27.7404,72.1033 -17.2124,23.4202 -48.397,23.0482 -73.4547,29.5615 -49.4415,7.4345 -99.4761,0.6211 -148.6876,-5.5691 -22.4377,-4.6029 -50.0494,-9.8591 -59.2296,-35.6353 -5.2119,-12.5917 -7.5568,-29.5328 1.1803,-41.0123 z"
       id="path3533-6"
       inkscape:connector-curvature="0" />
    <path
       style="fill:#ffffff;fill-rule:evenodd;stroke:none;stroke-width:1.38581px;stroke-linecap:butt;stroke-linejoin:miter;stroke-opacity:1"
       d="m 1854.546,2372.7244 c 38.9505,26.0497 41.6227,92.7882 26.6214,123.6319 14.1425,-16.2403 51.5149,-98.8625 -6.7766,-150.4117 -47.9683,-42.42 -26.0826,20.6575 -26.0826,20.6575 z"
       id="path4248"
       inkscape:connector-curvature="0"
       sodipodi:nodetypes="ccscc" />
    <path
       style="display:inline;fill:#ffffff;stroke:none;stroke-width:0.994595"
       d="m 2064.8877,2367.6599 c 0.6414,-44.3595 24.3072,-84.2461 131.8193,-77.1267 107.5122,7.1193 142.8181,11.8987 143.038,72.3809 0.2301,63.2975 -53.2334,78.1849 -134.6101,80.635 -83.8905,2.5256 -139.9151,-23.1978 -140.2472,-75.8892 z"
       id="path3280-64"
       inkscape:connector-curvature="0"
       sodipodi:nodetypes="csssc" />
    <path
       style="color:#000000;display:inline;overflow:visible;visibility:visible;fill:#ffffff;fill-opacity:1;fill-rule:nonzero;stroke:none;stroke-width:1.00876px;marker:none;enable-background:accumulate"
       d="m 2225.6941,2499.207 c 29.3281,-35.4419 42.8909,-48.473 14.1537,-86.3903 -28.7372,-37.9162 -14.1521,-48.0944 -14.1521,-48.0944 l 30.5785,11.3041 c 0,0 63.9999,68.3303 -30.5801,123.1806 z"
       id="path3072-56"
       inkscape:connector-curvature="0"
       sodipodi:nodetypes="ccccc" />
    <path
       style="color:#000000;display:inline;overflow:visible;visibility:visible;fill:#ffffff;fill-opacity:1;fill-rule:nonzero;stroke:none;stroke-width:0.719299px;marker:none;enable-background:accumulate"
       d="m 2148.6503,2857.9175 c 12.6266,-9.9895 102.6881,-19.5563 128.2515,6.1257 21.3375,21.4363 19.9683,63.4313 0.4263,79.2151 -19.909,16.0793 -95.7795,10.4002 -125.1038,2.6999 -27.6141,-7.2509 -27.1145,-24.7778 -26.3612,-55.3282 0.3074,-12.4682 10.1608,-22.7237 22.7872,-32.7125 z"
       id="path4040-4-5-3-6"
       inkscape:connector-curvature="0"
       sodipodi:nodetypes="zssssz" />
    <path
       style="color:#000000;display:inline;overflow:visible;visibility:visible;fill:#ffffff;fill-opacity:1;fill-rule:nonzero;stroke:none;stroke-width:0.76562px;marker:none;enable-background:accumulate"
       d="m 2206.5964,2932.3993 c -26.5436,0.6034 -53.2714,2.8489 -78.9957,10.4239 -15.2136,3.8736 -31.1846,6.2524 -44.8813,15.0179 -11.4594,7.1872 -21.7989,16.5512 -30.4118,27.4979 -5.2066,7.4446 -7.5879,16.8968 -7.5225,26.1957 -0.9571,14.8074 1.2287,30.5851 9.4128,42.8057 8.3628,12.4857 21.3234,20.1605 34.542,24.862 34.1038,13.4612 70.6781,16.7034 106.6722,17.3147 29.7181,0.2673 59.7738,0.3062 88.9362,-6.7829 11.8739,-2.9335 23.6271,-6.8639 34.5873,-12.7063 17.3,-10.6744 28.1197,-31.7651 29.2798,-53.2266 1.333,-18.9355 -4.1635,-38.9852 -16.7846,-52.4062 -10.2444,-10.3911 -23.8968,-15.1955 -37.1228,-19.0498 -23.0665,-6.433 -45.681,-15.2088 -69.3474,-18.7603 -6.0839,-0.8931 -12.2269,-1.2722 -18.3642,-1.1857 z"
       id="path4040-4-5-3"
       inkscape:connector-curvature="0"
       sodipodi:nodetypes="zssssz" />
    <path
       style="display:inline;fill:#ffffff;fill-rule:evenodd;stroke:none;stroke-width:1px;stroke-linecap:butt;stroke-linejoin:miter;stroke-opacity:1"
       d="m 2233.8905,2901.4843 c -59.0902,-10.6562 16.1202,-61.0715 -1.0396,-83.0609 -8.296,-10.6309 -45.3019,13.7249 -85.4552,-27.1328 44.274,25.5713 73.4492,-3.2499 94.1628,5.6982 39.3401,16.9937 6.1746,61.0235 5.4438,70.8494 -0.9776,13.1415 -13.1118,33.6461 -13.1118,33.6461 z"
       id="path4186-80"
       inkscape:connector-curvature="0"
       sodipodi:nodetypes="cscssc" />
  </g>
  <g
     inkscape:groupmode="layer"
     id="layer1"
     inkscape:label="txt"
     style="display:inline">
    <text
       id="text4246-4-2-7"
       y="2041.0352"
       x="634.4826"
       style="font-style:normal;font-variant:normal;font-weight:normal;font-stretch:normal;line-height:0%;font-family:Lavi;-inkscape-font-specification:Lavi;text-align:center;letter-spacing:0px;word-spacing:0px;text-anchor:middle;fill:#000000;fill-opacity:1;stroke:none"
       xml:space="preserve"><tspan
         y="2041.0352"
         x="634.4826"
         style="font-size:45px;line-height:1.25"
         sodipodi:role="line"
         id="tspan5816">A gente tava </tspan><tspan
         y="2097.2852"
         x="634.4826"
         style="font-size:45px;line-height:1.25"
         sodipodi:role="line"
         id="tspan6652">tão perto...</tspan></text>
    <text
       id="text4246-4-2-7-3-2"
       y="1689.6537"
       x="1137.2744"
       style="font-style:normal;font-variant:normal;font-weight:normal;font-stretch:normal;line-height:0%;font-family:Lavi;-inkscape-font-specification:Lavi;text-align:center;letter-spacing:0px;word-spacing:0px;text-anchor:middle;fill:#000000;fill-opacity:1;stroke:none"
       xml:space="preserve"><tspan
         y="1689.6537"
         x="1137.2744"
         style="font-size:45px;line-height:1.25"
         sodipodi:role="line"
         id="tspan11289">É, tão </tspan><tspan
         y="1745.9037"
         x="1137.2744"
         style="font-size:45px;line-height:1.25"
         sodipodi:role="line"
         id="tspan7882">perto.</tspan></text>
    <text
       id="text4246-4-2-7-3"
       y="1664.5251"
       x="1924.2388"
       style="font-style:normal;font-variant:normal;font-weight:normal;font-stretch:normal;line-height:0%;font-family:Lavi;-inkscape-font-specification:Lavi;text-align:center;letter-spacing:0px;word-spacing:0px;text-anchor:middle;fill:#000000;fill-opacity:1;stroke:none"
       xml:space="preserve"><tspan
         y="1664.5251"
         x="1924.2388"
         style="font-size:45px;line-height:1.25"
         sodipodi:role="line"
         id="tspan9532">Aliás, você sabe </tspan><tspan
         y="1720.7751"
         x="1924.2388"
         style="font-size:45px;line-height:1.25"
         sodipodi:role="line"
         id="tspan9536">por que a Wasabi </tspan><tspan
         y="1777.0251"
         x="1924.2388"
         style="font-size:45px;line-height:1.25"
         sodipodi:role="line"
         id="tspan9538">tá atrás de mim?</tspan></text>
    <text
       id="text4246-4-2-7-3-6-7"
       y="2348.5913"
       x="447.81973"
       style="font-style:normal;font-variant:normal;font-weight:normal;font-stretch:normal;line-height:0%;font-family:Lavi;-inkscape-font-specification:Lavi;text-align:center;letter-spacing:0px;word-spacing:0px;text-anchor:middle;fill:#000000;fill-opacity:1;stroke:none"
       xml:space="preserve"><tspan
         y="2348.5913"
         x="447.81973"
         style="font-size:45px;line-height:1.25;fill:#000000"
         sodipodi:role="line"
         id="tspan32649">Ela tem medo das bruxas </tspan><tspan
         y="2404.8413"
         x="447.81973"
         style="font-size:45px;line-height:1.25;fill:#000000"
         sodipodi:role="line"
         id="tspan9540">de Chaosah, Pepper...</tspan></text>
    <text
       id="text4246-4-2-7-3-6-7-6"
       y="2472.7092"
       x="454.73358"
       style="font-style:normal;font-variant:normal;font-weight:normal;font-stretch:normal;line-height:0%;font-family:Lavi;-inkscape-font-specification:Lavi;text-align:center;letter-spacing:0px;word-spacing:0px;text-anchor:middle;fill:#000000;fill-opacity:1;stroke:none"
       xml:space="preserve"><tspan
         y="2472.7092"
         x="454.73358"
         style="font-size:45px;line-height:1.25;fill:#000000"
         sodipodi:role="line"
         id="tspan9542">Especialmente das <tspan
   style="font-weight:bold"
   id="tspan3043"></tspan></tspan><tspan
         y="2528.9592"
         x="454.73358"
         style="font-size:45px;line-height:1.25;fill:#000000"
         sodipodi:role="line"
         id="tspan9550"><tspan
   style="font-weight:bold"
   id="tspan9552">reações em cadeia</tspan> </tspan><tspan
         y="2585.7358"
         x="454.73358"
         style="font-size:45px;line-height:1.25;fill:#000000"
         sodipodi:role="line"
         id="tspan9554">de vocês.</tspan></text>
    <text
       id="text4246-4-2-7-3-6-7-6-6"
       y="2647.9121"
       x="542.9151"
       style="font-style:normal;font-variant:normal;font-weight:normal;font-stretch:normal;line-height:0%;font-family:Lavi;-inkscape-font-specification:Lavi;text-align:center;letter-spacing:0px;word-spacing:0px;text-anchor:middle;fill:#000000;fill-opacity:1;stroke:none"
       xml:space="preserve"><tspan
         y="2647.9121"
         x="542.9151"
         style="font-size:45px;line-height:1.25;fill:#000000"
         sodipodi:role="line"
         id="tspan9556">Ela acredita que esses </tspan><tspan
         y="2704.1621"
         x="542.9151"
         style="font-size:45px;line-height:1.25;fill:#000000"
         sodipodi:role="line"
         id="tspan9562">feitiços sejam uma grande </tspan><tspan
         y="2760.4121"
         x="542.9151"
         style="font-size:45px;line-height:1.25;fill:#000000"
         sodipodi:role="line"
         id="tspan9564">ameaça para os planos dela.</tspan></text>
    <text
       id="text4246-4-2-7-3-6-7-6-6-4"
       y="2394.4653"
       x="1119.1504"
       style="font-style:normal;font-variant:normal;font-weight:normal;font-stretch:normal;line-height:0%;font-family:Lavi;-inkscape-font-specification:Lavi;text-align:center;letter-spacing:0px;word-spacing:0px;text-anchor:middle;fill:#000000;fill-opacity:1;stroke:none"
       xml:space="preserve"><tspan
         y="2394.4653"
         x="1119.1504"
         style="font-size:45px;line-height:1.25;fill:#000000"
         sodipodi:role="line"
         id="tspan83621-1-4">Ah, isso, pfff...</tspan></text>
    <text
       id="text4246-4-2-7-3-6-7-6-6-4-5"
       y="2519.5476"
       x="1176.139"
       style="font-style:normal;font-variant:normal;font-weight:normal;font-stretch:normal;line-height:0%;font-family:Lavi;-inkscape-font-specification:Lavi;text-align:center;letter-spacing:0px;word-spacing:0px;text-anchor:middle;fill:#000000;fill-opacity:1;stroke:none"
       xml:space="preserve"><tspan
         y="2519.5476"
         x="1176.139"
         style="font-size:45px;line-height:1.25;fill:#000000"
         sodipodi:role="line"
         id="tspan9580">Ela pode ficar fria, </tspan><tspan
         y="2575.7976"
         x="1176.139"
         style="font-size:45px;line-height:1.25;fill:#000000"
         sodipodi:role="line"
         id="tspan9584">eu nunca consegui </tspan><tspan
         y="2632.0476"
         x="1176.139"
         style="font-size:45px;line-height:1.25;fill:#000000"
         sodipodi:role="line"
         id="tspan9586">desencadear uma </tspan><tspan
         y="2688.2976"
         x="1176.139"
         style="font-size:45px;line-height:1.25;fill:#000000"
         sodipodi:role="line"
         id="tspan9588">reação dessas.</tspan></text>
    <text
       id="text4246-4-2-7-3-6-7-6-6-4-5-1"
       y="2338.7527"
       x="1802.5892"
       style="font-style:normal;font-variant:normal;font-weight:normal;font-stretch:normal;line-height:0%;font-family:Lavi;-inkscape-font-specification:Lavi;text-align:center;letter-spacing:0px;word-spacing:0px;text-anchor:middle;fill:#000000;fill-opacity:1;stroke:none"
       xml:space="preserve"><tspan
         y="2338.7527"
         x="1802.5892"
         style="font-size:45px;line-height:1.25;fill:#000000"
         sodipodi:role="line"
         id="tspan186800-2">Não brinca?</tspan></text>
    <text
       id="text4246-4-2-7-3-6-7-6-6-4-5-1-6"
       y="2355.8303"
       x="2204.064"
       style="font-style:normal;font-variant:normal;font-weight:normal;font-stretch:normal;font-size:39px;line-height:0%;font-family:Lavi;-inkscape-font-specification:Lavi;text-align:center;letter-spacing:0px;word-spacing:0px;text-anchor:middle;fill:#000000;fill-opacity:1;stroke:none"
       xml:space="preserve"><tspan
         y="2355.8303"
         x="2204.064"
         style="font-size:39px;line-height:1.25;fill:#000000"
         sodipodi:role="line"
         id="tspan94771">É, sério, </tspan><tspan
         y="2404.5803"
         x="2204.064"
         style="font-size:39px;line-height:1.25;fill:#000000"
         sodipodi:role="line"
         id="tspan9590">ha ha ha!</tspan></text>
    <text
       id="text4246-4-2-7-3-6-7-6-6-4-5-1-6-5"
       y="2911.1982"
       x="2205.9717"
       style="font-style:normal;font-variant:normal;font-weight:normal;font-stretch:normal;font-size:42.5063px;line-height:0%;font-family:Lavi;-inkscape-font-specification:Lavi;text-align:center;letter-spacing:0px;word-spacing:0px;text-anchor:middle;fill:#000000;fill-opacity:1;stroke:none;stroke-width:1.0899"
       xml:space="preserve"><tspan
         y="2911.1982"
         x="2205.9717"
         style="font-size:42.5063px;line-height:1.25;fill:#000000;stroke-width:1.0899"
         sodipodi:role="line"
         id="tspan201029-4">Hi-hi!</tspan></text>
    <text
       id="text4246-4-2-7-3-6-7-6-6-4-5-1-6-5-7"
       y="3002.9026"
       x="2200.3838"
       style="font-style:normal;font-variant:normal;font-weight:normal;font-stretch:normal;font-size:39px;line-height:0%;font-family:Lavi;-inkscape-font-specification:Lavi;text-align:center;letter-spacing:0px;word-spacing:0px;text-anchor:middle;fill:#000000;fill-opacity:1;stroke:none"
       xml:space="preserve"><tspan
         y="3002.9026"
         x="2200.3838"
         style="font-size:39px;line-height:1.25;fill:#000000"
         sodipodi:role="line"
         id="tspan104571">Ela é tão </tspan><tspan
         y="3051.6526"
         x="2200.3838"
         style="font-size:39px;line-height:1.25;fill:#000000"
         sodipodi:role="line"
         id="tspan9592">paranóica...</tspan></text>
  </g>
</svg>
