<?xml version="1.0" encoding="UTF-8" standalone="no"?>
<svg
   id="svg2"
   version="1.1"
   inkscape:version="1.1.1 (3bf5ae0d25, 2021-09-20, custom)"
   width="2481"
   height="3503"
   sodipodi:docname="E34P01.svg"
   xmlns:inkscape="http://www.inkscape.org/namespaces/inkscape"
   xmlns:sodipodi="http://sodipodi.sourceforge.net/DTD/sodipodi-0.dtd"
   xmlns:xlink="http://www.w3.org/1999/xlink"
   xmlns="http://www.w3.org/2000/svg"
   xmlns:svg="http://www.w3.org/2000/svg"
   xmlns:rdf="http://www.w3.org/1999/02/22-rdf-syntax-ns#"
   xmlns:cc="http://creativecommons.org/ns#"
   xmlns:dc="http://purl.org/dc/elements/1.1/">
  <metadata
     id="metadata8">
    <rdf:RDF>
      <cc:Work
         rdf:about="">
        <dc:format>image/svg+xml</dc:format>
        <dc:type
           rdf:resource="http://purl.org/dc/dcmitype/StillImage" />
        <dc:title />
      </cc:Work>
    </rdf:RDF>
  </metadata>
  <defs
     id="defs6">
    <filter
       inkscape:collect="always"
       style="color-interpolation-filters:sRGB"
       id="filter7961"
       x="-0.0039160251"
       width="1.0078321"
       y="-0.013391682"
       height="1.0267834"
       inkscape:label="blur-layer-whisper">
      <feGaussianBlur
         inkscape:collect="always"
         stdDeviation="2.6222679"
         id="feGaussianBlur7963" />
    </filter>
    <filter
       style="color-interpolation-filters:sRGB;"
       inkscape:label="narrator-drop-shadow"
       id="filter8274"
       width="1.079756"
       height="1.3504795"
       x="-0.052728084"
       y="-0.16361136">
      <feFlood
         flood-opacity="0.603922"
         flood-color="rgb(0,21,64)"
         result="flood"
         id="feFlood8264" />
      <feComposite
         in="flood"
         in2="SourceGraphic"
         operator="in"
         result="composite1"
         id="feComposite8266" />
      <feGaussianBlur
         in="composite1"
         stdDeviation="2.0230825044646368"
         result="blur"
         id="feGaussianBlur8268" />
      <feOffset
         dx="-7.4077921838061513"
         dy="4.8380533854166714"
         result="offset"
         id="feOffset8270" />
      <feComposite
         in="SourceGraphic"
         in2="offset"
         operator="over"
         result="fbSourceGraphic"
         id="feComposite8272" />
      <feColorMatrix
         result="fbSourceGraphicAlpha"
         in="fbSourceGraphic"
         values="0 0 0 -1 0 0 0 0 -1 0 0 0 0 -1 0 0 0 0 1 0"
         id="feColorMatrix8420" />
      <feFlood
         id="feFlood8422"
         flood-opacity="0.061934527228860295"
         flood-color="rgb(0,12,37)"
         result="flood"
         in="fbSourceGraphic" />
      <feComposite
         in2="fbSourceGraphic"
         id="feComposite8424"
         in="flood"
         operator="in"
         result="composite1" />
      <feGaussianBlur
         id="feGaussianBlur8426"
         in="composite1"
         stdDeviation="1"
         result="blur" />
      <feOffset
         id="feOffset8428"
         dx="-3.3194756113327486"
         dy="-2.8318869588504754"
         result="offset" />
      <feComposite
         in2="offset"
         id="feComposite8430"
         in="fbSourceGraphic"
         operator="over"
         result="composite2" />
    </filter>
  </defs>
  <sodipodi:namedview
     pagecolor="#ffffff"
     bordercolor="#666666"
     borderopacity="1"
     objecttolerance="10"
     gridtolerance="10"
     guidetolerance="10"
     inkscape:pageopacity="0"
     inkscape:pageshadow="2"
     inkscape:window-width="1888"
     inkscape:window-height="1146"
     id="namedview4"
     showgrid="false"
     inkscape:zoom="0.30952006"
     inkscape:cx="1379.5552"
     inkscape:cy="1959.4853"
     inkscape:window-x="32"
     inkscape:window-y="0"
     inkscape:window-maximized="1"
     inkscape:current-layer="layer3"
     inkscape:document-rotation="0"
     borderlayer="true"
     inkscape:snap-global="false"
     inkscape:pagecheckerboard="0" />
  <g
     inkscape:groupmode="layer"
     id="layer2"
     inkscape:label="artwork"
     sodipodi:insensitive="true">
    <image
       xlink:href="../gfx_Pepper-and-Carrot_by-David-Revoy_E34P01.png"
       y="0"
       x="0"
       id="image10"
       height="3503.7233"
       width="2481" />
  </g>
  <g
     inkscape:groupmode="layer"
     id="layer3"
     inkscape:label="speechbubbles-whisper"
     style="display:inline;opacity:0.65;filter:url(#filter7961)">
    <path
       id="path1299"
       style="fill:#e0ffff;fill-rule:evenodd;stroke:none;stroke-width:1.19535px;stroke-linecap:butt;stroke-linejoin:miter;stroke-opacity:1"
       d="m 1496.9486,2593.9831 c -35.684,2.5162 -71.6759,4.2884 -106.6998,13.7911 -28.9356,9.4174 -56.8269,24.2883 -80.8118,45.4706 -19.2862,18.6953 -32.5965,46.2146 -33.8972,75.1448 -1.1476,32.5142 15.1054,64.1698 39.6284,79.6764 18.1447,12.1023 38.0074,20.3148 57.6092,28.8193 28.5276,11.2866 58.942,15.5286 89.1861,15.592 36.8912,0.5577 73.7762,-2.4683 110.6289,-4.8903 29.297,-2.1395 58.9274,-4.9366 87.1934,-15.123 16.8969,-6.3365 32.7142,-17.1139 44.9939,-32.0521 9.8873,-11.4412 19.2175,-24.5457 22.9238,-40.3218 3.9497,-17.4793 1.6683,-35.8231 -2.7331,-52.7156 -5.6756,-20.9843 -16.9714,-39.475 -31.0901,-54.0521 -15.5488,-16.186 -33.1078,-30.1537 -52.7311,-39.1518 -9.9435,-4.6851 -20.4247,-7.7518 -31.0498,-9.7804 -26.9188,-5.6806 -54.3107,-8.0375 -81.6473,-10.0475 -10.487,-0.5431 -20.9967,-0.6169 -31.5035,-0.3596 z" />
    <path
       style="fill:#e0ffff;fill-rule:evenodd;stroke:none;stroke-width:1.47039px;stroke-linecap:butt;stroke-linejoin:miter;stroke-opacity:1"
       d="m 1286.1684,2519.2939 c -22.1536,0.5715 -44.6786,3.124 -64.9078,10.569 -23.9147,9.335 -40.4943,29.5951 -40.4367,50.6444 0.538,10.9745 7.2467,21.3476 16.6687,29.2934 6.7691,5.6779 15.267,9.8604 24.1297,13.2307 17.8441,7.0126 37.841,10.2679 57.7311,10.4477 31.6923,1.3792 63.7504,-0.345 94.5945,-6.3959 14.5156,-2.9712 28.9676,-7.7122 39.7245,-16.162 11.011,-8.3459 19.0816,-19.6239 20.034,-31.7683 0.2922,-10.8875 -5.7249,-21.2253 -13.5599,-29.9724 -9.9842,-11.6163 -25.2419,-20.6918 -42.7905,-23.8402 -21.3498,-4.5851 -43.6241,-5.1076 -65.6065,-5.8492 -8.5245,-0.1945 -17.0535,-0.2195 -25.5811,-0.1972 z"
       id="path1285"
       inkscape:connector-curvature="0" />
    <path
       style="font-variation-settings:normal;vector-effect:none;fill:#e0ffff;fill-opacity:1;stroke:none;stroke-width:1.2969px;stroke-linecap:butt;stroke-linejoin:miter;stroke-miterlimit:4;stroke-dasharray:none;stroke-dashoffset:0;stroke-opacity:1;stop-color:#000000"
       d="m 244.19381,2520.0782 c -27.69203,1.2916 -55.49485,11.0433 -77.07183,30.1256 -18.17724,15.536 -33.39377,36.0209 -40.44196,60.0809 -11.69804,43.278 2.59069,93.3866 35.20196,121.7521 17.68114,15.6563 39.60313,24.4751 61.62971,30.1802 37.23225,9.2884 76.18795,10.3445 113.84846,3.445 22.81696,-4.9094 45.1915,-15.2297 62.15537,-32.727 18.39522,-18.9938 30.41158,-45.5686 31.25084,-73.1612 0.58642,-15.4563 -1.12754,-30.9313 -3.92971,-46.0699 -4.78074,-23.6349 -16.40382,-45.9308 -33.90444,-61.3114 -11.66964,-10.3951 -25.68265,-17.4485 -40.31609,-21.4421 -24.97851,-7.4672 -50.99357,-9.6115 -76.7999,-10.5975 -10.53838,-0.3007 -21.08124,-0.2801 -31.62241,-0.2747 z"
       id="path3280-8-90"
       inkscape:connector-curvature="0"
       sodipodi:nodetypes="csssc" />
    <path
       style="fill:#e0ffff;fill-opacity:1;fill-rule:evenodd;stroke:none;stroke-width:1.28082px;stroke-linecap:butt;stroke-linejoin:miter;stroke-opacity:1"
       d="m 405.61348,2631.9631 c 42.85265,-5.0607 58.06957,-2.3086 68.49973,0.7202 10.42915,3.0295 34.5561,33.0962 43.85358,53.3011 -34.06156,-36.1486 -48.52756,-39.3772 -65.05064,-34.4498 -16.52311,4.9273 -63.29994,23.4366 -63.29994,23.4366 l 11.09296,-45.4041 z"
       id="path1291"
       inkscape:connector-curvature="0"
       sodipodi:nodetypes="csccccc" />
    <path
       style="fill:#e0ffff;fill-rule:evenodd;stroke:none;stroke-width:0.964753px;stroke-linecap:butt;stroke-linejoin:miter;stroke-opacity:1"
       d="m 1434.2038,2989.2388 c 48.3667,-37.0134 81.9085,-79.2404 77.928,-171.8638 l 30.8393,-3.1198 c -4.7727,67.6875 -17.9327,144.5385 -108.7673,174.9836 z"
       id="path1291-6"
       inkscape:connector-curvature="0"
       sodipodi:nodetypes="cccc" />
  </g>
  <g
     inkscape:groupmode="layer"
     id="layer4"
     inkscape:label="speechbubbles"
     style="display:inline">
    <path
       id="path4040-4-1"
       style="color:#000000;display:inline;overflow:visible;visibility:visible;fill:#ffffff;fill-opacity:1;fill-rule:nonzero;stroke:none;stroke-width:0.837466px;marker:none;enable-background:accumulate"
       d="m 406.0638,1883.1559 c -50.56133,0.572 -101.47247,0.3559 -151.4502,10.2996 -29.56977,6.4965 -57.82059,23.3483 -77.72375,49.4291 -9.07081,12.0157 -15.46817,26.6472 -18.12963,42.2419 -4.69225,24.9363 -2.75824,50.9635 2.56466,75.5535 5.64405,24.8082 16.724,48.6238 34.08421,65.276 15.69391,15.4198 35.35796,24.8739 55.61093,29.0997 20.12928,4.5949 40.56046,7.2616 60.99811,9.2759 57.06101,5.1338 114.32908,2.1687 171.4735,1.2497 33.31785,-1.004 67.06877,-4.6449 98.64227,-17.5703 17.56554,-6.8128 35.29005,-15.2546 48.98568,-29.9635 12.28744,-14.4558 18.2099,-34.0966 22.34298,-53.2713 4.9613,-24.3263 6.52821,-49.7394 3.34213,-74.5053 -3.76878,-24.2516 -15.55033,-46.6381 -32.36788,-62.0201 -14.26437,-13.4463 -31.62984,-21.8125 -49.36054,-27.2608 -50.46124,-17.1058 -103.60342,-17.7951 -155.80591,-17.8666 -4.40225,-0.016 -8.80436,0.01 -13.20656,0.033 z" />
    <path
       style="color:#000000;display:inline;overflow:visible;visibility:visible;fill:#ffffff;fill-opacity:1;fill-rule:nonzero;stroke:none;stroke-width:1.80075px;marker:none;enable-background:accumulate"
       d="m 539.19946,1927.3519 c 7.55014,-44.8382 62.74837,-99.1824 137.61984,-61.3131 -80.77928,-16.5552 -107.19343,39.0539 -106.74645,81.3775 0.39562,37.4602 -16.36437,17.1598 -16.36437,17.1598 z"
       id="path4440-1"
       inkscape:connector-curvature="0"
       sodipodi:nodetypes="ccscc" />
    <path
       style="color:#000000;display:inline;overflow:visible;visibility:visible;fill:#ffffff;fill-opacity:1;fill-rule:nonzero;stroke:none;stroke-width:0.700598px;marker:none;enable-background:accumulate"
       d="m 1779.798,2838.742 c -18.715,2.5941 -37.5529,6.1471 -55.2335,15.0673 -9.3088,5.0192 -16.8625,15.2749 -21.4017,27.5302 -3.5449,9.6259 -5.2774,20.8902 -3.73,31.7544 2.3606,17.7548 11.4958,33.6763 23.5164,40.7039 11.4571,7.3046 23.9989,9.9763 36.3479,11.8771 28.4602,4.1258 57.0211,2.1775 85.5267,3.6831 12.5249,0.5793 25.3124,-1.5255 36.7032,-8.7592 9.6072,-5.9879 18.225,-15.7271 23.1941,-28.7969 3.6027,-9.1181 4.982,-20.0225 3.5034,-30.4029 -1.1872,-9.349 -4.4931,-18.1027 -9.0962,-25.1567 -7.0339,-11.1973 -16.6939,-18.6282 -26.7548,-22.9969 -13.5929,-6.3166 -27.7029,-9.99 -41.8292,-12.6239 -16.8584,-2.8848 -33.8649,-3.1672 -50.7463,-1.8795 z"
       id="path4040-2"
       inkscape:connector-curvature="0"
       sodipodi:nodetypes="zssssz" />
    <path
       style="color:#000000;display:inline;overflow:visible;visibility:visible;fill:#ffffff;fill-opacity:1;fill-rule:nonzero;stroke:none;stroke-width:0.811733px;marker:none;enable-background:accumulate"
       d="m 2020.2723,2999.0346 c 42.5246,54.5422 86.7334,47.5024 118.7066,15.8691 -23.32,34.399 -69.359,69.3478 -144.2603,0.1036 -14.3413,-13.258 25.5537,-15.9727 25.5537,-15.9727 z"
       id="path5010-4"
       inkscape:connector-curvature="0"
       sodipodi:nodetypes="ccsc" />
    <path
       style="color:#000000;display:inline;overflow:visible;visibility:visible;fill:#ffffff;fill-opacity:1;fill-rule:nonzero;stroke:none;stroke-width:0.791044px;marker:none;enable-background:accumulate"
       d="m 1890.7211,2940.2847 c -33.2417,0.5958 -67.4816,3.9701 -95.3429,13.329 -17.2095,6.0164 -26.7724,15.7142 -33.9051,25.1861 -8.4455,10.9417 -12.1698,23.4375 -3.6809,34.6568 8.7793,11.6032 28.7297,20.277 50.4978,26.0076 47.508,12.5816 103.9284,15.4584 156.6735,11.0049 17.0916,-1.4284 34.3346,-3.5897 49.0133,-8.2978 19.2336,-5.8814 34.257,-14.9542 41.9457,-25.4233 12.1956,-15.8289 9.1341,-34.7808 -11.3182,-48.6568 -16.5967,-11.4099 -42.7313,-18.6634 -69.951,-22.215 -27.1997,-3.9103 -55.6009,-5.7581 -83.9322,-5.5915 z"
       id="path4040-2-5"
       inkscape:connector-curvature="0"
       sodipodi:nodetypes="zssssz" />
    <rect
       style="color:#000000;overflow:visible;fill:#eeffdb;fill-opacity:0.89322;stroke:#807e00;stroke-width:8.05223;stroke-opacity:1;paint-order:stroke fill markers;filter:url(#filter8274);stop-color:#000000"
       id="rect8238"
       width="417.40149"
       height="86.261734"
       x="128.97966"
       y="127.99652"
       transform="matrix(0.82589396,0,0,1.1703232,24.705338,-19.969405)" />
  </g>
  <g
     inkscape:groupmode="layer"
     id="layer1"
     inkscape:label="txt">
    <text
       xml:space="preserve"
       style="font-style:normal;font-variant:normal;font-weight:normal;font-stretch:normal;font-size:45px;line-height:1.25;font-family:Lavi;-inkscape-font-specification:Lavi;text-align:center;letter-spacing:0px;word-spacing:0px;text-anchor:middle;fill:#000000;fill-opacity:1;stroke:none"
       x="307.40909"
       y="198.49405"
       id="text4246-3-2-2-35"><tspan
         style="font-size:45px"
         sodipodi:role="line"
         x="307.40909"
         y="198.49405"
         id="tspan905-2">Še v isti noči...</tspan></text>
    <text
       xml:space="preserve"
       style="font-style:normal;font-variant:normal;font-weight:normal;font-stretch:normal;font-size:45px;line-height:1.25;font-family:Lavi;-inkscape-font-specification:Lavi;text-align:center;letter-spacing:0px;word-spacing:0px;text-anchor:middle;fill:#000000;fill-opacity:1;stroke:none"
       x="401.41583"
       y="1956.8009"
       id="text4246-3-2-2"><tspan
         style="font-size:45px"
         sodipodi:role="line"
         x="401.41583"
         y="1956.8009"
         id="tspan905">...s tem imenujemo</tspan><tspan
         style="font-size:45px"
         sodipodi:role="line"
         x="401.41583"
         y="2013.0509"
         id="tspan48358">tebe, Shichimi,</tspan><tspan
         style="font-size:45px"
         sodipodi:role="line"
         x="401.41583"
         y="2069.301"
         id="tspan85">kot našo najmlajšo</tspan><tspan
         style="font-size:45px"
         sodipodi:role="line"
         x="401.41583"
         y="2125.551"
         id="tspan54184">vitezinjo Ah.</tspan></text>
    <text
       xml:space="preserve"
       style="font-style:normal;font-variant:normal;font-weight:normal;font-stretch:normal;font-size:45px;line-height:1.25;font-family:Lavi;-inkscape-font-specification:Lavi;text-align:center;letter-spacing:0px;word-spacing:0px;text-anchor:middle;fill:#000000;fill-opacity:1;stroke:none"
       x="279.01242"
       y="2594.1536"
       id="text4246-3-2-2-3"><tspan
         style="font-size:45px;fill:#000000;fill-opacity:1"
         sodipodi:role="line"
         x="279.01242"
         y="2594.1536"
         id="tspan94">Še kar</tspan><tspan
         style="font-size:45px;fill:#000000;fill-opacity:1"
         sodipodi:role="line"
         x="279.01242"
         y="2650.4036"
         id="tspan37859">nobene sledi</tspan><tspan
         style="font-size:45px;fill:#000000;fill-opacity:1"
         sodipodi:role="line"
         x="279.01242"
         y="2706.6536"
         id="tspan96">za Pepper?</tspan></text>
    <text
       xml:space="preserve"
       style="font-style:normal;font-variant:normal;font-weight:normal;font-stretch:normal;font-size:45px;line-height:1.25;font-family:Lavi;-inkscape-font-specification:Lavi;text-align:center;letter-spacing:0px;word-spacing:0px;text-anchor:middle;white-space:pre;inline-size:253.323;fill:#000000;fill-opacity:1;stroke:none"
       x="1320.327"
       y="2594.489"
       id="text4246-3-2-2-3-5"
       transform="translate(-10.795882,-6.9036151)"><tspan
         x="1320.327"
         y="2594.489"
         id="tspan55202">Ne še.</tspan></text>
    <text
       xml:space="preserve"
       style="font-style:normal;font-variant:normal;font-weight:normal;font-stretch:normal;font-size:45px;line-height:1.25;font-family:Lavi;-inkscape-font-specification:Lavi;text-align:center;letter-spacing:0px;word-spacing:0px;text-anchor:middle;fill:#000000;fill-opacity:1;stroke:none"
       x="1503.7913"
       y="2677.1301"
       id="text4246-3-2-2-3-5-1"><tspan
         style="font-size:45px;fill:#000000;fill-opacity:1"
         sodipodi:role="line"
         x="1503.7913"
         y="2677.1301"
         id="tspan105">Če ne pohiti</tspan><tspan
         style="font-size:45px;fill:#000000;fill-opacity:1"
         sodipodi:role="line"
         x="1503.7913"
         y="2733.3801"
         id="tspan20086">bo zamudila </tspan><tspan
         style="font-size:45px;fill:#000000;fill-opacity:1"
         sodipodi:role="line"
         x="1503.7913"
         y="2789.6301"
         id="tspan21940">Shichimin govor.</tspan></text>
    <text
       xml:space="preserve"
       style="font-style:normal;font-variant:normal;font-weight:normal;font-stretch:normal;font-size:45px;line-height:1.25;font-family:Lavi;-inkscape-font-specification:Lavi;text-align:center;letter-spacing:0px;word-spacing:0px;text-anchor:middle;fill:#000000;fill-opacity:1;stroke:none"
       x="1803.6787"
       y="2918.1755"
       id="text4246-3-2-2-3-5-1-7"><tspan
         style="font-size:45px"
         sodipodi:role="line"
         x="1803.6787"
         y="2918.1755"
         id="tspan7676">Hvala.</tspan></text>
    <text
       xml:space="preserve"
       style="font-style:normal;font-variant:normal;font-weight:normal;font-stretch:normal;font-size:45px;line-height:1.25;font-family:Lavi;-inkscape-font-specification:Lavi;text-align:center;letter-spacing:0px;word-spacing:0px;text-anchor:middle;fill:#000000;fill-opacity:1;stroke:none"
       x="1911.2048"
       y="3008.9373"
       id="text4246-3-2-2-3-5-1-7-3"><tspan
         style="font-size:45px"
         sodipodi:role="line"
         x="1911.2048"
         y="3008.9373"
         id="tspan109">Rada bi...</tspan></text>
  </g>
</svg>
