<?xml version="1.0" encoding="UTF-8" standalone="no"?>
<!-- Created with Inkscape (http://www.inkscape.org/) -->

<svg
   id="svg2"
   version="1.1"
   inkscape:version="1.1.1 (3bf5ae0d25, 2021-09-20)"
   width="2481"
   height="3503"
   sodipodi:docname="E04P03.svg"
   xmlns:inkscape="http://www.inkscape.org/namespaces/inkscape"
   xmlns:sodipodi="http://sodipodi.sourceforge.net/DTD/sodipodi-0.dtd"
   xmlns:xlink="http://www.w3.org/1999/xlink"
   xmlns="http://www.w3.org/2000/svg"
   xmlns:svg="http://www.w3.org/2000/svg"
   xmlns:rdf="http://www.w3.org/1999/02/22-rdf-syntax-ns#"
   xmlns:cc="http://creativecommons.org/ns#"
   xmlns:dc="http://purl.org/dc/elements/1.1/">
  <sodipodi:namedview
     pagecolor="#ffffff"
     bordercolor="#666666"
     inkscape:pageopacity="0"
     inkscape:pageshadow="2"
     inkscape:window-width="1366"
     inkscape:window-height="768"
     id="namedview70"
     showgrid="false"
     inkscape:zoom="0.34490047"
     inkscape:cx="1271.3813"
     inkscape:cy="3083.4983"
     inkscape:current-layer="layer1"
     borderopacity="1"
     inkscape:pagecheckerboard="0"
     inkscape:window-x="0"
     inkscape:window-y="0"
     inkscape:window-maximized="0" />
  <metadata
     id="metadata8">
    <rdf:RDF>
      <cc:Work
         rdf:about="">
        <dc:format>image/svg+xml</dc:format>
        <dc:type
           rdf:resource="http://purl.org/dc/dcmitype/StillImage" />
        <dc:title />
      </cc:Work>
    </rdf:RDF>
  </metadata>
  <defs
     id="defs6" />
  <sodipodi:namedview
     pagecolor="#ffffff"
     bordercolor="#666666"
     borderopacity="1"
     objecttolerance="10"
     gridtolerance="10"
     guidetolerance="10"
     inkscape:pageopacity="0"
     inkscape:pageshadow="2"
     inkscape:window-width="1920"
     inkscape:window-height="1025"
     id="namedview4"
     showgrid="false"
     inkscape:zoom="0.47669615"
     inkscape:cx="1130.3656"
     inkscape:cy="1024.8567"
     inkscape:window-x="0"
     inkscape:window-y="26"
     inkscape:window-maximized="1"
     inkscape:current-layer="layer1" />
  <g
     inkscape:groupmode="layer"
     id="layer2"
     inkscape:label="artwork"
     sodipodi:insensitive="true">
    <image
       xlink:href="../gfx_Pepper-and-Carrot_by-David-Revoy_E04P03.png"
       y="0"
       x="0"
       id="image10"
       height="3503"
       width="2481" />
  </g>
  <g
     inkscape:groupmode="layer"
     id="layer3"
     inkscape:label="speechbubbles">
    <path
       style="fill:#ffffff;stroke:none"
       d="M 85.162546,242.86513 C 83.960336,181.14936 110.40883,107.7891 153.68817,96.144618 196.96751,84.500131 465.05898,72.855646 487.90083,81.006786 c 22.84187,8.15114 50.49257,23.288974 73.33444,45.413494 22.84187,22.12452 40.87493,59.38687 37.26832,89.66254 -3.60662,30.27566 -20.43747,91.99143 -36.06612,108.29371 -15.62864,16.30229 -57.70578,54.72909 -99.78292,61.71578 -42.07714,6.98669 -91.36748,12.80893 -110.60274,11.64449 -19.23526,-1.16445 -117.81598,-8.15115 -117.81598,-8.15115 0,0 -52.89697,4.6578 -69.72783,-6.98669 -16.83085,-11.64448 -60.11019,-31.44011 -73.334434,-80.34695 -13.22424,-48.90683 -6.01102,-17.46672 -6.01102,-59.38688 z"
       id="path3971"
       inkscape:connector-curvature="0" />
    <path
       style="fill:#ffffff;stroke:none;stroke-width:1px;stroke-linecap:butt;stroke-linejoin:miter;stroke-opacity:1;color:#000000;fill-opacity:1;fill-rule:nonzero;marker:none;visibility:visible;display:inline;overflow:visible;enable-background:accumulate"
       d="m 570.91828,456.50332 c -88.75621,-26.38698 -125.93786,-37.18166 -148.72661,-95.95266 -22.78876,-58.77099 -39.58047,-5.99704 -39.58047,-5.99704 0,0 8.39585,103.1491 188.30708,101.9497 z"
       id="path3984"
       inkscape:connector-curvature="0" />
    <path
       style="fill:#ffffff;stroke:none;stroke-width:1px;stroke-linecap:butt;stroke-linejoin:miter;stroke-opacity:1;color:#000000;fill-opacity:1;fill-rule:nonzero;marker:none;visibility:visible;display:inline;overflow:visible;enable-background:accumulate"
       d="m 1049.4821,298.18144 c -33.5834,-47.97632 -29.9852,-141.53016 -20.3899,-163.11951 9.5953,-21.58934 22.7887,-53.973363 68.3663,-53.973363 45.5775,0 362.2212,-22.788755 408.9981,27.586383 46.7769,50.37515 45.5775,137.93194 4.7977,196.70294 -40.7799,58.771 -259.0722,46.77692 -259.0722,46.77692 0,0 -151.1254,7.19645 -202.7,-53.97337 z"
       id="path3992"
       inkscape:connector-curvature="0" />
    <path
       style="color:#000000;fill:#ffffff;fill-opacity:1;fill-rule:nonzero;stroke:none;stroke-width:1px;marker:none;visibility:visible;display:inline;overflow:visible;enable-background:accumulate"
       d="m 1146.6342,456.50332 c 86.3574,-52.77396 115.6987,-98.14741 141.122,-142.99485 11.9623,-21.10173 -40.3717,-44.11282 -40.3717,-44.11282 l -16.7917,47.97632 c 0,0 -16.7645,81.67766 -83.9586,139.13135 z"
       id="path4000"
       inkscape:connector-curvature="0"
       sodipodi:nodetypes="csccc" />
    <path
       style="color:#000000;display:inline;overflow:visible;visibility:visible;fill:#ffffff;fill-opacity:1;fill-rule:nonzero;stroke:none;stroke-width:1.05683px;marker:none;enable-background:accumulate"
       d="m 364.0268,825.01052 c 63.64908,-65.48193 392.74133,-48.44171 434.98262,0.73102 42.24128,49.17274 12.6118,164.44821 -46.15868,204.10366 -58.77049,39.6554 -340.42383,39.7193 -378.99195,-18.9707 -38.56813,-58.69004 -73.48107,-120.38204 -9.83199,-185.86398 z"
       id="path4008"
       inkscape:connector-curvature="0"
       sodipodi:nodetypes="zsssz" />
    <path
       style="color:#000000;display:inline;overflow:visible;visibility:visible;fill:#ffffff;fill-opacity:1;fill-rule:nonzero;stroke:none;stroke-width:1px;marker:none;enable-background:accumulate"
       d="m 1157.6896,916.45026 c -50.0655,-18.99475 -100.9594,-38.14301 -154.5315,-44.09381 -38.48708,-4.37587 -78.57566,1.00958 -113.15098,19.03609 -32.73956,16.67622 -79.37489,55.41825 -103.00699,83.22856 -13.4053,-7.41069 -3.3899,-33.61054 -12.61339,-45.46359 -3.37955,-5.27569 -8.76282,-10.89773 -10.49022,-16.28006 29.16601,-26.85941 65.28605,-45.62049 103.13999,-56.91895 60.13957,-17.92686 125.48697,-13.45925 184.38699,7.03526 37.6522,12.86195 73.1405,31.52397 106.2661,53.4565 z"
       id="path4010"
       inkscape:connector-curvature="0"
       sodipodi:nodetypes="ccccccccc" />
    <path
       style="color:#000000;display:inline;overflow:visible;visibility:visible;fill:#ffffff;fill-opacity:1;fill-rule:nonzero;stroke:none;stroke-width:1.12317px;stroke-linecap:butt;stroke-linejoin:miter;stroke-opacity:1;marker:none;enable-background:accumulate"
       d="m 1893.6747,1785.1574 -14.7067,-2.0573 3.4604,19.2015 c -23.2703,1.0419 -35.3946,-4.9846 -51.9057,-8.2292 l 25.9528,24.6875 -4.3254,6.8577 c 4.2135,4.0097 10.5714,6.7445 12.1113,12.3438 -11.7553,3.4893 -20.2071,3.487 -29.9288,4.8268 9.1474,4.6372 16.7631,10.0028 22.1429,16.4319 l -31.1433,10.9722 28.5461,9.5992 c -21.4715,15.7848 -48.4585,25.74 -73.5311,37.7187 l 89.1048,-5.4862 -13.8415,12.3438 c 8.906,6.4246 8.1189,3.2445 12.1113,4.8004 1.9443,4.6235 -30.6317,23.8474 -27.683,21.9445 3.4604,-0.6858 32.8736,-3.4289 32.8736,-3.4289 0,0 -25.9529,19.2015 -22.4925,19.2015 3.4603,0 32.0085,-4.8004 32.0085,-4.8004 l -9.516,18.5157 37.1991,-10.2865 -15.5717,23.0224 c 9.6782,-1.3544 15.9227,-1.8272 12.4818,6.1781 -23.2862,28.5047 -58.9754,71.897 -53.2636,81.6014 19.7334,-10.9487 49.7664,-43.4171 77.9809,-55.2549 19.1714,1.9773 20.325,10.0758 28.5482,15.7726 l 34.6038,-24.0018 6.0557,16.4584 25.9528,-20.573 v 21.2588 c 16.106,-1.4877 24.3003,-13.9505 33.7387,-24.6876 l 2.5953,79.5488 56.2312,-67.205 11.2463,28.1164 8.651,-26.0591 2.5953,21.9445 24.2226,-29.4879 18.1671,26.7448 17.3019,-24.6875 c 15.8301,26.9972 38.6128,48.483 64.8821,67.205 -3.6515,-27.6831 -6.6987,-54.5679 -5.1906,-75.4342 9.8044,-2.1744 19.6088,2.1747 29.4133,8.2292 l -5.1906,-18.5157 36.334,12.3438 -16.4368,-28.8022 c 55.4626,-0.9228 44.3284,4.0201 57.0964,6.8577 l -10.3812,-18.5157 38.0642,14.4011 c -10.3984,-15.3223 -24.0566,-31.9366 -31.1435,-45.9463 l 39.7944,3.4288 c -15.5941,-12.3266 -35.1863,-21.4838 -46.0963,-37.5234 l 34.8501,-1.5652 -32.8736,-20.573 25.9528,-11.658 -20.7622,-2.7431 34.6038,-24.6875 -45.8501,-2.0573 55.3661,-44.5748 -64.017,9.6008 5.1904,-32.231 -35.4688,23.316 35.4688,-80.9203 c -28.6569,28.9445 -50.7375,52.1236 -89.5953,72.9817 l -12.4918,-8.1261 -13.8356,4.2083 3.4603,-23.1176 -51.0405,28.1163 5.1906,-13.0295 -15.5718,12.3438 3.4603,-17.1442 -26.8179,20.573 2.4691,-17.9252 -12.8503,11.7533 -3.9569,-11.2628 -15.0751,7.1482 c -4.536,-29.7165 3.2581,-59.433 8.6509,-89.1495 -17.6992,34.0184 -40.1764,64.7903 -70.0728,90.5211 l -9.516,-13.0249 -11.8651,12.0439 -11.9851,-15.5681 -18.0448,18.6033 c -14.2698,-14.1725 -22.5807,-22.8558 -28.1777,-37.0283 2.7603,13.2826 4.7672,22.2054 0.7408,36.8329 -52.6769,-22.3951 -51.0999,-24.3922 -70.8136,-36.8329 -5.4019,15.9904 -10.785,21.3145 -13.8415,33.6025 z"
       id="path4024"
       inkscape:connector-curvature="0"
       sodipodi:nodetypes="cccccccccccccccccsccccccccccccccccccccccccccccccccccccccccccccccccccccccccccccccccccc" />
    <path
       style="color:#000000;fill:#ffffff;fill-opacity:1;fill-rule:nonzero;stroke:none;stroke-width:1px;marker:none;visibility:visible;display:inline;overflow:visible;enable-background:accumulate"
       d="m 1848.5853,1575.0785 c 10.0461,44.0989 27.0514,87.1709 29.0118,132.4629 l 18.7724,-35.7599 c 9.4018,15.7423 8.3262,35.1951 10.8083,53.3881 l 15.3592,-20.1465 c 21.7256,37.425 24.8572,77.202 36.9759,115.8421 l 23.8921,-37.271 c -16.9368,-37.6417 -39.8877,-72.0885 -50.0597,-113.3238 l -17.0658,18.1319 c -5.5461,-13.7459 -10.5425,-27.7351 -13.0837,-42.8112 l -19.3412,24.6794 z"
       id="path4032"
       inkscape:connector-curvature="0"
       sodipodi:nodetypes="cccccccccccc" />
    <path
       style="fill:#ffffff;stroke:none;stroke-width:1px;stroke-linecap:butt;stroke-linejoin:miter;stroke-opacity:1;color:#000000;fill-opacity:1;fill-rule:nonzero;marker:none;visibility:visible;display:inline;overflow:visible;enable-background:accumulate"
       d="m 514.05488,2345.9965 c 21.44462,-27.8354 202.46112,-58.0491 266.0819,-0.6861 63.62077,57.363 25.03112,126.1986 -11.4726,148.1008 -36.50373,21.9023 -143.92898,45.8904 -192.94827,27.1171 -49.01929,-18.7734 -87.20225,-46.8359 -89.69487,-104.2964 -1.01734,-23.4519 6.58922,-42.3999 28.03384,-70.2354 z"
       id="path4040"
       inkscape:connector-curvature="0"
       sodipodi:nodetypes="zssssz" />
    <path
       style="color:#000000;fill:#ffffff;fill-opacity:1;fill-rule:nonzero;stroke:none;stroke-width:1px;marker:none;visibility:visible;display:inline;overflow:visible;enable-background:accumulate"
       d="m 844.38604,2487.4707 c -46.71679,38.0588 -143.61096,79.6886 -134.17151,-10.1374 8.50339,-80.9185 -28.62326,-41.7422 -28.62326,-41.7422 l -16.6969,47.7054 c 0,0 42.33857,151.4647 179.49167,4.1742 z"
       id="path4048"
       inkscape:connector-curvature="0"
       sodipodi:nodetypes="csccc" />
    <path
       style="color:#000000;fill:#ffffff;fill-opacity:1;fill-rule:nonzero;stroke:none;stroke-width:1px;marker:none;visibility:visible;display:inline;overflow:visible;enable-background:accumulate"
       d="m 1710.5025,2645.636 c -36.5349,-36.5756 -57.0302,-81.4639 -45.446,-115.5458 11.5844,-34.082 34.7529,-111.3896 97.1297,-114.7147 62.3767,-3.325 378.7161,-37.4069 415.2511,24.1068 36.535,61.5136 62.3768,157.1091 33.8617,180.3846 -28.5151,23.2753 -81.0898,53.2009 -122.9713,53.2009 -41.8816,0 -96.2385,11.6377 -116.7338,8.3127 -20.4952,-3.3251 -70.3967,-10.8064 -76.6343,-10.8064 -6.2377,0 -101.5851,0 -111.3872,-2.4939 -9.802,-2.4938 -54.3569,7.4814 -73.0699,-22.4442 z"
       id="path4056"
       inkscape:connector-curvature="0" />
    <path
       style="fill:#ffffff;stroke:none;stroke-width:1px;stroke-linecap:butt;stroke-linejoin:miter;stroke-opacity:1;color:#000000;fill-opacity:1;fill-rule:nonzero;marker:none;visibility:visible;display:inline;overflow:visible;enable-background:accumulate"
       d="m 1690.508,2601.5167 c -30.8355,22.6731 -69.8333,55.3224 -105.2033,-7.2554 2.7207,2.7208 22.6731,97.9479 121.5279,44.4393 98.8548,-53.5086 105.2033,-71.6471 105.2033,-71.6471 z"
       id="path4064"
       inkscape:connector-curvature="0"
       sodipodi:nodetypes="ccscc" />
  </g>
  <g
     inkscape:groupmode="layer"
     id="layer1"
     inkscape:label="txt">
    <text
       xml:space="preserve"
       style="font-style:normal;font-variant:normal;font-weight:normal;font-stretch:normal;font-size:48px;line-height:0.01%;font-family:Lavi;-inkscape-font-specification:Lavi;letter-spacing:0px;word-spacing:0px;white-space:pre;inline-size:422.222;fill:#000000;fill-opacity:1;stroke:none;stroke-width:0.979239"
       x="161.24498"
       y="169.18457"
       id="text219015"
       transform="matrix(0.99287446,0,0,1.0071767,-38,-20)"><tspan
         x="161.24498"
         y="169.18457"
         id="tspan16328"><tspan
           style="line-height:1.25;text-align:center;text-anchor:middle"
           id="tspan16326">Bíi Ámed </tspan></tspan><tspan
         x="161.24498"
         y="229.18458"
         id="tspan16332"><tspan
           style="line-height:1.25;text-align:center;text-anchor:middle"
           id="tspan16330">woméenan worulim </tspan></tspan><tspan
         x="161.24498"
         y="289.18458"
         id="tspan16336"><tspan
           style="line-height:1.25;text-align:center;text-anchor:middle"
           id="tspan16334">wa! Nosháad ne </tspan></tspan><tspan
         x="161.24498"
         y="349.18458"
         id="tspan16340"><tspan
           style="line-height:1.25;text-align:center;text-anchor:middle"
           id="tspan16338">sholanenalehóo...</tspan></tspan></text>
    <text
       xml:space="preserve"
       style="font-style:normal;font-variant:normal;font-weight:normal;font-stretch:normal;font-size:48px;line-height:0.01%;font-family:Lavi;-inkscape-font-specification:Lavi;letter-spacing:0px;word-spacing:0px;white-space:pre;inline-size:429.532;fill:#000000;fill-opacity:1;stroke:none;stroke-width:0.979239"
       x="1086.9169"
       y="166.64607"
       id="text218985"
       transform="matrix(0.99287446,0,0,1.0071767,-12,0)"><tspan
         x="1086.9169"
         y="166.64607"
         id="tspan16344"><tspan
           style="line-height:1.25;text-align:center;text-anchor:middle"
           id="tspan16342">... úyahú them le </tspan></tspan><tspan
         x="1086.9169"
         y="226.64607"
         id="tspan16348"><tspan
           style="line-height:1.25;text-align:center;text-anchor:middle"
           id="tspan16346">woháama wodená </tspan></tspan><tspan
         x="1086.9169"
         y="286.64607"
         id="tspan16352"><tspan
           style="line-height:1.25;text-align:center;text-anchor:middle"
           id="tspan16350">lethoth wa!</tspan></tspan></text>
    <text
       xml:space="preserve"
       style="font-style:normal;font-variant:normal;font-weight:normal;font-stretch:normal;font-size:48px;line-height:0.01%;font-family:Lavi;-inkscape-font-specification:Lavi;letter-spacing:0px;word-spacing:0px;white-space:pre;inline-size:427.957;fill:#000000;fill-opacity:1;stroke:none;stroke-width:0.979239"
       x="447.24841"
       y="882.01562"
       id="text218963"
       transform="matrix(0.99287446,0,0,1.0071767,-76,0)"><tspan
         x="447.24841"
         y="882.01562"
         id="tspan16356"><tspan
           style="line-height:1.25;text-align:center;text-anchor:middle"
           id="tspan16354">Bóo láad. Bíi dam le </tspan></tspan><tspan
         x="447.24841"
         y="942.01563"
         id="tspan16360"><tspan
           style="line-height:1.25;text-align:center;text-anchor:middle"
           id="tspan16358">dóhinedal nonede </tspan></tspan><tspan
         x="447.24841"
         y="1002.0156"
         id="tspan16364"><tspan
           style="line-height:1.25;text-align:center;text-anchor:middle"
           id="tspan16362">lethu nadim.</tspan></tspan></text>
    <text
       xml:space="preserve"
       style="font-style:normal;font-variant:normal;font-weight:normal;font-stretch:normal;font-size:67.087px;line-height:0.01%;font-family:Lavi;-inkscape-font-specification:Lavi;letter-spacing:0px;word-spacing:0px;white-space:pre;inline-size:469.826;fill:#000000;fill-opacity:1;stroke:none;stroke-width:1.39765"
       x="1927.845"
       y="1913.266"
       id="text218941"
       transform="matrix(1.0176764,0,0,0.98263059,-92,0)"><tspan
         x="1927.845"
         y="1913.266"
         id="tspan16368"><tspan
           style="line-height:1.25;text-align:center;text-anchor:middle"
           id="tspan16366">Yahanesherana </tspan></tspan><tspan
         x="1927.845"
         y="1997.1248"
         id="tspan16372"><tspan
           style="line-height:1.25;text-align:center;text-anchor:middle"
           id="tspan16370">Wothethu</tspan></tspan></text>
    <text
       xml:space="preserve"
       style="font-style:normal;font-variant:normal;font-weight:normal;font-stretch:normal;font-size:46.4712px;line-height:0.01%;font-family:Lavi;-inkscape-font-specification:Lavi;letter-spacing:0px;word-spacing:0px;white-space:pre;inline-size:239.647;fill:#000000;fill-opacity:1;stroke:none;stroke-width:0.96815"
       x="527.06464"
       y="2475.7837"
       id="text218927"
       transform="matrix(1.0301084,0,0,0.97077164,-22,-4)"><tspan
         x="527.06464"
         y="2475.7837"
         id="tspan16376"><tspan
           style="line-height:1.25;text-align:center;text-anchor:middle"
           id="tspan16374">Bóo </tspan></tspan><tspan
         x="527.06464"
         y="2533.8728"
         id="tspan16380"><tspan
           style="line-height:1.25;text-align:center;text-anchor:middle"
           id="tspan16378">rilinehel ne</tspan></tspan></text>
    <text
       xml:space="preserve"
       style="font-style:normal;font-variant:normal;font-weight:normal;font-stretch:normal;font-size:46.4712px;line-height:0.01%;font-family:Lavi;-inkscape-font-specification:Lavi;letter-spacing:0px;word-spacing:0px;white-space:pre;inline-size:374.568;fill:#000000;fill-opacity:1;stroke:none;stroke-width:0.96815"
       x="1778.4362"
       y="2582.719"
       id="text218913"
       transform="matrix(1.0301084,0,0,0.97077164,-82,4)"><tspan
         x="1778.4362"
         y="2582.719"
         id="tspan16384"><tspan
           style="line-height:1.25;text-align:center;text-anchor:middle"
           id="tspan16382">Bere thal be, </tspan></tspan><tspan
         x="1778.4362"
         y="2640.8081"
         id="tspan16388"><tspan
           style="line-height:1.25;text-align:center;text-anchor:middle"
           id="tspan16386">ébere loláad ne </tspan></tspan><tspan
         x="1778.4362"
         y="2698.8972"
         id="tspan16392"><tspan
           style="line-height:1.25;text-align:center;text-anchor:middle"
           id="tspan16390">hiháál wothethuth</tspan></tspan></text>
  </g>
</svg>
