<?xml version="1.0" encoding="UTF-8" standalone="no"?>
<!-- Created with Inkscape (http://www.inkscape.org/) -->

<svg
   xmlns:dc="http://purl.org/dc/elements/1.1/"
   xmlns:cc="http://creativecommons.org/ns#"
   xmlns:rdf="http://www.w3.org/1999/02/22-rdf-syntax-ns#"
   xmlns:svg="http://www.w3.org/2000/svg"
   xmlns="http://www.w3.org/2000/svg"
   xmlns:xlink="http://www.w3.org/1999/xlink"
   xmlns:sodipodi="http://sodipodi.sourceforge.net/DTD/sodipodi-0.dtd"
   xmlns:inkscape="http://www.inkscape.org/namespaces/inkscape"
   id="svg2"
   version="1.1"
   inkscape:version="0.92.2 2405546, 2018-03-11"
   width="2481"
   height="6200"
   sodipodi:docname="E27P07.svg"
   inkscape:export-filename="/home/deevad/peppercarrot/webcomics/new-ep27_Coriander-s-Invention/tmp-bg.png"
   inkscape:export-xdpi="90"
   inkscape:export-ydpi="90">
  <metadata
     id="metadata8">
    <rdf:RDF>
      <cc:Work
         rdf:about="">
        <dc:format>image/svg+xml</dc:format>
        <dc:type
           rdf:resource="http://purl.org/dc/dcmitype/StillImage" />
        <dc:title></dc:title>
      </cc:Work>
    </rdf:RDF>
  </metadata>
  <defs
     id="defs6">
    <filter
       inkscape:label="Drop Shadow"
       id="filter5546"
       style="color-interpolation-filters:sRGB">
      <feFlood
         flood-opacity="1"
         flood-color="rgb(0,0,0)"
         result="flood"
         id="feFlood5548" />
      <feComposite
         in="flood"
         in2="SourceGraphic"
         operator="in"
         result="composite1"
         id="feComposite5550" />
      <feGaussianBlur
         in="composite1"
         stdDeviation="1"
         result="blur"
         id="feGaussianBlur5552" />
      <feOffset
         dx="2.5"
         dy="2.5"
         result="offset"
         id="feOffset5554" />
      <feComposite
         in="SourceGraphic"
         in2="offset"
         operator="over"
         result="composite2"
         id="feComposite5556" />
    </filter>
  </defs>
  <sodipodi:namedview
     pagecolor="#ffffff"
     bordercolor="#666666"
     borderopacity="1"
     objecttolerance="10"
     gridtolerance="10"
     guidetolerance="10"
     inkscape:pageopacity="0"
     inkscape:pageshadow="2"
     inkscape:window-width="1858"
     inkscape:window-height="1057"
     id="namedview4"
     showgrid="false"
     inkscape:zoom="0.34782609"
     inkscape:cx="664.9216"
     inkscape:cy="807.56864"
     inkscape:window-x="1912"
     inkscape:window-y="-8"
     inkscape:window-maximized="1"
     inkscape:current-layer="layer2"
     inkscape:object-nodes="true"
     showguides="true"
     inkscape:guide-bbox="true"
     inkscape:snap-global="false">
    <sodipodi:guide
       position="1570,6115"
       orientation="0,1"
       id="guide171"
       inkscape:locked="false" />
  </sodipodi:namedview>
  <g
     inkscape:groupmode="layer"
     id="layer1"
     inkscape:label="artwork"
     style="display:inline"
     transform="translate(0,2224)"
     sodipodi:insensitive="true">
    <image
       sodipodi:absref="/home/midgard/git/peppercarrot/comics/new-ep27_Coriander-s-Invention/lang/ja/../gfx_Pepper-and-Carrot_by-David-Revoy_E27P07.png"
       xlink:href="../gfx_Pepper-and-Carrot_by-David-Revoy_E27P07.png"
       y="-2224.0303"
       x="0"
       id="image4223"
       style="image-rendering:optimizeQuality"
       preserveAspectRatio="none"
       height="6200"
       width="2481" />
  </g>
  <g
     inkscape:groupmode="layer"
     id="layer3"
     inkscape:label="speechbubbles"
     style="display:inline"
     transform="translate(0,2224)">
    <path
       style="color:#000000;display:inline;overflow:visible;visibility:visible;opacity:1;fill:#ffffff;fill-opacity:1;fill-rule:nonzero;stroke:none;stroke-width:0.98335481px;marker:none;enable-background:accumulate"
       d="m 1198.849,-872.15901 c 7.6262,-105.24737 34.8626,-122.15703 274.9788,-124.96199 131.5215,-1.53638 304.6424,-7.7879 304.3875,159.83447 -0.2692,177.11739 -195.0067,138.74982 -307.3627,137.58774 -130.7233,-1.35203 -220.0412,-5.64599 -248.297,-39.06447 -25.8565,-30.58079 -24.4513,-100.7976 -23.7066,-133.39575 z"
       id="path4546-6"
       inkscape:connector-curvature="0"
       sodipodi:nodetypes="cssssc" />
    <path
       style="color:#000000;display:inline;overflow:visible;visibility:visible;fill:#ffffff;fill-opacity:1;fill-rule:nonzero;stroke:none;stroke-width:1.10378563px;marker:none;enable-background:accumulate"
       d="m 1739.5087,-765.04497 c -9.2797,-74.20266 -29.2748,-173.63917 247.0745,-162.17844 212.7541,8.82333 260.0756,40.81826 259.6499,169.15021 -1.7367,46.47782 -9.2658,96.97814 -85.0862,130.13814 -49.606,21.67174 -135.1514,9.34936 -217.3914,17.28647 -88.4469,1.03598 -201.011,-45.52786 -204.2468,-154.39638 z"
       id="path3365"
       inkscape:connector-curvature="0"
       sodipodi:nodetypes="cscccc" />
    <path
       style="fill:#ffffff;stroke:none;stroke-width:1"
       d="m 872.55605,-963.13496 c 50.81358,-32.3879 129.46405,-43.64824 168.21135,0.1997 23.4771,26.56752 33.1071,45.02242 33.1071,45.02242 l 23.8879,-32.88042 -23.9282,-31.3954 c 0,0 -88.73129,-64.76174 -201.27815,19.0537 z"
       id="path3063"
       inkscape:connector-curvature="0"
       sodipodi:nodetypes="cscccc" />
    <path
       style="color:#000000;display:inline;overflow:visible;visibility:visible;fill:#ffffff;fill-opacity:1;fill-rule:nonzero;stroke:none;stroke-width:0.99999982px;marker:none;enable-background:accumulate"
       d="m 371.62292,3324.2052 c 37.34584,-42.0543 326.43902,-81.1855 419.36286,9.9336 92.92382,91.1192 26.60389,243.1661 -33.7136,275.4453 -60.31741,32.2795 -269.40644,44.5104 -344.25036,13.5248 -74.84403,-30.9858 -97.95322,-102.9689 -94.54269,-191.7133 1.39197,-36.22 15.7978,-65.1359 53.14379,-107.1904 z"
       id="path4040"
       inkscape:connector-curvature="0"
       sodipodi:nodetypes="zssssz" />
    <path
       style="color:#000000;display:inline;overflow:visible;visibility:visible;fill:#ffffff;fill-opacity:1;fill-rule:nonzero;stroke:none;stroke-width:0.99999994px;marker:none;enable-background:accumulate"
       d="m 794.81027,3503.9749 c -3.17177,-84.7363 16.84208,-125.2915 90.24998,-161.5948 69.94832,-26.4599 256.50535,-16.7025 286.17335,19.3703 29.6681,36.0727 53.2608,72.8665 49.8374,105.1423 -3.4232,32.2756 2.4981,66.7726 -55.5273,107.7854 -40.0376,28.299 -160.4481,23.9605 -221.84431,20.5478 -53.02307,-3.4124 -153.45348,-17.2068 -148.88912,-91.251 z"
       id="path3517"
       inkscape:connector-curvature="0"
       sodipodi:nodetypes="cccsscc" />
    <path
       style="color:#000000;display:inline;overflow:visible;visibility:visible;fill:#ffffff;fill-opacity:1;fill-rule:nonzero;stroke:none;stroke-width:0.99999988px;marker:none;enable-background:accumulate"
       d="m 1162.1295,3514.1886 c -6.7822,-81.1939 144.2051,-93.8241 254.052,-93.001 109.8471,0.8229 252.899,28.8095 258.8884,88.4464 10.8528,101.1661 -165.6552,114.8727 -262.694,115.9951 -45.4388,0.069 -263.4797,-8.9755 -250.2464,-111.4405 z"
       id="path4974"
       inkscape:connector-curvature="0"
       sodipodi:nodetypes="csccc" />
    <path
       style="fill:#ffffff;fill-opacity:1;stroke:none;stroke-width:0.99999994"
       d="m 2000.6454,3726.2586 c -2.4947,-28.0456 14.0519,-41.9969 29.1177,-48.6058 19.0937,-8.3758 325.8112,-10.9041 348.9174,8.2485 20.3954,16.9057 32.6685,53.8044 -13.0403,73.4397 -45.7087,19.6352 -303.9408,13.9624 -316.9262,10.3924 -12.9855,-3.5701 -45.4716,-13.1295 -48.0686,-43.4748 z"
       id="path3659-8"
       inkscape:connector-curvature="0"
       sodipodi:nodetypes="cssssc" />
    <path
       style="color:#000000;display:inline;overflow:visible;visibility:visible;fill:#ffffff;fill-opacity:1;fill-rule:nonzero;stroke:none;stroke-width:1px;marker:none;enable-background:accumulate"
       d="m 1815.9787,3458.3614 c -145.0577,-17.8084 -151.3521,38.1867 -173.8389,41.2954 -47.8722,6.6181 -34.2474,16.1578 -34.2474,16.1578 l 14.6011,-30.4558 c 0,0 76.6292,-84.3387 193.4852,-26.9974 z"
       id="path3072"
       inkscape:connector-curvature="0"
       sodipodi:nodetypes="csccc" />
    <path
       style="color:#000000;display:inline;overflow:visible;visibility:visible;fill:#ffffff;fill-opacity:1;fill-rule:nonzero;stroke:none;stroke-width:1px;marker:none;enable-background:accumulate"
       d="m 2079.2018,3709.6051 c 18.1198,-31.0325 27.6396,-62.3158 1.6561,-86.3136 47.3588,28.925 31.1022,94.4418 23.932,114.0299 -7.1704,19.5882 -25.5881,-27.7163 -25.5881,-27.7163 z"
       id="path5010"
       inkscape:connector-curvature="0" />
    <path
       style="color:#000000;display:inline;overflow:visible;visibility:visible;opacity:1;fill:#ffffff;fill-opacity:1;fill-rule:nonzero;stroke:none;stroke-width:0.95104408px;marker:none;enable-background:accumulate"
       d="m 1252.6833,-930.06115 c -4.3545,48.32204 -16.7105,55.88004 -124.3398,55.27061 -58.953,-0.33383 -136.58998,1.17097 -134.98364,-75.88329 1.6972,-81.41907 88.62424,-62.24137 138.96434,-60.81857 58.5695,1.6553 98.5577,4.3355 110.9228,19.92152 11.315,14.26253 10.0602,46.53018 9.4363,61.50973 z"
       id="path4546-6-4"
       inkscape:connector-curvature="0"
       sodipodi:nodetypes="cssssc" />
  </g>
  <g
     inkscape:groupmode="layer"
     id="layer2"
     inkscape:label="text"
     style="display:inline;opacity:0.85500004"
     transform="translate(0,2224)">
    <text
       xml:space="preserve"
       style="font-style:normal;font-variant:normal;font-weight:normal;font-stretch:normal;line-height:0%;font-family:'Rounded M+ 1c';-inkscape-font-specification:'Rounded M+ 1c, Medium';text-align:center;letter-spacing:0px;word-spacing:0px;text-anchor:middle;fill:#000000;fill-opacity:1;stroke:none"
       x="1258.3041"
       y="-504.4682"
       id="text4246-42"><tspan
         sodipodi:role="line"
         style="font-style:normal;font-variant:normal;font-weight:bold;font-stretch:normal;font-size:36.73472214px;line-height:1.25;font-family:Lavi;-inkscape-font-specification:'Lavi Bold';fill:#000000;fill-opacity:1;stroke:none"
         x="1258.3041"
         y="-500.97073"
         id="tspan873" /></text>
    <text
       xml:space="preserve"
       style="color:#000000;font-style:normal;font-variant:normal;font-weight:normal;font-stretch:normal;line-height:0%;font-family:'Rounded M+ 1c';-inkscape-font-specification:'Rounded M+ 1c, Medium';text-indent:0;text-align:center;text-decoration:none;text-decoration-line:none;letter-spacing:0px;word-spacing:0px;text-transform:none;writing-mode:lr-tb;direction:ltr;baseline-shift:baseline;text-anchor:middle;display:inline;overflow:visible;visibility:visible;opacity:0.85500004;fill:#020101;fill-opacity:1;fill-rule:nonzero;stroke:none;enable-background:accumulate"
       x="1991.2159"
       y="-910.79004"
       id="text4246-42-4"><tspan
         sodipodi:role="line"
         style="color:#000000;font-style:normal;font-variant:normal;font-weight:normal;font-stretch:normal;font-size:37.33333206px;line-height:125%;font-family:'Rounded M+ 1c';-inkscape-font-specification:'Rounded M+ 1c, Medium';text-indent:0;text-align:center;text-decoration:none;text-decoration-line:none;letter-spacing:0px;word-spacing:0px;text-transform:none;writing-mode:lr-tb;direction:ltr;baseline-shift:baseline;text-anchor:middle;display:inline;overflow:visible;visibility:visible;fill:#020101;fill-opacity:1;fill-rule:nonzero;stroke:none;enable-background:accumulate"
         x="1991.2159"
         y="-907.2926"
         id="tspan927" /></text>
    <text
       xml:space="preserve"
       style="font-style:normal;font-variant:normal;font-weight:normal;font-stretch:normal;line-height:0%;font-family:Arial;-inkscape-font-specification:Arial;text-align:center;letter-spacing:0px;word-spacing:0px;text-anchor:middle;display:inline;opacity:0.85500004;fill:#000000;fill-opacity:1;stroke:none"
       x="1261.562"
       y="-551.26312"
       id="text4229"><tspan
         sodipodi:role="line"
         x="1261.562"
         y="-547.95404"
         style="font-style:normal;font-variant:normal;font-weight:bold;font-stretch:normal;font-size:37.33333206px;line-height:1.25;font-family:Lavi;-inkscape-font-specification:'Lavi Bold';fill:#000000;fill-opacity:1;stroke:none"
         id="tspan4169" /></text>
    <text
       id="text4179"
       y="-1150.819"
       x="1280.0332"
       style="font-style:normal;font-variant:normal;font-weight:normal;font-stretch:normal;line-height:0%;font-family:Arial;-inkscape-font-specification:Arial;text-align:center;letter-spacing:0px;word-spacing:0px;text-anchor:middle;display:inline;opacity:0.85500004;fill:#241c1c;fill-opacity:1;stroke:none"
       xml:space="preserve"><tspan
         id="tspan4181"
         style="font-style:normal;font-variant:normal;font-weight:bold;font-stretch:normal;font-size:35px;line-height:1.25;font-family:Lavi;-inkscape-font-specification:'Lavi Bold';fill:#241c1c;stroke:none"
         y="-1147.5099"
         x="1280.0332"
         sodipodi:role="line" /></text>
    <text
       xml:space="preserve"
       style="font-style:normal;font-variant:normal;font-weight:normal;font-stretch:normal;font-size:17.10209084px;line-height:0%;font-family:Arial;-inkscape-font-specification:Arial;text-align:center;letter-spacing:0px;word-spacing:0px;text-anchor:middle;display:inline;opacity:0.85500004;fill:#000000;fill-opacity:1;stroke:none;stroke-width:1;filter:url(#filter4155)"
       x="580.71674"
       y="3346.5186"
       id="text4221-3"
       transform="scale(0.99748275,1.0025236)"><tspan
         sodipodi:role="line"
         x="580.71674"
         y="3346.5186"
         style="font-style:normal;font-variant:normal;font-weight:normal;font-stretch:normal;font-size:48px;line-height:1.25;font-family:'Rounded M+ 1c';-inkscape-font-specification:'Rounded M+ 1c, Medium';fill:#000000;fill-opacity:1;stroke-width:1"
         id="tspan1763">あなたも</tspan><tspan
         sodipodi:role="line"
         x="580.71674"
         y="3406.5186"
         style="font-style:normal;font-variant:normal;font-weight:normal;font-stretch:normal;font-size:48px;line-height:1.25;font-family:'Rounded M+ 1c';-inkscape-font-specification:'Rounded M+ 1c, Medium';fill:#000000;fill-opacity:1;stroke-width:1"
         id="tspan177">Pepper&amp;Carrot</tspan><tspan
         sodipodi:role="line"
         x="580.71674"
         y="3423.9546"
         style="font-style:normal;font-variant:normal;font-weight:normal;font-stretch:normal;font-size:48px;line-height:1.25;font-family:'Rounded M+ 1c';-inkscape-font-specification:'Rounded M+ 1c, Medium';fill:#000000;fill-opacity:1;stroke-width:1"
         id="tspan418" /><tspan
         sodipodi:role="line"
         x="580.71674"
         y="3466.5186"
         style="font-style:normal;font-variant:normal;font-weight:normal;font-stretch:normal;font-size:48px;line-height:1.25;font-family:'Rounded M+ 1c';-inkscape-font-specification:'Rounded M+ 1c, Medium';fill:#000000;fill-opacity:1;stroke-width:1"
         id="tspan179">のパトロンになって</tspan><tspan
         sodipodi:role="line"
         x="580.71674"
         y="3526.5186"
         style="font-style:normal;font-variant:normal;font-weight:normal;font-stretch:normal;font-size:48px;line-height:1.25;font-family:'Rounded M+ 1c';-inkscape-font-specification:'Rounded M+ 1c, Medium';fill:#000000;fill-opacity:1;stroke-width:1"
         id="tspan420"> 名前のリスト<tspan
   style="font-style:normal;font-variant:normal;font-weight:500;font-stretch:normal;font-size:48px;font-family:'Rounded M+ 1c';-inkscape-font-specification:'Rounded M+ 1c, Medium';font-variant-ligatures:normal;font-variant-caps:normal;font-variant-numeric:normal;font-feature-settings:normal;text-align:center;writing-mode:lr-tb;text-anchor:middle"
   id="tspan221">に</tspan></tspan><tspan
         sodipodi:role="line"
         x="580.71674"
         y="3586.5186"
         style="font-style:normal;font-variant:normal;font-weight:500;font-stretch:normal;font-size:48px;line-height:1.25;font-family:'Rounded M+ 1c';-inkscape-font-specification:'Rounded M+ 1c, Medium';font-variant-ligatures:normal;font-variant-caps:normal;font-variant-numeric:normal;font-feature-settings:normal;text-align:center;writing-mode:lr-tb;text-anchor:middle;fill:#000000;fill-opacity:1;stroke-width:1"
         id="tspan219">入りましょう!</tspan><tspan
         sodipodi:role="line"
         x="580.71674"
         y="3603.9546"
         style="font-style:normal;font-variant:normal;font-weight:normal;font-stretch:normal;font-size:48px;line-height:1.25;font-family:'Rounded M+ 1c';-inkscape-font-specification:'Rounded M+ 1c, Medium';fill:#000000;fill-opacity:1;stroke-width:1"
         id="tspan1761" /></text>
    <text
       xml:space="preserve"
       style="font-style:normal;font-variant:normal;font-weight:normal;font-stretch:normal;font-size:14.85386276px;line-height:0%;font-family:Arial;-inkscape-font-specification:Arial;text-align:center;letter-spacing:0px;word-spacing:0px;text-anchor:middle;display:inline;opacity:0.85500004;fill:#000000;fill-opacity:1;stroke:none;stroke-width:1;filter:url(#filter4155)"
       x="1548.0576"
       y="-901.07178"
       id="text4162-7"
       transform="scale(0.96265765,1.0387909)"><tspan
         sodipodi:role="line"
         x="1548.0576"
         y="-901.07178"
         style="font-style:normal;font-variant:normal;font-weight:normal;font-stretch:normal;font-size:40px;line-height:1.25;font-family:'Rounded M+ 1c';-inkscape-font-specification:'Rounded M+ 1c, Medium';fill:#000000;fill-opacity:1;stroke-width:1"
         id="tspan4166-5">Pepper&amp;Carrot は</tspan><tspan
         sodipodi:role="line"
         x="1548.0576"
         y="-851.07178"
         style="font-style:normal;font-variant:normal;font-weight:normal;font-stretch:normal;font-size:40px;line-height:1.25;font-family:'Rounded M+ 1c';-inkscape-font-specification:'Rounded M+ 1c, Medium';fill:#000000;fill-opacity:1;stroke-width:1"
         id="tspan187">完全に無料（自由）な</tspan><tspan
         sodipodi:role="line"
         x="1548.0576"
         y="-801.07178"
         style="font-style:normal;font-variant:normal;font-weight:normal;font-stretch:normal;font-size:40px;line-height:1.25;font-family:'Rounded M+ 1c';-inkscape-font-specification:'Rounded M+ 1c, Medium';fill:#000000;fill-opacity:1;stroke-width:1"
         id="tspan189">オープンソースコミックで</tspan><tspan
         sodipodi:role="line"
         x="1548.0576"
         y="-751.07178"
         style="font-style:normal;font-variant:normal;font-weight:normal;font-stretch:normal;font-size:40px;line-height:1.25;font-family:'Rounded M+ 1c';-inkscape-font-specification:'Rounded M+ 1c, Medium';fill:#000000;fill-opacity:1;stroke-width:1"
         id="tspan862">読者パトロンの支援で</tspan><tspan
         sodipodi:role="line"
         x="1548.0576"
         y="-701.07178"
         style="font-style:normal;font-variant:normal;font-weight:normal;font-stretch:normal;font-size:40px;line-height:1.25;font-family:'Rounded M+ 1c';-inkscape-font-specification:'Rounded M+ 1c, Medium';fill:#000000;fill-opacity:1;stroke-width:1"
         id="tspan214">成り立ってます</tspan></text>
    <g
       id="layer1-8"
       inkscape:label="Layer 1"
       transform="matrix(2.2032985,0,0,2.2032985,1108.3021,-1184.6009)"
       style="opacity:0.60700001;stroke-width:0.45386502">
      <g
         inkscape:export-ydpi="300.23013"
         inkscape:export-xdpi="300.23013"
         inkscape:export-filename="/mnt/hgfs/Bov/Documents/Work/2007/cc/identity/srr buttons/big/by.png"
         id="g260"
         transform="matrix(0.9937728,0,0,0.9936696,-177.69267,6.25128e-7)"
         style="stroke-width:0.45386502">
        <path
           style="fill:#aab2ab;stroke-width:0.45386502"
           d="m 181.96579,0.51074 114.06396,0.20264 c 1.59375,0 3.01758,-0.23633 3.01758,3.18066 l -0.13965,37.56689 H 179.08737 V 3.75439 c 0,-1.68505 0.16309,-3.24365 2.87842,-3.24365 z"
           nodetypes="ccccccc"
           id="path3817_1_"
           inkscape:connector-curvature="0" />
        <path
           id="path263"
           d="m 297.29636,0 h -116.229 c -1.24658,0 -2.26123,1.01416 -2.26123,2.26074 v 39.49658 c 0,0.28174 0.229,0.51025 0.51074,0.51025 h 119.73047 c 0.28174,0 0.51074,-0.22852 0.51074,-0.51025 V 2.26074 C 299.55807,1.01416 298.54343,0 297.29636,0 Z M 181.06735,1.02148 h 116.229 c 0.68408,0 1.24023,0.55566 1.24023,1.23926 0,0 0,15.94824 0,27.44971 h -83.34424 c -3.04492,5.50586 -8.91113,9.24414 -15.64355,9.24414 -6.73535,0 -12.6001,-3.73486 -15.64355,-9.24414 h -4.07764 c 0,-11.50146 0,-27.44971 0,-27.44971 1e-5,-0.68359 0.55616,-1.23926 1.23975,-1.23926 z"
           inkscape:connector-curvature="0"
           style="stroke-width:0.45386502" />
        <g
           id="g265"
           enable-background="new    "
           style="stroke-width:0.45386502">
          <path
             style="fill:#ffffff;stroke-width:0.45386502"
             id="path267"
             d="m 253.07761,32.95605 c 0.31738,0 0.60742,0.02832 0.87012,0.08398 0.26172,0.05566 0.48535,0.14746 0.67285,0.27539 0.18652,0.12695 0.33203,0.29688 0.43457,0.50781 0.10254,0.21191 0.1543,0.47266 0.1543,0.78418 0,0.33594 -0.0762,0.61523 -0.22949,0.83887 -0.15234,0.22461 -0.37891,0.40723 -0.67773,0.55078 0.41211,0.11816 0.71973,0.3252 0.92285,0.62109 0.20312,0.29589 0.30469,0.65234 0.30469,1.06934 0,0.33594 -0.0654,0.62695 -0.19629,0.87305 -0.13086,0.24512 -0.30762,0.44629 -0.52832,0.60156 -0.22168,0.15625 -0.47461,0.27148 -0.75781,0.3457 -0.28418,0.0752 -0.5752,0.1123 -0.875,0.1123 H 249.936 v -6.66406 h 3.14161 z m -0.1875,2.69532 c 0.26172,0 0.47656,-0.0625 0.64551,-0.18652 0.16797,-0.12402 0.25195,-0.3252 0.25195,-0.60449 0,-0.15527 -0.0283,-0.2832 -0.084,-0.38184 -0.0566,-0.09961 -0.13086,-0.17676 -0.22461,-0.2334 -0.0937,-0.05566 -0.20117,-0.09473 -0.32227,-0.11621 -0.1211,-0.02148 -0.24805,-0.03223 -0.37793,-0.03223 h -1.37402 v 1.55469 z m 0.0859,2.82812 c 0.14355,0 0.28027,-0.01367 0.41113,-0.04199 0.13086,-0.02832 0.24609,-0.0752 0.34668,-0.13965 0.0996,-0.06543 0.17871,-0.1543 0.23828,-0.2666 0.0596,-0.11133 0.0889,-0.25488 0.0889,-0.42871 0,-0.3418 -0.0967,-0.58594 -0.29004,-0.73242 -0.19336,-0.14551 -0.44922,-0.21875 -0.7666,-0.21875 h -1.59961 v 1.82812 z"
             inkscape:connector-curvature="0" />
          <path
             style="fill:#ffffff;stroke-width:0.45386502"
             id="path269"
             d="m 255.78854,32.95605 h 1.64355 l 1.56055,2.63184 1.55078,-2.63184 h 1.63379 l -2.47363,4.10645 v 2.55762 h -1.46875 v -2.59473 z"
             inkscape:connector-curvature="0" />
        </g>
        <g
           transform="matrix(0.872921,0,0,0.872921,50.12536,143.2144)"
           id="g5908_1_"
           style="stroke-width:0.45386502">
          <path
             style="fill:#ffffff;stroke-width:0.45386502"
             d="m 186.90065,-141.46002 c 0.006,8.68079 -7.02786,15.7215 -15.70808,15.72711 -8.68022,0.006 -15.72206,-7.02734 -15.7271,-15.70807 0,-0.006 0,-0.0123 0,-0.019 -0.005,-8.68079 7.02786,-15.7215 15.70808,-15.72656 8.68135,-0.006 15.72206,7.02734 15.7271,15.70813 0,0.006 0,0.0123 0,0.0184 z"
             rx="22.939548"
             type="arc"
             cy="264.3577"
             ry="22.939548"
             cx="296.35416"
             id="path5906_1_"
             inkscape:connector-curvature="0" />
          <g
             transform="translate(-289.6157,99.0653)"
             id="g5706_1_"
             style="stroke-width:0.45386502">
            <path
               d="m 473.57574,-253.32751 c 3.48541,3.48541 5.22839,7.75391 5.22839,12.80219 0,5.04938 -1.71277,9.27203 -5.13831,12.66791 -3.63531,3.5766 -7.93182,5.36432 -12.88947,5.36432 -4.89777,0 -9.11987,-1.77319 -12.66513,-5.31952 -3.54581,-3.54584 -5.31845,-7.78302 -5.31845,-12.71271 0,-4.92859 1.77264,-9.19598 5.31845,-12.80219 3.4552,-3.48651 7.67728,-5.22949 12.66513,-5.22949 5.0483,-10e-6 9.31404,1.74297 12.79939,5.22949 z m -23.11798,2.34484 c -2.94672,2.97638 -4.41953,6.46289 -4.41953,10.46234 0,3.99835 1.45828,7.45526 4.37424,10.37067 2.9165,2.9165 6.38849,4.37421 10.41705,4.37421 4.02856,0 7.53015,-1.47223 10.50653,-4.4184 2.82593,-2.73645 4.23944,-6.17706 4.23944,-10.32648 0,-4.11804 -1.43646,-7.61346 -4.30768,-10.48468 -2.87067,-2.87067 -6.34991,-4.30658 -10.43829,-4.30658 -4.0884,1e-5 -7.54638,1.44318 -10.37176,4.32892 z m 7.75449,8.70319 c -0.45029,-0.98169 -1.1243,-1.47284 -2.02322,-1.47284 -1.58917,0 -2.38345,1.07007 -2.38345,3.20911 0,2.13953 0.79428,3.2085 2.38345,3.2085 1.04938,0 1.79892,-0.52075 2.24866,-1.56451 l 2.20276,1.17297 c -1.04993,1.86548 -2.62509,2.79846 -4.72549,2.79846 -1.6199,0 -2.91763,-0.4967 -3.89206,-1.48901 -0.9761,-0.99341 -1.46274,-2.36273 -1.46274,-4.10852 0,-1.71503 0.50229,-3.07654 1.50748,-4.08502 1.00519,-1.00854 2.25702,-1.51257 3.75781,-1.51257 2.22012,0 3.80981,0.87488 4.77081,2.62286 z m 10.36337,0 c -0.45087,-0.98169 -1.11145,-1.47284 -1.98242,-1.47284 -1.62103,0 -2.43213,1.07007 -2.43213,3.20911 0,2.13953 0.8111,3.2085 2.43213,3.2085 1.05109,0 1.78717,-0.52075 2.20728,-1.56451 l 2.25201,1.17297 c -1.04828,1.86548 -2.62122,2.79846 -4.71771,2.79846 -1.61768,0 -2.9126,-0.4967 -3.88647,-1.48901 -0.97217,-0.99341 -1.45935,-2.36273 -1.45935,-4.10852 0,-1.71503 0.49445,-3.07654 1.48285,-4.08502 0.98785,-1.00854 2.2453,-1.51257 3.7735,-1.51257 2.21619,0 3.80365,0.87488 4.76129,2.62286 z"
               id="path5708_1_"
               inkscape:connector-curvature="0"
               style="stroke-width:0.45386502" />
          </g>
        </g>
        <g
           id="g275"
           style="stroke-width:0.45386502">
          <circle
             style="fill:#ffffff;stroke-width:0.45386502"
             id="circle277"
             r="10.80664"
             cy="15.31348"
             cx="255.55124" />
          <g
             id="g279"
             style="stroke-width:0.45386502">
            <path
               id="path281"
               d="m 258.67819,12.18701 c 0,-0.4165 -0.33789,-0.75391 -0.75293,-0.75391 h -4.77344 c -0.41504,0 -0.75293,0.3374 -0.75293,0.75391 v 4.77295 h 1.33105 v 5.65186 h 3.61719 v -5.65186 h 1.33105 v -4.77295 z"
               inkscape:connector-curvature="0"
               style="stroke-width:0.45386502" />
            <circle
               id="circle283"
               r="1.63281"
               cy="9.1723604"
               cx="255.53854"
               style="stroke-width:0.45386502" />
          </g>
          <path
             style="clip-rule:evenodd;fill-rule:evenodd;stroke-width:0.45386502"
             id="path285"
             d="m 255.5239,3.40723 c -3.23242,0 -5.96875,1.12793 -8.20801,3.38379 -2.29785,2.3335 -3.44629,5.0957 -3.44629,8.28467 0,3.18897 1.14844,5.93164 3.44629,8.22656 2.29785,2.29443 5.03418,3.44189 8.20801,3.44189 3.21289,0 5.99805,-1.15625 8.35352,-3.47119 2.21973,-2.19727 3.33008,-4.92969 3.33008,-8.19727 0,-3.26758 -1.12988,-6.02881 -3.3877,-8.28467 -2.25977,-2.25585 -5.02442,-3.38378 -8.2959,-3.38378 z m 0.0293,2.09961 c 2.64844,0 4.89746,0.93408 6.74707,2.80127 1.86914,1.84717 2.80371,4.10303 2.80371,6.76758 0,2.68359 -0.91504,4.91064 -2.74512,6.68018 -1.92871,1.90625 -4.19629,2.85889 -6.80566,2.85889 -2.61035,0 -4.85938,-0.94287 -6.74707,-2.82959 -1.88965,-1.88672 -2.83301,-4.12305 -2.83301,-6.70947 0,-2.58691 0.9541,-4.84229 2.8623,-6.76758 1.83009,-1.8672 4.06934,-2.80128 6.71778,-2.80128 z"
             inkscape:connector-curvature="0" />
        </g>
      </g>
    </g>
    <text
       id="text4151-0"
       y="-1312.6042"
       x="524.67108"
       style="color:#000000;font-style:normal;font-variant:normal;font-weight:normal;font-stretch:normal;font-size:18.30257607px;line-height:0%;font-family:'Rounded M+ 1c';-inkscape-font-specification:'Rounded M+ 1c, Medium';text-indent:0;text-align:center;text-decoration:none;text-decoration-line:none;letter-spacing:0px;word-spacing:0px;text-transform:none;writing-mode:lr-tb;direction:ltr;baseline-shift:baseline;text-anchor:middle;display:inline;overflow:visible;visibility:visible;opacity:0.85500004;fill:#060404;fill-opacity:1;fill-rule:nonzero;stroke:none;stroke-width:1.11318696;enable-background:accumulate"
       xml:space="preserve"
       transform="scale(1.0032295,0.9967809)"><tspan
         y="-1307.2699"
         x="524.67108"
         style="color:#000000;font-style:normal;font-variant:normal;font-weight:normal;font-stretch:normal;font-size:53.70506668px;line-height:125%;font-family:'Rounded M+ 1c';-inkscape-font-specification:'Rounded M+ 1c, Medium';text-indent:0;text-align:center;text-decoration:none;text-decoration-line:none;letter-spacing:0px;word-spacing:0px;text-transform:none;writing-mode:lr-tb;direction:ltr;baseline-shift:baseline;text-anchor:middle;display:inline;overflow:visible;visibility:visible;fill:#060404;fill-opacity:1;fill-rule:nonzero;stroke:none;stroke-width:1.11318696;enable-background:accumulate"
         sodipodi:role="line"
         id="tspan1042-3" /><tspan
         y="-1307.2699"
         x="524.67108"
         style="color:#000000;font-style:normal;font-variant:normal;font-weight:normal;font-stretch:normal;font-size:60.42901993px;line-height:125%;font-family:'Yanone Kaffeesatz';-inkscape-font-specification:'Yanone Kaffeesatz';text-indent:0;text-align:start;text-decoration:none;text-decoration-line:none;letter-spacing:0px;word-spacing:0px;text-transform:none;writing-mode:lr-tb;direction:ltr;baseline-shift:baseline;text-anchor:start;display:inline;overflow:visible;visibility:visible;fill:#060404;fill-opacity:1;fill-rule:nonzero;stroke:none;stroke-width:1.11318696;enable-background:accumulate"
         sodipodi:role="line"
         id="tspan938-0" /><tspan
         y="-1307.2699"
         x="524.67108"
         style="color:#000000;font-style:normal;font-variant:normal;font-weight:bold;font-stretch:normal;font-size:60.42901993px;line-height:125%;font-family:'Yanone Kaffeesatz';-inkscape-font-specification:'Yanone Kaffeesatz Bold';text-indent:0;text-align:start;text-decoration:none;text-decoration-line:none;letter-spacing:0px;word-spacing:0px;text-transform:none;writing-mode:lr-tb;direction:ltr;baseline-shift:baseline;text-anchor:start;display:inline;overflow:visible;visibility:visible;fill:#060404;fill-opacity:1;fill-rule:nonzero;stroke:none;stroke-width:1.11318696;enable-background:accumulate"
         sodipodi:role="line"
         id="tspan550-8" /></text>
    <text
       xml:space="preserve"
       style="font-style:normal;font-variant:normal;font-weight:normal;font-stretch:normal;font-size:18.41133308px;line-height:0%;font-family:Arial;-inkscape-font-specification:Arial;text-align:center;letter-spacing:0px;word-spacing:0px;text-anchor:middle;display:inline;opacity:0.85500004;fill:#000000;fill-opacity:1;stroke:none;stroke-width:1;filter:url(#filter4155)"
       x="2034.1073"
       y="-819.08862"
       id="text4162-7-3"
       transform="scale(0.97948259,1.0209472)"><tspan
         sodipodi:role="line"
         x="2034.1073"
         y="-819.08862"
         style="font-style:normal;font-variant:normal;font-weight:normal;font-stretch:normal;font-size:49.57991791px;line-height:1.25;font-family:'Rounded M+ 1c';-inkscape-font-specification:'Rounded M+ 1c, Medium';fill:#000000;fill-opacity:1;stroke-width:1"
         id="tspan1668">このエピソードの</tspan><tspan
         sodipodi:role="line"
         x="2034.1073"
         y="-800.87292"
         style="font-style:normal;font-variant:normal;font-weight:normal;font-stretch:normal;font-size:49.57991791px;line-height:1.25;font-family:'Rounded M+ 1c';-inkscape-font-specification:'Rounded M+ 1c, Medium';fill:#000000;fill-opacity:1;stroke-width:1"
         id="tspan208" /><tspan
         sodipodi:role="line"
         x="2034.1073"
         y="-757.11371"
         style="font-style:normal;font-variant:normal;font-weight:normal;font-stretch:normal;font-size:49.57991791px;line-height:1.25;font-family:'Rounded M+ 1c';-inkscape-font-specification:'Rounded M+ 1c, Medium';fill:#000000;fill-opacity:1;stroke-width:1"
         id="tspan1670"> 1060 人の</tspan><tspan
         sodipodi:role="line"
         x="2034.1073"
         y="-695.13885"
         style="font-style:normal;font-variant:normal;font-weight:normal;font-stretch:normal;font-size:49.57991791px;line-height:1.25;font-family:'Rounded M+ 1c';-inkscape-font-specification:'Rounded M+ 1c, Medium';fill:#000000;fill-opacity:1;stroke-width:1"
         id="tspan210">パトロンに</tspan><tspan
         sodipodi:role="line"
         x="2034.1073"
         y="-633.16394"
         style="font-style:normal;font-variant:normal;font-weight:normal;font-stretch:normal;font-size:49.57991791px;line-height:1.25;font-family:'Rounded M+ 1c';-inkscape-font-specification:'Rounded M+ 1c, Medium';fill:#000000;fill-opacity:1;stroke-width:1"
         id="tspan212">大感謝!</tspan></text>
    <text
       xml:space="preserve"
       style="font-style:normal;font-variant:normal;font-weight:normal;font-stretch:normal;line-height:0%;font-family:Arial;-inkscape-font-specification:Arial;text-align:center;letter-spacing:0px;word-spacing:0px;text-anchor:middle;display:inline;opacity:0.85500004;fill:#100e0c;fill-opacity:1;stroke:none;filter:url(#filter4155)"
       x="1417.4249"
       y="3490.7651"
       id="text4221-3-9"><tspan
         sodipodi:role="line"
         x="1417.4249"
         y="3490.7651"
         style="font-style:normal;font-variant:normal;font-weight:normal;font-stretch:normal;font-size:37.33333206px;line-height:1;font-family:'Rounded M+ 1c';-inkscape-font-specification:'Rounded M+ 1c, Medium';fill:#100e0c;fill-opacity:1"
         id="tspan1763-3">詳しくは</tspan><tspan
         sodipodi:role="line"
         x="1417.4249"
         y="3532.7651"
         style="font-style:normal;font-variant:normal;font-weight:normal;font-stretch:normal;font-size:37.33333206px;line-height:1.25;font-family:'Rounded M+ 1c';-inkscape-font-specification:'Rounded M+ 1c, Medium';fill:#100e0c;fill-opacity:1"
         id="tspan1807">www.peppercarrot.com</tspan><tspan
         sodipodi:role="line"
         x="1417.4249"
         y="3579.4319"
         style="font-style:normal;font-variant:normal;font-weight:normal;font-stretch:normal;font-size:37.33333206px;line-height:1.25;font-family:'Rounded M+ 1c';-inkscape-font-specification:'Rounded M+ 1c, Medium';fill:#100e0c;fill-opacity:1"
         id="tspan1761-2">を見てね!</tspan></text>
    <text
       xml:space="preserve"
       style="font-style:normal;font-variant:normal;font-weight:normal;font-stretch:normal;font-size:13.96035194px;line-height:0%;font-family:Arial;-inkscape-font-specification:Arial;text-align:center;letter-spacing:0px;word-spacing:0px;text-anchor:middle;display:inline;opacity:0.85500004;fill:#181412;fill-opacity:1;stroke:none;stroke-width:1;filter:url(#filter4155)"
       x="1011.5229"
       y="3404.583"
       id="text4221-3-4"><tspan
         sodipodi:role="line"
         x="1011.5229"
         y="3404.583"
         style="font-style:normal;font-variant:normal;font-weight:normal;font-stretch:normal;font-size:37.33333206px;line-height:1.25;font-family:'Rounded M+ 1c';-inkscape-font-specification:'Rounded M+ 1c, Medium';fill:#181412;fill-opacity:1;stroke-width:1"
         id="tspan1872">Patreon Tipeee</tspan><tspan
         sodipodi:role="line"
         x="1011.5229"
         y="3451.2498"
         style="font-style:normal;font-variant:normal;font-weight:normal;font-stretch:normal;font-size:37.33333206px;line-height:1.25;font-family:'Rounded M+ 1c';-inkscape-font-specification:'Rounded M+ 1c, Medium';fill:#181412;fill-opacity:1;stroke-width:1"
         id="tspan1874">PayPal Liberapay</tspan><tspan
         sodipodi:role="line"
         x="1011.5229"
         y="3497.9163"
         style="font-style:normal;font-variant:normal;font-weight:normal;font-stretch:normal;font-size:37.33333206px;line-height:1.25;font-family:'Rounded M+ 1c';-inkscape-font-specification:'Rounded M+ 1c, Medium';fill:#181412;fill-opacity:1;stroke-width:1"
         id="tspan1876">などで</tspan><tspan
         sodipodi:role="line"
         x="1011.5229"
         y="3544.583"
         style="font-style:normal;font-variant:normal;font-weight:normal;font-stretch:normal;font-size:37.33333206px;line-height:1.25;font-family:'Rounded M+ 1c';-inkscape-font-specification:'Rounded M+ 1c, Medium';fill:#181412;fill-opacity:1;stroke-width:1"
         id="tspan170">支援できます!</tspan><tspan
         sodipodi:role="line"
         x="1011.5229"
         y="3558.3259"
         style="font-style:normal;font-variant:normal;font-weight:normal;font-stretch:normal;font-size:37.33333206px;line-height:1.25;font-family:'Rounded M+ 1c';-inkscape-font-specification:'Rounded M+ 1c, Medium';fill:#181412;fill-opacity:1;stroke-width:1"
         id="tspan1761-7" /></text>
    <text
       xml:space="preserve"
       style="font-style:normal;font-variant:normal;font-weight:normal;font-stretch:normal;font-size:10.33667278px;line-height:0%;font-family:Arial;-inkscape-font-specification:Arial;text-align:center;letter-spacing:0px;word-spacing:0px;text-anchor:middle;display:inline;opacity:0.85500004;fill:#000000;fill-opacity:1;stroke:none;stroke-width:1;filter:url(#filter4155)"
       x="2197.2747"
       y="3732.3772"
       id="text4221-3-9-3"><tspan
         sodipodi:role="line"
         x="2197.2747"
         y="3732.3772"
         style="font-style:normal;font-variant:normal;font-weight:normal;font-stretch:normal;font-size:32px;line-height:1.25;font-family:'Rounded M+ 1c';-inkscape-font-specification:'Rounded M+ 1c, Medium';fill:#000000;fill-opacity:1;stroke-width:1"
         id="tspan1838-7">ありがとうございます!</tspan><tspan
         sodipodi:role="line"
         x="2197.2747"
         y="3743.7075"
         style="font-style:normal;font-variant:normal;font-weight:normal;font-stretch:normal;font-size:32px;line-height:1.25;font-family:'Rounded M+ 1c';-inkscape-font-specification:'Rounded M+ 1c, Medium';fill:#000000;fill-opacity:1;stroke-width:1"
         id="tspan1761-2-2" /></text>
    <text
       xml:space="preserve"
       style="font-style:normal;font-variant:normal;font-weight:normal;font-stretch:normal;font-size:17.13621712px;line-height:0%;font-family:Arial;-inkscape-font-specification:Arial;text-align:center;letter-spacing:0px;word-spacing:0px;text-anchor:middle;display:inline;opacity:0.85500004;fill:#000000;fill-opacity:1;stroke:none;stroke-width:1;filter:url(#filter4155)"
       x="1172.8605"
       y="-892.21112"
       id="text4162-7-8"
       transform="scale(0.96265764,1.0387909)"><tspan
         sodipodi:role="line"
         x="1172.8605"
         y="-892.21112"
         style="font-style:normal;font-variant:normal;font-weight:normal;font-stretch:normal;font-size:46.14615631px;line-height:1.25;font-family:'Rounded M+ 1c';-inkscape-font-specification:'Rounded M+ 1c, Medium';fill:#000000;fill-opacity:1;stroke-width:1"
         id="tspan416">知ってた?</tspan></text>
    <text
       id="text4151"
       y="-2125.187"
       x="1249.3534"
       style="color:#000000;font-style:normal;font-variant:normal;font-weight:normal;font-stretch:normal;font-size:12.78653431px;line-height:0%;font-family:'Rounded M+ 1c';-inkscape-font-specification:'Rounded M+ 1c, Medium';text-indent:0;text-align:center;text-decoration:none;text-decoration-line:none;letter-spacing:0px;word-spacing:0px;text-transform:none;writing-mode:lr-tb;direction:ltr;baseline-shift:baseline;text-anchor:middle;display:inline;overflow:visible;visibility:visible;opacity:0.85500004;fill:#060404;fill-opacity:1;fill-rule:nonzero;stroke:none;stroke-width:1.11318684;enable-background:accumulate"
       xml:space="preserve"
       transform="scale(0.99514974,1.0048739)"><tspan
         y="-2120.5837"
         x="1249.3534"
         style="color:#000000;font-style:normal;font-variant:normal;font-weight:bold;font-stretch:normal;font-size:37.33333206px;line-height:125%;font-family:'Rounded M+ 1c';-inkscape-font-specification:'Rounded M+ 1c, Medium';text-indent:0;text-align:center;text-decoration:none;text-decoration-line:none;letter-spacing:0px;word-spacing:0px;text-transform:none;writing-mode:lr-tb;direction:ltr;baseline-shift:baseline;text-anchor:middle;display:inline;overflow:visible;visibility:visible;fill:#060404;fill-opacity:1;fill-rule:nonzero;stroke:none;stroke-width:1.11318684;enable-background:accumulate"
         sodipodi:role="line"
         id="tspan938" /><tspan
         y="-2120.5837"
         x="1249.3534"
         style="color:#000000;font-style:normal;font-variant:normal;font-weight:normal;font-stretch:normal;font-size:37.33333206px;line-height:125%;font-family:Lavi;-inkscape-font-specification:Lavi;text-indent:0;text-align:center;text-decoration:none;text-decoration-line:none;letter-spacing:0px;word-spacing:0px;text-transform:none;writing-mode:lr-tb;direction:ltr;baseline-shift:baseline;text-anchor:middle;display:inline;overflow:visible;visibility:visible;fill:#060404;fill-opacity:1;fill-rule:nonzero;stroke:none;stroke-width:1.11318684;enable-background:accumulate"
         sodipodi:role="line"
         id="tspan4166" /><tspan
         y="-2120.5837"
         x="1249.3534"
         style="color:#000000;font-style:normal;font-variant:normal;font-weight:normal;font-stretch:normal;font-size:37.33333206px;line-height:125%;font-family:Lavi;-inkscape-font-specification:Lavi;text-indent:0;text-align:center;text-decoration:none;text-decoration-line:none;letter-spacing:0px;word-spacing:0px;text-transform:none;writing-mode:lr-tb;direction:ltr;baseline-shift:baseline;text-anchor:middle;display:inline;overflow:visible;visibility:visible;fill:#060404;fill-opacity:1;fill-rule:nonzero;stroke:none;stroke-width:1.11318684;enable-background:accumulate"
         sodipodi:role="line"
         id="tspan4168" /><tspan
         y="-2090.9727"
         x="1249.3534"
         style="color:#000000;font-style:normal;font-variant:normal;font-weight:bold;font-stretch:normal;font-size:37.33333206px;line-height:125%;font-family:Lavi;-inkscape-font-specification:Lavi;text-indent:0;text-align:center;text-decoration:none;text-decoration-line:none;letter-spacing:0px;word-spacing:0px;text-transform:none;writing-mode:lr-tb;direction:ltr;baseline-shift:baseline;text-anchor:middle;display:inline;overflow:visible;visibility:visible;fill:#060404;fill-opacity:1;fill-rule:nonzero;stroke:none;stroke-width:1.11318684;enable-background:accumulate"
         sodipodi:role="line"
         id="tspan4170">October 31, 2018</tspan><tspan
         y="-2039.4183"
         x="1256.02"
         style="color:#000000;font-style:normal;font-variant:normal;font-weight:normal;font-stretch:normal;font-size:42.66666794px;line-height:125%;font-family:Lavi;-inkscape-font-specification:Lavi;text-indent:0;text-align:center;text-decoration:none;text-decoration-line:none;letter-spacing:0px;word-spacing:0px;text-transform:none;writing-mode:lr-tb;direction:ltr;baseline-shift:baseline;text-anchor:middle;display:inline;overflow:visible;visibility:visible;fill:#060404;fill-opacity:1;fill-rule:nonzero;stroke:none;stroke-width:1.11318684;enable-background:accumulate"
         sodipodi:role="line"
         id="tspan4150"> </tspan><tspan
         y="-1986.085"
         x="1249.3534"
         style="color:#000000;font-style:normal;font-variant:normal;font-weight:normal;font-stretch:normal;font-size:42.66666794px;line-height:125%;font-family:Lavi;-inkscape-font-specification:Lavi;text-indent:0;text-align:center;text-decoration:none;text-decoration-line:none;letter-spacing:0px;word-spacing:0px;text-transform:none;writing-mode:lr-tb;direction:ltr;baseline-shift:baseline;text-anchor:middle;display:inline;overflow:visible;visibility:visible;fill:#060404;fill-opacity:1;fill-rule:nonzero;stroke:none;stroke-width:1.11318684;enable-background:accumulate"
         sodipodi:role="line"
         id="tspan943"><tspan
   style="font-weight:bold"
   id="tspan190">Art &amp; scenario:</tspan> David Revoy.</tspan><tspan
         y="-1932.7516"
         x="1249.3534"
         style="color:#000000;font-style:normal;font-variant:normal;font-weight:normal;font-stretch:normal;font-size:42.66666794px;line-height:125%;font-family:Lavi;-inkscape-font-specification:Lavi;text-indent:0;text-align:center;text-decoration:none;text-decoration-line:none;letter-spacing:0px;word-spacing:0px;text-transform:none;writing-mode:lr-tb;direction:ltr;baseline-shift:baseline;text-anchor:middle;display:inline;overflow:visible;visibility:visible;fill:#060404;fill-opacity:1;fill-rule:nonzero;stroke:none;stroke-width:1.11318684;enable-background:accumulate"
         sodipodi:role="line"
         id="tspan167"><tspan
   style="font-weight:bold"
   id="tspan192">Beta readers:</tspan> Amyspark, Butterfly, Bhoren, CalimeroTeknik, Craig Maloney, Gleki Arxokuna,</tspan><tspan
         y="-1879.4182"
         x="1249.3534"
         style="color:#000000;font-style:normal;font-variant:normal;font-weight:normal;font-stretch:normal;font-size:42.66666794px;line-height:125%;font-family:Lavi;-inkscape-font-specification:Lavi;text-indent:0;text-align:center;text-decoration:none;text-decoration-line:none;letter-spacing:0px;word-spacing:0px;text-transform:none;writing-mode:lr-tb;direction:ltr;baseline-shift:baseline;text-anchor:middle;display:inline;overflow:visible;visibility:visible;fill:#060404;fill-opacity:1;fill-rule:nonzero;stroke:none;stroke-width:1.11318684;enable-background:accumulate"
         sodipodi:role="line"
         id="tspan183">Imsesaok, Jookia, Martin Disch, Midgard, Nicolas Artance, uncle Night, ValVin, xHire, Zveryok.</tspan><tspan
         y="-1826.085"
         x="1256.02"
         style="color:#000000;font-style:normal;font-variant:normal;font-weight:normal;font-stretch:normal;font-size:42.66666794px;line-height:125%;font-family:Lavi;-inkscape-font-specification:Lavi;text-indent:0;text-align:center;text-decoration:none;text-decoration-line:none;letter-spacing:0px;word-spacing:0px;text-transform:none;writing-mode:lr-tb;direction:ltr;baseline-shift:baseline;text-anchor:middle;display:inline;overflow:visible;visibility:visible;fill:#060404;fill-opacity:1;fill-rule:nonzero;stroke:none;stroke-width:1.11318684;enable-background:accumulate"
         sodipodi:role="line"
         id="tspan285"> </tspan><tspan
         y="-1772.7516"
         x="1249.3534"
         style="color:#000000;font-style:normal;font-variant:normal;font-weight:bold;font-stretch:normal;font-size:42.66666794px;line-height:125%;font-family:Lavi;-inkscape-font-specification:Lavi;text-indent:0;text-align:center;text-decoration:none;text-decoration-line:none;letter-spacing:0px;word-spacing:0px;text-transform:none;writing-mode:lr-tb;direction:ltr;baseline-shift:baseline;text-anchor:middle;display:inline;overflow:visible;visibility:visible;fill:#060404;fill-opacity:1;fill-rule:nonzero;stroke:none;stroke-width:1.11318684;enable-background:accumulate"
         sodipodi:role="line"
         id="tspan275">Japanese version</tspan><tspan
         y="-1722.7516"
         x="1249.3534"
         style="color:#000000;font-style:normal;font-variant:normal;font-weight:normal;font-stretch:normal;font-size:42.66666794px;line-height:125%;font-family:Lavi;-inkscape-font-specification:Lavi;text-indent:0;text-align:center;text-decoration:none;text-decoration-line:none;letter-spacing:0px;word-spacing:0px;text-transform:none;writing-mode:lr-tb;direction:ltr;baseline-shift:baseline;text-anchor:middle;display:inline;overflow:visible;visibility:visible;fill:#060404;fill-opacity:1;fill-rule:nonzero;stroke:none;stroke-width:1.11318684;enable-background:accumulate"
         sodipodi:role="line"
         id="tspan1018"><tspan
   style="font-style:normal;font-variant:normal;font-weight:normal;font-stretch:normal;font-size:42.66666794px;font-family:Lavi;-inkscape-font-specification:Lavi"
   id="tspan422"><tspan
   style="font-weight:bold"
   id="tspan194">Translation:</tspan> guruguru</tspan>.</tspan><tspan
         y="-1676.085"
         x="1249.3534"
         style="color:#000000;font-style:normal;font-variant:normal;font-weight:normal;font-stretch:normal;font-size:42.66666794px;line-height:125%;font-family:Lavi;-inkscape-font-specification:Lavi;text-indent:0;text-align:center;text-decoration:none;text-decoration-line:none;letter-spacing:0px;word-spacing:0px;text-transform:none;writing-mode:lr-tb;direction:ltr;baseline-shift:baseline;text-anchor:middle;display:inline;overflow:visible;visibility:visible;fill:#060404;fill-opacity:1;fill-rule:nonzero;stroke:none;stroke-width:1.11318684;enable-background:accumulate"
         sodipodi:role="line"
         id="tspan168"><tspan
   style="font-weight:bold"
   id="tspan171">Proofreading:</tspan> CalimeroTeknik.</tspan><tspan
         y="-1624.5305"
         x="1256.02"
         style="color:#000000;font-style:normal;font-variant:normal;font-weight:normal;font-stretch:normal;font-size:42.66666794px;line-height:125%;font-family:Lavi;-inkscape-font-specification:Lavi;text-indent:0;text-align:center;text-decoration:none;text-decoration-line:none;letter-spacing:0px;word-spacing:0px;text-transform:none;writing-mode:lr-tb;direction:ltr;baseline-shift:baseline;text-anchor:middle;display:inline;overflow:visible;visibility:visible;fill:#060404;fill-opacity:1;fill-rule:nonzero;stroke:none;stroke-width:1.11318684;enable-background:accumulate"
         sodipodi:role="line"
         id="tspan1026"> </tspan><tspan
         y="-1580.9727"
         x="1249.3534"
         style="color:#000000;font-style:normal;font-variant:normal;font-weight:bold;font-stretch:normal;font-size:32px;line-height:125%;font-family:Lavi;-inkscape-font-specification:Lavi;text-indent:0;text-align:center;text-decoration:none;text-decoration-line:none;letter-spacing:0px;word-spacing:0px;text-transform:none;writing-mode:lr-tb;direction:ltr;baseline-shift:baseline;text-anchor:middle;display:inline;overflow:visible;visibility:visible;fill:#060404;fill-opacity:1;fill-rule:nonzero;stroke:none;stroke-width:1.11318684;enable-background:accumulate"
         sodipodi:role="line"
         id="tspan1028">Based on the universe of Hereva</tspan><tspan
         y="-1540.9727"
         x="1249.3534"
         style="color:#000000;font-style:normal;font-variant:normal;font-weight:normal;font-stretch:normal;font-size:32px;line-height:125%;font-family:Lavi;-inkscape-font-specification:Lavi;text-indent:0;text-align:center;text-decoration:none;text-decoration-line:none;letter-spacing:0px;word-spacing:0px;text-transform:none;writing-mode:lr-tb;direction:ltr;baseline-shift:baseline;text-anchor:middle;display:inline;overflow:visible;visibility:visible;fill:#060404;fill-opacity:1;fill-rule:nonzero;stroke:none;stroke-width:1.11318684;enable-background:accumulate"
         sodipodi:role="line"
         id="tspan979"><tspan
   style="font-weight:bold"
   id="tspan196">Creator:</tspan> David Revoy.</tspan><tspan
         y="-1500.9727"
         x="1249.3534"
         style="color:#000000;font-style:normal;font-variant:normal;font-weight:normal;font-stretch:normal;font-size:32px;line-height:125%;font-family:Lavi;-inkscape-font-specification:Lavi;text-indent:0;text-align:center;text-decoration:none;text-decoration-line:none;letter-spacing:0px;word-spacing:0px;text-transform:none;writing-mode:lr-tb;direction:ltr;baseline-shift:baseline;text-anchor:middle;display:inline;overflow:visible;visibility:visible;fill:#060404;fill-opacity:1;fill-rule:nonzero;stroke:none;stroke-width:1.11318684;enable-background:accumulate"
         sodipodi:role="line"
         id="tspan981"><tspan
   style="font-weight:bold"
   id="tspan198">Lead maintainer:</tspan> Craig Maloney.</tspan><tspan
         y="-1460.9727"
         x="1249.3534"
         style="color:#000000;font-style:normal;font-variant:normal;font-weight:normal;font-stretch:normal;font-size:32px;line-height:125%;font-family:Lavi;-inkscape-font-specification:Lavi;text-indent:0;text-align:center;text-decoration:none;text-decoration-line:none;letter-spacing:0px;word-spacing:0px;text-transform:none;writing-mode:lr-tb;direction:ltr;baseline-shift:baseline;text-anchor:middle;display:inline;overflow:visible;visibility:visible;fill:#060404;fill-opacity:1;fill-rule:nonzero;stroke:none;stroke-width:1.11318684;enable-background:accumulate"
         sodipodi:role="line"
         id="tspan983"><tspan
   style="font-weight:bold"
   id="tspan200">Writers:</tspan> Craig Maloney, Nartance, Scribblemaniac, Valvin.</tspan><tspan
         y="-1420.7516"
         x="1249.3534"
         style="color:#000000;font-style:normal;font-variant:normal;font-weight:normal;font-stretch:normal;font-size:37.33333206px;line-height:100%;font-family:Lavi;-inkscape-font-specification:Lavi;text-indent:0;text-align:center;text-decoration:none;text-decoration-line:none;letter-spacing:0px;word-spacing:0px;text-transform:none;writing-mode:lr-tb;direction:ltr;baseline-shift:baseline;text-anchor:middle;display:inline;overflow:visible;visibility:visible;fill:#060404;fill-opacity:1;fill-rule:nonzero;stroke:none;stroke-width:1.11318684;enable-background:accumulate"
         sodipodi:role="line"
         id="tspan1052"><tspan
   style="font-style:normal;font-variant:normal;font-weight:bold;font-stretch:normal;font-size:32px;line-height:100%;font-family:Lavi;-inkscape-font-specification:Lavi;stroke-width:1.11318684"
   id="tspan993">Correctors:</tspan><tspan
   style="font-style:normal;font-variant:normal;font-weight:normal;font-stretch:normal;font-size:32px;line-height:100%;font-family:Lavi;-inkscape-font-specification:Lavi"
   id="tspan363"> Willem Sonke, Moini, Hali, CGand, Alex Gryson</tspan>.</tspan><tspan
         y="-1378.7516"
         x="1255.1868"
         style="color:#000000;font-style:normal;font-variant:normal;font-weight:normal;font-stretch:normal;font-size:37.33333206px;line-height:125%;font-family:Lavi;-inkscape-font-specification:Lavi;text-indent:0;text-align:center;text-decoration:none;text-decoration-line:none;letter-spacing:0px;word-spacing:0px;text-transform:none;writing-mode:lr-tb;direction:ltr;baseline-shift:baseline;text-anchor:middle;display:inline;overflow:visible;visibility:visible;fill:#060404;fill-opacity:1;fill-rule:nonzero;stroke:none;stroke-width:1.11318684;enable-background:accumulate"
         sodipodi:role="line"
         id="tspan995"> </tspan><tspan
         y="-1332.085"
         x="1249.3534"
         style="color:#000000;font-style:normal;font-variant:normal;font-weight:normal;font-stretch:normal;font-size:37.33333206px;line-height:125%;font-family:Lavi;-inkscape-font-specification:Lavi;text-indent:0;text-align:center;text-decoration:none;text-decoration-line:none;letter-spacing:0px;word-spacing:0px;text-transform:none;writing-mode:lr-tb;direction:ltr;baseline-shift:baseline;text-anchor:middle;display:inline;overflow:visible;visibility:visible;fill:#060404;fill-opacity:1;fill-rule:nonzero;stroke:none;stroke-width:1.11318684;enable-background:accumulate"
         sodipodi:role="line"
         id="tspan4134"><tspan
   style="font-weight:bold"
   id="tspan202">Software:</tspan> Krita 4.2-dev, Inkscape 0.92.3 on Kubuntu 18.04.</tspan><tspan
         y="-1285.4183"
         x="1249.3534"
         style="color:#000000;font-style:normal;font-variant:normal;font-weight:normal;font-stretch:normal;font-size:37.33333206px;line-height:125%;font-family:Lavi;-inkscape-font-specification:Lavi;text-indent:0;text-align:center;text-decoration:none;text-decoration-line:none;letter-spacing:0px;word-spacing:0px;text-transform:none;writing-mode:lr-tb;direction:ltr;baseline-shift:baseline;text-anchor:middle;display:inline;overflow:visible;visibility:visible;fill:#060404;fill-opacity:1;fill-rule:nonzero;stroke:none;stroke-width:1.11318684;enable-background:accumulate"
         sodipodi:role="line"
         id="tspan4152"><tspan
   style="font-weight:bold"
   id="tspan204">License:</tspan> Creative Commons Attribution 4.0.</tspan><tspan
         y="-1233.8639"
         x="1249.3534"
         style="color:#000000;font-style:normal;font-variant:normal;font-weight:normal;font-stretch:normal;font-size:42.66666794px;line-height:125%;font-family:Lavi;-inkscape-font-specification:Lavi;text-indent:0;text-align:center;text-decoration:none;text-decoration-line:none;letter-spacing:0px;word-spacing:0px;text-transform:none;writing-mode:lr-tb;direction:ltr;baseline-shift:baseline;text-anchor:middle;display:inline;overflow:visible;visibility:visible;fill:#060404;fill-opacity:1;fill-rule:nonzero;stroke:none;stroke-width:1.11318684;enable-background:accumulate"
         sodipodi:role="line"
         id="tspan842">www.peppercarrot.com</tspan></text>
  </g>
  <g
     inkscape:groupmode="layer"
     id="layer4"
     inkscape:label="notes"
     style="opacity:0.55699978"
     transform="translate(0,850)"
     sodipodi:insensitive="true">
    <path
       style="color:#000000;clip-rule:nonzero;display:inline;overflow:visible;visibility:visible;opacity:1;isolation:auto;mix-blend-mode:normal;color-interpolation:sRGB;color-interpolation-filters:linearRGB;solid-color:#000000;solid-opacity:1;fill:#fff3c0;fill-opacity:1;fill-rule:nonzero;stroke:#565656;stroke-width:1.20000005;stroke-linecap:butt;stroke-linejoin:miter;stroke-miterlimit:4;stroke-dasharray:none;stroke-dashoffset:0;stroke-opacity:1;marker:none;color-rendering:auto;image-rendering:auto;shape-rendering:auto;text-rendering:auto;enable-background:accumulate"
       d="M -574.6862,-488.95855 V -197.9117 H -69.701155 V -488.95855 Z"
       id="rect4191-6"
       inkscape:connector-curvature="0"
       sodipodi:nodetypes="ccccc" />
    <path
       sodipodi:nodetypes="ccccc"
       inkscape:connector-curvature="0"
       id="path1126"
       d="M -574.6862,-67.041416 V 45.107424 H -69.701155 V -67.041416 Z"
       style="color:#000000;clip-rule:nonzero;display:inline;overflow:visible;visibility:visible;opacity:1;isolation:auto;mix-blend-mode:normal;color-interpolation:sRGB;color-interpolation-filters:linearRGB;solid-color:#000000;solid-opacity:1;fill:#fff3c0;fill-opacity:1;fill-rule:nonzero;stroke:#565656;stroke-width:1.20000005;stroke-linecap:butt;stroke-linejoin:miter;stroke-miterlimit:4;stroke-dasharray:none;stroke-dashoffset:0;stroke-opacity:1;marker:none;color-rendering:auto;image-rendering:auto;shape-rendering:auto;text-rendering:auto;enable-background:accumulate" />
    <rect
       ry="6.828125"
       rx="6.828125"
       y="-42.801579"
       x="-550.34448"
       height="40.609375"
       width="40.609375"
       id="rect1119"
       style="opacity:1;vector-effect:none;fill:#ffffff;fill-opacity:1;fill-rule:nonzero;stroke:#565656;stroke-width:2;stroke-linecap:butt;stroke-linejoin:miter;stroke-miterlimit:4;stroke-dasharray:none;stroke-dashoffset:0;stroke-opacity:1;paint-order:fill markers stroke" />
    <flowRoot
       xml:space="preserve"
       id="flowRoot4212-7"
       style="font-style:normal;font-variant:normal;font-weight:normal;font-stretch:normal;font-size:32.51329803px;line-height:0.01%;font-family:Lavi;-inkscape-font-specification:'Lavi, Normal';font-variant-ligatures:normal;font-variant-caps:normal;font-variant-numeric:normal;font-feature-settings:normal;text-align:center;letter-spacing:0px;word-spacing:0px;writing-mode:lr-tb;text-anchor:middle;display:inline;opacity:0.86000001;fill:#000000;fill-opacity:1;stroke:none;stroke-width:0.90314716px;stroke-linecap:butt;stroke-linejoin:miter;stroke-opacity:1"
       transform="matrix(1.1072392,0,0,1.1072392,-254.26383,-1642.0391)"><flowRegion
         id="flowRegion4214-5"
         style="font-style:normal;font-variant:normal;font-weight:normal;font-stretch:normal;font-size:32.51329803px;font-family:Lavi;-inkscape-font-specification:'Lavi, Normal';font-variant-ligatures:normal;font-variant-caps:normal;font-variant-numeric:normal;font-feature-settings:normal;text-align:center;writing-mode:lr-tb;text-anchor:middle;stroke-width:0.90314716px"><rect
           id="rect4216-3"
           width="426.3205"
           height="405.5687"
           x="-275.14545"
           y="1061.6674"
           style="font-style:normal;font-variant:normal;font-weight:normal;font-stretch:normal;font-size:32.51329803px;font-family:Lavi;-inkscape-font-specification:'Lavi, Normal';font-variant-ligatures:normal;font-variant-caps:normal;font-variant-numeric:normal;font-feature-settings:normal;text-align:center;writing-mode:lr-tb;text-anchor:middle;stroke-width:0.90314716px" /></flowRegion><flowPara
         style="font-style:normal;font-variant:normal;font-weight:bold;font-stretch:normal;font-size:24.08392525px;line-height:1.25;font-family:Lavi;-inkscape-font-specification:'Lavi, Normal';font-variant-ligatures:normal;font-variant-caps:normal;font-variant-numeric:normal;font-feature-settings:normal;text-align:center;writing-mode:lr-tb;text-anchor:middle;stroke-width:0.90314716px"
         id="flowPara885">NOTE FOR TRANSLATORS</flowPara><flowPara
         style="font-style:normal;font-variant:normal;font-weight:normal;font-stretch:normal;font-size:12.04196262px;line-height:1.25;font-family:Lavi;-inkscape-font-specification:'Lavi, Normal';font-variant-ligatures:normal;font-variant-caps:normal;font-variant-numeric:normal;font-feature-settings:normal;text-align:center;writing-mode:lr-tb;text-anchor:middle;stroke-width:0.90314716px"
         id="flowPara145" /><flowPara
         style="font-style:normal;font-variant:normal;font-weight:normal;font-stretch:normal;font-size:32.51329803px;line-height:1.25;font-family:Lavi;-inkscape-font-specification:'Lavi, Normal';font-variant-ligatures:normal;font-variant-caps:normal;font-variant-numeric:normal;font-feature-settings:normal;text-align:center;writing-mode:lr-tb;text-anchor:middle;stroke-width:0.90314716px"
         id="flowPara877" /><flowPara
         style="font-style:normal;font-variant:normal;font-weight:normal;font-stretch:normal;font-size:32.51329803px;line-height:1.25;font-family:Lavi;-inkscape-font-specification:'Lavi, Normal';font-variant-ligatures:normal;font-variant-caps:normal;font-variant-numeric:normal;font-feature-settings:normal;text-align:center;writing-mode:lr-tb;text-anchor:middle;stroke-width:0.90314716px"
         id="flowPara542">Replace this section, e.g.:</flowPara><flowPara
         style="font-style:normal;font-variant:normal;font-weight:normal;font-stretch:normal;font-size:12.04196262px;line-height:1.25;font-family:Lavi;-inkscape-font-specification:'Lavi, Normal';font-variant-ligatures:normal;font-variant-caps:normal;font-variant-numeric:normal;font-feature-settings:normal;text-align:center;writing-mode:lr-tb;text-anchor:middle;stroke-width:0.90314716px"
         id="flowPara552" /><flowPara
         style="font-style:normal;font-variant:normal;font-weight:bold;font-stretch:normal;font-size:32.51329803px;line-height:1.25;font-family:Lavi;-inkscape-font-specification:'Lavi, Normal';font-variant-ligatures:normal;font-variant-caps:normal;font-variant-numeric:normal;font-feature-settings:normal;text-align:center;writing-mode:lr-tb;text-anchor:middle;stroke-width:0.90314716px"
         id="flowPara544">French version</flowPara><flowPara
         style="font-style:normal;font-variant:normal;font-weight:normal;font-stretch:normal;font-size:32.51329803px;line-height:1.25;font-family:Lavi;-inkscape-font-specification:'Lavi, Normal';font-variant-ligatures:normal;font-variant-caps:normal;font-variant-numeric:normal;font-feature-settings:normal;text-align:center;writing-mode:lr-tb;text-anchor:middle;stroke-width:0.90314716px"
         id="flowPara554"><flowSpan
   style="font-weight:bold"
   id="flowSpan155">Translation:</flowSpan> My Name.</flowPara><flowPara
         style="font-style:normal;font-variant:normal;font-weight:normal;font-stretch:normal;font-size:32.51329803px;line-height:1.25;font-family:Lavi;-inkscape-font-specification:'Lavi, Normal';font-variant-ligatures:normal;font-variant-caps:normal;font-variant-numeric:normal;font-feature-settings:normal;text-align:center;writing-mode:lr-tb;text-anchor:middle;stroke-width:0.90314716px"
         id="flowPara1038"><flowSpan
   style="font-weight:bold"
   id="flowSpan157">Proofreading:</flowSpan> Other Name.</flowPara></flowRoot>    <flowRoot
       xml:space="preserve"
       id="flowRoot147"
       style="font-style:normal;font-variant:normal;font-weight:normal;font-stretch:normal;font-size:13.33333302px;line-height:139.99999762%;font-family:sans-serif;-inkscape-font-specification:'sans-serif, Normal';font-variant-ligatures:normal;font-variant-caps:normal;font-variant-numeric:normal;font-feature-settings:normal;text-align:center;letter-spacing:0px;word-spacing:0px;writing-mode:lr-tb;text-anchor:middle;fill:#000000;fill-opacity:1;stroke:none;stroke-width:1px;stroke-linecap:butt;stroke-linejoin:miter;stroke-opacity:1"
       transform="translate(0,-850)"><flowRegion
         id="flowRegion149"><rect
           id="rect151"
           width="127.9375"
           height="74.75"
           x="-209.875"
           y="445.68756" /></flowRegion><flowPara
         id="flowPara153" /></flowRoot>    <rect
       style="opacity:1;vector-effect:none;fill:#ffffff;fill-opacity:1;fill-rule:nonzero;stroke:#565656;stroke-width:2;stroke-linecap:butt;stroke-linejoin:miter;stroke-miterlimit:4;stroke-dasharray:none;stroke-dashoffset:0;stroke-opacity:1;paint-order:fill markers stroke"
       id="rect1053"
       width="40.609375"
       height="40.609375"
       x="-516.38354"
       y="-17.825018"
       rx="6.828125"
       ry="6.828125" />
    <g
       aria-label="文"
       style="font-style:normal;font-variant:normal;font-weight:500;font-stretch:normal;font-size:53.33333206px;line-height:139.99999762%;font-family:Beteckna;-inkscape-font-specification:'Beteckna, Medium';font-variant-ligatures:normal;font-variant-caps:normal;font-variant-numeric:normal;font-feature-settings:normal;text-align:center;letter-spacing:0px;word-spacing:0px;writing-mode:lr-tb;text-anchor:middle;fill:#000000;fill-opacity:1;stroke:#000000;stroke-width:1px;stroke-linecap:butt;stroke-linejoin:miter;stroke-opacity:1"
       id="text1042"
       transform="matrix(0.59407669,0,0,0.59407669,-163.26261,107.22294)">
      <path
         d="m -579.73479,-186.8389 q -1.06667,0 -1.81333,-0.74666 -0.74667,-0.74667 -0.74667,-1.81334 0,-1.01333 0.74667,-1.76 0.74666,-0.74666 1.81333,-0.74666 h 17.49333 q 0.48,0 0.48,-0.48 v -4.21334 q 0,-1.22666 0.85334,-2.08 0.90666,-0.85333 2.08,-0.85333 1.17333,0 2.02666,0.85333 0.90667,0.85334 0.90667,2.08 v 4.21334 q 0,0.48 0.48,0.48 h 17.54666 q 1.01334,0 1.76,0.74666 0.74667,0.69334 0.74667,1.76 0,1.06667 -0.74667,1.81334 -0.74666,0.74666 -1.76,0.74666 h -4.26666 q -0.42667,0 -0.58667,0.42667 -4.58667,13.92 -11.57333,21.12 -0.32,0.32 0.0533,0.58667 6.02667,4.16 16.48,7.46666 1.01333,0.32 1.49333,1.28 0.48,0.96 0.16,1.97334 -0.37333,1.06666 -1.33333,1.54666 -0.96,0.48 -1.97333,0.16 -11.89334,-3.68 -19.04,-8.8 -0.37333,-0.26666 -0.74667,0 -7.14666,5.17334 -19.04,8.8 -1.01333,0.32 -1.97333,-0.16 -0.96,-0.48 -1.33333,-1.54666 -0.32,-1.01334 0.16,-1.97334 0.48,-0.96 1.49333,-1.28 10.50667,-3.36 16.48,-7.52 0.37333,-0.21333 0.0533,-0.53333 -5.81333,-5.97333 -9.76,-15.68 -0.42666,-1.01333 0.10667,-2.02667 0.53333,-1.06666 1.65333,-1.33333 1.17334,-0.32 2.18667,0.26667 1.06667,0.53333 1.49333,1.65333 3.36,8.42667 8.48,13.6 0.26667,0.26667 0.58667,-0.0533 5.76,-6.08 9.70666,-17.54667 0.10667,-0.42667 -0.32,-0.42667 z"
         id="path1044"
         inkscape:connector-curvature="0"
         style="stroke:#000000;stroke-opacity:1" />
    </g>
    <flowRoot
       transform="matrix(1.1072392,0,0,1.1072392,-152.13883,-1229.3068)"
       style="font-style:normal;font-variant:normal;font-weight:normal;font-stretch:normal;font-size:32.51329803px;line-height:0.01%;font-family:Lavi;-inkscape-font-specification:'Lavi, Normal';font-variant-ligatures:normal;font-variant-caps:normal;font-variant-numeric:normal;font-feature-settings:normal;text-align:start;letter-spacing:0px;word-spacing:0px;writing-mode:lr-tb;text-anchor:start;display:inline;opacity:0.86000001;fill:#000000;fill-opacity:1;stroke:none;stroke-width:0.90314716px;stroke-linecap:butt;stroke-linejoin:miter;stroke-opacity:1"
       id="flowRoot1089"
       xml:space="preserve"><flowRegion
         style="font-style:normal;font-variant:normal;font-weight:normal;font-stretch:normal;font-size:32.51329803px;font-family:Lavi;-inkscape-font-specification:'Lavi, Normal';font-variant-ligatures:normal;font-variant-caps:normal;font-variant-numeric:normal;font-feature-settings:normal;text-align:start;writing-mode:lr-tb;text-anchor:start;stroke-width:0.90314716px"
         id="flowRegion1067"><rect
           style="font-style:normal;font-variant:normal;font-weight:normal;font-stretch:normal;font-size:32.51329803px;font-family:Lavi;-inkscape-font-specification:'Lavi, Normal';font-variant-ligatures:normal;font-variant-caps:normal;font-variant-numeric:normal;font-feature-settings:normal;text-align:start;writing-mode:lr-tb;text-anchor:start;stroke-width:0.90314716px"
           y="1061.6674"
           x="-275.14545"
           height="150.45786"
           width="328.94995"
           id="rect1065" /></flowRegion><flowPara
         id="flowPara1087"
         style="font-style:normal;font-variant:normal;font-weight:normal;font-stretch:normal;font-size:32.51329803px;line-height:1.25;font-family:Lavi;-inkscape-font-specification:'Lavi, Normal';font-variant-ligatures:normal;font-variant-caps:normal;font-variant-numeric:normal;font-feature-settings:normal;text-align:start;writing-mode:lr-tb;text-anchor:start;stroke-width:0.90314716px">You can also translate</flowPara><flowPara
         style="font-style:normal;font-variant:normal;font-weight:normal;font-stretch:normal;font-size:32.51329803px;line-height:1.25;font-family:Lavi;-inkscape-font-specification:'Lavi, Normal';font-variant-ligatures:normal;font-variant-caps:normal;font-variant-numeric:normal;font-feature-settings:normal;text-align:start;writing-mode:lr-tb;text-anchor:start;stroke-width:0.90314716px"
         id="flowPara1115">this page if you want.</flowPara></flowRoot>    <path
       style="color:#000000;clip-rule:nonzero;display:inline;overflow:visible;visibility:visible;opacity:1;isolation:auto;mix-blend-mode:normal;color-interpolation:sRGB;color-interpolation-filters:linearRGB;solid-color:#000000;solid-opacity:1;fill:#fff3c0;fill-opacity:1;fill-rule:nonzero;stroke:#565656;stroke-width:1.6226846;stroke-linecap:butt;stroke-linejoin:miter;stroke-miterlimit:4;stroke-dasharray:none;stroke-dashoffset:0;stroke-opacity:1;marker:none;color-rendering:auto;image-rendering:auto;shape-rendering:auto;text-rendering:auto;enable-background:accumulate"
       d="m -574.47486,-784.21994 v 205.24103 h 504.562363 v -205.24103 z"
       id="path158"
       inkscape:connector-curvature="0"
       sodipodi:nodetypes="ccccc" />
    <flowRoot
       xml:space="preserve"
       id="flowRoot180"
       style="font-style:normal;font-variant:normal;font-weight:normal;font-stretch:normal;font-size:32.51329803px;line-height:0.01%;font-family:Lavi;-inkscape-font-specification:'Lavi, Normal';font-variant-ligatures:normal;font-variant-caps:normal;font-variant-numeric:normal;font-feature-settings:normal;text-align:start;letter-spacing:0px;word-spacing:0px;writing-mode:lr-tb;text-anchor:start;display:inline;opacity:0.86000001;fill:#000000;fill-opacity:1;stroke:none;stroke-width:0.90314716px;stroke-linecap:butt;stroke-linejoin:miter;stroke-opacity:1"
       transform="matrix(1.1072392,0,0,1.1072392,-167.38582,-1946.6967)"><flowRegion
         id="flowRegion174"
         style="font-style:normal;font-variant:normal;font-weight:normal;font-stretch:normal;font-size:32.51329803px;font-family:Lavi;-inkscape-font-specification:'Lavi, Normal';font-variant-ligatures:normal;font-variant-caps:normal;font-variant-numeric:normal;font-feature-settings:normal;text-align:start;writing-mode:lr-tb;text-anchor:start;stroke-width:0.90314716px"><rect
           id="rect172"
           width="353.73645"
           height="212.88319"
           x="-275.14545"
           y="1061.6674"
           style="font-style:normal;font-variant:normal;font-weight:normal;font-stretch:normal;font-size:32.51329803px;font-family:Lavi;-inkscape-font-specification:'Lavi, Normal';font-variant-ligatures:normal;font-variant-caps:normal;font-variant-numeric:normal;font-feature-settings:normal;text-align:start;writing-mode:lr-tb;text-anchor:start;stroke-width:0.90314716px" /></flowRegion><flowPara
         id="flowPara178"
         style="font-style:normal;font-variant:normal;font-weight:normal;font-stretch:normal;font-size:32.51329803px;line-height:1.25;font-family:Lavi;-inkscape-font-specification:'Lavi, Normal';font-variant-ligatures:normal;font-variant-caps:normal;font-variant-numeric:normal;font-feature-settings:normal;text-align:start;writing-mode:lr-tb;text-anchor:start;stroke-width:0.90314716px">Beta readers help with the story, proofreaders give feedback about the text.</flowPara></flowRoot>    <g
       id="g1043"
       transform="translate(-8.1317279,2.3451697)">
      <path
         inkscape:connector-curvature="0"
         id="rect192"
         d="m -518.53699,-666.84645 c -0.61422,0 -1.11032,0.44692 -1.11032,1.00248 v 12.91861 c 0,0.55556 0.4961,1.00249 1.11032,1.00249 h 1.73686 v 0.60907 c 0,0.76558 0.61574,1.38132 1.38132,1.38132 h 6.37043 c 0.76558,0 1.38133,-0.61574 1.38133,-1.38132 v -0.60907 h 1.73685 c 0.61423,0 1.11031,-0.44693 1.11031,-1.00249 v -12.91861 c 0,-0.55556 -0.49608,-1.00248 -1.11031,-1.00248 z"
         style="opacity:1;vector-effect:none;fill:#cccccc;fill-opacity:1;fill-rule:nonzero;stroke:#787878;stroke-width:2;stroke-linecap:butt;stroke-linejoin:miter;stroke-miterlimit:4;stroke-dasharray:none;stroke-dashoffset:0;stroke-opacity:1;paint-order:fill markers stroke" />
      <path
         sodipodi:nodetypes="ssscsscsss"
         inkscape:connector-curvature="0"
         id="path184"
         d="m -512.23359,-731.76886 c -20.17859,0 -27.20983,14.91405 -27.20983,25.74398 0,18.52719 18.63045,25.28436 18.63045,37.26089 v 2.29638 c 0,0.73518 0.59075,1.32595 1.32595,1.32595 h 14.50685 c 0.7352,0 1.32597,-0.59077 1.32597,-1.32595 v -2.29638 c 0,-11.97653 18.63043,-18.7337 18.63043,-37.26089 0,-10.82993 -7.03125,-25.74398 -27.20982,-25.74398 z"
         style="opacity:1;vector-effect:none;fill:#ffff98;fill-opacity:1;fill-rule:nonzero;stroke:#787878;stroke-width:2;stroke-linecap:butt;stroke-linejoin:miter;stroke-miterlimit:4;stroke-dasharray:none;stroke-dashoffset:0;stroke-opacity:1;paint-order:fill markers stroke" />
      <path
         sodipodi:nodetypes="ccccccc"
         inkscape:connector-curvature="0"
         d="m -507.44236,-664.67965 c -2.02309,-12.0089 -0.93024,-25.69888 3.20539,-31.87898 l 2e-5,-1.4e-4 c -0.69465,2.89489 -6.40555,2.16513 -6.6718,-0.75503 -1.0292,0.75759 -2.788,0.37964 -3.26183,0.2394 -0.0566,5.19286 -5.00817,-2.69192 -6.34424,0.51563 3.22578,4.01626 4.8117,19.84006 3.01482,31.87912"
         style="fill:none;fill-rule:evenodd;stroke:#787878;stroke-width:1px;stroke-linecap:butt;stroke-linejoin:miter;stroke-opacity:1"
         id="path1016" />
    </g>
  </g>
</svg>
