<?xml version="1.0" encoding="UTF-8" standalone="no"?>
<!-- Created with Inkscape (http://www.inkscape.org/) -->

<svg
   id="svg2"
   version="1.1"
   inkscape:version="1.2.1 (9c6d41e410, 2022-07-14)"
   width="2481"
   height="3503"
   sodipodi:docname="E36P07.svg"
   xmlns:inkscape="http://www.inkscape.org/namespaces/inkscape"
   xmlns:sodipodi="http://sodipodi.sourceforge.net/DTD/sodipodi-0.dtd"
   xmlns:xlink="http://www.w3.org/1999/xlink"
   xmlns="http://www.w3.org/2000/svg"
   xmlns:svg="http://www.w3.org/2000/svg"
   xmlns:rdf="http://www.w3.org/1999/02/22-rdf-syntax-ns#"
   xmlns:cc="http://creativecommons.org/ns#"
   xmlns:dc="http://purl.org/dc/elements/1.1/">
  <metadata
     id="metadata8">
    <rdf:RDF>
      <cc:Work
         rdf:about="">
        <dc:format>image/svg+xml</dc:format>
        <dc:type
           rdf:resource="http://purl.org/dc/dcmitype/StillImage" />
        <dc:title />
      </cc:Work>
    </rdf:RDF>
  </metadata>
  <defs
     id="defs6" />
  <sodipodi:namedview
     pagecolor="#1e1e1e"
     bordercolor="#111111"
     borderopacity="1"
     objecttolerance="10"
     gridtolerance="10"
     guidetolerance="10"
     inkscape:pageopacity="0"
     inkscape:pageshadow="2"
     inkscape:window-width="1261"
     inkscape:window-height="1388"
     id="namedview4"
     showgrid="false"
     inkscape:zoom="0.46086259"
     inkscape:cx="1266.1041"
     inkscape:cy="2418.2913"
     inkscape:window-x="1283"
     inkscape:window-y="36"
     inkscape:window-maximized="1"
     inkscape:current-layer="layer1"
     inkscape:pagecheckerboard="0"
     inkscape:snap-global="false"
     inkscape:showpageshadow="2"
     inkscape:deskcolor="#1e1e1e" />
  <g
     inkscape:groupmode="layer"
     id="layer2"
     inkscape:label="artwork"
     sodipodi:insensitive="true">
    <image
       xlink:href="../gfx_Pepper-and-Carrot_by-David-Revoy_E36P07.png"
       y="0"
       x="0"
       id="image10"
       height="3503"
       width="2481" />
  </g>
  <g
     inkscape:groupmode="layer"
     id="layer3"
     inkscape:label="speechbubbles"
     style="display:inline">
    <path
       style="color:#000000;display:inline;overflow:visible;visibility:visible;fill:#ffffff;fill-opacity:1;fill-rule:nonzero;stroke:none;stroke-width:0.830678px;marker:none;enable-background:accumulate"
       d="m 1250.8231,2440.3341 c 4.5143,-77.056 29.273,-105.7715 83.7002,-111.8524 27.0228,-3.0196 124.8959,-13.6478 164.5693,-1.2313 39.6733,12.4167 73.6335,53.7417 70.624,110.193 -3.0095,56.4524 -6.5691,100.2262 -49.8965,117.8051 -43.3275,17.579 -126.4225,8.9643 -135.0749,9.9521 -17.3045,1.9778 -106.9274,-13.3483 -121.8841,-52.4114 -9.3626,-24.4517 -12.7904,-48.5664 -12.038,-72.4551 z"
       id="path4546-6-3"
       inkscape:connector-curvature="0"
       sodipodi:nodetypes="cssssssc" />
    <path
       style="color:#000000;display:inline;overflow:visible;visibility:visible;fill:#ffffff;fill-opacity:1;fill-rule:nonzero;stroke:none;stroke-width:1.26147px;marker:none;enable-background:accumulate"
       d="m 1271.5175,3106.1425 c -56.5978,1.0903 -113.9318,10.7461 -165.7365,35.4373 -21.8901,10.4527 -41.4785,27.9146 -51.0527,51.0398 -21.4478,46.9371 -16.4702,105.9188 14.612,146.689 12.3473,16.4613 32.5104,24.3338 52.1034,26.9896 42.11,8.1735 84.7041,14.2653 127.6239,15.8986 58.2871,2.9972 116.7042,1.9706 175.0622,1.0938 30.6217,-0.7432 61.4187,-3.7582 91.0449,-12.3471 17.4513,-4.3612 35.9799,-9.0747 49.537,-22.0152 15.4578,-15.7072 21.7952,-38.2623 23.6101,-59.8713 3.7211,-41.9534 -6.9039,-85.8149 -32.5354,-118.8749 -16.4705,-20.6418 -39.9163,-34.1585 -64.4161,-42.3573 -37.1633,-12.875 -76.574,-16.8249 -115.5566,-19.7947 -34.6961,-2.2723 -69.5224,-2.3359 -104.2962,-1.8876 z"
       id="path3330-0"
       inkscape:connector-curvature="0"
       sodipodi:nodetypes="zsssssz" />
    <path
       style="color:#000000;display:inline;overflow:visible;visibility:visible;fill:#ffffff;fill-opacity:1;fill-rule:nonzero;stroke:none;stroke-width:1px;marker:none;enable-background:accumulate"
       d="m 1415.0769,2516.9442 c 13.078,48.3092 -10.2417,132.5122 -94.8507,157.2445 61.4826,-42.714 67.542,-99.1938 51.107,-143.1634 -14.1878,-37.9586 -18.9368,-56.3084 -18.9368,-56.3084 z"
       id="path4440-3"
       inkscape:connector-curvature="0"
       sodipodi:nodetypes="ccscc" />
    <path
       style="color:#000000;display:inline;overflow:visible;visibility:visible;fill:#ffffff;fill-opacity:1;fill-rule:nonzero;stroke:none;stroke-width:1.05023px;marker:none;enable-background:accumulate"
       d="m 1886.7757,3200.5978 c 2.2085,-31.7629 12.1073,-31.4913 46.1902,-2.7607 -8.9937,-56.6463 36.7658,-59.3247 79.4131,-65.0705 -4.8912,-15.916 -11.6693,-38.2895 36.129,-53.5443 -45.7166,-2.1974 -47.656,-17.2553 -33.086,-32.6716 -34.0385,7.3462 -58.3861,14.6762 -18.1274,-19.5049 -37.997,19.4188 -60.9707,29.4286 -46.6405,-20.4338 -14.3883,6.7868 -58.5903,35.1678 -78.7695,-25.9462 -0.638,33.2488 -57.184,60.6052 -84.9534,17.683 14.0583,35.7635 3.0629,71.3915 -53.6329,48.0907 54.4907,39.0305 2.2272,39.6552 -13.9489,42.9402 45.9271,5.3047 36.7135,17.4578 4.9221,37.6185 94.5952,3.1469 42.5371,23.176 43.0006,36.7345 57.5862,-12.4701 53.8853,12.8638 62.1299,31.6447 54.8403,-57.2852 38.1795,-47.0534 57.3737,5.2204 z"
       id="path3549-3-1"
       inkscape:connector-curvature="0"
       sodipodi:nodetypes="ccccccccccccccc" />
    <path
       style="fill:#ffffff;fill-rule:evenodd;stroke:none;stroke-width:1.42277px;stroke-linecap:butt;stroke-linejoin:miter;stroke-opacity:1"
       d="m 2002.808,3096.0883 c -70.7252,-1.4435 -141.0322,4.9634 -211.6975,4.8382 -20.4066,0.1132 -41.1051,1.7185 -60.1208,8.936 -22.2945,7.9569 -43.6272,19.9868 -59.2018,37.8635 -11.5331,20.8493 -19.4849,43.9818 -21.906,68.0088 -2.1952,31.3584 8.1126,62.7094 23.3357,90.3934 11.004,19.9969 26.4505,38.9064 47.5285,48.7368 19.1326,9.2135 39.8923,13.7209 60.2518,18.8298 83.9992,18.2499 169.5813,12.1963 254.2156,12.4349 27.8449,-0.059 55.7324,1.05 83.5627,0.7252 43.5031,-3.4453 83.458,-25.1915 113.3294,-55.5309 13.7197,-13.7029 24.5905,-31.1131 27.1725,-50.8629 3.5363,-21.8892 1.4329,-44.5525 -3.3758,-66.3761 -8.7973,-35.2919 -32.0523,-68.3205 -65.105,-85.1071 -16.335,-8.1986 -34.2804,-11.8004 -51.7764,-16.16 -44.8597,-10.0895 -90.5544,-15.7667 -136.2129,-16.7296 z"
       id="path1289"
       inkscape:connector-curvature="0"
       sodipodi:nodetypes="csssssssscc" />
    <path
       style="color:#000000;display:inline;overflow:visible;visibility:visible;fill:#ffffff;fill-opacity:1;fill-rule:nonzero;stroke:none;stroke-width:1.20459px;marker:none;enable-background:accumulate"
       d="m 383.31528,3178.3461 c 7.90371,-15.2948 41.23452,-13.2985 53.03054,-8.8438 -22.34304,-20.2401 -20.07815,-31.1953 13.55035,-29.5557 -51.94808,-37.6508 -6.77936,-28.2088 3.28665,-35.4235 -42.58695,-15.4528 -21.1535,-27.2125 -11.57865,-40.1001 -50.50627,-5.5458 -31.16513,-25.8031 -31.07193,-43.4742 -5.33057,7.7618 -28.87377,30.6558 -26.56078,2.7654 -36.82225,23.1348 -79.28833,36.2037 -76.5794,-10.4783 -16.44817,21.9701 -31.13994,30.479 -26.56087,2.7653 -38.00001,32.8282 -66.34575,16.7937 -95.22577,3.5382 -9.31894,10.1245 -12.38041,26.8076 -37.5265,20.3017 2.21677,11.1849 -7.39088,17.7561 -27.51003,20.2115 25.15381,9.1464 29.08375,16.3708 -20.09307,18.7855 36.62748,4.3877 70.68295,9.2622 24.45208,29.6889 13.43801,1.9557 48.13423,-15.4784 25.4826,43.4614 25.70449,-17.0164 51.85913,-25.2072 77.78773,18.4447 17.29535,-18.7712 44.0951,-26.2298 51.97588,0.1768 5.36489,-10.3819 22.43004,-12.7755 36.5411,-11.8575 4.88673,4.8286 9.74845,11.2082 14.62425,19.4168 11.59583,-15.0441 27.26853,-24.4177 51.97582,0.1769 z"
       id="path3549-3-7-5"
       inkscape:connector-curvature="0"
       sodipodi:nodetypes="cccccccccccccccccccc" />
    <path
       style="color:#000000;display:inline;overflow:visible;visibility:visible;fill:#ffffff;fill-opacity:1;fill-rule:nonzero;stroke:none;stroke-width:1.10896px;marker:none;enable-background:accumulate"
       d="m 366.05343,3119.1274 c -63.14752,0.9078 -127.03769,12.4879 -184.10157,40.2754 -36.40993,20.7598 -55.62619,64.5191 -52.36328,105.5176 1.04067,25.1464 7.71022,52.8361 28.66153,68.9055 22.90697,17.4464 50.81108,26.8283 78.50197,33.5298 57.60579,12.8932 117.01744,10.1708 175.62301,10.7254 52.20459,-0.1421 104.58792,1.4415 156.60998,-3.8248 24.28232,-2.5377 49.5094,-8.0348 68.71669,-24.0796 22.95709,-17.9516 38.01509,-45.9481 38.72847,-75.2498 3.90972,-50.6966 -26.60782,-103.2982 -74.68776,-121.6235 -50.85853,-22.1159 -106.90998,-26.051 -161.41867,-31.4635 -24.70244,-1.9614 -49.48657,-3.0643 -74.27037,-2.7125 z"
       id="path3970-3"
       inkscape:connector-curvature="0"
       sodipodi:nodetypes="cccscsc" />
    <path
       style="color:#000000;display:inline;overflow:visible;visibility:visible;fill:#ffffff;fill-opacity:1;fill-rule:nonzero;stroke:none;stroke-width:1.35295px;marker:none;enable-background:accumulate"
       d="m 655.60209,3020.9694 c 36.37209,56.4559 22.81983,82.4225 15.3529,101.9191 -8.64995,-2.3738 -25.16043,-4.9757 -25.16043,-4.9757 0,0 -35.04306,58.5581 -44.82978,72.5197 -9.78688,13.9616 -38.13341,-23.0686 -38.13341,-23.0686 0,0 68.63867,-58.196 66.88456,-75.5935 13.71733,3.6481 17.96983,3.6232 26.02992,4.8839 8.53279,-9.9614 11.95899,-55.362 -0.14376,-75.6849 z"
       id="path4456-8"
       inkscape:connector-curvature="0"
       sodipodi:nodetypes="cccscccc" />
    <path
       style="color:#000000;display:inline;overflow:visible;visibility:visible;fill:#ffffff;fill-opacity:1;fill-rule:nonzero;stroke:none;stroke-width:0.979134px;marker:none;enable-background:accumulate"
       d="m 1279.5978,3141.166 c 37.0189,-51.8094 10.4316,-107.7029 -22.8129,-123.0094 56.1643,10.3304 79.8618,67.0698 67.3523,120.7861 -6.1858,26.5623 -44.5394,2.2233 -44.5394,2.2233 z"
       id="path5010-4"
       inkscape:connector-curvature="0"
       sodipodi:nodetypes="ccsc"
       inkscape:transform-center-x="-17.477815"
       inkscape:transform-center-y="-10.798976" />
    <path
       style="color:#000000;display:inline;overflow:visible;visibility:visible;fill:#ffffff;fill-opacity:1;fill-rule:nonzero;stroke:none;stroke-width:1.49141px;marker:none;enable-background:accumulate"
       d="m 1919.0197,3059.7225 c -3.1414,-3.557 32.154,-46.7146 32.154,-46.7146 0,0 1.8091,-18.6763 2.2497,-22.5415 7.8248,-6.4155 25.8113,-4.3144 25.8113,-4.3144 l -34.365,-47.8529 16.512,38.7245 -25.6669,-0.2625 -0.1009,31.7053 c -10.1565,5.7069 -22.8946,9.8614 -42.2141,10.0585 z"
       id="path4448"
       inkscape:connector-curvature="0"
       sodipodi:nodetypes="cccccccccc" />
  </g>
  <g
     inkscape:groupmode="layer"
     id="layer1"
     inkscape:label="txt"
     style="display:inline">
    <text
       xml:space="preserve"
       style="font-style:normal;font-variant:normal;font-weight:normal;font-stretch:normal;font-size:14.5146px;line-height:0%;font-family:Lavi;-inkscape-font-specification:Lavi;text-align:center;letter-spacing:0px;word-spacing:0px;text-anchor:middle;fill:#000000;fill-opacity:1;stroke:none;stroke-width:1.20955"
       x="275.79999"
       y="3109.0466"
       id="text4246-3-3"><tspan
         sodipodi:role="line"
         style="font-style:normal;font-variant:normal;font-weight:bold;font-stretch:normal;font-size:54.4298px;line-height:1.25;font-family:Lavi;-inkscape-font-specification:'Lavi Bold';stroke-width:1.20955"
         x="275.79999"
         y="3109.0466"
         id="tspan67">	Officier!</tspan><tspan
         sodipodi:role="line"
         x="275.79999"
         y="3131.9309"
         id="tspan852"
         style="stroke-width:1.20955" /></text>
    <text
       xml:space="preserve"
       style="font-style:normal;font-variant:normal;font-weight:normal;font-stretch:normal;line-height:0%;font-family:Lavi;-inkscape-font-specification:Lavi;text-align:center;letter-spacing:0px;word-spacing:0px;text-anchor:middle;fill:#000000;fill-opacity:1;stroke:none"
       x="401.133"
       y="3221.9375"
       id="text4246-3-5-9"><tspan
         sodipodi:role="line"
         style="font-size:45px;line-height:1.25"
         x="401.133"
         y="3221.9375"
         id="tspan7146">Kun je bevestigen dat</tspan><tspan
         sodipodi:role="line"
         style="font-size:45px;line-height:1.25"
         x="401.133"
         y="3278.1875"
         id="tspan311">dit inderdaad de tempel</tspan><tspan
         sodipodi:role="line"
         style="font-size:45px;line-height:1.25"
         x="401.133"
         y="3334.4375"
         id="tspan313">van die heks is?</tspan></text>
    <text
       xml:space="preserve"
       style="font-style:normal;font-variant:normal;font-weight:normal;font-stretch:normal;line-height:0%;font-family:Lavi;-inkscape-font-specification:Lavi;text-align:center;letter-spacing:0px;word-spacing:0px;text-anchor:middle;fill:#000000;fill-opacity:1;stroke:none"
       x="1413.6252"
       y="2402.166"
       id="text4246-3-5-9-3"><tspan
         sodipodi:role="line"
         style="font-size:45px;line-height:1.25"
         x="1413.6252"
         y="2402.166"
         id="tspan10622">Het is zeer</tspan><tspan
         sodipodi:role="line"
         style="font-size:45px;line-height:1.25"
         x="1413.6252"
         y="2458.416"
         id="tspan10620">waarschijnlijk,</tspan><tspan
         sodipodi:role="line"
         style="font-size:45px;line-height:1.25"
         x="1413.6252"
         y="2514.666"
         id="tspan321">Majesteit.</tspan></text>
    <text
       xml:space="preserve"
       style="font-style:normal;font-variant:normal;font-weight:normal;font-stretch:normal;line-height:0%;font-family:Lavi;-inkscape-font-specification:Lavi;text-align:center;letter-spacing:0px;word-spacing:0px;text-anchor:middle;fill:#000000;fill-opacity:1;stroke:none"
       x="1315.9385"
       y="3183.6025"
       id="text4246-3-5-9-3-3-6"><tspan
         sodipodi:role="line"
         style="font-size:45px;line-height:1.25"
         x="1315.9385"
         y="3183.6025"
         id="tspan7736">Meerdere van onze</tspan><tspan
         sodipodi:role="line"
         style="font-size:45px;line-height:1.25"
         x="1315.9385"
         y="3239.8525"
         id="tspan425">informanten hebben</tspan><tspan
         sodipodi:role="line"
         style="font-size:45px;line-height:1.25"
         x="1315.9385"
         y="3296.1025"
         id="tspan427">haar hier recentelijk</tspan><tspan
         sodipodi:role="line"
         style="font-size:45px;line-height:1.25"
         x="1315.9385"
         y="3352.3525"
         id="tspan429">waargenomen.</tspan></text>
    <text
       xml:space="preserve"
       style="font-style:normal;font-variant:normal;font-weight:normal;font-stretch:normal;line-height:0%;font-family:Lavi;-inkscape-font-specification:Lavi;text-align:center;letter-spacing:0px;word-spacing:0px;text-anchor:middle;fill:#000000;fill-opacity:1;stroke:none"
       x="1889.3441"
       y="3090.3679"
       id="text4246-3-3-7"><tspan
         sodipodi:role="line"
         style="font-style:normal;font-variant:normal;font-weight:bold;font-stretch:normal;font-size:45px;line-height:1.25;font-family:Lavi;-inkscape-font-specification:'Lavi Bold'"
         x="1889.3441"
         y="3090.3679"
         id="tspan67-0">GRrrr...</tspan><tspan
         sodipodi:role="line"
         x="1889.3441"
         y="3109.2876"
         id="tspan852-9" /></text>
    <text
       xml:space="preserve"
       style="font-style:normal;font-variant:normal;font-weight:normal;font-stretch:normal;line-height:0%;font-family:Lavi;-inkscape-font-specification:Lavi;text-align:center;letter-spacing:0px;word-spacing:0px;text-anchor:middle;fill:#000000;fill-opacity:1;stroke:none"
       x="1952.7794"
       y="3184.3269"
       id="text4246-3-5-9-3-3-6-3"><tspan
         sodipodi:role="line"
         style="font-weight:normal;font-size:45px;line-height:1.25;fill:#000000"
         x="1952.7794"
         y="3184.3269"
         id="tspan511">Hier woont dus die heks</tspan><tspan
         sodipodi:role="line"
         style="font-weight:normal;font-size:45px;line-height:1.25;fill:#000000"
         x="1952.7794"
         y="3240.5769"
         id="tspan507">die een <tspan
   style="font-weight:bold"
   id="tspan655">dreiging</tspan> vormt voor</tspan><tspan
         sodipodi:role="line"
         style="font-weight:normal;font-size:45px;line-height:1.25;fill:#000000"
         x="1952.7794"
         y="3296.8269"
         id="tspan569">onze <tspan
   style="font-weight:bold"
   id="tspan657">tradities</tspan> en onze</tspan><tspan
         sodipodi:role="line"
         style="font-weight:normal;font-size:45px;line-height:1.25;fill:#000000"
         x="1952.7794"
         y="3353.0769"
         id="tspan517"><tspan
   style="font-weight:bold"
   id="tspan659">krijgskunde</tspan>!</tspan></text>
  </g>
</svg>
