<?xml version="1.0" encoding="UTF-8" standalone="no"?>
<!-- Created with Inkscape (http://www.inkscape.org/) -->

<svg
   id="svg2"
   version="1.1"
   inkscape:version="1.1 (c68e22c387, 2021-05-23)"
   width="2481"
   height="3503"
   sodipodi:docname="E37P04.svg"
   xmlns:inkscape="http://www.inkscape.org/namespaces/inkscape"
   xmlns:sodipodi="http://sodipodi.sourceforge.net/DTD/sodipodi-0.dtd"
   xmlns:xlink="http://www.w3.org/1999/xlink"
   xmlns="http://www.w3.org/2000/svg"
   xmlns:svg="http://www.w3.org/2000/svg"
   xmlns:rdf="http://www.w3.org/1999/02/22-rdf-syntax-ns#"
   xmlns:cc="http://creativecommons.org/ns#"
   xmlns:dc="http://purl.org/dc/elements/1.1/">
  <metadata
     id="metadata8">
    <rdf:RDF>
      <cc:Work
         rdf:about="">
        <dc:format>image/svg+xml</dc:format>
        <dc:type
           rdf:resource="http://purl.org/dc/dcmitype/StillImage" />
        <dc:title />
      </cc:Work>
    </rdf:RDF>
  </metadata>
  <defs
     id="defs6">
    <filter
       inkscape:label="Ripple"
       inkscape:menu="Distort"
       inkscape:menu-tooltip="Horizontal rippling of edges"
       style="color-interpolation-filters:sRGB"
       id="filter4265-7-37"
       y="0"
       x="0"
       width="1"
       height="1">
      <feTurbulence
         numOctaves="1"
         baseFrequency="0.002 0.107"
         id="feTurbulence4267-7-7" />
      <feColorMatrix
         values="5 0 0 0 0 0 0 0 0 0 0 0 0 0 0 0 0 0 4 0 "
         result="result91"
         id="feColorMatrix4269-1-2" />
      <feDisplacementMap
         yChannelSelector="A"
         xChannelSelector="R"
         scale="14.3"
         in="SourceGraphic"
         in2="result91"
         id="feDisplacementMap4271-2-64" />
    </filter>
    <filter
       inkscape:label="Magmah-FX"
       inkscape:menu="Distort"
       inkscape:menu-tooltip="Horizontal rippling of edges"
       style="color-interpolation-filters:sRGB"
       id="filter4265-7"
       y="0"
       x="0"
       width="1"
       height="1">
      <feTurbulence
         numOctaves="1"
         baseFrequency="0.002 0.107"
         id="feTurbulence4267-7" />
      <feColorMatrix
         values="5 0 0 0 0 0 0 0 0 0 0 0 0 0 0 0 0 0 4 0 "
         result="result91"
         id="feColorMatrix4269-1" />
      <feDisplacementMap
         yChannelSelector="A"
         xChannelSelector="R"
         scale="14.3"
         in="SourceGraphic"
         in2="result91"
         id="feDisplacementMap4271-2" />
    </filter>
    <filter
       style="color-interpolation-filters:sRGB"
       inkscape:label="Magmah-spell-glow"
       id="filter4751"
       x="-0.035967053"
       y="-0.17833759"
       width="1.0719341"
       height="1.3566752">
      <feFlood
         flood-opacity="1"
         flood-color="rgb(255,255,255)"
         result="flood"
         id="feFlood4753" />
      <feComposite
         in="flood"
         in2="SourceGraphic"
         operator="in"
         result="composite1"
         id="feComposite4755" />
      <feGaussianBlur
         in="composite1"
         stdDeviation="5.4"
         result="blur"
         id="feGaussianBlur4757" />
      <feOffset
         dx="0"
         dy="0"
         result="offset"
         id="feOffset4759" />
      <feComposite
         in="SourceGraphic"
         in2="offset"
         operator="over"
         result="composite2"
         id="feComposite4761" />
    </filter>
  </defs>
  <sodipodi:namedview
     pagecolor="#ffffff"
     bordercolor="#666666"
     borderopacity="1"
     objecttolerance="10"
     gridtolerance="10"
     guidetolerance="10"
     inkscape:pageopacity="0"
     inkscape:pageshadow="2"
     inkscape:window-width="1366"
     inkscape:window-height="745"
     id="namedview4"
     showgrid="false"
     inkscape:zoom="0.52487078"
     inkscape:cx="1929.9988"
     inkscape:cy="3056.9429"
     inkscape:window-x="-8"
     inkscape:window-y="-8"
     inkscape:window-maximized="1"
     inkscape:current-layer="layer1"
     inkscape:pagecheckerboard="0"
     inkscape:showpageshadow="0"
     inkscape:deskcolor="#d1d1d1" />
  <g
     inkscape:groupmode="layer"
     id="layer2"
     inkscape:label="artwork"
     sodipodi:insensitive="true">
    <image
       xlink:href="../gfx_Pepper-and-Carrot_by-David-Revoy_E37P04.png"
       y="0"
       x="0"
       id="image10"
       height="3503"
       width="2481" />
  </g>
  <g
     inkscape:groupmode="layer"
     id="layer3"
     inkscape:label="speechbubbles">
    <path
       style="color:#000000;display:inline;overflow:visible;visibility:visible;fill:#ffffff;fill-opacity:1;fill-rule:nonzero;stroke:none;stroke-width:0.925802px;marker:none;enable-background:accumulate"
       d="m 343.92627,1470.9924 c -50.28061,0.3758 -101.05528,1.8065 -150.26826,15.7641 -21.18479,7.2159 -39.68294,27.9932 -45.22072,54.5259 -2.84704,16.7152 1.72524,33.617 7.26719,48.7314 7.23156,19.592 22.19587,33.5779 38.56275,40.209 35.28156,17.0255 73.52844,19.728 110.88664,23.653 18.20832,2.0243 36.43414,4.1887 54.73513,4.2181 35.89057,0.4917 71.76298,-2.2454 107.65381,-1.2401 22.6263,-0.073 45.37558,-3.1225 67.09177,-11.1826 15.41785,-5.1691 30.94864,-11.0065 44.7528,-21.1332 16.07573,-12.7738 29.04115,-33.0897 32.09584,-56.7242 3.1721,-26.3385 -9.14616,-53.7727 -28.42076,-65.5062 -14.18135,-9.0527 -30.04854,-12.9859 -45.69088,-16.1135 -17.72228,-3.2377 -35.56776,-5.3116 -53.36675,-7.7826 -46.53227,-5.6943 -93.32557,-7.9233 -140.07856,-7.4191 z"
       id="path4040-4-4"
       inkscape:connector-curvature="0"
       sodipodi:nodetypes="zssssz" />
    <path
       style="color:#000000;display:inline;overflow:visible;visibility:visible;fill:#ffffff;fill-opacity:1;fill-rule:nonzero;stroke:none;stroke-width:1.10661px;marker:none;enable-background:accumulate"
       d="m 232.88521,1829.6545 c -15.49911,-4.3258 -30.36527,-25.9083 -39.85487,-45.1151 -2.6023,-5.5279 -4.9768,-11.4623 -5.91137,-17.7034 0.23014,-6.7406 4.6456,-11.9989 9.68489,-14.2208 7.08756,-3.8231 15.87763,-4.2925 21.36573,-11.5454 3.88883,-5.3975 2.44347,-12.8787 1.69304,-19.2745 -2.17932,-16.2588 -6.20379,-32.2732 -6.21379,-48.8483 -1.02235,-18.6687 -0.97071,-38.3918 6.06435,-55.4786 2.87848,-6.7043 6.67303,-13.2274 12.33892,-16.8574 14.17763,-10.1059 33.45012,-10.5499 47.30692,0.9314 8.26682,8.3259 10.21944,25.1454 2.569,34.7308 -3.97524,5.1331 -10.21215,6.1902 -15.7493,5.1661 -10.4586,0.3997 -20.04905,8.0914 -25.18673,18.8336 -4.36159,8.7814 -6.37218,19.1354 -6.13892,29.3576 -2.73879,13.9759 2.82926,27.469 5.69121,40.7504 1.23215,6.0908 2.19987,12.6668 0.87478,18.791 -3.62099,8.1775 -11.75152,10.5256 -18.8271,11.5577 -7.27261,1.2901 -15.83507,1.7981 -20.79951,9.2364 -4.02698,4.5998 -0.25135,11.0835 0.90045,16.2897 5.52666,16.1978 15.18264,30.1517 26.62182,40.8647 1.15331,0.9227 2.35952,1.7296 3.57048,2.5341 z"
       id="path4496-8"
       inkscape:connector-curvature="0"
       sodipodi:nodetypes="ccccccccccccccccccccc" />
    <path
       style="fill:#ffffff;stroke:none;stroke-width:0.999999"
       d="m 2087.7405,3158.3653 c -52.1716,0.1771 -105.0919,2.283 -155.4367,15.9065 -24.0128,6.7425 -47.7065,17.6326 -63.7916,35.7889 -16.7403,19.6738 -23.1225,45.4846 -21.2368,70.0665 2.0187,23.7159 11.1897,47.5609 29.0161,65.2182 14.0022,13.7498 32.7468,22.5334 52.0224,28.4081 43.8869,13.5939 90.8324,13.4853 136.6255,13.3171 44.454,-0.4948 88.9518,0.8746 133.3684,-1.3552 24.9644,-1.4523 50.1005,-3.5012 74.2989,-9.5982 21.5702,-5.5051 42.9848,-14.9675 57.1379,-31.3619 10.0894,-11.2822 16.3297,-25.0572 19.58,-39.2472 4.8028,-20.1693 4.7235,-41.2181 0.7677,-61.4983 -4.0321,-18.2116 -14.271,-35.685 -30.5889,-47.0762 -20.9759,-15.3591 -47.1109,-23.1818 -73.0231,-28.3437 -36.609,-7.0137 -74.123,-8.362 -111.3858,-9.7132 -15.7804,-0.4042 -31.568,-0.5323 -47.354,-0.5114 z"
       id="path3280-10"
       inkscape:connector-curvature="0"
       sodipodi:nodetypes="csssc" />
    <path
       style="color:#000000;display:inline;overflow:visible;visibility:visible;fill:#ffffff;fill-opacity:1;fill-rule:nonzero;stroke:none;stroke-width:0.999999px;marker:none;enable-background:accumulate"
       d="m 2277.3144,3069.2866 c 21.1533,40.5816 26.0863,56.0003 -12.7047,94.096 -38.791,38.0948 -21.8429,50.5398 -21.8429,50.5398 l 38.5724,-9.167 c 0,0 76.0812,-86.3431 -4.0248,-135.4688 z"
       id="path3072-56"
       inkscape:connector-curvature="0" />
    <path
       style="display:inline;fill:#ffffff;stroke:none;stroke-width:0.870791"
       d="m 848.86825,1516.2039 c -29.80474,0.7982 -60.01854,5.5135 -87.27372,18.3407 -21.43921,10.5022 -38.31197,30.7903 -43.81923,54.5122 -4.43439,18.5017 -3.9023,37.7154 -3.46242,56.6107 0.67807,17.014 3.67011,34.4994 12.57667,49.1879 11.34697,18.9536 30.61458,32.0877 51.40851,37.9479 28.64009,9.0362 58.89079,10.212 88.65247,10.393 35.07349,0.016 70.47592,0.3747 105.04313,-6.5505 19.72723,-4.8043 38.75634,-15.1552 51.40004,-31.6407 10.9202,-14.7896 15.4785,-33.3242 17.2881,-51.4635 2.1332,-24.6146 -1.6987,-49.5861 -9.8716,-72.7799 -8.2387,-20.5929 -25.1935,-36.9841 -45.19857,-45.5418 -17.7768,-7.953 -37.00631,-11.6899 -56.09567,-14.6624 -26.69958,-3.8325 -53.72386,-4.4414 -80.64771,-4.3536 z"
       id="path3280-8-1"
       inkscape:connector-curvature="0"
       sodipodi:nodetypes="csssc" />
    <path
       style="display:inline;fill:#ffffff;stroke:none;stroke-width:0.87079"
       d="m 1371.418,1555.3086 c -57.852,0.7786 -115.9428,-2.0803 -173.5566,4.5744 -27.3459,3.8117 -54.9352,12.6614 -76.2686,30.782 -19.2212,16.6005 -29.8406,42.2043 -29.0142,67.4923 0.1209,34.4702 13.953,69.4965 40.0744,92.4883 17.1998,14.6996 38.6687,23.124 60.0235,29.7804 35.556,10.4917 72.7102,13.2239 109.387,17.2485 34.6465,3.3336 69.5861,3.6572 104.2669,0.6136 27.628,-2.2732 55.2714,-5.5967 82.2712,-12.0127 26.041,-7.0515 51.5478,-19.7107 69.1208,-40.6981 26.3926,-31.2816 32.7871,-78.1734 14.9706,-115.1449 -10.6277,-23.0237 -30.3932,-41.5414 -53.9506,-50.8767 -26.6067,-11.7996 -55.3915,-17.722 -84.1164,-21.5337 -20.979,-2.3514 -42.1152,-2.8035 -63.208,-2.7134 z"
       id="path3280-8-1-0"
       inkscape:connector-curvature="0"
       sodipodi:nodetypes="csssc" />
    <path
       style="display:inline;fill:#ffffff;stroke:none;stroke-width:0.87079"
       d="m 2033.1992,1626.543 c -72.0924,1.5679 -144.166,4.1516 -216.1954,7.5147 -41.8549,2.4455 -84.2085,5.9409 -124.4004,18.5803 -37.0973,13.8094 -61.7103,52.7312 -61.69,91.8458 -2.7502,39.7924 2.7221,80.6029 18.4577,117.3873 13.3222,25.7086 39.4583,42.9766 67.3817,49.0016 38.5428,10.3784 78.6082,12.6686 118.2155,15.9233 102.6565,6.4903 205.597,3.9767 308.3372,1.2311 57.8346,-2.4544 117.0325,-8.449 170.3847,-32.4619 31.4671,-17.1582 47.9415,-53.162 50.7018,-87.7345 3.2873,-40.36 -2.9391,-83.1223 -25.6981,-117.3951 -13.1036,-20.3865 -33.544,-35.2899 -56.3422,-43.1156 -28.5133,-10.5613 -59.2459,-10.5423 -89.0992,-13.7471 -53.2032,-4.5948 -106.6267,-8.0352 -160.0533,-7.0299 z"
       id="path3280-8-1-0-6"
       inkscape:connector-curvature="0"
       sodipodi:nodetypes="csssc" />
    <path
       style="color:#000000;display:inline;overflow:visible;visibility:visible;fill:#ffffff;fill-opacity:1;fill-rule:nonzero;stroke:none;stroke-width:0.999999px;marker:none;enable-background:accumulate"
       d="m 1778.817,1868.4621 c -12.833,-0.6526 -23.8662,8.7491 -27.831,19.5381 -19.6036,19.4059 -1.839,-8.6641 -6.4214,4.8364 -13.5019,11.0957 -15.4266,35.2523 -15.8537,65.4931 -5.2817,5.1994 -14.9376,-8.1861 -19.6475,-2.164 -4.937,10.3078 -6.0593,21.8252 -6.4897,33.0281 -0.3179,32.1806 14.1211,63.8185 37.0812,87.8622 7.5298,8.5773 15.2692,16.9924 22.966,25.4398 -17.5595,-23.2829 -32.5888,-49.3497 -36.2923,-77.8541 -1.1276,-8.6692 1.6106,-30.4788 3.0954,-39.0712 10.4198,2.2428 18.5432,14.1601 29.054,13.5885 -3.9254,-39.033 12.0854,-78.9568 32.5429,-100.807 3.2112,-8.5188 -4.1806,-18.0085 -1.2971,-26.6329 -3.0138,-2.4158 -7.0942,-3.0258 -10.9068,-3.257 z"
       id="path4456-8"
       inkscape:connector-curvature="0"
       inkscape:transform-center-x="-13.453102"
       inkscape:transform-center-y="80.02882"
       sodipodi:nodetypes="cccccccccccccc" />
    <path
       style="color:#000000;display:inline;overflow:visible;visibility:visible;fill:#ffffff;fill-opacity:1;fill-rule:nonzero;stroke:none;stroke-width:1px;marker:none;enable-background:accumulate"
       d="m 820.0369,1693.3353 c -3.48578,39.7252 -1.62886,86.2092 5.54134,93.7569 -12.06557,-4.746 -23.61413,-7.3843 -32.58824,-9.1289 -2.74679,19.0391 9.33544,52.9316 19.75971,79.3624 -34.85384,-28.0115 -46.11754,-83.8349 -45.91311,-113.8427 11.20297,7.5747 21.79689,11.4361 28.26889,11.3872 1.30177,-15.339 -8.85591,-66.1714 -9.7642,-66.4676 z"
       id="path5066-6"
       inkscape:connector-curvature="0"
       sodipodi:nodetypes="cccccccc" />
    <path
       style="display:inline;fill:#ffffff;stroke:none;stroke-width:1"
       d="m 1204.2177,1950.0192 c -44.4885,-30.4335 -65.5015,-120.9246 -25.0786,-163.4599 23.8495,-25.0955 36.2779,-40.3926 36.2779,-40.3926 l -33.7128,-17.199 c -98.5183,93.7979 -30.177,190.842 22.5135,221.0515 z"
       id="path3063-1-0"
       inkscape:connector-curvature="0"
       sodipodi:nodetypes="csccc" />
  </g>
  <g
     inkscape:groupmode="layer"
     id="layer1"
     inkscape:label="txt">
    <text
       xml:space="preserve"
       style="font-style:normal;font-variant:normal;font-weight:normal;font-stretch:normal;font-size:48.2957px;line-height:125%;font-family:Lavi;-inkscape-font-specification:Lavi;text-align:center;letter-spacing:0px;word-spacing:0px;text-anchor:middle;fill:#000000;fill-opacity:1;stroke:none;stroke-width:0.999999"
       x="374.77402"
       y="1549.0941"
       id="text4246-70-2-2-2-7-4"><tspan
         sodipodi:role="line"
         style="font-size:48.2957px;stroke-width:0.999999"
         x="374.77402"
         y="1549.0941"
         id="tspan1004">Warum störst </tspan><tspan
         sodipodi:role="line"
         style="font-size:48.2957px;stroke-width:0.999999"
         x="374.77402"
         y="1609.4637"
         id="tspan132">du mich, Mensch?</tspan></text>
    <text
       xml:space="preserve"
       style="font-style:normal;font-variant:normal;font-weight:normal;font-stretch:normal;font-size:49.0523px;line-height:125%;font-family:Lavi;-inkscape-font-specification:Lavi;text-align:center;letter-spacing:0px;word-spacing:0px;text-anchor:middle;fill:#000000;fill-opacity:1;stroke:none;stroke-width:1"
       x="880.40576"
       y="1592.8677"
       id="text4246-70-2-2-2-7-4-3"><tspan
         sodipodi:role="line"
         style="font-style:normal;font-variant:normal;font-weight:bold;font-stretch:normal;font-size:49.0523px;font-family:Lavi;-inkscape-font-specification:'Lavi Bold';stroke-width:1"
         x="880.40576"
         y="1592.8677"
         id="tspan989">Sei gegrüßt,</tspan><tspan
         sodipodi:role="line"
         style="font-style:normal;font-variant:normal;font-weight:bold;font-stretch:normal;font-size:49.0523px;font-family:Lavi;-inkscape-font-specification:'Lavi Bold';stroke-width:1"
         x="880.40576"
         y="1654.1831"
         id="tspan1121"> oh großer </tspan><tspan
         sodipodi:role="line"
         style="font-style:normal;font-variant:normal;font-weight:bold;font-stretch:normal;font-size:49.0523px;font-family:Lavi;-inkscape-font-specification:'Lavi Bold';stroke-width:1"
         x="880.40576"
         y="1715.4984"
         id="tspan1123">Phönix!</tspan></text>
    <text
       xml:space="preserve"
       style="font-style:normal;font-variant:normal;font-weight:normal;font-stretch:normal;font-size:45.3333px;line-height:125%;font-family:Lavi;-inkscape-font-specification:Lavi;text-align:center;letter-spacing:0px;word-spacing:0px;text-anchor:middle;fill:#000000;fill-opacity:1;stroke:none"
       x="1334.6749"
       y="1624.9146"
       id="text4246-70-2-2-2-7-4-3-5"><tspan
         sodipodi:role="line"
         style="font-size:45.3333px"
         x="1334.6749"
         y="1624.9146"
         id="tspan1187">Mein Name ist </tspan><tspan
         sodipodi:role="line"
         style="font-size:45.3333px"
         x="1334.6749"
         y="1681.5812"
         id="tspan1193">Pepper, ich bin eine </tspan><tspan
         sodipodi:role="line"
         style="font-size:45.3333px"
         x="1334.6749"
         y="1738.2478"
         id="tspan2400">Hexe von Chaosah.</tspan></text>
    <text
       xml:space="preserve"
       style="font-style:normal;font-variant:normal;font-weight:normal;font-stretch:normal;font-size:45.3333px;line-height:125%;font-family:Lavi;-inkscape-font-specification:Lavi;text-align:center;letter-spacing:0px;word-spacing:0px;text-anchor:middle;fill:#000000;fill-opacity:1;stroke:none"
       x="1988.7637"
       y="1709.2914"
       id="text4246-70-2-2-2-7-4-3-5-6"><tspan
         sodipodi:role="line"
         style="font-size:45.3333px"
         x="1988.7637"
         y="1709.2914"
         id="tspan1229">Ich habe kürzlich eine hohe </tspan><tspan
         sodipodi:role="line"
         style="font-size:45.3333px"
         x="1988.7637"
         y="1765.958"
         id="tspan8667">Dosis Drachen-Rea erhalten. </tspan><tspan
         sodipodi:role="line"
         style="font-size:45.3333px"
         x="1988.7637"
         y="1822.6246"
         id="tspan8041">Seitdem ist das hier aufgetaucht </tspan><tspan
         sodipodi:role="line"
         style="font-size:45.3333px"
         x="1988.7637"
         y="1879.2913"
         id="tspan8043">und wächst jeden Tag mehr...</tspan></text>
    <text
       xml:space="preserve"
       style="font-style:normal;font-variant:normal;font-weight:normal;font-stretch:normal;font-size:45.3333px;line-height:125%;font-family:Lavi;-inkscape-font-specification:Lavi;text-align:center;letter-spacing:0px;word-spacing:0px;text-anchor:middle;fill:#000000;fill-opacity:1;stroke:none"
       x="2110.2424"
       y="3229.6404"
       id="text4246-70-2-2-2-7-4-3-5-6-2"><tspan
         sodipodi:role="line"
         style="font-size:45.3333px"
         x="2110.2424"
         y="3229.6404"
         id="tspan10662">Es hebt alle meine </tspan><tspan
         sodipodi:role="line"
         style="font-size:45.3333px"
         x="2110.2424"
         y="3286.3071"
         id="tspan11512">Kräfte auf und könnte </tspan><tspan
         sodipodi:role="line"
         style="font-size:45.3333px"
         x="2110.2424"
         y="3342.9736"
         id="tspan11516">mich auf Dauer töten.</tspan></text>
  </g>
</svg>
