<?xml version="1.0" encoding="UTF-8" standalone="no"?>
<!-- Created with Inkscape (http://www.inkscape.org/) -->

<svg
   xmlns:dc="http://purl.org/dc/elements/1.1/"
   xmlns:cc="http://creativecommons.org/ns#"
   xmlns:rdf="http://www.w3.org/1999/02/22-rdf-syntax-ns#"
   xmlns:svg="http://www.w3.org/2000/svg"
   xmlns="http://www.w3.org/2000/svg"
   xmlns:xlink="http://www.w3.org/1999/xlink"
   xmlns:sodipodi="http://sodipodi.sourceforge.net/DTD/sodipodi-0.dtd"
   xmlns:inkscape="http://www.inkscape.org/namespaces/inkscape"
   id="svg2"
   version="1.1"
   inkscape:version="0.92.2 2405546, 2018-03-11"
   width="2481"
   height="3503"
   sodipodi:docname="E06P09.svg">
  <metadata
     id="metadata8">
    <rdf:RDF>
      <cc:Work
         rdf:about="">
        <dc:format>image/svg+xml</dc:format>
        <dc:type
           rdf:resource="http://purl.org/dc/dcmitype/StillImage" />
        <dc:title />
      </cc:Work>
    </rdf:RDF>
  </metadata>
  <defs
     id="defs6">
    <filter
       inkscape:collect="always"
       id="filter3843">
      <feGaussianBlur
         inkscape:collect="always"
         stdDeviation="0.93774878"
         id="feGaussianBlur3845" />
    </filter>
  </defs>
  <sodipodi:namedview
     pagecolor="#ffffff"
     bordercolor="#666666"
     borderopacity="1"
     objecttolerance="10"
     gridtolerance="10"
     guidetolerance="10"
     inkscape:pageopacity="0"
     inkscape:pageshadow="2"
     inkscape:window-width="1920"
     inkscape:window-height="1033"
     id="namedview4"
     showgrid="false"
     inkscape:zoom="0.60835004"
     inkscape:cx="1299.2885"
     inkscape:cy="660.41906"
     inkscape:window-x="0"
     inkscape:window-y="47"
     inkscape:window-maximized="0"
     inkscape:current-layer="layer1" />
  <g
     inkscape:groupmode="layer"
     id="layer2"
     inkscape:label="artwork"
     sodipodi:insensitive="true">
    <image
       sodipodi:absref="/home/midgard/git/peppercarrot/comics/ep06_The-Potion-Contest/lang/si/../gfx_Pepper-and-Carrot_by-David-Revoy_E06P09.png"
       xlink:href="../gfx_Pepper-and-Carrot_by-David-Revoy_E06P09.png"
       width="2481"
       height="3503"
       id="image10"
       x="0"
       y="0" />
  </g>
  <g
     inkscape:groupmode="layer"
     id="layer3"
     inkscape:label="speechbubbles" />
  <g
     inkscape:groupmode="layer"
     id="layer1"
     inkscape:label="txt">
    <path
       style="color:#000000;display:inline;overflow:visible;visibility:visible;fill:#ffffff;fill-opacity:1;fill-rule:nonzero;stroke:none;stroke-width:1px;marker:none;enable-background:accumulate"
       d="m 2046.6862,3298.9888 c 7.7136,-42.4906 35.0621,-67.8479 168.2984,-77.4425 133.2363,-9.5947 150.7673,39.7492 154.9748,64.4212 4.2076,24.6719 0.7013,60.9945 -36.4646,79.4985 -37.1658,18.5039 -118.5102,22.616 -147.9624,17.8186 -29.4522,-4.7973 -89.225,-0.9432 -106.0547,-16.7059 -16.83,-15.7627 -30.6878,-30.582 -32.7915,-67.5899 z"
       id="path3573-7-6"
       inkscape:connector-curvature="0"
       sodipodi:nodetypes="csssssc" />
    <path
       style="color:#000000;display:inline;overflow:visible;visibility:visible;fill:#ffffff;fill-opacity:1;fill-rule:nonzero;stroke:none;stroke-width:0.99999994px;marker:none;enable-background:accumulate"
       d="m 1756.0594,3030.7112 c 15.1064,-107.6011 67.472,-185.5519 329.5983,-196.1117 309.2293,-12.4571 295.2653,100.6593 303.5054,163.1373 8.24,62.4778 1.3732,154.4595 -71.413,201.318 -72.786,46.8584 -232.0924,57.2717 -289.7718,45.1229 -57.6798,-12.1483 -174.7399,-2.3883 -207.6995,-42.305 -32.9602,-39.9166 -60.0995,-77.4444 -64.2194,-171.1615 z"
       id="path3573-7-3"
       inkscape:connector-curvature="0"
       sodipodi:nodetypes="csssssc" />
    <path
       style="color:#000000;display:inline;overflow:visible;visibility:visible;fill:#ffffff;fill-opacity:1;fill-rule:nonzero;stroke:none;stroke-width:1px;marker:none;enable-background:accumulate"
       d="m 1606.7128,2847.7475 c 6.1099,-43.4683 27.7722,-69.4091 133.307,-79.2245 105.5348,-9.8154 119.4209,40.6639 122.7537,65.9036 3.3326,25.2396 0.5553,62.398 -28.8832,81.3278 -29.4387,18.9297 -93.8705,23.1364 -117.1991,18.2286 -23.3288,-4.9076 -70.6741,-0.9648 -84.0047,-17.0902 -13.3308,-16.1254 -24.3074,-31.2858 -25.9737,-69.1453 z"
       id="path3573-7"
       inkscape:connector-curvature="0"
       sodipodi:nodetypes="csssssc" />
    <path
       style="fill:#ffffff;stroke:none"
       d="m 537.09418,2541.4872 c 33.09859,-32.5986 27.82913,-46.4897 20.47318,-61.9311 -7.35578,-15.4414 -15.80643,-28.8005 -11.63578,-38.5723 4.17067,-9.7716 15.29078,-18.9641 24.58593,-24.686 9.29534,-5.7221 5.82948,-15.5939 3.03764,-26.8393 -2.79187,-11.2454 -2.24445,-72.1608 -2.24445,-72.1608 0,0 30.94507,37.7177 36.59273,51.8094 5.64763,14.0915 7.78669,19.2207 8.43954,25.3368 0.6528,6.1163 -0.0619,21.2717 -7.81836,29.5853 -7.75637,8.3136 -19.51606,12.2846 -26.94693,17.2201 -7.43092,4.9354 -10.37423,18.4428 -7.3735,31.1305 3.00072,12.6876 5.31027,42.1409 -8.76887,54.2024 -14.07925,12.0614 -28.34113,14.905 -28.34113,14.905 z"
       id="path3023-3"
       inkscape:connector-curvature="0"
       sodipodi:nodetypes="csssscssssssc" />
    <path
       style="color:#000000;display:inline;overflow:visible;visibility:visible;fill:#ffffff;fill-opacity:1;fill-rule:nonzero;stroke:none;stroke-width:1px;marker:none;enable-background:accumulate"
       d="m 232.01528,2277.5113 c 20.96299,-89.2785 71.80688,-103.1542 341.95432,-114.5088 270.84627,-11.384 306.33415,58.7744 314.88303,95.255 8.54888,36.4805 1.42478,90.1883 -74.09012,117.5487 -75.51492,27.3605 -240.79291,33.4406 -300.63483,26.347 -59.84205,-7.0933 -181.29026,-1.3945 -215.48566,-24.7016 -34.19552,-23.3071 -62.35236,-45.2195 -66.62674,-99.9403 z"
       id="path3573"
       inkscape:connector-curvature="0"
       sodipodi:nodetypes="csssssc" />
    <path
       style="fill:#ffffff;stroke:none;stroke-width:1"
       d="m 98.132685,2097.1346 c 10.326875,-62.2783 46.001685,-121.8876 260.989235,-129.8948 214.98764,-8.0071 305.01467,44.0904 304.17461,120.998 -0.91496,83.7634 -62.90024,135.2329 -236.58019,137.0123 -173.67995,1.7794 -322.95086,-6.2279 -328.583655,-128.1155 z"
       id="path3270"
       inkscape:connector-curvature="0"
       sodipodi:nodetypes="csssc" />
    <path
       style="fill:#ffffff;stroke:none"
       d="m 1604.3654,543.48013 c 44.8711,-10.8171 54.1774,-0.16815 63.7635,12.84937 9.5861,13.01743 16.8223,25.92299 27.3594,27.20978 10.5371,1.2868 24.0955,-3.17063 33.7373,-7.81443 9.6419,-4.64389 16.3969,2.70419 24.6774,10.16404 8.2806,7.45986 61.0745,35.52734 61.0745,35.52734 0,0 -16.8411,-42.01779 -26.1287,-53.0584 -9.2876,-11.04059 -12.6259,-15.12489 -17.5681,-18.50045 -4.9422,-3.37558 -18.3701,-9.90297 -29.4667,-7.68351 -11.0966,2.21938 -20.4774,9.62342 -28.4968,13.16683 -8.0192,3.54351 -21.1553,-0.45764 -30.5735,-8.75676 -9.4182,-8.2991 -33.6405,-23.89753 -51.1713,-18.45172 -17.5306,5.44581 -27.207,15.34791 -27.207,15.34791 z"
       id="path3023"
       inkscape:connector-curvature="0"
       sodipodi:nodetypes="csssscssssssc" />
    <path
       style="color:#000000;fill:#ffffff;fill-opacity:1;fill-rule:nonzero;stroke:none;stroke-width:1px;marker:none;visibility:visible;display:inline;overflow:visible;enable-background:accumulate"
       d="m 266.00179,138.74796 c 25.32949,-30.82881 239.13929,-64.291607 314.28573,-0.75991 75.14643,63.5317 29.56582,139.76981 -13.55107,164.0273 -43.11677,24.25761 -170.00339,50.8254 -227.90302,30.0332 -57.89975,-20.7922 -102.99997,-51.87249 -105.94419,-115.5122 -1.20164,-25.9739 7.78297,-46.95949 33.11255,-77.78839 z"
       id="path4040"
       inkscape:connector-curvature="0"
       sodipodi:nodetypes="zssssz" />
    <path
       style="color:#000000;fill:#ffffff;fill-opacity:1;fill-rule:nonzero;stroke:none;stroke-width:1px;marker:none;visibility:visible;display:inline;overflow:visible;enable-background:accumulate"
       d="M 823.77301,239.48782 C 785.71479,212.4529 744.2463,189.87236 700.10307,174.50087 c -22.3601,-7.49489 -46.23657,-13.70056 -69.94454,-10.06997 -12.68738,2.12087 -24.93627,10.17173 -29.24104,22.70339 -5.67942,14.54975 -2.49078,30.33049 -1.25519,45.35597 0.79223,13.0707 1.27006,27.36287 -5.78022,38.95292 -4.55152,6.386 -13.44736,7.95888 -20.48127,5.12253 -9.03021,-2.82113 -17.14762,-8.28646 -24.08298,-14.54582 -8.92681,-20.07843 -17.85361,-40.15685 -26.78042,-60.23528 16.79371,-34.08909 50.69881,-59.99635 88.80495,-64.31453 34.39039,-4.30376 68.78667,6.08648 99.41522,21.0759 41.76812,20.6339 78.6781,49.7534 113.01543,80.94184 z"
       id="path4048"
       inkscape:connector-curvature="0" />
    <flowRoot
       xml:space="preserve"
       id="flowRoot2987-4-9-3"
       style="font-style:normal;font-variant:normal;font-weight:500;font-stretch:normal;font-size:40px;line-height:0.01%;font-family:'Noto Sans Sinhala';-inkscape-font-specification:'Noto Sans Sinhala, Medium';font-variant-ligatures:normal;font-variant-caps:normal;font-variant-numeric:normal;font-feature-settings:normal;text-align:center;letter-spacing:0px;word-spacing:0px;writing-mode:lr-tb;text-anchor:middle;fill:#000000;fill-opacity:1;stroke:none"
       transform="translate(107.79744,-130.44909)"><flowRegion
         id="flowRegion2989-5-4-5"
         style="font-style:normal;font-variant:normal;font-weight:500;font-stretch:normal;font-size:40px;font-family:'Noto Sans Sinhala';-inkscape-font-specification:'Noto Sans Sinhala, Medium';font-variant-ligatures:normal;font-variant-caps:normal;font-variant-numeric:normal;font-feature-settings:normal;text-align:center;writing-mode:lr-tb;text-anchor:middle"><rect
           id="rect2991-7-9-6"
           width="378.84619"
           height="333.75299"
           x="120.55251"
           y="265.53046"
           style="font-style:normal;font-variant:normal;font-weight:500;font-stretch:normal;font-size:40px;font-family:'Noto Sans Sinhala';-inkscape-font-specification:'Noto Sans Sinhala, Medium';font-variant-ligatures:normal;font-variant-caps:normal;font-variant-numeric:normal;font-feature-settings:normal;text-align:center;writing-mode:lr-tb;text-anchor:middle" /></flowRegion><flowPara
         style="font-style:normal;font-variant:normal;font-weight:500;font-stretch:normal;font-size:40px;line-height:1.375;font-family:'Noto Sans Sinhala';-inkscape-font-specification:'Noto Sans Sinhala, Medium';font-variant-ligatures:normal;font-variant-caps:normal;font-variant-numeric:normal;font-feature-settings:normal;text-align:center;letter-spacing:0px;writing-mode:lr-tb;text-anchor:middle"
         id="flowPara4251"><flowSpan
   id="flowSpan920"
   style="font-style:normal;font-variant:normal;font-weight:500;font-stretch:normal;font-size:40px;line-height:1.25;font-family:'Noto Sans Sinhala';-inkscape-font-specification:'Noto Sans Sinhala, Medium';font-variant-ligatures:normal;font-variant-caps:normal;font-variant-numeric:normal;font-feature-settings:normal;text-align:center;letter-spacing:0px;writing-mode:lr-tb;text-anchor:middle"> </flowSpan>ඔව්, </flowPara><flowPara
         style="font-style:normal;font-variant:normal;font-weight:500;font-stretch:normal;font-size:40px;line-height:1.375;font-family:'Noto Sans Sinhala';-inkscape-font-specification:'Noto Sans Sinhala, Medium';font-variant-ligatures:normal;font-variant-caps:normal;font-variant-numeric:normal;font-feature-settings:normal;text-align:center;letter-spacing:0px;writing-mode:lr-tb;text-anchor:middle"
         id="flowPara4253">හොඳට ලේබලේ කියවන්න...</flowPara></flowRoot>    <path
       style="color:#000000;display:inline;overflow:visible;visibility:visible;fill:#ffffff;fill-opacity:1;fill-rule:nonzero;stroke:none;stroke-width:1px;marker:none;enable-background:accumulate"
       d="m 1722.5997,581.12469 c 5.6086,-92.38125 70.3257,-143.28121 348.843,-132.29058 110.1522,4.34673 321.0523,-25.69414 352.0639,117.21207 28.6991,132.25001 -249.6683,139.85905 -299.7405,144.67626 -50.0723,4.8174 -311.2749,-1.36435 -359.1434,-45.0493 -22.0771,-20.14755 -41.882,-55.99968 -42.023,-84.54845 z"
       id="path4546"
       inkscape:connector-curvature="0"
       sodipodi:nodetypes="cssssc" />
    <flowRoot
       xml:space="preserve"
       id="flowRoot2987-4-9-3-9"
       style="font-style:normal;font-variant:normal;font-weight:normal;font-stretch:normal;line-height:0.01%;font-family:Lavi;-inkscape-font-specification:Lavi;text-align:center;letter-spacing:0px;word-spacing:0px;text-anchor:middle;fill:#000000;fill-opacity:1;stroke:none"
       transform="translate(1646.8866,229.03811)"><flowRegion
         id="flowRegion2989-5-4-5-8"><rect
           id="rect2991-7-9-6-2"
           width="602.40173"
           height="310.73996"
           x="120.55251"
           y="265.53046"
           style="font-style:normal;font-variant:normal;font-weight:normal;font-stretch:normal;font-family:Lavi;-inkscape-font-specification:Lavi;text-align:center;text-anchor:middle" /></flowRegion><flowPara
         style="font-style:normal;font-variant:normal;font-weight:500;font-stretch:normal;font-size:40px;line-height:135.30000448%;font-family:'Noto Sans Sinhala';-inkscape-font-specification:'Noto Sans Sinhala, Medium';font-variant-ligatures:normal;font-variant-caps:normal;font-variant-numeric:normal;font-feature-settings:normal;text-align:center;letter-spacing:0px;writing-mode:lr-tb;text-anchor:middle"
         id="flowPara3080">...උඔ නගරෙන් තෝංචි වුණේ නැතිනම්, මේක උඔට හලන්න, ආයෙ මම දෙපාරක් හිතන්නෑ!</flowPara></flowRoot>    <flowRoot
       xml:space="preserve"
       id="flowRoot2987-4-9-3-6"
       style="font-style:normal;font-variant:normal;font-weight:500;font-stretch:normal;font-size:40px;line-height:0.01%;font-family:'Noto Sans Sinhala';-inkscape-font-specification:'Noto Sans Sinhala, Medium';font-variant-ligatures:normal;font-variant-caps:normal;font-variant-numeric:normal;font-feature-settings:normal;text-align:center;letter-spacing:0px;word-spacing:0px;writing-mode:lr-tb;text-anchor:middle;fill:#000000;fill-opacity:1;stroke:none"
       transform="translate(15.800728,1769.0713)"><flowRegion
         id="flowRegion2989-5-4-5-5"
         style="font-style:normal;font-variant:normal;font-weight:500;font-stretch:normal;font-size:40px;font-family:'Noto Sans Sinhala';-inkscape-font-specification:'Noto Sans Sinhala, Medium';font-variant-ligatures:normal;font-variant-caps:normal;font-variant-numeric:normal;font-feature-settings:normal;text-align:center;writing-mode:lr-tb;text-anchor:middle"><rect
           id="rect2991-7-9-6-21"
           width="484.73178"
           height="287.45236"
           x="120.55251"
           y="265.53046"
           style="font-style:normal;font-variant:normal;font-weight:500;font-stretch:normal;font-size:40px;font-family:'Noto Sans Sinhala';-inkscape-font-specification:'Noto Sans Sinhala, Medium';font-variant-ligatures:normal;font-variant-caps:normal;font-variant-numeric:normal;font-feature-settings:normal;text-align:center;writing-mode:lr-tb;text-anchor:middle" /></flowRegion><flowPara
         style="font-style:normal;font-variant:normal;font-weight:500;font-stretch:normal;font-size:40px;line-height:122.09999561%;font-family:'Noto Sans Sinhala';-inkscape-font-specification:'Noto Sans Sinhala, Medium';font-variant-ligatures:normal;font-variant-caps:normal;font-variant-numeric:normal;font-feature-settings:normal;text-align:center;writing-mode:lr-tb;text-anchor:middle"
         id="flowPara3030-8-8">නගරය අනතුරේ වැටුන වෙලාවේ ඇය අප බේරාගත් නිසා</flowPara></flowRoot>    <flowRoot
       xml:space="preserve"
       id="flowRoot2987-4-9-3-6-3"
       style="font-style:normal;font-variant:normal;font-weight:500;font-stretch:normal;font-size:40px;line-height:0.01%;font-family:'Noto Sans Sinhala';-inkscape-font-specification:'Noto Sans Sinhala, Medium';font-variant-ligatures:normal;font-variant-caps:normal;font-variant-numeric:normal;font-feature-settings:normal;text-align:center;letter-spacing:0px;word-spacing:0px;writing-mode:lr-tb;text-anchor:middle;fill:#000000;fill-opacity:1;stroke:none"
       transform="translate(123.95647,1955.457)"><flowRegion
         id="flowRegion2989-5-4-5-5-3"
         style="font-style:normal;font-variant:normal;font-weight:500;font-stretch:normal;font-size:40px;font-family:'Noto Sans Sinhala';-inkscape-font-specification:'Noto Sans Sinhala, Medium';font-variant-ligatures:normal;font-variant-caps:normal;font-variant-numeric:normal;font-feature-settings:normal;text-align:center;writing-mode:lr-tb;text-anchor:middle"><rect
           id="rect2991-7-9-6-21-9"
           width="634.90173"
           height="343.23993"
           x="120.55251"
           y="265.53046"
           style="font-style:normal;font-variant:normal;font-weight:500;font-stretch:normal;font-size:40px;font-family:'Noto Sans Sinhala';-inkscape-font-specification:'Noto Sans Sinhala, Medium';font-variant-ligatures:normal;font-variant-caps:normal;font-variant-numeric:normal;font-feature-settings:normal;text-align:center;writing-mode:lr-tb;text-anchor:middle" /></flowRegion><flowPara
         style="font-style:normal;font-variant:normal;font-weight:500;font-stretch:normal;font-size:40px;line-height:124.30000305%;font-family:'Noto Sans Sinhala';-inkscape-font-specification:'Noto Sans Sinhala, Medium';font-variant-ligatures:normal;font-variant-caps:normal;font-variant-numeric:normal;font-feature-settings:normal;text-align:center;letter-spacing:0px;writing-mode:lr-tb;text-anchor:middle"
         id="flowPara3131">ප්‍රථම ස්ථානය ලබා දෙන්නේ, පෙපර් විසින් ඉදිරිපත් කළ ඇගේ... ??!!</flowPara></flowRoot>    <flowRoot
       xml:space="preserve"
       id="flowRoot2987-4-9-3-6-3-8"
       style="font-style:normal;font-variant:normal;font-weight:normal;font-stretch:normal;line-height:0.01%;font-family:Lavi;-inkscape-font-specification:Lavi;text-align:center;letter-spacing:0px;word-spacing:0px;text-anchor:middle;fill:#000000;fill-opacity:1;stroke:none"
       transform="translate(1567.8088,2619.9978)"><flowRegion
         id="flowRegion2989-5-4-5-5-3-0"><rect
           id="rect2991-7-9-6-21-9-8"
           width="774.90173"
           height="513.23993"
           x="120.55251"
           y="265.53046"
           style="font-style:normal;font-variant:normal;font-weight:normal;font-stretch:normal;font-family:Lavi;-inkscape-font-specification:Lavi;text-align:center;text-anchor:middle" /></flowRegion><flowPara
         style="font-size:48px;line-height:1.25;text-align:center;text-anchor:middle"
         id="flowPara4717"> </flowPara></flowRoot>    <flowRoot
       xml:space="preserve"
       id="flowRoot2987-4-9-3-6-3-8-7"
       style="font-style:normal;font-variant:normal;font-weight:500;font-stretch:normal;font-size:40px;line-height:0.01%;font-family:'Noto Sans Sinhala';-inkscape-font-specification:'Noto Sans Sinhala, Medium';font-variant-ligatures:normal;font-variant-caps:normal;font-variant-numeric:normal;font-feature-settings:normal;text-align:center;letter-spacing:0px;word-spacing:0px;writing-mode:lr-tb;text-anchor:middle;fill:#000000;fill-opacity:1;stroke:none"
       transform="translate(1226.0666,2536.581)"><flowRegion
         id="flowRegion2989-5-4-5-5-3-0-6"
         style="font-style:normal;font-variant:normal;font-weight:500;font-stretch:normal;font-size:40px;font-family:'Noto Sans Sinhala';-inkscape-font-specification:'Noto Sans Sinhala, Medium';font-variant-ligatures:normal;font-variant-caps:normal;font-variant-numeric:normal;font-feature-settings:normal;text-align:center;writing-mode:lr-tb;text-anchor:middle"><rect
           id="rect2991-7-9-6-21-9-8-0"
           width="774.90173"
           height="513.23993"
           x="120.55251"
           y="265.53046"
           style="font-style:normal;font-variant:normal;font-weight:500;font-stretch:normal;font-size:40px;font-family:'Noto Sans Sinhala';-inkscape-font-specification:'Noto Sans Sinhala, Medium';font-variant-ligatures:normal;font-variant-caps:normal;font-variant-numeric:normal;font-feature-settings:normal;text-align:center;writing-mode:lr-tb;text-anchor:middle" /></flowRegion><flowPara
         style="font-style:normal;font-variant:normal;font-weight:500;font-stretch:normal;font-size:40px;line-height:1.375;font-family:'Noto Sans Sinhala';-inkscape-font-specification:'Noto Sans Sinhala, Medium';font-variant-ligatures:normal;font-variant-caps:normal;font-variant-numeric:normal;font-feature-settings:normal;text-align:center;letter-spacing:0px;writing-mode:lr-tb;text-anchor:middle"
         id="flowPara3272">...හහ්හා!</flowPara><flowPara
         style="font-style:normal;font-variant:normal;font-weight:500;font-stretch:normal;font-size:40px;line-height:1.375;font-family:'Noto Sans Sinhala';-inkscape-font-specification:'Noto Sans Sinhala, Medium';font-variant-ligatures:normal;font-variant-caps:normal;font-variant-numeric:normal;font-feature-settings:normal;text-align:center;letter-spacing:0px;writing-mode:lr-tb;text-anchor:middle"
         id="flowPara4269">ඔව්...</flowPara></flowRoot>    <path
       style="fill:#ffffff;stroke:none"
       d="m 1572.7746,2708.775 c 11.865,21.9135 20.5535,35.7439 32.3532,38.6567 11.7996,2.9126 25.4122,7.0997 36.6448,0.9554 11.2326,-6.1443 31.3831,-9.7639 37.9644,-4.9033 6.5814,4.8606 30.224,23.3532 33.8418,42.9792 3.6176,19.6261 35.3335,-10.2628 35.3335,-10.2628 0,0 -17.5983,-33.4325 -22.6391,-38.3802 -5.0411,-4.9479 -16.7587,-23.0138 -47.4193,-17.4222 -30.6606,5.5916 -48.5046,17.6188 -63.3115,16.8043 -14.8067,-0.8144 -35.0743,-11.786 -42.7678,-28.4271 z"
       id="path3137"
       inkscape:connector-curvature="0" />
    <flowRoot
       xml:space="preserve"
       id="flowRoot2987-4-9-3-6-3-8-7-4"
       style="font-style:normal;font-variant:normal;font-weight:500;font-stretch:normal;font-size:42.13827515px;line-height:0.01%;font-family:'Noto Sans Sinhala';-inkscape-font-specification:'Noto Sans Sinhala, Medium';font-variant-ligatures:normal;font-variant-caps:normal;font-variant-numeric:normal;font-feature-settings:normal;text-align:center;letter-spacing:0px;word-spacing:0px;writing-mode:lr-tb;text-anchor:middle;fill:#000000;fill-opacity:1;stroke:none"
       transform="matrix(0.72770322,0,0,0.8599035,1839.7047,3026.3579)"><flowRegion
         id="flowRegion2989-5-4-5-5-3-0-6-7"
         style="font-style:normal;font-variant:normal;font-weight:500;font-stretch:normal;font-size:42.13827515px;font-family:'Noto Sans Sinhala';-inkscape-font-specification:'Noto Sans Sinhala, Medium';font-variant-ligatures:normal;font-variant-caps:normal;font-variant-numeric:normal;font-feature-settings:normal;text-align:center;writing-mode:lr-tb;text-anchor:middle"><rect
           id="rect2991-7-9-6-21-9-8-0-4"
           width="774.90173"
           height="513.23993"
           x="120.55251"
           y="265.53046"
           style="font-style:normal;font-variant:normal;font-weight:500;font-stretch:normal;font-size:42.13827515px;font-family:'Noto Sans Sinhala';-inkscape-font-specification:'Noto Sans Sinhala, Medium';font-variant-ligatures:normal;font-variant-caps:normal;font-variant-numeric:normal;font-feature-settings:normal;text-align:center;writing-mode:lr-tb;text-anchor:middle" /></flowRegion><flowPara
         style="font-style:normal;font-variant:normal;font-weight:500;font-stretch:normal;font-size:42.13827515px;line-height:1.375;font-family:'Noto Sans Sinhala';-inkscape-font-specification:'Noto Sans Sinhala, Medium';font-variant-ligatures:normal;font-variant-caps:normal;font-variant-numeric:normal;font-feature-settings:normal;text-align:center;letter-spacing:0px;writing-mode:lr-tb;text-anchor:middle"
         id="flowPara4723">...ඉදින් කිසිම </flowPara><flowPara
         style="font-style:normal;font-variant:normal;font-weight:500;font-stretch:normal;font-size:42.13827515px;line-height:1.375;font-family:'Noto Sans Sinhala';-inkscape-font-specification:'Noto Sans Sinhala, Medium';font-variant-ligatures:normal;font-variant-caps:normal;font-variant-numeric:normal;font-feature-settings:normal;text-align:center;letter-spacing:0px;writing-mode:lr-tb;text-anchor:middle"
         id="flowPara4324">නිරූපණයක් නෑ...</flowPara></flowRoot>    <flowRoot
       xml:space="preserve"
       id="flowRoot2987-4-9-3-6-3-8-7-2"
       style="font-style:normal;font-variant:normal;font-weight:500;font-stretch:normal;line-height:0.01%;font-family:'Noto Sans Sinhala';-inkscape-font-specification:'Noto Sans Sinhala, Medium';text-align:center;letter-spacing:0px;word-spacing:0px;text-anchor:middle;fill:#000000;fill-opacity:1;stroke:none;font-size:40px;writing-mode:lr;font-variant-ligatures:normal;font-variant-caps:normal;font-variant-numeric:normal;font-feature-settings:normal;"
       transform="translate(1098.9306,3145.5958)"><flowRegion
         id="flowRegion2989-5-4-5-5-3-0-6-76"
         style="-inkscape-font-specification:'Noto Sans Sinhala, Medium';font-family:'Noto Sans Sinhala';font-weight:500;font-style:normal;font-stretch:normal;font-variant:normal;font-size:40px;text-anchor:middle;text-align:center;writing-mode:lr;font-variant-ligatures:normal;font-variant-caps:normal;font-variant-numeric:normal;font-feature-settings:normal;"><rect
           id="rect2991-7-9-6-21-9-8-0-3"
           width="1041.0548"
           height="56.977448"
           x="120.55251"
           y="265.53046"
           style="font-style:normal;font-variant:normal;font-weight:500;font-stretch:normal;font-family:'Noto Sans Sinhala';-inkscape-font-specification:'Noto Sans Sinhala, Medium';text-align:center;text-anchor:middle;font-size:40px;writing-mode:lr;font-variant-ligatures:normal;font-variant-caps:normal;font-variant-numeric:normal;font-feature-settings:normal;" /></flowRegion><flowPara
         style="font-style:normal;font-variant:normal;font-weight:500;font-stretch:normal;font-size:40px;line-height:1.375;font-family:'Noto Sans Sinhala';-inkscape-font-specification:'Noto Sans Sinhala, Medium';text-align:center;text-anchor:middle;writing-mode:lr;font-variant-ligatures:normal;font-variant-caps:normal;font-variant-numeric:normal;font-feature-settings:normal;"
         id="flowPara3272-6">6වන කතාංගය:මයාවඩි තරඟාවලිය</flowPara></flowRoot>    <flowRoot
       transform="matrix(0.90617713,0,-0.22078013,1.6225798,1865.4941,2966.5095)"
       style="font-style:normal;font-variant:normal;font-weight:normal;font-stretch:normal;line-height:0.01%;font-family:Lavi;-inkscape-font-specification:Lavi;text-align:center;letter-spacing:0px;word-spacing:0px;text-anchor:middle;fill:#000000;fill-opacity:1;stroke:none;stroke-width:4.69999981;stroke-miterlimit:4;stroke-dasharray:none;stroke-opacity:1"
       id="flowRoot4212-3-7-8-6"
       xml:space="preserve"><flowRegion
         id="flowRegion4214-6-7-8-3"
         style="stroke:none"><rect
           style="font-style:normal;font-variant:normal;font-weight:normal;font-stretch:normal;font-family:Lavi;-inkscape-font-specification:Lavi;text-align:center;text-anchor:middle;stroke:none;stroke-width:4.69999981;stroke-miterlimit:4;stroke-dasharray:none;stroke-opacity:1"
           y="265.53046"
           x="120.55251"
           height="355.03918"
           width="798.1947"
           id="rect4216-4-0-26-5" /></flowRegion><flowPara
         style="font-style:normal;font-variant:normal;font-weight:bold;font-stretch:normal;font-size:43.20000076px;line-height:1.375;font-family:'Noto Sans Sinhala';-inkscape-font-specification:'Noto Sans Sinhala Bold';text-align:center;letter-spacing:5.20896292px;text-anchor:middle;stroke:none;stroke-width:4.69999981;stroke-miterlimit:4;stroke-dasharray:none;stroke-opacity:1"
         id="flowPara4358-7-1">සමාප්තයි</flowPara></flowRoot>    <flowRoot
       transform="matrix(0.55057275,-0.03798615,0.16971484,1.4584058,675.53372,2751.744)"
       style="font-style:normal;font-variant:normal;font-weight:normal;font-stretch:normal;line-height:0.01%;font-family:Lavi;-inkscape-font-specification:Lavi;text-align:center;letter-spacing:0px;word-spacing:0px;text-anchor:middle;opacity:0.3534884;fill:#000000;fill-opacity:1;stroke:none;stroke-width:4.69999981;stroke-miterlimit:4;stroke-dasharray:none;stroke-opacity:1;filter:url(#filter3843);"
       id="flowRoot4212-3-7-8-6-1"
       xml:space="preserve"><flowRegion
         id="flowRegion4214-6-7-8-3-1"
         style="stroke:none;"><rect
           style="font-style:normal;font-variant:normal;font-weight:normal;font-stretch:normal;font-family:Lavi;-inkscape-font-specification:Lavi;text-align:center;text-anchor:middle;stroke:none;stroke-width:4.69999981;stroke-miterlimit:4;stroke-dasharray:none;stroke-opacity:1;"
           y="265.53046"
           x="120.55251"
           height="365.11124"
           width="780.35773"
           id="rect4216-4-0-26-5-9" /></flowRegion><flowPara
         style="font-style:normal;font-variant:normal;font-weight:bold;font-stretch:normal;font-size:43.2px;line-height:1.375;font-family:'Noto Sans Sinhala';-inkscape-font-specification:'Noto Sans Sinhala Bold';text-align:center;letter-spacing:5.20896292px;text-anchor:middle;stroke:none;stroke-width:4.69999981;stroke-miterlimit:4;stroke-dasharray:none;stroke-opacity:1;"
         id="flowPara4239"><flowSpan
           id="flowSpan4241"
           style="font-weight:normal;font-size:48px;font-family:Lavi;-inkscape-font-specification:Lavi;text-align:center;letter-spacing:5.20896292px;text-anchor:middle;stroke:none;stroke-width:4.69999981;stroke-miterlimit:4;stroke-dasharray:none;stroke-opacity:1;"><flowSpan
   style="font-style:normal;font-variant:normal;font-weight:bold;font-stretch:normal;font-family:'Noto Sans Sinhala';-inkscape-font-specification:'Noto Sans Sinhala Bold';stroke:none;"
   id="flowSpan4243">කෝ.</flowSpan> <flowSpan
   style="-inkscape-font-specification:'Lavi, Bold';font-family:Lavi;font-weight:bold;font-style:normal;font-stretch:normal;font-variant:normal;font-size:47.99984671px;text-anchor:middle;text-align:center;writing-mode:lr;font-variant-ligatures:normal;font-variant-caps:normal;font-variant-numeric:normal;font-feature-settings:normal"
   id="flowSpan926">50,000</flowSpan> </flowSpan></flowPara></flowRoot>    <flowRoot
       xml:space="preserve"
       id="flowRoot2987-4-9-3-6-3-8-7-2-7"
       style="font-style:normal;font-variant:normal;font-weight:normal;font-stretch:normal;line-height:0.01%;font-family:Lavi;-inkscape-font-specification:Lavi;text-align:center;letter-spacing:0px;word-spacing:0px;text-anchor:middle;opacity:0.75;fill:#000000;fill-opacity:1;stroke:none"
       transform="matrix(0.78567639,0,0,0.78567639,300.04334,3197.9723)"><flowRegion
         id="flowRegion2989-5-4-5-5-3-0-6-76-8"><rect
           id="rect2991-7-9-6-21-9-8-0-3-1"
           width="1041.0548"
           height="56.977448"
           x="120.55251"
           y="265.53046"
           style="font-style:normal;font-variant:normal;font-weight:normal;font-stretch:normal;font-family:Lavi;-inkscape-font-specification:Lavi;text-align:center;text-anchor:middle" /></flowRegion><flowPara
         style="font-size:48px;line-height:1.25;text-align:center;text-anchor:middle"
         id="flowPara3272-6-3"> <flowSpan
   style="fill:#1b1b1b;fill-opacity:1"
   id="flowSpan3856"><flowSpan
     style="fill:#2d2d2d;fill-opacity:1"
     id="flowSpan3858"><flowSpan
       style="fill:#2f2f2f;fill-opacity:1"
       id="flowSpan3860"><flowSpan
         style="fill:#3e3e3e;fill-opacity:1"
         id="flowSpan3862"><flowSpan
           style="fill:#3f3f3f;fill-opacity:1"
           id="flowSpan3864"><flowSpan
             style="fill:#474747;fill-opacity:1"
             id="flowSpan3866"><flowSpan
               style="fill:#4d4d4d;fill-opacity:1"
               id="flowSpan3868"><flowSpan
                 style="fill:#4e4e4e;fill-opacity:1"
                 id="flowSpan3870"><flowSpan
                   style="fill:#585858;fill-opacity:1"
                   id="flowSpan3872"><flowSpan
                     style="fill:#595959;fill-opacity:1"
                     id="flowSpan3874"><flowSpan
                       style="fill:#6b6b6b;fill-opacity:1"
                       id="flowSpan3876"><flowSpan
                         style="fill:#777777;fill-opacity:1"
                         id="flowSpan3878"><flowSpan
                           style="fill:#797979;fill-opacity:1"
                           id="flowSpan3880"><flowSpan
                             style="fill:#a0a0a0;fill-opacity:1"
                             id="flowSpan3882"><flowSpan
                               style="fill:#c7c7c7;fill-opacity:1"
                               id="flowSpan3884"><flowSpan
                                 style="fill:#dddddd;fill-opacity:1"
                                 id="flowSpan3886"><flowSpan
                                   style="fill:#dedede;fill-opacity:1"
                                   id="flowSpan3888"><flowSpan
                                   style="fill:#fafafa;fill-opacity:1"
                                   id="flowSpan3890"><flowSpan
                                   style="fill:#ffffff;fill-opacity:1"
                                   id="flowSpan3892" /></flowSpan></flowSpan></flowSpan></flowSpan></flowSpan></flowSpan></flowSpan></flowSpan></flowSpan></flowSpan></flowSpan></flowSpan></flowSpan></flowSpan></flowSpan></flowSpan></flowSpan></flowSpan></flowPara></flowRoot>    <flowRoot
       xml:space="preserve"
       id="flowRoot2987-4-9-3-6-3-8-7-2-7-2"
       style="font-style:normal;font-variant:normal;font-weight:normal;font-stretch:normal;line-height:0.01%;font-family:Lavi;-inkscape-font-specification:Lavi;text-align:center;letter-spacing:0px;word-spacing:0px;text-anchor:middle;opacity:0.85;fill:#000000;fill-opacity:1;stroke:none"
       transform="matrix(0.66233381,0,0,0.66233381,276.5841,3175.1751)"><flowRegion
         id="flowRegion2989-5-4-5-5-3-0-6-76-8-1"><rect
           id="rect2991-7-9-6-21-9-8-0-3-1-7"
           width="2350.8157"
           height="72.357925"
           x="120.55251"
           y="265.53046"
           style="font-style:normal;font-variant:normal;font-weight:normal;font-stretch:normal;font-family:Lavi;-inkscape-font-specification:Lavi;text-align:center;text-anchor:middle" /></flowRegion><flowPara
         style="font-style:normal;font-variant:normal;font-weight:bold;font-stretch:normal;font-size:43.20000076px;line-height:1.375;font-family:'Noto Sans Sinhala';-inkscape-font-specification:'Noto Sans Sinhala Bold';text-align:center;text-anchor:middle;fill:#e3dbdb"
         id="flowPara3272-6-3-1"><flowSpan
   style="-inkscape-font-specification:'Lavi, Bold';font-family:Lavi;font-weight:bold;font-style:normal;font-stretch:normal;font-variant:normal;font-size:43.2007723px;text-anchor:middle;text-align:center;writing-mode:lr;font-variant-ligatures:normal;font-variant-caps:normal;font-variant-numeric:normal;font-feature-settings:normal"
   id="flowSpan924">2015</flowSpan> මාර්තු -කතාව සහ චිත්‍ර: <flowSpan
   style="-inkscape-font-specification:'Lavi, Bold';font-family:Lavi;font-weight:bold;font-style:normal;font-stretch:normal;font-variant:normal;font-size:43.2007723px;text-anchor:middle;text-align:center;writing-mode:lr;font-variant-ligatures:normal;font-variant-caps:normal;font-variant-numeric:normal;font-feature-settings:normal"
   id="flowSpan922">David Revoy</flowSpan>, පරිවර්තනය: තරින්ද දිවාකර </flowPara></flowRoot>    <text
       xml:space="preserve"
       style="font-style:normal;font-weight:500;line-height:0%;font-family:'Noto Sans Sinhala';letter-spacing:0px;word-spacing:0px;fill:#000000;fill-opacity:1;stroke:none;stroke-width:1px;stroke-linecap:butt;stroke-linejoin:miter;stroke-opacity:1;-inkscape-font-specification:'Noto Sans Sinhala, Medium';font-stretch:normal;font-variant:normal;font-size:39.99999974px;text-anchor:middle;text-align:center;writing-mode:lr;font-variant-ligatures:normal;font-variant-caps:normal;font-variant-numeric:normal;font-feature-settings:normal;"
       x="2169.2021"
       y="2781.2026"
       id="text4300"
       transform="scale(0.95599563,1.0460299)"><tspan
         sodipodi:role="line"
         id="tspan4302"
         x="2186.2869"
         y="2781.2026"
         style="font-style:normal;font-variant:normal;font-weight:500;font-stretch:normal;font-size:39.99999974px;line-height:1.375;font-family:'Noto Sans Sinhala';-inkscape-font-specification:'Noto Sans Sinhala, Medium';text-align:center;text-anchor:middle;writing-mode:lr;font-variant-ligatures:normal;font-variant-caps:normal;font-variant-numeric:normal;font-feature-settings:normal;">...හහ්... </tspan><tspan
         sodipodi:role="line"
         x="2186.2869"
         y="2840.9524"
         id="tspan4304"
         style="font-style:normal;font-variant:normal;font-weight:500;font-stretch:normal;font-size:39.99999974px;line-height:1.375;font-family:'Noto Sans Sinhala';-inkscape-font-specification:'Noto Sans Sinhala, Medium';text-align:center;text-anchor:middle;writing-mode:lr;font-variant-ligatures:normal;font-variant-caps:normal;font-variant-numeric:normal;font-feature-settings:normal;">ඇත්ත වශයෙන්ම කිව්වොත් </tspan><tspan
         sodipodi:role="line"
         x="2186.2869"
         y="2900.7021"
         style="font-style:normal;font-variant:normal;font-weight:500;font-stretch:normal;font-size:39.99999974px;line-height:1.375;font-family:'Noto Sans Sinhala';-inkscape-font-specification:'Noto Sans Sinhala, Medium';text-align:center;text-anchor:middle;writing-mode:lr;font-variant-ligatures:normal;font-variant-caps:normal;font-variant-numeric:normal;font-feature-settings:normal;"
         id="tspan4312">මේක මායාවඩියක් නෙවෙයි; </tspan><tspan
         sodipodi:role="line"
         x="2186.2869"
         y="2954.4768"
         id="tspan4306"
         style="font-size:39.99999974px;line-height:1.25;text-align:center;text-anchor:middle;-inkscape-font-specification:'Noto Sans Sinhala, Medium';font-family:'Noto Sans Sinhala';font-weight:500;font-style:normal;font-stretch:normal;font-variant:normal;writing-mode:lr;font-variant-ligatures:normal;font-variant-caps:normal;font-variant-numeric:normal;font-feature-settings:normal;"><tspan
           style="font-style:normal;font-variant:normal;font-weight:500;font-stretch:normal;font-family:'Noto Sans Sinhala';-inkscape-font-specification:'Noto Sans Sinhala, Medium';text-align:center;text-anchor:middle;font-size:39.99999974px;writing-mode:lr;font-variant-ligatures:normal;font-variant-caps:normal;font-variant-numeric:normal;font-feature-settings:normal;"
           id="tspan4310"> මේ මගේ පූසාගේ; </tspan></tspan><tspan
         sodipodi:role="line"
         x="2186.2869"
         y="3002.2766"
         style="font-size:39.99999974px;line-height:1.25;text-align:center;text-anchor:middle;-inkscape-font-specification:'Noto Sans Sinhala, Medium';font-family:'Noto Sans Sinhala';font-weight:500;font-style:normal;font-stretch:normal;font-variant:normal;writing-mode:lr;font-variant-ligatures:normal;font-variant-caps:normal;font-variant-numeric:normal;font-feature-settings:normal;"
         id="tspan4314"><tspan
           style="font-style:normal;font-variant:normal;font-weight:500;font-stretch:normal;font-family:'Noto Sans Sinhala';-inkscape-font-specification:'Noto Sans Sinhala, Medium';text-align:center;text-anchor:middle;font-size:39.99999974px;writing-mode:lr;font-variant-ligatures:normal;font-variant-caps:normal;font-variant-numeric:normal;font-feature-settings:normal;"
           id="tspan4316">සායනයට ගිය වෙලාවේ </tspan></tspan><tspan
         sodipodi:role="line"
         x="2169.2021"
         y="3057.5051"
         style="font-size:39.99999974px;line-height:1.25;text-align:center;text-anchor:middle;-inkscape-font-specification:'Noto Sans Sinhala, Medium';font-family:'Noto Sans Sinhala';font-weight:500;font-style:normal;font-stretch:normal;font-variant:normal;writing-mode:lr;font-variant-ligatures:normal;font-variant-caps:normal;font-variant-numeric:normal;font-feature-settings:normal;"
         id="tspan4318"><tspan
   style="font-style:normal;font-variant:normal;font-weight:500;font-stretch:normal;font-family:'Noto Sans Sinhala';-inkscape-font-specification:'Noto Sans Sinhala, Medium';text-align:center;text-anchor:middle;font-size:39.99999974px;writing-mode:lr;font-variant-ligatures:normal;font-variant-caps:normal;font-variant-numeric:normal;font-feature-settings:normal;"
   id="tspan4320">ගත්ත මුත්‍රා සාම්පලය</tspan>;</tspan></text>
  </g>
</svg>
