<?xml version="1.0" encoding="UTF-8" standalone="no"?>
<!-- Created with Inkscape (http://www.inkscape.org/) -->

<svg
   xmlns:dc="http://purl.org/dc/elements/1.1/"
   xmlns:cc="http://creativecommons.org/ns#"
   xmlns:rdf="http://www.w3.org/1999/02/22-rdf-syntax-ns#"
   xmlns:svg="http://www.w3.org/2000/svg"
   xmlns="http://www.w3.org/2000/svg"
   xmlns:xlink="http://www.w3.org/1999/xlink"
   xmlns:sodipodi="http://sodipodi.sourceforge.net/DTD/sodipodi-0.dtd"
   xmlns:inkscape="http://www.inkscape.org/namespaces/inkscape"
   id="svg2"
   version="1.1"
   inkscape:version="0.92.2 2405546, 2018-03-11"
   width="2481"
   height="3503"
   sodipodi:docname="E27P03.svg">
  <metadata
     id="metadata8">
    <rdf:RDF>
      <cc:Work
         rdf:about="">
        <dc:format>image/svg+xml</dc:format>
        <dc:type
           rdf:resource="http://purl.org/dc/dcmitype/StillImage" />
        <dc:title></dc:title>
      </cc:Work>
    </rdf:RDF>
  </metadata>
  <defs
     id="defs6">
    <filter
       style="color-interpolation-filters:sRGB"
       id="filter4375-4-1-1-1-9"
       inkscape:label="deevad outline effect">
      <feFlood
         id="feFlood4377-7-9-0-8-1"
         flood-opacity="1"
         flood-color="rgb(0,0,0)"
         result="flood" />
      <feComposite
         id="feComposite4379-3-8-8-2-77"
         in2="SourceGraphic"
         in="flood"
         operator="in"
         result="composite1" />
      <feMorphology
         id="feMorphology4393-1-0-49-8-9"
         operator="dilate"
         radius="4"
         result="result3" />
      <feComposite
         id="feComposite4385-9-5-7-0-8"
         in2="result3"
         in="SourceGraphic"
         operator="over"
         result="composite2" />
    </filter>
    <filter
       style="color-interpolation-filters:sRGB"
       id="filter4375-4-1-1-1-9-5"
       inkscape:label="deevad outline effect">
      <feFlood
         id="feFlood4377-7-9-0-8-1-8"
         flood-opacity="1"
         flood-color="rgb(0,0,0)"
         result="flood" />
      <feComposite
         id="feComposite4379-3-8-8-2-77-0"
         in2="SourceGraphic"
         in="flood"
         operator="in"
         result="composite1" />
      <feMorphology
         id="feMorphology4393-1-0-49-8-9-0"
         operator="dilate"
         radius="4"
         result="result3" />
      <feComposite
         id="feComposite4385-9-5-7-0-8-0"
         in2="result3"
         in="SourceGraphic"
         operator="over"
         result="composite2" />
    </filter>
  </defs>
  <sodipodi:namedview
     pagecolor="#ffffff"
     bordercolor="#666666"
     borderopacity="1"
     objecttolerance="10"
     gridtolerance="10"
     guidetolerance="10"
     inkscape:pageopacity="0"
     inkscape:pageshadow="2"
     inkscape:window-width="1920"
     inkscape:window-height="1025"
     id="namedview4"
     showgrid="false"
     inkscape:zoom="0.60491494"
     inkscape:cx="1153.1842"
     inkscape:cy="1145.1044"
     inkscape:window-x="0"
     inkscape:window-y="26"
     inkscape:window-maximized="1"
     inkscape:current-layer="layer1"
     inkscape:snap-global="false"
     showguides="false" />
  <g
     inkscape:groupmode="layer"
     id="layer2"
     inkscape:label="artwork"
     sodipodi:insensitive="true">
    <image
       sodipodi:absref="/home/midgard/git/peppercarrot/comics/new-ep27_Coriander-s-Invention/lang/en/../gfx_Pepper-and-Carrot_by-David-Revoy_E27P03.png"
       xlink:href="../gfx_Pepper-and-Carrot_by-David-Revoy_E27P03.png"
       width="2481"
       height="3503"
       id="image10"
       x="0"
       y="0" />
  </g>
  <g
     inkscape:groupmode="layer"
     id="layer3"
     inkscape:label="speechbubbles">
    <path
       style="fill:#ffffff;fill-rule:evenodd;stroke:none;stroke-width:1.06538737px;stroke-linecap:butt;stroke-linejoin:miter;stroke-opacity:1"
       d="m 1163.973,1575.3738 c 3.0625,-55.8541 1.4127,-93.5629 25.6596,-107.5615 29.273,-16.9003 195.2291,-28.6736 307.8662,-9.293 20.1141,3.7496 106.9919,4.2495 117.3705,15.4109 10.3785,11.1616 36.3066,41.8742 35.83,76.2082 -0.4768,34.3339 -12.3894,52.3394 -25.0568,71.2705 -12.6675,18.931 -58.1852,46.1505 -84.8556,45.4371 -90.2531,-2.3634 -130.7487,8.0007 -220.661,10.8236 -31.6123,0.8494 -79.8124,-12.5504 -112.1174,-31.7029 -32.3048,-19.1526 -44.0355,-70.5929 -44.0355,-70.5929 z"
       id="path263"
       inkscape:connector-curvature="0"
       sodipodi:nodetypes="ssccccccss" />
    <path
       style="fill:#ffffff;fill-rule:evenodd;stroke:none;stroke-width:1px;stroke-linecap:butt;stroke-linejoin:miter;stroke-opacity:1"
       d="m 1252.6692,1467.8179 c 0,0 -14.7372,-14.1832 -28.1318,-24.3459 -13.1591,-9.9839 -23.1743,-37.0399 -19.4243,-57.7963 -18.1089,29.447 -5.815,53.6299 11.889,81.0614 15.1315,24.8588 35.6671,1.0808 35.6671,1.0808 z"
       id="path265"
       inkscape:connector-curvature="0"
       sodipodi:nodetypes="csccc" />
    <path
       style="fill:#ffffff;fill-rule:evenodd;stroke:none;stroke-width:0.92811328px;stroke-linecap:butt;stroke-linejoin:miter;stroke-opacity:1"
       d="m 1940.4133,2032.967 c 21.8227,34.8212 73.1349,55.3215 114.0857,58.5993 40.9507,3.2778 174.2382,-0.7667 210.7518,-14.5288 36.5136,-13.7618 70.4997,-30.3097 69.871,-76.0398 -0.6288,-45.7305 -32.4224,-93.6904 -37.9385,-110.7922 -5.5161,-17.1015 -24.5275,-44.3014 -44.1777,-60.3473 -19.6503,-16.046 -89.5757,-23.7809 -114.3938,-25.2022 -24.8182,-1.4214 -111.7811,4.7887 -130.9234,17.6805 -19.1423,12.8917 -58.24,33.966 -67.1097,75.4221 -8.8698,41.4562 -9.5186,109.4942 -0.1654,135.2084 z"
       id="path267"
       inkscape:connector-curvature="0"
       sodipodi:nodetypes="csccccscsc" />
    <path
       style="fill:#ffffff;fill-rule:evenodd;stroke:none;stroke-width:1px;stroke-linecap:butt;stroke-linejoin:miter;stroke-opacity:1"
       d="m 1825.1743,1897.7489 c 53.571,-19.7367 111.3904,-9.3727 131.1271,16.0031 19.7367,25.3757 16.4282,45.0866 16.4282,45.0866 l -21.6164,9.3985 c 0,14.3171 5.8835,-17.1392 -7.2743,-30.7446 -12.9359,-13.376 -35.6882,-34.1046 -57.3046,-37.8639 -21.6164,-3.7594 -50.0819,-2.8196 -61.36,-1.8797 z"
       id="path269"
       inkscape:connector-curvature="0"
       sodipodi:nodetypes="ccccscc" />
    <path
       style="fill:#ffffff;fill-rule:evenodd;stroke:none;stroke-width:1.02841866px;stroke-linecap:butt;stroke-linejoin:miter;stroke-opacity:1"
       d="m 151.24602,2444.7599 c 27.97318,-15.0169 92.31148,-19.4337 120.28465,-24.7338 27.97317,-5.3002 65.73695,-0.8834 83.91952,-1.7667 18.18256,-0.8834 68.53426,-5.3002 82.52085,-4.4167 13.98659,0.8832 103.50075,5.3 121.6833,6.1834 18.18258,0.8833 96.50746,5.3001 104.89941,22.0839 8.39195,16.7835 33.56781,49.4676 20.97988,65.3679 -12.58793,15.9004 -27.97318,43.2844 -64.3383,53.0013 -36.36513,9.7168 -92.31147,25.6172 -158.04842,27.3839 -65.73697,1.7667 -156.64978,-5.3001 -170.63637,-5.3001 -13.98659,0 -88.11549,0.8833 -117.48732,-21.2005 -29.37184,-22.0838 -50.35171,-46.8177 -46.15574,-68.9014 4.19598,-22.0838 22.37854,-47.7012 22.37854,-47.7012 z"
       id="path271"
       inkscape:connector-curvature="0" />
    <path
       style="fill:#ffffff;fill-rule:evenodd;stroke:none;stroke-width:1px;stroke-linecap:butt;stroke-linejoin:miter;stroke-opacity:1"
       d="m 549.40558,2567.868 c 0,0 -6.17962,40.1675 -4.9437,48.819 1.23593,8.6515 12.35924,48.201 19.77478,58.0884 -19.15682,-22.2466 -31.51605,-51.2908 -33.9879,-61.1782 -2.47184,-9.8874 -1.23592,-50.0549 -1.23592,-50.0549 z"
       id="path273"
       inkscape:connector-curvature="0" />
    <path
       style="fill:#ffffff;fill-rule:evenodd;stroke:none;stroke-width:1px;stroke-linecap:butt;stroke-linejoin:miter;stroke-opacity:1"
       d="m 874.10689,2397.2192 c 36.95412,-5.6852 28.42624,7.8173 60.40576,7.1066 31.97953,-0.7106 97.35985,-7.8172 112.99435,-14.2131 8.5278,-3.5533 9.2385,2.132 9.2385,2.132 0,0 26.2943,1.4213 31.2689,2.8426 4.9745,1.4213 24.1623,10.6598 31.2688,8.5279 7.1066,-2.132 19.1877,-5.6853 19.1877,-5.6853 0,0 -0.7106,47.614 -1.4213,51.1672 -0.7106,3.5533 -5.6852,30.5582 -5.6852,39.7968 0,9.2385 4.2639,23.4516 3.5532,27.7156 -0.7106,4.2639 9.2386,14.9237 9.2386,14.9237 l -27.005,0.7107 -18.477,2.132 -7.8172,-2.132 -33.4009,2.8426 -19.1877,0.7107 1.4213,-4.264 -82.43605,4.264 3.55328,-6.3959 -28.42624,1.4213 -10.65984,6.3959 -3.55328,-5.6853 -24.16231,0.7107 -12.79181,6.3959 7.10656,-13.5025 -10.65984,-7.8172 -2.13196,-104.4664 6.3959,-4.264 z"
       id="path275"
       inkscape:connector-curvature="0" />
    <path
       style="fill:#ffffff;fill-rule:evenodd;stroke:none;stroke-width:1px;stroke-linecap:butt;stroke-linejoin:miter;stroke-opacity:1"
       d="m 1118.5743,2437.016 c 32.7805,-4.9746 54.6342,9.2385 62.6473,7.8172 8.0131,-1.4213 34.2376,-10.6598 42.979,-9.9492 8.7415,0.7107 64.1044,8.5279 80.8588,5.6853 16.7545,-2.8427 53.9059,0 59.7336,-0.7107 5.8275,-0.7106 29.1382,-14.2131 35.6944,-14.2131 6.5561,0 17.4829,6.3959 41.5221,-9.2385 -10.1985,18.477 -16.0261,31.2688 -16.0261,31.2688 0,0 25.496,-7.1065 35.6943,-7.1065 10.1985,0 18.2116,3.5532 23.3107,1.4213 5.0992,-2.132 32.7806,-2.8426 37.1514,-2.8426 4.3708,0 15.2975,-3.5533 20.3968,-3.5533 5.0992,0 51.7205,4.2639 58.2766,4.2639 6.5561,0 67.7465,-7.1066 74.3026,-7.1066 6.5561,0 36.4229,2.132 48.8068,-2.8426 1.4568,14.2131 -2.9139,48.3246 -2.9139,56.1418 0,7.8173 0.7284,17.7664 0.7284,24.1624 -10.9268,7.1065 -18.94,21.3196 -18.94,21.3196 0,0 18.2116,3.5533 23.3107,0.7107 5.0992,-2.8426 2.1854,52.5885 2.9139,63.2484 0.7285,10.6598 -8.7415,0.7106 -8.7415,0.7106 0,0 -1.4569,7.8172 -7.2846,9.2386 -5.8276,1.4213 -108.5401,-0.7107 -120.1954,-0.7107 -11.6554,0 -15.2977,3.5533 -15.2977,3.5533 h -50.2636 l -1.4569,-6.3959 -22.5821,4.2639 -30.5953,4.9746 -18.2114,3.5533 -10.1983,-2.8426 -50.2637,0.7106 -43.7074,1.4213 10.9268,-10.6598 -113.6393,7.8172 -52.449,1.4213 -48.0782,6.3959 -9.4699,-22.741 -5.0993,-49.0352 c 0,0 -2.9138,-13.5026 5.0993,-15.6345 8.013,-2.1319 -5.8277,-4.2639 -7.2846,-17.0557 -1.457,-12.7918 -5.8276,-45.482 -5.8276,-45.482 l 9.4699,-2.8426 -11.6553,-7.1066 z"
       id="path277"
       inkscape:connector-curvature="0" />
    <path
       style="fill:#ffffff;fill-rule:evenodd;stroke:none;stroke-width:0.99999994px;stroke-linecap:butt;stroke-linejoin:miter;stroke-opacity:1"
       d="m 1327.3521,2751.2587 c 32.6788,-36.3054 55.3539,-80.3905 55.3539,-94.0051 8.6697,12.9662 8.0028,10.373 8.0028,10.373 0,0 14.6721,-38.8987 14.0051,-62.8862 -0.6667,-23.9875 26.6766,-24.6358 30.0111,-19.4493 3.3345,5.1864 9.47,23.9875 9.47,23.9875 l -4.1347,13.6145 -4.0015,-3.2415 c 0,0 -15.3389,40.1952 -17.3397,44.7334 -2.0008,4.5382 -10.6705,23.9876 -10.6705,23.9876 l -2.6677,-11.6696 -14.6721,10.373 0.6669,16.2077 -8.003,-7.1314 c 0,0 -0.6667,9.7247 -4.0014,14.9112 -3.3346,5.1864 -24.0089,27.8774 -26.6765,31.1189 -2.6676,3.2415 -25.3427,9.0763 -25.3427,9.0763 z"
       id="path279"
       inkscape:connector-curvature="0" />
    <path
       style="fill:#ffffff;fill-rule:evenodd;stroke:none;stroke-width:1px;stroke-linecap:butt;stroke-linejoin:miter;stroke-opacity:1"
       d="m 1862.0808,2412.5674 7.2398,7.358 36.7802,-4.3215 7.3553,-8.3665 c 0,0 16.3451,8.3665 21.2486,5.5777 4.9035,-2.7889 24.5176,-4.6481 24.5176,-4.6481 l 7.3553,7.4369 17.9796,-2.7888 c 0,0 41.68,7.4369 51.487,6.5072 9.8071,-0.9295 26.9694,-10.2256 26.9694,-10.2256 0,0 33.5075,10.2256 38.411,8.3664 4.9035,-1.8592 13.8933,-2.7887 13.8933,-2.7887 l 10.6243,20.4515 c 0,0 21.2486,-19.522 21.2486,-28.8181 13.8934,-0.9297 32.6902,0 35.9592,-1.8593 3.2691,-1.8592 4.9036,11.1554 4.9036,11.1554 l 9.807,6.5073 c 0,0 24.5176,-20.4515 26.9694,-24.1699 2.4518,-3.7185 18.7969,-2.789 18.7969,-2.789 0,0 22.8831,0.9297 26.1521,0 3.269,-0.9295 17.1623,0.9297 29.4212,1.8592 12.2588,0.9298 24.5176,0.9298 33.5074,-2.7887 2.4518,15.8034 0,72.51 -0.8173,79.0173 -8.9898,15.8034 -17.9796,45.5512 -25.3348,51.1289 19.6141,-11.1555 19.6141,-14.8739 26.9693,-22.3108 -0.8172,23.2405 -7.3552,72.51 -8.1725,78.0878 13.0761,-12.085 11.4416,-9.2962 9.8071,-4.6481 -1.6346,4.6481 -6.5381,18.5923 -8.1726,29.7476 -1.6345,11.1554 0,25.0997 -1.6345,32.5366 -1.6345,7.437 -3.269,17.6628 -3.269,17.6628 0,0 -32.6902,11.1553 -38.411,13.0146 -5.7208,1.8592 -56.3905,1.8592 -69.4666,1.8592 -13.0761,0 -32.6902,2.7888 -41.68,1.8592 4.9036,-10.2257 8.1726,-17.6627 8.1726,-17.6627 0,0 -40.8627,4.6481 -50.6698,6.5074 -9.8071,1.8592 -50.6698,-8.3666 -59.6596,-7.4369 -8.9898,0.9295 -58.8423,2.7887 -71.9184,3.7184 -13.076,0.9295 -45.7662,2.7888 -58.025,5.5777 -12.2588,2.7888 -49.0353,4.648 -57.2078,4.648 -8.1726,0 -23.7004,0.9297 -23.7004,0.9297 0,0 -1.6345,-33.4661 -1.6345,-45.5512 0,-12.085 -4.0863,-71.5804 -0.8173,-78.0877 3.269,-6.5074 5.7208,-52.0586 5.7208,-56.7066 0,-4.6481 -7.7109,-40.4078 -7.7109,-40.4078 z"
       id="path283"
       inkscape:connector-curvature="0"
       sodipodi:nodetypes="ccccscccccsccccccccccccccccccccscccccsscssscc" />
    <path
       style="fill:#ffffff;fill-rule:evenodd;stroke:none;stroke-width:0.99999994px;stroke-linecap:butt;stroke-linejoin:miter;stroke-opacity:1"
       d="m 1928.0456,2832.7023 c -13.1433,-30.6118 9.2927,-109.1953 20.1114,-126.6745 0,-10.6243 -4.641,-22.8831 -4.641,-22.8831 0,0 -11.6028,4.9035 -14.6968,10.6243 -3.0941,5.7208 13.1497,-34.3247 22.4319,-40.8627 9.2823,-6.538 -6.9616,-37.5937 -6.9616,-37.5937 0,0 -31.7143,26.1521 -33.2613,37.5937 -1.547,11.4416 -10.0557,70.2839 -6.1881,80.9082 3.8676,10.6243 6.1881,4.9035 9.2821,0.8172 3.0942,-4.0862 11.6029,-12.2588 16.244,-15.5278 -7.7353,19.6141 -20.1115,84.1772 -2.3206,113.5984 z"
       id="path285"
       inkscape:connector-curvature="0"
       sodipodi:nodetypes="ccccccssccc" />
  </g>
  <g
     inkscape:groupmode="layer"
     id="layer1"
     inkscape:label="txt">
    <text
       xml:space="preserve"
       style="font-style:normal;font-variant:normal;font-weight:normal;font-stretch:normal;line-height:0%;font-family:Lavi;-inkscape-font-specification:Lavi;text-align:center;letter-spacing:0px;word-spacing:0px;text-anchor:middle;fill:#000000;fill-opacity:1;stroke:none"
       x="1403.3555"
       y="1524.687"
       id="text4246"><tspan
         sodipodi:role="line"
         style="font-size:45px;line-height:1.20000005"
         x="1403.3555"
         y="1524.687"
         id="tspan1590">Je zult meteen</tspan><tspan
         sodipodi:role="line"
         style="font-size:45px;line-height:1.20000005"
         x="1403.3555"
         y="1578.687"
         id="tspan1594">zien waarom ik deze</tspan><tspan
         sodipodi:role="line"
         style="font-size:45px;line-height:1.20000005"
         x="1403.3555"
         y="1632.687"
         id="tspan1596">gemaakt heb.</tspan></text>
    <text
       xml:space="preserve"
       style="font-style:normal;font-variant:normal;font-weight:normal;font-stretch:normal;line-height:0%;font-family:Lavi;-inkscape-font-specification:Lavi;text-align:center;letter-spacing:0px;word-spacing:0px;text-anchor:middle;fill:#000000;fill-opacity:1;stroke:none"
       x="2131.2803"
       y="1878.3798"
       id="text4246-3"><tspan
         sodipodi:role="line"
         style="font-size:45px;line-height:1.20000005"
         x="2131.2803"
         y="1878.3798"
         id="tspan1607">Het heeft</tspan><tspan
         sodipodi:role="line"
         style="font-size:45px;line-height:1.20000005"
         x="2131.2803"
         y="1932.3798"
         id="tspan1611">alles te maken</tspan><tspan
         sodipodi:role="line"
         style="font-size:45px;line-height:1.20000005"
         x="2131.2803"
         y="1986.3798"
         id="tspan1615">met mijn zorgen</tspan><tspan
         sodipodi:role="line"
         style="font-size:45px;line-height:1.20000005"
         x="2131.2803"
         y="2040.3798"
         id="tspan1619">over de kroning.</tspan></text>
    <text
       xml:space="preserve"
       style="font-style:normal;font-variant:normal;font-weight:normal;font-stretch:normal;line-height:0%;font-family:Lavi;-inkscape-font-specification:Lavi;text-align:center;letter-spacing:0px;word-spacing:0px;text-anchor:middle;fill:#000000;fill-opacity:1;stroke:none"
       x="407.37012"
       y="2489.5654"
       id="text4246-3-3"><tspan
         sodipodi:role="line"
         style="font-size:45px;line-height:1.20000005"
         x="407.37012"
         y="2489.5654"
         id="tspan1644">Mag ik jullie voorstellen</tspan><tspan
         sodipodi:role="line"
         style="font-size:45px;line-height:1.20000005"
         x="407.37012"
         y="2543.5654"
         id="tspan874">aan mijn uitvinding?</tspan></text>
    <text
       xml:space="preserve"
       style="font-style:normal;font-variant:normal;font-weight:normal;font-stretch:normal;line-height:0%;font-family:Lavi;-inkscape-font-specification:Lavi;text-align:center;letter-spacing:0px;word-spacing:0px;text-anchor:middle;fill:#000000;fill-opacity:1;stroke:none"
       x="1019.3331"
       y="2462.7529"
       id="text4246-3-3-2"><tspan
         sodipodi:role="line"
         style="font-style:normal;font-variant:normal;font-weight:normal;font-stretch:normal;font-size:32px;line-height:1.39999998;font-family:'Press Start 2P';-inkscape-font-specification:'Press Start 2P'"
         x="1019.3331"
         y="2462.7529"
         id="tspan113-9">Hello,</tspan><tspan
         sodipodi:role="line"
         style="font-style:normal;font-variant:normal;font-weight:normal;font-stretch:normal;font-size:32px;line-height:1.39999998;font-family:'Press Start 2P';-inkscape-font-specification:'Press Start 2P'"
         x="1019.3331"
         y="2507.553"
         id="tspan144">world.</tspan></text>
    <text
       xml:space="preserve"
       style="font-style:normal;font-variant:normal;font-weight:normal;font-stretch:normal;line-height:0%;font-family:Lavi;-inkscape-font-specification:Lavi;text-align:center;letter-spacing:0px;word-spacing:0px;text-anchor:middle;fill:#000000;fill-opacity:1;stroke:none"
       x="1425.948"
       y="2493.7439"
       id="text4246-3-3-2-2"><tspan
         sodipodi:role="line"
         style="font-style:normal;font-variant:normal;font-weight:normal;font-stretch:normal;font-size:32px;line-height:1.39999998;font-family:'Press Start 2P';-inkscape-font-specification:'Press Start 2P'"
         x="1441.948"
         y="2493.7439"
         id="tspan144-3">Ik ben je  </tspan><tspan
         sodipodi:role="line"
         style="font-style:normal;font-variant:normal;font-weight:normal;font-stretch:normal;font-size:32px;line-height:1.39999998;font-family:'Press Start 2P';-inkscape-font-specification:'Press Start 2P'"
         x="1425.948"
         y="2538.5439"
         id="tspan169">PSYCHOLOOG-BOT</tspan><tspan
         sodipodi:role="line"
         style="font-style:normal;font-variant:normal;font-weight:normal;font-stretch:normal;font-size:32px;line-height:1.39999998;font-family:'Press Start 2P';-inkscape-font-specification:'Press Start 2P'"
         x="1425.948"
         y="2583.344"
         id="tspan171"> bliep, bliep!</tspan></text>
    <text
       xml:space="preserve"
       style="font-style:normal;font-variant:normal;font-weight:normal;font-stretch:normal;line-height:0%;font-family:Lavi;-inkscape-font-specification:Lavi;text-align:center;letter-spacing:0px;word-spacing:0px;text-anchor:middle;fill:#000000;fill-opacity:1;stroke:none"
       x="2091.0667"
       y="2471.8889"
       id="text4246-3-3-2-2-7"><tspan
         sodipodi:role="line"
         style="font-style:normal;font-variant:normal;font-weight:normal;font-stretch:normal;font-size:32px;line-height:1.29999995;font-family:'Press Start 2P';-inkscape-font-specification:'Press Start 2P'"
         x="2091.0667"
         y="2471.8889"
         id="tspan208">Neem plaats</tspan><tspan
         sodipodi:role="line"
         style="font-style:normal;font-variant:normal;font-weight:normal;font-stretch:normal;font-size:32px;line-height:1.29999995;font-family:'Press Start 2P';-inkscape-font-specification:'Press Start 2P'"
         x="2091.0667"
         y="2513.489"
         id="tspan1662">in mijn zetel</tspan><tspan
         sodipodi:role="line"
         style="font-style:normal;font-variant:normal;font-weight:normal;font-stretch:normal;font-size:32px;line-height:1.29999995;font-family:'Press Start 2P';-inkscape-font-specification:'Press Start 2P'"
         x="2107.0667"
         y="2555.0889"
         id="tspan1666">voor een  </tspan><tspan
         sodipodi:role="line"
         style="font-style:normal;font-variant:normal;font-weight:normal;font-stretch:normal;font-size:32px;line-height:1.29999995;font-family:'Press Start 2P';-inkscape-font-specification:'Press Start 2P'"
         x="2107.0667"
         y="2596.689"
         id="tspan1670">gratis  </tspan><tspan
         sodipodi:role="line"
         style="font-style:normal;font-variant:normal;font-weight:normal;font-stretch:normal;font-size:32px;line-height:1.29999995;font-family:'Press Start 2P';-inkscape-font-specification:'Press Start 2P'"
         x="2091.0667"
         y="2638.2888"
         id="tspan1676">sessie.</tspan></text>
    <text
       xml:space="preserve"
       style="font-style:normal;font-variant:normal;font-weight:normal;font-stretch:normal;line-height:0%;font-family:Lavi;-inkscape-font-specification:Lavi;letter-spacing:0px;word-spacing:0px;fill:#000000;fill-opacity:1;stroke:#000000;stroke-width:2.15795588;stroke-miterlimit:4;stroke-dasharray:none;stroke-opacity:1;filter:url(#filter4375-4-1-1-1-9)"
       x="787.65729"
       y="1584.5073"
       id="text4580"
       transform="matrix(0.46879428,-0.12606586,-0.08654633,0.61214652,623.13411,2085.4411)"><tspan
         sodipodi:role="line"
         id="tspan4582"
         x="787.65729"
         y="1584.5073"
         style="font-style:normal;font-variant:normal;font-weight:bold;font-stretch:normal;font-size:80.40014648px;line-height:1.25;font-family:Lavi;-inkscape-font-specification:'Lavi Bold';fill:#ffffff;stroke-width:2.15795588">Klik!</tspan></text>
    <text
       xml:space="preserve"
       style="font-style:normal;font-variant:normal;font-weight:normal;font-stretch:normal;line-height:0%;font-family:Lavi;-inkscape-font-specification:Lavi;letter-spacing:0px;word-spacing:0px;fill:#000000;fill-opacity:1;stroke:#000000;stroke-width:2.15795588;stroke-miterlimit:4;stroke-dasharray:none;stroke-opacity:1;filter:url(#filter4375-4-1-1-1-9-5)"
       x="787.65729"
       y="1584.5073"
       id="text4580-4"
       transform="matrix(0.46879428,-0.12606586,-0.08654633,0.61214652,2027.5227,1975.6976)"><tspan
         sodipodi:role="line"
         id="tspan4582-7"
         x="787.65729"
         y="1584.5073"
         style="font-style:normal;font-variant:normal;font-weight:bold;font-stretch:normal;font-size:80.40014648px;line-height:1.25;font-family:Lavi;-inkscape-font-specification:'Lavi Bold';fill:#ffffff;stroke-width:2.15795588">Tap!</tspan></text>
  </g>
</svg>
