<?xml version="1.0" encoding="UTF-8" standalone="no"?>
<!-- Created with Inkscape (http://www.inkscape.org/) -->

<svg
   id="svg2"
   version="1.1"
   inkscape:version="1.2.1 (9c6d41e4, 2022-07-14)"
   width="2481"
   height="3503"
   sodipodi:docname="E37P05.svg"
   xmlns:inkscape="http://www.inkscape.org/namespaces/inkscape"
   xmlns:sodipodi="http://sodipodi.sourceforge.net/DTD/sodipodi-0.dtd"
   xmlns:xlink="http://www.w3.org/1999/xlink"
   xmlns="http://www.w3.org/2000/svg"
   xmlns:svg="http://www.w3.org/2000/svg"
   xmlns:rdf="http://www.w3.org/1999/02/22-rdf-syntax-ns#"
   xmlns:cc="http://creativecommons.org/ns#"
   xmlns:dc="http://purl.org/dc/elements/1.1/">
  <metadata
     id="metadata8">
    <rdf:RDF>
      <cc:Work
         rdf:about="">
        <dc:format>image/svg+xml</dc:format>
        <dc:type
           rdf:resource="http://purl.org/dc/dcmitype/StillImage" />
        <dc:title />
      </cc:Work>
    </rdf:RDF>
  </metadata>
  <defs
     id="defs6">
    <filter
       inkscape:label="Magmah-FX"
       inkscape:menu="Distort"
       inkscape:menu-tooltip="Horizontal rippling of edges"
       style="color-interpolation-filters:sRGB"
       id="filter4265-7"
       y="0"
       x="0"
       width="1"
       height="1">
      <feTurbulence
         numOctaves="1"
         baseFrequency="0.002 0.107"
         id="feTurbulence4267-7" />
      <feColorMatrix
         values="5 0 0 0 0 0 0 0 0 0 0 0 0 0 0 0 0 0 4 0 "
         result="result91"
         id="feColorMatrix4269-1" />
      <feDisplacementMap
         yChannelSelector="A"
         xChannelSelector="R"
         scale="14.3"
         in="SourceGraphic"
         in2="result91"
         id="feDisplacementMap4271-2" />
    </filter>
    <filter
       style="color-interpolation-filters:sRGB"
       inkscape:label="Magmah-spell-glow"
       id="filter4751"
       x="-0.033441791"
       y="-0.12562146"
       width="1.0668836"
       height="1.2512429">
      <feFlood
         flood-opacity="1"
         flood-color="rgb(255,255,255)"
         result="flood"
         id="feFlood4753" />
      <feComposite
         in="flood"
         in2="SourceGraphic"
         operator="in"
         result="composite1"
         id="feComposite4755" />
      <feGaussianBlur
         in="composite1"
         stdDeviation="5.4"
         result="blur"
         id="feGaussianBlur4757" />
      <feOffset
         dx="0"
         dy="0"
         result="offset"
         id="feOffset4759" />
      <feComposite
         in="SourceGraphic"
         in2="offset"
         operator="over"
         result="composite2"
         id="feComposite4761" />
    </filter>
    <filter
       inkscape:label="Magmah-FX"
       inkscape:menu="Distort"
       inkscape:menu-tooltip="Horizontal rippling of edges"
       style="color-interpolation-filters:sRGB"
       id="filter4265-7-5"
       y="0"
       x="0"
       width="1"
       height="1">
      <feTurbulence
         numOctaves="1"
         baseFrequency="0.002 0.107"
         id="feTurbulence4267-7-3" />
      <feColorMatrix
         values="5 0 0 0 0 0 0 0 0 0 0 0 0 0 0 0 0 0 4 0 "
         result="result91"
         id="feColorMatrix4269-1-5" />
      <feDisplacementMap
         yChannelSelector="A"
         xChannelSelector="R"
         scale="14.3"
         in="SourceGraphic"
         in2="result91"
         id="feDisplacementMap4271-2-6" />
    </filter>
  </defs>
  <sodipodi:namedview
     pagecolor="#ffffff"
     bordercolor="#666666"
     borderopacity="1"
     objecttolerance="10"
     gridtolerance="10"
     guidetolerance="10"
     inkscape:pageopacity="0"
     inkscape:pageshadow="2"
     inkscape:window-width="1440"
     inkscape:window-height="847"
     id="namedview4"
     showgrid="false"
     inkscape:zoom="0.4236419"
     inkscape:cx="1099.9856"
     inkscape:cy="3142.9846"
     inkscape:window-x="0"
     inkscape:window-y="25"
     inkscape:window-maximized="0"
     inkscape:current-layer="layer1"
     inkscape:pagecheckerboard="0"
     inkscape:showpageshadow="0"
     inkscape:deskcolor="#d1d1d1" />
  <g
     inkscape:groupmode="layer"
     id="layer2"
     inkscape:label="artwork"
     sodipodi:insensitive="true">
    <image
       xlink:href="../gfx_Pepper-and-Carrot_by-David-Revoy_E37P05.png"
       y="0"
       x="0"
       id="image10"
       height="3503"
       width="2481" />
  </g>
  <g
     inkscape:groupmode="layer"
     id="layer3"
     inkscape:label="speechbubbles"
     style="display:inline">
    <path
       style="fill:#ffffff;stroke:none;stroke-width:0.75896"
       d="m 398.28776,328.05131 c -32.50907,0.87745 -64.87308,8.371 -94.36813,22.08176 -19.79361,11.41744 -30.2288,37.57841 -22.27663,59.25867 5.18949,14.84132 17.74323,26.07636 31.87482,32.32604 24.15804,11.55249 51.26524,14.65106 77.7238,15.65341 26.4149,0.9798 53.02587,0.5484 79.16333,-3.70855 17.03013,-3.36159 33.61514,-10.74126 46.32952,-22.73243 11.4226,-10.95627 18.99687,-26.80807 17.45011,-42.85162 -1.14125,-12.02368 -8.2502,-22.76664 -17.6153,-30.09633 -9.83995,-7.70344 -21.48745,-12.65095 -33.07922,-17.07836 -27.20294,-9.84809 -56.42709,-12.8829 -85.2023,-12.85259 z"
       id="path3280-81"
       inkscape:connector-curvature="0"
       sodipodi:nodetypes="csssc" />
    <path
       style="display:inline;fill:#ffffff;stroke:none;stroke-width:0.75896"
       d="M 339.75781 240.44336 C 316.76682 241.59346 293.35873 243.73316 271.79149 252.3479 C 261.04266 256.56779 250.57807 263.17755 244.69984 273.41776 C 236.67359 286.63596 235.41939 304.26229 243.15686 317.89554 C 250.33906 330.05605 263.57624 337.74013 277.2832 340.10938 C 302.49359 345.87739 328.25165 348.6627 353.9245 351.44115 C 382.54722 353.18337 411.89595 348.71169 437.84365 336.18651 C 448.11578 330.86655 457.14717 322.1337 460.67966 310.89345 C 465.82522 296.53591 462.54628 279.11265 451.45945 268.39097 C 444.09492 261.38539 434.68407 257.12625 425.46638 253.14042 C 408.77591 246.38017 390.85196 243.35064 373.01797 241.54703 C 361.9629 240.55842 350.85195 240.33192 339.75781 240.44336 z "
       id="path3280-81-3"
       inkscape:connector-curvature="0"
       sodipodi:nodetypes="csssc" />
    <path
       style="color:#000000;display:inline;overflow:visible;visibility:visible;fill:#ffffff;fill-opacity:1;fill-rule:nonzero;stroke:none;stroke-width:2.19804px;marker:none;enable-background:accumulate"
       d="m 2010.5808,253.24114 c -77.3477,0.57764 -155.554,5.65984 -229.7825,24.64317 -36.5687,9.63824 -72.3009,24.97263 -97.2227,49.61566 -24.962,26.3162 -37.9263,61.04638 -31.5151,94.29848 7.1284,22.69217 28.0632,40.7371 51.922,52.59014 36.3228,18.76451 79.0297,26.49634 120.9996,31.20915 57.3305,5.94878 115.0652,8.77904 172.7735,10.74449 84.9864,1.6429 171.781,-1.92739 252.7708,-25.0099 33.2464,-9.51231 65.9841,-22.11065 92.4271,-41.59445 14.3485,-10.7523 27.1174,-24.53129 29.3007,-40.88779 2.4459,-16.44999 -2.0993,-33.02892 -8.4816,-48.54543 -11.1811,-25.70109 -33.4711,-47.93339 -61.9841,-61.85282 -43.8074,-22.2365 -94.6807,-32.67362 -145.1326,-38.74027 -48.3523,-5.67081 -97.3034,-6.69158 -146.0751,-6.47043 z"
       id="path5026-3"
       inkscape:connector-curvature="0"
       sodipodi:nodetypes="csssc" />
    <path
       style="color:#000000;display:inline;overflow:visible;visibility:visible;fill:#ffffff;fill-opacity:1;fill-rule:nonzero;stroke:none;stroke-width:0.911215px;marker:none;enable-background:accumulate"
       d="m 1551.2199,908.91728 c -29.6859,0.0609 -60.1868,5.45924 -85.9037,20.96152 -13.0276,7.65903 -23.8089,19.17214 -29.9691,33.02507 -12.6644,27.44384 -8.4084,60.90533 8.1581,85.77703 11.7127,18.1163 30.1475,31.2304 50.4391,38.1314 30.2496,10.2245 62.4475,12.8118 94.1888,13.184 29.0356,-0.026 58.6264,0.2779 86.7903,-7.7905 15.1593,-4.3568 29.9806,-11.275 41.1688,-22.6492 13.7739,-13.4338 22.5391,-31.7331 24.5681,-50.853 3.1717,-25.32706 -4.8769,-52.36124 -23.276,-70.40922 -19.1194,-19.63649 -45.7217,-30.31137 -72.4748,-34.30462 -30.9375,-5.25812 -62.4289,-4.71539 -93.6896,-5.07248 z"
       id="path4040-40"
       inkscape:connector-curvature="0"
       sodipodi:nodetypes="zssssz" />
    <path
       style="color:#000000;display:inline;overflow:visible;visibility:visible;fill:#ffffff;fill-opacity:1;fill-rule:nonzero;stroke:none;stroke-width:0.999998px;marker:none;enable-background:accumulate"
       d="m 496.15677,1011.893 c 34.73321,-33.49717 31.89314,-53.50347 31.44376,-68.11357 -4.7651,-0.9949 -12.85059,-4.2577 -12.85059,-4.2577 0,0 1.90835,-28.8086 -1.17233,-39.94541 -3.08071,-11.13686 -17.53582,-8.20897 -17.53582,-8.20897 0,0 -5.18065,55.93348 -10.00914,67.69208 13.18767,2.2293 19.31591,4.9084 24.41808,3.8748 3.16059,8.1805 -2.4061,36.7502 -14.29396,48.95877 z"
       id="path4456-3"
       inkscape:connector-curvature="0" />
    <path
       style="color:#000000;display:inline;overflow:visible;visibility:visible;fill:#ffffff;fill-opacity:1;fill-rule:nonzero;stroke:none;stroke-width:0.82497px;marker:none;enable-background:accumulate"
       d="m 1179.0436,2284.5166 c -31.5386,0.7074 -64.1766,3.6343 -92.6114,17.9162 -20.7858,10.6401 -37.8409,30.1846 -40.779,53.2201 -1.932,25.2833 16.356,49.5506 40.5953,58.1016 20.3425,7.6622 42.3323,9.4466 63.2443,15.1523 72.1791,15.4505 146.7824,18.2387 220.3609,13.0916 35.568,-2.871 70.9822,-8.9826 104.9613,-19.646 20.5977,-7.025 41.3878,-16.5876 55.5632,-33.1767 14.0646,-17.9456 12.8716,-45.3087 -2.8979,-61.9371 -12.7415,-14.6221 -32.0779,-21.413 -50.6561,-26.1501 -33.2659,-8.6471 -67.8476,-10.4088 -102.0386,-12.923 -65.1677,-3.7595 -130.4856,-3.6576 -195.742,-3.6489 z"
       id="path4546-6-21"
       inkscape:connector-curvature="0"
       sodipodi:nodetypes="cssssc" />
    <path
       style="color:#000000;display:inline;overflow:visible;visibility:visible;fill:#ffffff;fill-opacity:1;fill-rule:nonzero;stroke:none;stroke-width:0.754264px;marker:none;enable-background:accumulate"
       d="m 651.19621,2264.4735 c -36.70777,0.4195 -74.30993,7.9195 -101.46452,23.9933 -29.45964,18.5991 -45.46763,44.486 -49.06734,70.4587 -6.17111,31.9468 10.24275,65.2421 43.53573,89.5198 20.65218,12.8709 48.51558,19.2342 75.07815,25.6122 43.62405,10.0461 91.58932,11.8895 137.02916,6.1314 33.0722,-3.555 66.17356,-11.9359 89.5001,-27.6596 19.109,-13.1537 26.99242,-31.1571 29.58502,-48.5717 2.9588,-21.4211 0.2987,-42.9932 -4.29983,-64.242 -4.09506,-16.3835 -13.63091,-32.8352 -32.37176,-44.8199 -16.86189,-11.1214 -39.92351,-17.3173 -63.05075,-21.305 -26.44646,-4.5281 -53.76536,-6.5822 -80.98325,-8.1954 -14.46869,-0.6892 -28.98115,-1.0093 -43.49071,-0.9218 z"
       id="path4546-6-21-2"
       inkscape:connector-curvature="0"
       sodipodi:nodetypes="cssssc" />
    <path
       style="color:#000000;display:inline;overflow:visible;visibility:visible;fill:#ffffff;fill-opacity:1;fill-rule:nonzero;stroke:none;stroke-width:1.27397px;marker:none;enable-background:accumulate"
       d="m 452.54194,1891.1682 c -26.87946,-0.1843 -54.18862,-1.2113 -80.6374,8.2206 -15.52269,5.503 -30.78203,16.4906 -40.89809,34.6389 -11.78415,20.7888 -14.46674,49.4611 -9.85917,74.2333 2.17318,11.4957 5.68796,22.5261 10.5648,32.1648 5.31763,10.2673 12.86951,18.2476 21.59313,21.9272 25.00827,13.3419 52.06116,17.2374 78.77532,19.3922 27.97174,1.912 56.05865,1.5576 84.09812,-0.5068 23.6893,-2.2076 47.7349,-6.821 69.95242,-19.9956 13.45129,-8.3042 26.38715,-21.1158 33.39074,-39.8433 9.74849,-25.8894 8.67008,-59.5895 -4.20583,-82.094 -10.36451,-17.2808 -25.93727,-26.0068 -41.24246,-31.5062 -25.29123,-8.935 -51.5432,-11.2556 -77.56699,-14.0389 -14.62306,-1.3934 -29.27235,-2.6936 -43.96459,-2.5922 z"
       id="path4546-6-21-1"
       inkscape:connector-curvature="0"
       sodipodi:nodetypes="cssssc" />
    <path
       style="color:#000000;display:inline;overflow:visible;visibility:visible;fill:#ffffff;fill-opacity:1;fill-rule:nonzero;stroke:none;stroke-width:0.904176px;marker:none;enable-background:accumulate"
       d="m 491.738,2164.1683 c 3.55244,-71.0132 53.27164,-123.9612 183.70324,-113.364 69.86626,5.6756 149.17398,8.6928 144.77983,112.7039 -4.39423,104.0113 -118.355,103.7419 -141.85904,106.6668 -23.50411,2.9265 -146.09666,-5.3872 -167.78561,-40.28 -13.57683,-21.8419 -19.05825,-43.7527 -18.83842,-65.7267 z"
       id="path4546-6-21-1-9"
       inkscape:connector-curvature="0"
       sodipodi:nodetypes="cssssc" />
    <path
       style="color:#000000;display:inline;overflow:visible;visibility:visible;fill:#ffffff;fill-opacity:1;fill-rule:nonzero;stroke:none;stroke-width:1.24077px;marker:none;enable-background:accumulate"
       d="m 1345.5577,1905.2595 c -29.6094,0.4582 -60.1024,3.1632 -87.2954,17.1764 -13.4561,7.0164 -25.9056,19.5093 -29.0369,36.1571 -2.1604,16.5978 7.9234,32.6541 21.0296,39.8816 13.4903,7.4302 28.7126,9.125 43.3232,12.2488 50.9045,8.8731 102.8041,12.5507 154.2038,7.2714 18.0086,-2.1389 36.6396,-5.7216 52.105,-16.7585 9.7407,-7.2007 16.6107,-19.0016 17.8713,-31.9393 1.9147,-14.8825 -3.1305,-31.5687 -15.0592,-39.759 -15.2724,-11.4438 -34.0789,-14.0896 -51.923,-16.8855 -31.3178,-4.3915 -62.8816,-6.3032 -94.4218,-7.3341 -3.5986,-0.069 -7.1976,-0.078 -10.7966,-0.059 z"
       id="path4546-6-21-1-9-4"
       inkscape:connector-curvature="0"
       sodipodi:nodetypes="cssssc" />
    <path
       style="color:#000000;display:inline;overflow:visible;visibility:visible;fill:#ffffff;fill-opacity:1;fill-rule:nonzero;stroke:none;stroke-width:0.96193px;marker:none;enable-background:accumulate"
       d="m 1217.0653,1985.7656 c -48.72,0.882 -98.2182,2.8713 -145.1541,18.4889 -16.7841,6.8173 -29.3374,22.7322 -35.6945,40.6654 -10.5597,27.1823 -9.0909,60.755 7.3726,84.8351 9.6728,13.9915 24.9653,22.1407 40.5818,24.9674 20.6129,4.8894 41.5345,8.1831 62.4995,10.6435 37.7541,3.8894 75.7096,2.0101 113.5403,1.0065 54.1568,-0.3976 108.4394,2.4619 162.4735,-2.8587 20.189,-1.8225 40.4778,-3.8181 60.2654,-8.678 26.1011,-8.9227 46.4535,-36.1747 47.4467,-66.2485 1.4018,-24.676 -9.4442,-49.1571 -26.8658,-64.6853 -22.3692,-21.3445 -51.9346,-31.1597 -80.9693,-35.023 -38.4737,-4.6848 -77.1542,0.8942 -115.7178,-0.9675 -29.9261,-0.7004 -59.8367,-2.493 -89.7783,-2.1458 z"
       id="path4546-6-21-1-9-4-7"
       inkscape:connector-curvature="0"
       sodipodi:nodetypes="cssssc" />
    <path
       style="color:#000000;display:inline;overflow:visible;visibility:visible;fill:#ffffff;fill-opacity:1;fill-rule:nonzero;stroke:none;stroke-width:1.14709px;marker:none;enable-background:accumulate"
       d="m 1005.12,3066.8417 c 5.7267,-41.6532 61.8615,-70.7879 205.3078,-59.2238 76.8376,6.1939 164.1463,11.2087 156.65,72.2502 -7.4964,61.0415 -133.0578,56.2289 -159.0305,56.9907 -25.9729,0.7627 -160.8399,-9.1373 -183.8475,-30.561 -14.4023,-13.4105 -19.8828,-26.5311 -19.0798,-39.4561 z"
       id="path4546-6-21-1-9-4-7-8"
       inkscape:connector-curvature="0"
       sodipodi:nodetypes="cssssc" />
    <path
       style="color:#000000;display:inline;overflow:visible;visibility:visible;fill:#ffffff;fill-opacity:1;fill-rule:nonzero;stroke:none;stroke-width:0.624175px;marker:none;enable-background:accumulate"
       d="m 2225.7983,3151.2322 c 1.6004,-29.4598 24.0001,-51.4252 82.7628,-47.029 31.4764,2.3544 67.2066,3.6062 65.2269,46.7553 -1.9798,43.1489 -53.3219,43.0372 -63.9111,44.2506 -10.5891,1.2141 -65.82,-2.2349 -75.5915,-16.7102 -6.1167,-9.061 -8.5862,-18.1508 -8.4871,-27.2667 z"
       id="path4546-6-21-1-9-4-7-8-4"
       inkscape:connector-curvature="0"
       sodipodi:nodetypes="cssssc" />
    <path
       style="color:#000000;display:inline;overflow:visible;visibility:visible;fill:#ffffff;fill-opacity:1;fill-rule:nonzero;stroke:none;stroke-width:1px;marker:none;enable-background:accumulate"
       d="m 1284.7327,2502.3184 c -35.7282,-19.4322 -47.354,-28.3515 -44.071,-75.6186 3.2834,-47.2663 -14.2412,-48.0483 -14.2412,-48.0483 l -19.1468,25.8436 c 0,0 -0.01,101.2711 77.459,97.8233 z"
       id="path3072-56-6"
       inkscape:connector-curvature="0" />
    <path
       style="color:#000000;display:inline;overflow:visible;visibility:visible;fill:#ffffff;fill-opacity:1;fill-rule:nonzero;stroke:none;stroke-width:1px;marker:none;enable-background:accumulate"
       d="m 1468.6848,2848.0015 c 26.25,171.1132 -108.5575,232.9592 -156.9646,205.9986 -41.3932,-23.0541 -36.6132,25.372 -36.6132,25.372 0,0 -184.8377,-79.9742 -48.5243,-12.9007 136.3134,67.0735 295.373,-29.4851 242.1021,-218.4699 z"
       id="path3072-56-6-7"
       inkscape:connector-curvature="0"
       sodipodi:nodetypes="csczc" />
    <path
       style="color:#000000;display:inline;overflow:visible;visibility:visible;fill:#ffffff;fill-opacity:1;fill-rule:nonzero;stroke:none;stroke-width:1.45653px;marker:none;enable-background:accumulate"
       d="m 1614.3453,757.40053 c -44.3515,0.86526 -88.6269,3.58573 -132.9794,4.48299 -19.1925,0.62196 -38.5903,0.0262 -57.4863,3.51014 -25.6512,4.31918 -51.0077,13.30038 -70.0715,29.02405 -20.4669,17.4464 -30.7581,44.10691 -23.5537,68.40731 8.354,31.51403 39.4253,57.2258 76.0109,64.15009 37.7673,9.19976 77.0934,11.87233 116.0514,14.64772 51.3017,2.71002 103.2805,3.36655 153.943,-5.1805 30.8652,-5.37305 61.9989,-12.62287 88.9291,-27.1101 22.0862,-12.95287 34.1489,-36.15118 34.0098,-58.81308 1.2508,-21.61 -7.1809,-44.44698 -26.3505,-59.07887 -21.3204,-17.08795 -49.8786,-25.62943 -78.1771,-29.71727 -26.5188,-3.81306 -53.4883,-4.52487 -80.3257,-4.32248 z"
       id="path4546-3"
       inkscape:connector-curvature="0"
       sodipodi:nodetypes="cssssc" />
    <path
       style="color:#000000;display:inline;overflow:visible;visibility:visible;fill:#ffffff;fill-opacity:1;fill-rule:nonzero;stroke:none;stroke-width:0.999998px;marker:none;enable-background:accumulate"
       d="m 2200.3678,3236.6589 c 19.412,3.2287 21.8531,2.1451 26.087,-6.1508 4.2336,-8.2965 7.4345,-21.3989 24.2674,-27.0612 16.8328,-5.6629 26.4772,-1.2243 33.0349,1.2943 -1.1679,-11.6566 8.131,-31.9623 0.9277,-37.4845 -7.2032,-5.5223 17.0343,2.8574 17.0343,2.8574 0,0 12.1095,28.3527 3.5098,41.2194 -8.5996,12.8666 -35.9866,3.6351 -48.1953,5.9287 -12.2087,2.2936 -17.7187,20.2054 -26.9698,23.8183 -9.2511,3.6136 -20.9523,-1.0637 -29.696,-4.4216 z"
       id="path4538-7-1"
       inkscape:connector-curvature="0"
       sodipodi:nodetypes="ccscccsscc" />
    <path
       style="fill:#ffffff;fill-rule:evenodd;stroke:none;stroke-width:0.989952px;stroke-linecap:butt;stroke-linejoin:miter;stroke-opacity:1"
       d="m 563.82903,2553.7899 c 63.64415,46.5419 99.6802,37.8628 99.27382,22.0538 -0.73279,-28.5061 -23.68426,-45.5161 -20.14693,-49.7569 56.87331,-68.1838 45.61583,-44.4564 42.02712,-78.3168 -3.58863,-33.8596 -32.82515,9.9982 -43.47048,25.9957 -10.64526,15.9984 -23.23393,28.0821 -24.13067,46.0989 -0.89678,18.0167 30.31994,32.2197 26.20251,52.3883 -4.11738,20.1676 -79.75537,-18.463 -79.75537,-18.463 z"
       id="path4324-2"
       inkscape:connector-curvature="0"
       sodipodi:nodetypes="cssssssc" />
    <path
       style="fill:#ffffff;fill-rule:evenodd;stroke:none;stroke-width:1px;stroke-linecap:butt;stroke-linejoin:miter;stroke-opacity:1"
       d="m 1641.3607,1592.1712 c 22.6649,-9.5896 43.3488,-24.3392 44.2472,-33.5648 0.8985,-9.2259 -11.1673,-38.3407 15.3399,-36.3802 44.753,7.0521 59.1413,-17.435 71.8681,-40.1028 -10.4456,44.0867 -37.326,59.8862 -66.9409,56.1082 -20.4331,0.5043 27.1628,20.802 -14.1238,65.6767 -34.0791,18.4121 -50.3905,-11.7371 -50.3905,-11.7371 z"
       id="path1085"
       inkscape:connector-curvature="0"
       sodipodi:nodetypes="csccccc" />
    <path
       style="display:inline;fill:#ffffff;fill-rule:evenodd;stroke:none;stroke-width:1px;stroke-linecap:butt;stroke-linejoin:miter;stroke-opacity:1"
       d="m 602.38281,413.81836 c -16.46145,0.69234 -32.53906,10.64863 -39.37482,25.82696 -1.5098,2.80001 -5.28273,3.60587 -7.9531,2.02233 -5.98863,-2.1906 -11.2243,-5.98508 -17.1572,-8.31055 -9.42582,-4.50612 -18.97461,-9.76783 -29.57769,-10.58241 -9.00662,0.914 -17.21994,8.38612 -18.31844,17.45517 0.90457,4.28518 5.9133,5.81752 9.78437,5.505 14.04596,1.22391 26.26568,8.99968 37.96354,16.2261 7.48461,4.90408 17.2879,7.91388 25.94154,4.3397 8.81339,-3.63103 14.02032,-12.22106 18.30372,-20.27104 3.62722,-6.5902 7.0618,-13.9609 13.65799,-18.08996 6.18392,-3.01805 13.32935,-0.5356 18.89819,2.69485 6.80555,3.74446 18.82609,7.48219 26.68995,6.1183 5.30212,-0.83429 11.53306,0.83552 40.82961,-10.13109 -31.99063,6.29792 -54.18708,-2.32452 -64.55229,-8.18195 -4.64584,-2.56145 -9.72444,-4.75296 -15.13537,-4.62141 z"
       id="path1090"
       inkscape:connector-curvature="0"
       sodipodi:nodetypes="cscsccsssssscccc" />
    <path
       style="display:inline;fill:#ffffff;fill-rule:evenodd;stroke:none;stroke-width:1px;stroke-linecap:butt;stroke-linejoin:miter;stroke-opacity:1"
       d="m 1617.1958,451.27144 c -12.9658,3.52999 -22.7273,13.2725 -33.0295,21.31481 -10.56,8.22528 -23.222,15.13886 -36.9698,14.8702 -12.354,-0.48323 -23.8452,-5.64876 -34.869,-10.8028 4.8969,5.51905 11.4884,9.07502 17.4852,13.22715 9.8915,6.03376 21.2993,11.19668 33.1646,9.85413 13.7356,-1.82473 25.2428,-10.16894 36.6713,-17.35003 9.2631,-5.89601 19.3995,-11.88555 30.7279,-11.84241 11.2199,0.46193 21.09,7.36067 28.069,15.7517 16.1165,16.07554 40.6983,22.00557 62.7241,17.44391 18.4525,-3.77253 34.5407,-14.70036 48.0397,-27.44861 7.4725,-7.02323 14.7519,-14.32675 21.1143,-22.37986 2.8972,-4.06459 5.7878,-8.70444 5.7898,-13.83941 -1.3294,-7.64777 -9.2775,-12.55259 -16.6906,-12.40095 -15.99,-1.92544 -32.0375,9.08542 -37.0028,24.21972 -6.8813,13.76612 -18.3165,26.13815 -33.3597,30.75119 -13.1078,4.184 -28.2984,-0.43593 -37.2218,-10.81739 -8.1607,-7.6165 -16.4492,-16.15889 -27.6395,-18.99131 -8.68,-2.75282 -18.0697,-3.47368 -27.0032,-1.56004 z"
       id="path1090-9"
       inkscape:connector-curvature="0"
       sodipodi:nodetypes="cscsccsssssscccccc" />
    <path
       style="display:inline;fill:#ffffff;stroke:none;stroke-width:0.99135"
       d="m 1547.4141,1550.2764 c -17.67,0.1166 -35.4329,-0.07 -52.9368,3.292 -19.8455,3.7615 -39.4884,10.8354 -56.9828,22.906 -18.6005,12.8062 -34.0149,33.3542 -40.6004,58.1366 -3.1628,11.5442 -3.6782,24.1008 -1.1535,35.8965 4.3888,21.7063 17.2832,40.5391 34.0359,50.0978 19.5973,12.8338 42.3897,15.7674 64.3587,15.63 42.4852,1.7866 85.0497,2.4618 127.5088,-0.5599 24.7199,-1.5475 50.1179,-5.003 72.5165,-18.5957 15.7195,-9.6892 28.7409,-27.3953 31.8592,-48.7269 5.6837,-34.942 -10.2089,-72.4285 -36.0792,-89.0728 -23.0999,-15.9276 -49.7016,-22.1458 -75.8476,-25.8622 -22.1291,-2.9982 -44.4342,-3.3164 -66.6788,-3.1414 z"
       id="path3280-8-3"
       inkscape:connector-curvature="0"
       sodipodi:nodetypes="csssc" />
    <path
       style="fill:#ffffff;fill-rule:evenodd;stroke:none;stroke-width:1.2056px;stroke-linecap:butt;stroke-linejoin:miter;stroke-opacity:1"
       d="m 365.06453,759.5608 c -38.44637,1.79515 -77.08703,2.66681 -115.16367,7.95082 -17.01918,3.09291 -34.61435,6.90855 -48.64618,16.1815 -12.09786,10.44655 -20.55743,23.50187 -28.09524,36.60688 -6.46508,14.74002 -4.78896,30.97601 -0.9048,46.04545 2.78184,13.89024 9.16596,28.04855 22.10263,37.26767 13.38343,10.7655 29.90793,20.01048 48.64762,21.18155 17.9525,1.20679 35.96388,-0.23472 53.93568,0.45828 84.70604,0.13516 169.667,0.71935 253.99954,-7.12753 13.71239,-1.85695 26.66893,-8.77888 33.57911,-19.26913 7.81269,-9.54595 16.61556,-19.57176 17.48036,-31.6715 0.97303,-11.36805 0.0608,-22.77495 0.10171,-34.15923 -0.30031,-7.3192 0.40516,-14.82565 -1.94102,-21.94938 -2.71209,-8.29822 -9.0126,-15.33835 -16.53273,-20.88675 -15.35373,-12.17325 -35.583,-18.96153 -56.07746,-21.42492 -36.35745,-5.90031 -73.34867,-8.4944 -110.31869,-8.93815 -17.3865,-0.30084 -34.77763,-0.27893 -52.16678,-0.26556 z"
       id="path1299"
       inkscape:connector-curvature="0" />
    <path
       style="fill:#ffffff;fill-opacity:1;fill-rule:evenodd;stroke:none;stroke-width:1.13684px;stroke-linecap:butt;stroke-linejoin:miter;stroke-opacity:1"
       d="m 907.78569,914.54304 c -9.25741,0.98603 -16.22067,8.0351 -21.28173,15.12565 -4.60703,5.85846 -12.79468,7.05769 -19.88915,6.92088 -9.69401,0.25207 -17.78674,7.00494 -22.80539,14.6476 -2.93961,4.03665 -3.81488,9.09725 -3.54766,13.95221 -0.54436,7.58609 -6.52669,13.56617 -7.32035,21.06236 0.17269,7.26156 7.08074,11.9766 8.52614,18.87026 1.50688,5.135 2.36895,11.3527 7.33685,14.4964 6.98759,3.6245 15.66106,-0.2561 22.45896,4.0343 4.88932,3.3328 9.04759,7.6049 13.84013,11.0819 5.03607,3.9413 10.8853,6.8545 17.18692,8.262 14.33781,3.794 29.32436,1.0442 43.4892,-2.1225 19.55179,-4.0593 39.51,-6.2103 59.49549,-6.3903 5.92,-0.4073 11.0571,-3.5738 15.8096,-6.7712 5.4222,-3.2335 11.9937,-5.0519 18.3064,-3.6068 6.5612,0.8553 13.8148,2.8384 20.0088,-0.4478 8.2637,-5.4081 11.6431,-15.0015 16.2783,-23.1403 3.7022,-6.96734 7.854,-14.74871 6.0744,-22.83954 -2.486,-6.68517 -9.8015,-9.40936 -14.8583,-13.84209 -8.5709,-8.62323 -7.5244,-22.21988 -15.5418,-31.17911 -7.7263,-8.85292 -20.161,-12.32256 -31.7278,-12.02375 -8.9784,0.20845 -17.659,2.94419 -25.75158,6.58001 -6.05341,2.08682 -13.57091,1.83929 -18.35119,-2.80941 -4.74748,-3.67066 -10.49955,-7.59214 -16.8936,-6.28856 -8.90671,1.07658 -16.72587,7.56083 -25.99944,6.18862 -9.05481,-1.3188 -15.33601,-10.08403 -24.8432,-9.76083 z"
       id="path4367-3"
       inkscape:connector-curvature="0"
       sodipodi:nodetypes="ccccccccccccccccccccccc" />
    <path
       style="color:#000000;display:inline;overflow:visible;visibility:visible;fill:#ffffff;fill-opacity:1;fill-rule:nonzero;stroke:none;stroke-width:1px;marker:none;enable-background:accumulate"
       d="m 925.04404,987.51508 c 0.43093,17.40692 10.57358,33.58462 24.60302,43.46732 4.0486,3.4474 7.8177,7.2049 11.522,11.0151 -9.5441,6.7343 -21.87387,8.4934 -30.69728,16.3868 -3.00333,7.8153 2.07856,16.9291 9.5442,19.9766 7.90108,4.1347 17.55078,5.3387 23.93238,12.0527 5.8472,7.0001 1.9231,19.0861 -6.6504,21.789 -11.2727,5.778 -17.95023,20.1486 -13.54258,32.3069 4.13098,10.8528 14.58748,18.0402 25.44518,21.0937 5.2942,1.6139 10.7387,2.647 16.1286,3.8787 -10.8778,-5.5071 -22.4207,-11.1561 -29.8066,-21.25 -5.866,-8.2804 -2.1755,-21.8742 7.6733,-25.1751 6.0663,-1.8597 13.149,-3.1903 17.0207,-8.7544 8.18221,-11.235 4.0413,-29.3207 -8.5309,-35.4929 -6.8306,-3.5643 -14.777,-5.4022 -20.3877,-10.9819 -1.6954,-3.9526 2.6275,-8.2401 6.5884,-7.513 7.4263,-1.7714 15.8041,-2.1777 21.7723,-7.5012 4.4591,-5.1824 3.2488,-13.2448 -0.7338,-18.3354 -8.0405,-15.3899 -15.424,-31.1229 -23.8906,-46.28912 -6.1584,-1.4328 -12.54059,-0.9451 -18.78997,-1.6404 -3.73928,-0.2117 -7.47855,-0.4233 -11.21782,-0.635 0.006,0.5339 0.0117,1.0677 0.0176,1.6016 z"
       id="path5058"
       inkscape:connector-curvature="0"
       sodipodi:nodetypes="cscsssssccsssccsccccc" />
    <path
       style="display:inline;fill:#ffffff;stroke:none;stroke-width:1"
       d="m 1571.4018,1191.6392 c 13.4807,-8.3202 19.4484,-23.3927 17.65,-33.0755 -8.8182,-22.1676 -14.651,-36.255 -2.7595,-61.9827 4.6158,-9.7523 4.136,-55.5565 4.136,-55.5565 0,0 -27.4173,28.8158 -35.0946,40.6428 -7.678,11.8285 -3.0663,7.9917 -4.8155,13.4555 -1.7483,5.4625 -1.3553,24.9485 0.8987,35.296 4.6362,17.6704 24.7701,36.2388 6.7072,51.624 -38.2054,28.7903 -15.6246,82.4307 39.9278,44.9299 -67.6745,16.2702 -41.7605,-26.0079 -26.6503,-35.3336 z"
       id="path3023-0"
       inkscape:connector-curvature="0"
       sodipodi:nodetypes="scccsscccss" />
    <path
       style="display:inline;fill:#ffffff;fill-rule:evenodd;stroke:none;stroke-width:1px;stroke-linecap:butt;stroke-linejoin:miter;stroke-opacity:1"
       d="m 464.88133,1910.6914 c -28.8926,-2.0653 -70.7911,12.6625 -46.4898,55.1642 -53.0586,-27.852 -127.5213,-37.8514 -145.041,8.545 -2.9485,-56.7468 -38.5111,-41.338 -67.8631,-27.673 27.9346,-23.2981 -23.4398,-34.7771 -50.9437,-35.2783 56.996,-50.2966 26.119,-64.931 2.7943,-82.6311 57.4315,11.9803 42.9826,-15.1235 49.4459,-30.8559 49.812,33.8557 85.2527,24.5077 112.648,-9.0266 15.1349,17.4028 20.6066,54.0871 73.5776,-4.0088 -18.8313,49.4071 7.2124,43.5524 49.0134,18.2945 -6.2541,16.8237 -45.124,43.2233 21.271,38.72 -41.1448,16.9717 -49.3548,38.642 1.5874,68.75 z"
       id="path4584-8"
       inkscape:connector-curvature="0"
       sodipodi:nodetypes="cccccccccccc" />
    <path
       style="fill:#ffffff;fill-rule:evenodd;stroke:none;stroke-width:0.999993px;stroke-linecap:butt;stroke-linejoin:miter;stroke-opacity:1"
       d="m 1088.4402,1861.1551 c 12.6082,4.62 30.6985,12.1275 32.8912,20.213 2.1928,8.0848 13.7047,23.1004 9.8674,36.3833 -3.8373,13.2822 -14.8011,26.5651 -25.2166,34.0733 -10.4157,7.5075 -30.1504,13.2822 -42.7587,14.4376 -12.6083,1.1553 -44.9513,-6.9301 -54.2706,-4.6201 -9.3192,2.31 -43.30683,3.4647 -60.30065,-2.31 -16.99383,-5.7755 -36.1804,-27.1432 -38.92135,-40.4262 -2.74096,-13.2829 9.31917,-39.848 11.51191,-46.7781 2.1928,-6.9308 11.51198,-9.2409 11.51198,-9.2409 26.0186,-3.9635 117.34611,-7.6933 155.68541,-1.7319 z"
       id="path1099"
       inkscape:connector-curvature="0"
       sodipodi:nodetypes="ccccccccccc" />
    <path
       style="color:#000000;display:inline;overflow:visible;visibility:visible;fill:#ffffff;fill-opacity:1;fill-rule:nonzero;stroke:none;stroke-width:1.12476px;marker:none;enable-background:accumulate"
       d="m 1477.7542,2060.3799 c -7.508,8.5129 -15.6383,16.8851 -25.9816,22.9873 -8.668,-1.1612 -14.6536,-9.2749 -12.5583,-16.592 -14.3071,2.578 -23.5657,13.3823 -35.8604,19.3307 -18.873,10.8956 -40.0698,20.2795 -62.9447,21.4672 -21.2209,-3.0762 -37.2419,-21.2925 -34.9439,-39.7459 -6.2615,-0.5351 -10.2639,4.7872 -12.7049,9.0018 -7.0964,7.6974 -14.4396,16.1096 -25.3932,19.8914 -9.7603,-0.489 -16.1309,-11.0051 -11.0051,-18.293 -2.8595,-3.3632 -9.0193,-0.7446 -10.342,2.6431 -15.2408,11.2345 -31.0218,23.3061 -50.8113,27.8289 -22.834,3.4981 -45.5924,-2.5993 -65.6663,-10.9406 -4.8201,-1.7279 -9.8732,-2.9398 -14.8605,-4.2834 -8.2404,8.5261 -10.3551,20.8217 -21.4137,27.4368 -11.9587,6.974 -27.2371,8.6859 -40.951,6.1688 -6.8484,2.5643 -7.1373,9.7194 -10.5628,14.565 -9.1681,12.3496 -26.434,18.6086 -42.82024,19.3808 -6.55216,0.9112 -13.10444,1.8224 -19.65661,2.7336 12.37596,5.319 26.00665,8.821 37.04835,16.1406 -3.4552,7.6088 -13.529,10.6732 -22.17509,11.6064 -17.33785,1.7146 -34.85386,1.3905 -52.08355,4.185 -3.055,0.3244 -6.11049,0.6527 -9.14939,1.0967 32.4922,2.4316 65.08215,6.9836 95.19453,17.5235 6.0162,10.6685 -4.5034,24.7702 -18.1286,25.9603 -7.4279,3.2499 -14.85555,6.4998 -22.28324,9.7498 18.01614,-0.4232 36.29244,-2.0447 54.03204,0.9065 11.3058,12.3838 8.1013,32.551 -6.6414,42.594 0.9307,3.9567 7.2429,3.6086 10.2132,1.4397 14.2442,-2.9304 30.1253,-4.7717 43.4508,1.0545 20.7139,11.4343 32.0422,31.1476 50.7309,44.4849 1.5268,1.1452 3.1633,3.296 5.2386,3.1469 16.4457,-25.3263 54.1596,-38.2624 85.9691,-30.9347 10.7847,1.9264 20.9726,5.5234 30.9986,9.2439 14.1198,-3.9588 23.6124,-15.5282 38.2065,-18.59 15.4182,-5.3862 33.4853,-7.5655 48.776,-1.6731 8.3432,4.881 12.7712,13.5796 22.103,17.3912 9.1351,-2.0818 11.9328,-11.2005 19.7976,-14.9502 18.7701,-12.1147 45.4371,-12.474 65.0803,-2.9877 7.403,1.9995 14.7653,-2.4021 19.6215,-6.981 16.5469,-11.4832 38.2284,-15.0544 58.7222,-15.7653 6.2458,-0.2275 12.4878,-0.1147 18.7231,0.014 1.5877,-3.9257 -3.4603,-6.1488 -6.0649,-8.4773 -6.2774,-4.6611 -12.8443,-11.1037 -11.3153,-18.8857 1.9869,-10.1291 12.8912,-17.1129 23.6957,-20.1653 6.9187,-2.2053 14.1328,-3.6927 20.8466,-6.3905 -6.6442,-5.119 -15.0722,-8.0903 -22.3412,-12.4782 -7.1086,-3.923 -14.4869,-7.9626 -20.2144,-13.2245 -0.5407,-11.3373 10.1628,-21.4029 22.377,-24.8235 5.6589,-3.0442 11.2106,-6.2998 16.1049,-10.2275 -13.3161,-1.4395 -27.3436,-2.1748 -39.1078,-8.0298 -7.3974,-11.4388 -4.4473,-26.4406 4.8053,-36.8777 0.8357,-2.6675 -3.1309,-3.493 -5.4309,-2.8675 -14.3318,-0.3151 -29.8977,-0.6853 -41.7555,-8.1486 -12.0674,-8.7341 -15.6903,-23.3326 -14.089,-36.5244 0.4971,-4.9241 1.6304,-9.9041 0.742,-14.8133 -1.0737,1.2326 -2.1473,2.465 -3.221,3.6977 z"
       id="path3549-3-7-5"
       inkscape:connector-curvature="0"
       sodipodi:nodetypes="cccccccccccccccccccc" />
    <path
       style="color:#000000;display:inline;overflow:visible;visibility:visible;fill:#ffffff;fill-opacity:1;fill-rule:nonzero;stroke:none;stroke-width:1.37219px;marker:none;enable-background:accumulate"
       d="m 1204.2522,3108.4019 c -66.8246,1.0127 -134.422,2.3026 -199.481,13.293 -24.92496,4.504 -49.23837,13.6969 -62.69343,28.54 -19.8174,20.9979 -20.75151,48.1413 -6.41073,70.6368 13.24493,21.7902 39.50846,40.9136 73.75836,48.9857 45.0476,10.5885 93.5859,10.9262 140.8896,11.303 26.9647,0.09 53.9204,0.5429 80.8801,0.8295 76.3206,0.5215 152.9788,-3.0065 227.7773,-13.2119 19.174,-3.132 38.2552,-9.7458 48.5782,-21.1583 14.3105,-14.4665 19.5434,-31.6967 23.8282,-48.4189 2.9678,-15.0588 -1.1512,-31.1141 -14.769,-43.6735 -19.9123,-19.9832 -54.0089,-32.7789 -89.6357,-36.7438 -38.6467,-4.8818 -78.2024,-4.3959 -117.2469,-6.9623 -35.1018,-1.7278 -70.2402,-3.6794 -105.475,-3.4193 z"
       id="path3330-06"
       inkscape:connector-curvature="0"
       sodipodi:nodetypes="zsssssz" />
    <path
       style="color:#000000;display:inline;overflow:visible;visibility:visible;fill:#ffffff;fill-opacity:1;fill-rule:nonzero;stroke:none;stroke-width:1.22349px;marker:none;enable-background:accumulate"
       d="m 1282.3942,3249.8924 c -53.5203,0.7733 -107.6598,1.7584 -159.7658,10.1515 -19.9629,3.4395 -39.4357,10.4599 -50.2121,21.7952 -15.8717,16.0354 -16.6202,36.7641 -5.1344,53.9432 10.6079,16.6406 31.6427,31.2445 59.0737,37.409 36.0793,8.0861 74.954,8.344 112.8398,8.6317 21.5963,0.068 43.1855,0.4146 64.7778,0.6335 61.1257,0.3982 122.522,-2.296 182.4288,-10.0896 15.3567,-2.3918 30.6389,-7.4425 38.9066,-16.158 11.4616,-11.0476 15.6526,-24.2057 19.0842,-36.976 2.3771,-11.5 -0.922,-23.761 -11.8283,-33.3522 -15.9482,-15.2605 -43.2564,-25.0322 -71.7904,-28.0602 -30.9523,-3.728 -62.6329,-3.357 -93.9038,-5.3169 -28.1135,-1.3194 -56.2562,-2.8098 -84.4761,-2.6112 z"
       id="path3330-06-3"
       inkscape:connector-curvature="0"
       sodipodi:nodetypes="zsssssz" />
    <path
       style="color:#000000;display:inline;overflow:visible;visibility:visible;fill:#ffffff;fill-opacity:1;fill-rule:nonzero;stroke:none;stroke-width:1px;marker:none;enable-background:accumulate"
       d="m 1039.2669,1903.8172 c 12.9493,3.5313 53.5872,20.5771 12.2952,22.1787 58.4932,34.8788 36.4599,48.5856 29.0728,56.6372 16.1722,-2.9028 43.2767,3.6912 37.948,25.997 15.5796,-3.3105 37.1138,30.9541 46.9488,47.7121 5.4751,-22.5128 14.7633,-26.7531 33.5882,14.6671 -5.0222,-31.6407 -8.5325,-61.1815 35.5765,-24.5631 -1.3396,-11.6529 -37.505,-38.8648 55.2875,-27.1762 -32.7571,-19.6367 -52.8115,-40.7758 2.6164,-68.3558 -25.4958,-7.917 -44.0058,-20.0077 -15.9196,-44.1161 -24.7104,-4.752 -32.1598,-33.2989 -29.3536,-43.8776 -22.4857,21.5457 -39.1208,21.0346 -47.2071,-7.7103 -38.5962,48.8917 -38.9502,9.3578 -52.5793,1.7385 -9.2198,38.1114 -32.9734,21.426 -54.7012,14.9485 7.6586,43.5652 -27.838,29.7409 -53.5726,31.92 z"
       id="path3549-3-8"
       inkscape:connector-curvature="0"
       sodipodi:nodetypes="ccccccccccccccc" />
  </g>
  <g
     inkscape:groupmode="layer"
     id="layer1"
     inkscape:label="txt"
     style="display:inline">
    <text
       xml:space="preserve"
       style="font-style:normal;font-variant:normal;font-weight:normal;font-stretch:normal;font-size:45.3333px;line-height:125%;font-family:Lavi;-inkscape-font-specification:Lavi;text-align:center;letter-spacing:0px;word-spacing:0px;text-anchor:middle;fill:#000000;fill-opacity:1;stroke:none"
       x="352.83478"
       y="308.57437"
       id="text4246-70-2-2-2-7-4-9-6"><tspan
         sodipodi:role="line"
         style="font-size:45.3333px"
         x="352.83478"
         y="308.57437"
         id="tspan9933-2-7">Hmm...</tspan></text>
    <text
       xml:space="preserve"
       style="font-style:normal;font-variant:normal;font-weight:normal;font-stretch:normal;font-size:45.3333px;line-height:125%;font-family:Lavi;-inkscape-font-specification:Lavi;text-align:center;letter-spacing:0px;word-spacing:0px;text-anchor:middle;fill:#000000;fill-opacity:1;stroke:none"
       x="415.25522"
       y="407.0365"
       id="text4246-70-2-2-2-7-4-9"><tspan
         sodipodi:role="line"
         style="font-size:45.3333px"
         x="415.25522"
         y="407.0365"
         id="tspan9933-2">Entendo...</tspan></text>
    <text
       xml:space="preserve"
       style="font-style:normal;font-variant:normal;font-weight:normal;font-stretch:normal;font-size:45.3333px;line-height:125%;font-family:Lavi;-inkscape-font-specification:Lavi;text-align:center;letter-spacing:0px;word-spacing:0px;text-anchor:middle;fill:#000000;fill-opacity:1;stroke:none"
       x="2003.085"
       y="328.43054"
       id="text4246-70-2-2-2-7-4-9-7"><tspan
         sodipodi:role="line"
         style="font-size:45.3333px"
         x="2003.085"
         y="328.43054"
         id="tspan1083">... e você está aqui agora </tspan><tspan
         sodipodi:role="line"
         style="font-size:45.3333px"
         x="2003.085"
         y="385.09717"
         id="tspan1472">porque você quer lágrimas </tspan><tspan
         sodipodi:role="line"
         style="font-size:45.3333px"
         x="2003.085"
         y="441.76379"
         id="tspan1474">de Fênix para se curar, certo?</tspan></text>
    <text
       xml:space="preserve"
       style="font-style:normal;font-variant:normal;font-weight:normal;font-stretch:normal;font-size:45.3333px;line-height:125%;font-family:Lavi;-inkscape-font-specification:Lavi;text-align:center;letter-spacing:0px;word-spacing:0px;text-anchor:middle;fill:#000000;fill-opacity:1;stroke:none"
       x="388.54419"
       y="830.83826"
       id="text4246-70-2-2-2-7-4-9-9"><tspan
         sodipodi:role="line"
         style="font-style:normal;font-variant:normal;font-weight:bold;font-stretch:normal;font-size:45.3333px;font-family:Lavi;-inkscape-font-specification:'Lavi Bold'"
         x="388.54419"
         y="830.83826"
         id="tspan1476"><tspan
   style="font-weight:normal"
   id="tspan1405">Certo. É a </tspan>minha </tspan><tspan
         sodipodi:role="line"
         style="font-style:normal;font-variant:normal;font-weight:bold;font-stretch:normal;font-size:45.3333px;font-family:Lavi;-inkscape-font-specification:'Lavi Bold'"
         x="388.54419"
         y="887.50488"
         id="tspan1482">única opção.</tspan><tspan
         sodipodi:role="line"
         style="font-style:normal;font-variant:normal;font-weight:bold;font-stretch:normal;font-size:45.3333px;font-family:Lavi;-inkscape-font-specification:'Lavi Bold'"
         x="388.54419"
         y="944.17151"
         id="tspan1403" /></text>
    <text
       xml:space="preserve"
       style="font-style:normal;font-variant:normal;font-weight:normal;font-stretch:normal;font-size:45.3333px;line-height:125%;font-family:Lavi;-inkscape-font-specification:Lavi;text-align:center;letter-spacing:0px;word-spacing:0px;text-anchor:middle;fill:#000000;fill-opacity:1;stroke:none"
       x="956.3031"
       y="994.32025"
       id="text4246-70-2-2-2-7-4-9-9-3"><tspan
         sodipodi:role="line"
         style="font-style:italic;font-variant:normal;font-weight:normal;font-stretch:normal;font-size:45.3333px;font-family:Lavi;-inkscape-font-specification:'Lavi Italic'"
         x="956.3031"
         y="994.32025"
         id="tspan12869-7">*suspiro*</tspan><tspan
         sodipodi:role="line"
         style="font-style:italic;font-variant:normal;font-weight:normal;font-stretch:normal;font-size:45.3333px;font-family:Lavi;-inkscape-font-specification:'Lavi Italic'"
         x="956.3031"
         y="1050.9869"
         id="tspan1407" /></text>
    <text
       xml:space="preserve"
       style="font-style:normal;font-variant:normal;font-weight:normal;font-stretch:normal;font-size:45.3333px;line-height:125%;font-family:Lavi;-inkscape-font-specification:Lavi;text-align:center;letter-spacing:0px;word-spacing:0px;text-anchor:middle;fill:#000000;fill-opacity:1;stroke:none"
       x="1562.6672"
       y="832.2207"
       id="text4246-70-2-2-2-7-4-9-9-6-6"><tspan
         sodipodi:role="line"
         style="font-size:45.3333px"
         x="1562.6672"
         y="832.2207"
         id="tspan1488">...bem, o que você </tspan><tspan
         sodipodi:role="line"
         style="font-size:45.3333px"
         x="1562.6672"
         y="888.88733"
         id="tspan1492">está esperando?</tspan><tspan
         sodipodi:role="line"
         style="font-size:45.3333px"
         x="1562.6672"
         y="945.55396"
         id="tspan1411" /></text>
    <text
       xml:space="preserve"
       style="font-style:normal;font-variant:normal;font-weight:normal;font-stretch:normal;font-size:45.3333px;line-height:125%;font-family:Lavi;-inkscape-font-specification:Lavi;text-align:center;letter-spacing:0px;word-spacing:0px;text-anchor:middle;fill:#000000;fill-opacity:1;stroke:none"
       x="1590.8657"
       y="990.48041"
       id="text4246-70-2-2-2-7-4-9-9-6"><tspan
         sodipodi:role="line"
         style="font-size:45.3333px"
         x="1590.8657"
         y="990.48041"
         id="tspan1358">Tente me </tspan><tspan
         sodipodi:role="line"
         style="font-size:45.3333px"
         x="1590.8657"
         y="1047.1471"
         id="tspan1494">fazer chorar.</tspan><tspan
         sodipodi:role="line"
         style="font-size:45.3333px"
         x="1590.8657"
         y="1103.8137"
         id="tspan1415" /></text>
    <text
       xml:space="preserve"
       style="font-style:normal;font-variant:normal;font-weight:normal;font-stretch:normal;font-size:45.3333px;line-height:125%;font-family:Lavi;-inkscape-font-specification:Lavi;text-align:center;letter-spacing:0px;word-spacing:0px;text-anchor:middle;fill:#000000;fill-opacity:1;stroke:none"
       x="1564.7095"
       y="1636.3534"
       id="text4246-70-2-2-2-7-4-9-9-6-5"><tspan
         sodipodi:role="line"
         style="font-style:normal;font-variant:normal;font-weight:bold;font-stretch:normal;font-size:45.3333px;font-family:Lavi;-inkscape-font-specification:'Lavi Bold'"
         x="1564.7095"
         y="1636.3534"
         id="tspan1669"><tspan
   style="font-weight:normal"
   id="tspan1425">Eu te darei </tspan></tspan><tspan
         sodipodi:role="line"
         style="font-style:normal;font-variant:normal;font-weight:bold;font-stretch:normal;font-size:45.3333px;font-family:Lavi;-inkscape-font-specification:'Lavi Bold'"
         x="1564.7095"
         y="1693.02"
         id="tspan1496">um minuto!</tspan><tspan
         sodipodi:role="line"
         style="font-style:normal;font-variant:normal;font-weight:bold;font-stretch:normal;font-size:45.3333px;font-family:Lavi;-inkscape-font-specification:'Lavi Bold'"
         x="1564.7095"
         y="1749.6866"
         id="tspan1423" /></text>
    <text
       xml:space="preserve"
       style="font-style:normal;font-variant:normal;font-weight:normal;font-stretch:normal;font-size:55.9581px;line-height:125%;font-family:Lavi;-inkscape-font-specification:Lavi;text-align:center;letter-spacing:0px;word-spacing:0px;text-anchor:middle;fill:#000000;fill-opacity:1;stroke:none;stroke-width:1"
       x="311.79352"
       y="1889.1261"
       id="text4246-70-2-2-2-7-4-9-9-6-1"><tspan
         sodipodi:role="line"
         style="font-style:normal;font-variant:normal;font-weight:bold;font-stretch:normal;font-size:55.9581px;font-family:Lavi;-inkscape-font-specification:'Lavi Bold';stroke-width:1"
         x="311.79352"
         y="1889.1261"
         id="tspan40668">O quê?!</tspan><tspan
         sodipodi:role="line"
         style="font-style:normal;font-variant:normal;font-weight:bold;font-stretch:normal;font-size:55.9581px;font-family:Lavi;-inkscape-font-specification:'Lavi Bold';stroke-width:1"
         x="311.79352"
         y="1959.0737"
         id="tspan1427" /></text>
    <text
       xml:space="preserve"
       style="font-style:normal;font-variant:normal;font-weight:normal;font-stretch:normal;font-size:49.2216px;line-height:125%;font-family:Lavi;-inkscape-font-specification:Lavi;text-align:center;letter-spacing:0px;word-spacing:0px;text-anchor:middle;fill:#000000;fill-opacity:1;stroke:none;stroke-width:1"
       x="472.64255"
       y="1972.0665"
       id="text4246-70-2-2-2-7-4-9-9-6-1-2-2"><tspan
         sodipodi:role="line"
         style="font-style:normal;font-variant:normal;font-weight:bold;font-stretch:normal;font-size:49.2216px;font-family:Lavi;-inkscape-font-specification:'Lavi Bold';stroke-width:1"
         x="472.64255"
         y="1972.0665"
         id="tspan1798">Fazer você </tspan><tspan
         sodipodi:role="line"
         style="font-style:normal;font-variant:normal;font-weight:bold;font-stretch:normal;font-size:49.2216px;font-family:Lavi;-inkscape-font-specification:'Lavi Bold';stroke-width:1"
         x="472.64255"
         y="2033.5935"
         id="tspan1498">chorar?!</tspan><tspan
         sodipodi:role="line"
         style="font-style:normal;font-variant:normal;font-weight:bold;font-stretch:normal;font-size:49.2216px;font-family:Lavi;-inkscape-font-specification:'Lavi Bold';stroke-width:1"
         x="472.64255"
         y="2095.1206"
         id="tspan1431" /></text>
    <text
       xml:space="preserve"
       style="font-style:normal;font-variant:normal;font-weight:normal;font-stretch:normal;font-size:45.3333px;line-height:125%;font-family:Lavi;-inkscape-font-specification:Lavi;text-align:center;letter-spacing:0px;word-spacing:0px;text-anchor:middle;fill:#000000;fill-opacity:1;stroke:none"
       x="663.1972"
       y="2144.0947"
       id="text4246-70-2-2-2-7-4-9-9-6-1-2"><tspan
         sodipodi:role="line"
         style="font-size:45.3333px"
         x="663.1972"
         y="2144.0947"
         id="tspan1813">Mas eu não </tspan><tspan
         sodipodi:role="line"
         style="font-size:45.3333px"
         x="663.1972"
         y="2200.7615"
         id="tspan1500">sabia disso...</tspan></text>
    <text
       xml:space="preserve"
       style="font-style:normal;font-variant:normal;font-weight:normal;font-stretch:normal;font-size:49.2681px;line-height:125%;font-family:Lavi;-inkscape-font-specification:Lavi;text-align:center;letter-spacing:0px;word-spacing:0px;text-anchor:middle;fill:#000000;fill-opacity:1;stroke:none;stroke-width:1"
       x="707.3999"
       y="2316.5879"
       id="text4246-70-2-2-2-7-4-9-9-6-1-2-27"
       transform="scale(0.98652379,1.0136603)"><tspan
         sodipodi:role="line"
         style="font-style:normal;font-variant:normal;font-weight:normal;font-stretch:normal;font-size:49.2681px;font-family:Lavi;-inkscape-font-specification:'Lavi Bold';stroke-width:1"
         x="707.3999"
         y="2316.5879"
         id="tspan1502">Quer dizer... </tspan><tspan
         sodipodi:role="line"
         style="font-style:normal;font-variant:normal;font-weight:bold;font-stretch:normal;font-size:49.2681px;font-family:Lavi;-inkscape-font-specification:'Lavi Bold';stroke-width:1"
         x="707.3999"
         y="2378.1731"
         id="tspan1510">Só um minuto?!</tspan><tspan
         sodipodi:role="line"
         style="font-style:normal;font-variant:normal;font-weight:bold;font-stretch:normal;font-size:49.2681px;font-family:Lavi;-inkscape-font-specification:'Lavi Bold';stroke-width:1"
         x="707.3999"
         y="2439.7581"
         id="tspan1444" /></text>
    <text
       xml:space="preserve"
       style="font-style:normal;font-variant:normal;font-weight:normal;font-stretch:normal;font-size:48.1157px;line-height:125%;font-family:Lavi;-inkscape-font-specification:Lavi;text-align:center;letter-spacing:0px;word-spacing:0px;text-anchor:middle;fill:#000000;fill-opacity:1;stroke:none;stroke-width:1"
       x="1017.1918"
       y="1924.8142"
       id="text4246-70-2-2-2-7-4-9-9-6-1-2-3"><tspan
         sodipodi:role="line"
         style="font-size:48.1157px;stroke-width:1"
         x="1017.1918"
         y="1924.8142"
         id="tspan44044-5">Uhm...</tspan><tspan
         sodipodi:role="line"
         style="font-size:48.1157px;stroke-width:1"
         x="1017.1918"
         y="1984.9589"
         id="tspan1448" /></text>
    <text
       xml:space="preserve"
       style="font-style:normal;font-variant:normal;font-weight:normal;font-stretch:normal;font-size:51.9425px;line-height:125%;font-family:Lavi;-inkscape-font-specification:Lavi;text-align:center;letter-spacing:0px;word-spacing:0px;text-anchor:middle;fill:#000000;fill-opacity:1;stroke:none;stroke-width:1"
       x="1187.4293"
       y="1953.7235"
       id="text4246-70-2-2-2-7-4-9-9-6-1-2-3-9-6"><tspan
         sodipodi:role="line"
         style="font-style:normal;font-variant:normal;font-weight:bold;font-stretch:normal;font-size:51.9425px;font-family:Lavi;-inkscape-font-specification:'Lavi Bold';stroke-width:1"
         x="1187.4293"
         y="1953.7235"
         id="tspan62775-6">OK!</tspan></text>
    <text
       xml:space="preserve"
       style="font-style:normal;font-variant:normal;font-weight:normal;font-stretch:normal;font-size:40.5417px;line-height:125%;font-family:Lavi;-inkscape-font-specification:Lavi;text-align:center;letter-spacing:0px;word-spacing:0px;text-anchor:middle;fill:#000000;fill-opacity:1;stroke:none;stroke-width:1"
       x="1377.374"
       y="1972.0564"
       id="text4246-70-2-2-2-7-4-9-9-6-1-2-3-9-6-0"><tspan
         sodipodi:role="line"
         style="font-size:40.5417px;stroke-width:1"
         x="1377.374"
         y="1972.0564"
         id="tspan62775-6-2">Deixa eu ver.</tspan><tspan
         sodipodi:role="line"
         style="font-size:40.5417px;stroke-width:1"
         x="1377.374"
         y="2022.7335"
         id="tspan1450" /></text>
    <text
       xml:space="preserve"
       style="font-style:normal;font-variant:normal;font-weight:normal;font-stretch:normal;font-size:45.3333px;line-height:125%;font-family:Lavi;-inkscape-font-specification:Lavi;text-align:center;letter-spacing:0px;word-spacing:0px;text-anchor:middle;fill:#000000;fill-opacity:1;stroke:none"
       x="1279.869"
       y="2065.957"
       id="text4246-70-2-2-2-7-4-9-9-6-1-2-3-9"><tspan
         sodipodi:role="line"
         style="font-size:45.3333px"
         x="1279.869"
         y="2065.957"
         id="tspan2077">Hmm... Pense sobre </tspan><tspan
         sodipodi:role="line"
         style="font-size:45.3333px"
         x="1279.869"
         y="2122.6238"
         id="tspan1512">a <tspan
   style="font-weight:bold"
   id="tspan1456">fome mundial.</tspan></tspan><tspan
         sodipodi:role="line"
         style="font-weight:bold;font-size:45.3333px"
         x="1279.869"
         y="2179.2903"
         id="tspan1454" /></text>
    <text
       xml:space="preserve"
       style="font-style:normal;font-variant:normal;font-weight:normal;font-stretch:normal;font-size:45.3333px;line-height:125%;font-family:Lavi;-inkscape-font-specification:Lavi;text-align:center;letter-spacing:0px;word-spacing:0px;text-anchor:middle;fill:#000000;fill-opacity:1;stroke:none"
       x="1275.8167"
       y="2199.9316"
       id="text4246-70-2-2-2-7-4-9-9-6-1-2-3-9-2"><tspan
         sodipodi:role="line"
         style="font-size:45.3333px"
         x="1275.8167"
         y="2199.9316"
         id="tspan62775-9">Um, peraí peraí peraí!</tspan><tspan
         sodipodi:role="line"
         style="font-size:45.3333px"
         x="1275.8167"
         y="2256.5984"
         id="tspan1458" /></text>
    <text
       xml:space="preserve"
       style="font-style:normal;font-variant:normal;font-weight:normal;font-stretch:normal;font-size:45.3333px;line-height:125%;font-family:Lavi;-inkscape-font-specification:Lavi;text-align:center;letter-spacing:0px;word-spacing:0px;text-anchor:middle;fill:#000000;fill-opacity:1;stroke:none"
       x="1276.9706"
       y="2262.7942"
       id="text4246-70-2-2-2-7-4-9-9-6-1-2-3-9-2-2"><tspan
         sodipodi:role="line"
         style="font-size:45.3333px"
         x="1276.9706"
         y="2262.7942"
         id="tspan2208">Eu tenho algo melhor.</tspan></text>
    <text
       xml:space="preserve"
       style="font-style:normal;font-variant:normal;font-weight:normal;font-stretch:normal;font-size:45.3333px;line-height:125%;font-family:Lavi;-inkscape-font-specification:Lavi;text-align:center;letter-spacing:0px;word-spacing:0px;text-anchor:middle;fill:#000000;fill-opacity:1;stroke:none"
       x="1293.4883"
       y="2351.2439"
       id="text4246-70-2-2-2-7-4-9-9-6-1-2-3-9-2-7-6"><tspan
         sodipodi:role="line"
         style="font-style:normal;font-variant:normal;font-weight:bold;font-stretch:normal;font-size:45.3333px;font-family:Lavi;-inkscape-font-specification:'Lavi Bold'"
         x="1293.4883"
         y="2351.2439"
         id="tspan70880-2">Seus entes queridos </tspan><tspan
         sodipodi:role="line"
         style="font-style:normal;font-variant:normal;font-weight:bold;font-stretch:normal;font-size:45.3333px;font-family:Lavi;-inkscape-font-specification:'Lavi Bold'"
         x="1293.4883"
         y="2407.9106"
         id="tspan1515">que se foram.</tspan></text>
    <text
       xml:space="preserve"
       style="font-style:normal;font-variant:normal;font-weight:normal;font-stretch:normal;font-size:45.3333px;line-height:125%;font-family:Lavi;-inkscape-font-specification:Lavi;text-align:center;letter-spacing:0px;word-spacing:0px;text-anchor:middle;fill:#000000;fill-opacity:1;stroke:none"
       x="1184.426"
       y="3080.6577"
       id="text4246-70-2-2-2-7-4-9-9-6-1-2-3-9-2-7"><tspan
         sodipodi:role="line"
         style="font-size:45.3333px"
         x="1184.426"
         y="3080.6577"
         id="tspan70880">Nada ainda?</tspan><tspan
         sodipodi:role="line"
         style="font-size:45.3333px"
         x="1184.426"
         y="3137.3245"
         id="tspan1462" /></text>
    <text
       xml:space="preserve"
       style="font-style:normal;font-variant:normal;font-weight:normal;font-stretch:normal;font-size:45.3333px;line-height:125%;font-family:Lavi;-inkscape-font-specification:Lavi;text-align:center;letter-spacing:0px;word-spacing:0px;text-anchor:middle;fill:#000000;fill-opacity:1;stroke:none"
       x="1237.2577"
       y="3176.5801"
       id="text4246-70-2-2-2-7-4-9-9-6-1-2-3-9-2-7-9"><tspan
         sodipodi:role="line"
         style="font-style:normal;font-variant:normal;font-weight:bold;font-stretch:normal;font-size:45.3333px;font-family:Lavi;-inkscape-font-specification:'Lavi Bold'"
         x="1237.2577"
         y="3176.5801"
         id="tspan2463">Animais de </tspan><tspan
         sodipodi:role="line"
         style="font-style:normal;font-variant:normal;font-weight:bold;font-stretch:normal;font-size:45.3333px;font-family:Lavi;-inkscape-font-specification:'Lavi Bold'"
         x="1237.2577"
         y="3233.2468"
         id="tspan1517">estimação abandonados?!</tspan><tspan
         sodipodi:role="line"
         style="font-style:normal;font-variant:normal;font-weight:bold;font-stretch:normal;font-size:45.3333px;font-family:Lavi;-inkscape-font-specification:'Lavi Bold'"
         x="1237.2577"
         y="3289.9133"
         id="tspan1466" /></text>
    <text
       xml:space="preserve"
       style="font-style:normal;font-variant:normal;font-weight:normal;font-stretch:normal;font-size:31.9991px;line-height:125%;font-family:Lavi;-inkscape-font-specification:Lavi;text-align:center;letter-spacing:0px;word-spacing:0px;text-anchor:middle;fill:#000000;fill-opacity:1;stroke:none;stroke-width:0.999999"
       x="1309.0375"
       y="3310.5249"
       id="text4246-70-2-2-2-7-4-9-9-6-1-2-3-9-2-7-9-1"><tspan
         sodipodi:role="line"
         style="font-size:31.9991px;stroke-width:0.999999"
         x="1309.0375"
         y="3310.5249"
         id="tspan1820">Mas abandono de animais de </tspan><tspan
         sodipodi:role="line"
         style="font-size:31.9991px;stroke-width:0.999999"
         x="1309.0375"
         y="3350.5237"
         id="tspan1519">estimação é tão triste...</tspan><tspan
         sodipodi:role="line"
         style="font-size:31.9991px;stroke-width:0.999999"
         x="1309.0375"
         y="3390.5227"
         id="tspan1470" /></text>
    <text
       xml:space="preserve"
       style="font-style:normal;font-variant:normal;font-weight:normal;font-stretch:normal;font-size:45.3333px;line-height:125%;font-family:Lavi;-inkscape-font-specification:Lavi;text-align:center;letter-spacing:0px;word-spacing:0px;text-anchor:middle;fill:#000000;fill-opacity:1;stroke:none"
       x="2305.2185"
       y="3151.553"
       id="text4246-70-2-2-2-7-4-9-9-6-1-2-3-9-2-7-9-5"><tspan
         sodipodi:role="line"
         style="font-size:45.3333px"
         x="2305.2185"
         y="3151.553"
         id="tspan80607-3">...</tspan></text>
    <text
       xml:space="preserve"
       style="font-style:normal;font-weight:normal;font-size:40px;line-height:1.25;font-family:sans-serif;fill:#000000;fill-opacity:1;stroke:none"
       x="1032.6721"
       y="3093.1909"
       id="text2053"><tspan
         sodipodi:role="line"
         id="tspan2051"></tspan></text>
  </g>
</svg>
