<?xml version="1.0" encoding="UTF-8" standalone="no"?>
<svg
   xmlns:dc="http://purl.org/dc/elements/1.1/"
   xmlns:cc="http://creativecommons.org/ns#"
   xmlns:rdf="http://www.w3.org/1999/02/22-rdf-syntax-ns#"
   xmlns:svg="http://www.w3.org/2000/svg"
   xmlns="http://www.w3.org/2000/svg"
   xmlns:xlink="http://www.w3.org/1999/xlink"
   xmlns:sodipodi="http://sodipodi.sourceforge.net/DTD/sodipodi-0.dtd"
   xmlns:inkscape="http://www.inkscape.org/namespaces/inkscape"
   sodipodi:docname="E07P02.svg"
   height="3503"
   width="2481"
   inkscape:version="1.0 (4035a4fb49, 2020-05-01)"
   version="1.1"
   id="svg2">
  <sodipodi:namedview
     inkscape:document-rotation="0"
     inkscape:window-maximized="0"
     inkscape:window-y="0"
     inkscape:window-x="0"
     inkscape:current-layer="layer1"
     inkscape:cy="1593.6204"
     inkscape:cx="868.1731"
     inkscape:zoom="0.4"
     showgrid="false"
     id="namedview70"
     inkscape:window-height="955"
     inkscape:window-width="1813"
     inkscape:pageshadow="2"
     inkscape:pageopacity="0"
     bordercolor="#666666"
     pagecolor="#ffffff" />
  <metadata
     id="metadata8">
    <rdf:RDF>
      <cc:Work
         rdf:about="">
        <dc:format>image/svg+xml</dc:format>
        <dc:type
           rdf:resource="http://purl.org/dc/dcmitype/StillImage" />
        <dc:title />
      </cc:Work>
    </rdf:RDF>
  </metadata>
  <defs
     id="defs6">
    <filter
       inkscape:label="deevad outline effect"
       id="filter4375-5-4-81"
       color-interpolation-filters="sRGB">
      <feFlood
         result="flood"
         flood-color="rgb(255,255,255)"
         flood-opacity="1"
         id="feFlood4377-0-3-3" />
      <feComposite
         result="composite1"
         operator="in"
         in="flood"
         in2="SourceGraphic"
         id="feComposite4379-6-6-36" />
      <feMorphology
         result="result3"
         radius="4"
         operator="dilate"
         id="feMorphology4393-0-9-1" />
      <feComposite
         result="composite2"
         operator="over"
         in="SourceGraphic"
         in2="result3"
         id="feComposite4385-7-5-4" />
    </filter>
    <filter
       inkscape:label="deevad outline effect"
       id="filter4375-5-4-81-5"
       color-interpolation-filters="sRGB">
      <feFlood
         result="flood"
         flood-color="rgb(255,255,255)"
         flood-opacity="1"
         id="feFlood4377-0-3-3-6" />
      <feComposite
         result="composite1"
         operator="in"
         in="flood"
         in2="SourceGraphic"
         id="feComposite4379-6-6-36-2" />
      <feMorphology
         result="result3"
         radius="4"
         operator="dilate"
         id="feMorphology4393-0-9-1-4" />
      <feComposite
         result="composite2"
         operator="over"
         in="SourceGraphic"
         in2="result3"
         id="feComposite4385-7-5-4-1" />
    </filter>
    <filter
       inkscape:label="deevad outline effect"
       id="filter4375-5-4-81-5-9"
       color-interpolation-filters="sRGB">
      <feFlood
         result="flood"
         flood-color="rgb(255,255,255)"
         flood-opacity="1"
         id="feFlood4377-0-3-3-6-9" />
      <feComposite
         result="composite1"
         operator="in"
         in="flood"
         in2="SourceGraphic"
         id="feComposite4379-6-6-36-2-4" />
      <feMorphology
         result="result3"
         radius="4"
         operator="dilate"
         id="feMorphology4393-0-9-1-4-9" />
      <feComposite
         result="composite2"
         operator="over"
         in="SourceGraphic"
         in2="result3"
         id="feComposite4385-7-5-4-1-7" />
    </filter>
    <filter
       inkscape:label="deevad outline effect"
       id="filter4375-4-1-1-15-1-3"
       color-interpolation-filters="sRGB">
      <feFlood
         result="flood"
         flood-color="rgb(0,0,0)"
         flood-opacity="1"
         id="feFlood4377-7-9-0-4-4-4" />
      <feComposite
         result="composite1"
         operator="in"
         in="flood"
         in2="SourceGraphic"
         id="feComposite4379-3-8-8-6-0-7" />
      <feMorphology
         result="result3"
         radius="0.321"
         operator="dilate"
         id="feMorphology4393-1-0-49-8-2-7" />
      <feComposite
         result="composite2"
         operator="over"
         in="SourceGraphic"
         in2="result3"
         id="feComposite4385-9-5-7-2-1-2" />
    </filter>
    <filter
       inkscape:label="deevad outline effect"
       id="filter3786"
       color-interpolation-filters="sRGB">
      <feFlood
         result="flood"
         flood-color="rgb(0,0,0)"
         flood-opacity="1"
         id="feFlood3788" />
      <feComposite
         result="composite1"
         operator="in"
         in="flood"
         in2="SourceGraphic"
         id="feComposite3790" />
      <feMorphology
         result="result3"
         radius="0.321"
         operator="dilate"
         id="feMorphology3792" />
      <feComposite
         result="composite2"
         operator="over"
         in="SourceGraphic"
         in2="result3"
         id="feComposite3794" />
    </filter>
    <filter
       inkscape:label="deevad outline effect"
       id="filter3796"
       color-interpolation-filters="sRGB">
      <feFlood
         result="flood"
         flood-color="rgb(0,0,0)"
         flood-opacity="1"
         id="feFlood3798" />
      <feComposite
         result="composite1"
         operator="in"
         in="flood"
         in2="SourceGraphic"
         id="feComposite3800" />
      <feMorphology
         result="result3"
         radius="0.321"
         operator="dilate"
         id="feMorphology3802" />
      <feComposite
         result="composite2"
         operator="over"
         in="SourceGraphic"
         in2="result3"
         id="feComposite3804" />
    </filter>
    <filter
       inkscape:label="deevad outline effect"
       id="filter3806"
       color-interpolation-filters="sRGB">
      <feFlood
         result="flood"
         flood-color="rgb(0,0,0)"
         flood-opacity="1"
         id="feFlood3808" />
      <feComposite
         result="composite1"
         operator="in"
         in="flood"
         in2="SourceGraphic"
         id="feComposite3810" />
      <feMorphology
         result="result3"
         radius="0.321"
         operator="dilate"
         id="feMorphology3812" />
      <feComposite
         result="composite2"
         operator="over"
         in="SourceGraphic"
         in2="result3"
         id="feComposite3814" />
    </filter>
    <filter
       inkscape:label="deevad outline effect"
       id="filter3816"
       color-interpolation-filters="sRGB">
      <feFlood
         result="flood"
         flood-color="rgb(0,0,0)"
         flood-opacity="1"
         id="feFlood3818" />
      <feComposite
         result="composite1"
         operator="in"
         in="flood"
         in2="SourceGraphic"
         id="feComposite3820" />
      <feMorphology
         result="result3"
         radius="0.321"
         operator="dilate"
         id="feMorphology3822" />
      <feComposite
         result="composite2"
         operator="over"
         in="SourceGraphic"
         in2="result3"
         id="feComposite3824" />
    </filter>
    <filter
       inkscape:label="deevad outline effect"
       id="filter3826"
       color-interpolation-filters="sRGB">
      <feFlood
         result="flood"
         flood-color="rgb(0,0,0)"
         flood-opacity="1"
         id="feFlood3828" />
      <feComposite
         result="composite1"
         operator="in"
         in="flood"
         in2="SourceGraphic"
         id="feComposite3830" />
      <feMorphology
         result="result3"
         radius="0.321"
         operator="dilate"
         id="feMorphology3832" />
      <feComposite
         result="composite2"
         operator="over"
         in="SourceGraphic"
         in2="result3"
         id="feComposite3834" />
    </filter>
    <filter
       inkscape:label="deevad outline effect"
       id="filter3836"
       color-interpolation-filters="sRGB">
      <feFlood
         result="flood"
         flood-color="rgb(0,0,0)"
         flood-opacity="1"
         id="feFlood3838" />
      <feComposite
         result="composite1"
         operator="in"
         in="flood"
         in2="SourceGraphic"
         id="feComposite3840" />
      <feMorphology
         result="result3"
         radius="0.321"
         operator="dilate"
         id="feMorphology3842" />
      <feComposite
         result="composite2"
         operator="over"
         in="SourceGraphic"
         in2="result3"
         id="feComposite3844" />
    </filter>
    <filter
       inkscape:label="deevad outline effect"
       id="filter3846"
       color-interpolation-filters="sRGB">
      <feFlood
         result="flood"
         flood-color="rgb(0,0,0)"
         flood-opacity="1"
         id="feFlood3848" />
      <feComposite
         result="composite1"
         operator="in"
         in="flood"
         in2="SourceGraphic"
         id="feComposite3850" />
      <feMorphology
         result="result3"
         radius="0.321"
         operator="dilate"
         id="feMorphology3852" />
      <feComposite
         result="composite2"
         operator="over"
         in="SourceGraphic"
         in2="result3"
         id="feComposite3854" />
    </filter>
    <filter
       inkscape:label="deevad outline effect"
       id="filter4375-4-1-1-15-1-3-0"
       color-interpolation-filters="sRGB">
      <feFlood
         result="flood"
         flood-color="rgb(0,0,0)"
         flood-opacity="1"
         id="feFlood4377-7-9-0-4-4-4-0" />
      <feComposite
         result="composite1"
         operator="in"
         in="flood"
         in2="SourceGraphic"
         id="feComposite4379-3-8-8-6-0-7-0" />
      <feMorphology
         result="result3"
         radius="0.321"
         operator="dilate"
         id="feMorphology4393-1-0-49-8-2-7-2" />
      <feComposite
         result="composite2"
         operator="over"
         in="SourceGraphic"
         in2="result3"
         id="feComposite4385-9-5-7-2-1-2-5" />
    </filter>
    <filter
       inkscape:label="deevad outline effect"
       id="filter3317"
       color-interpolation-filters="sRGB">
      <feFlood
         result="flood"
         flood-color="rgb(0,0,0)"
         flood-opacity="1"
         id="feFlood3319" />
      <feComposite
         result="composite1"
         operator="in"
         in="flood"
         in2="SourceGraphic"
         id="feComposite3321" />
      <feMorphology
         result="result3"
         radius="0.321"
         operator="dilate"
         id="feMorphology3323" />
      <feComposite
         result="composite2"
         operator="over"
         in="SourceGraphic"
         in2="result3"
         id="feComposite3325" />
    </filter>
    <filter
       inkscape:label="deevad outline effect"
       id="filter3327"
       color-interpolation-filters="sRGB">
      <feFlood
         result="flood"
         flood-color="rgb(0,0,0)"
         flood-opacity="1"
         id="feFlood3329" />
      <feComposite
         result="composite1"
         operator="in"
         in="flood"
         in2="SourceGraphic"
         id="feComposite3331" />
      <feMorphology
         result="result3"
         radius="0.321"
         operator="dilate"
         id="feMorphology3333" />
      <feComposite
         result="composite2"
         operator="over"
         in="SourceGraphic"
         in2="result3"
         id="feComposite3335" />
    </filter>
    <filter
       inkscape:label="deevad outline effect"
       id="filter3337"
       color-interpolation-filters="sRGB">
      <feFlood
         result="flood"
         flood-color="rgb(0,0,0)"
         flood-opacity="1"
         id="feFlood3339" />
      <feComposite
         result="composite1"
         operator="in"
         in="flood"
         in2="SourceGraphic"
         id="feComposite3341" />
      <feMorphology
         result="result3"
         radius="0.321"
         operator="dilate"
         id="feMorphology3343" />
      <feComposite
         result="composite2"
         operator="over"
         in="SourceGraphic"
         in2="result3"
         id="feComposite3345" />
    </filter>
    <filter
       inkscape:label="deevad outline effect"
       id="filter3347"
       color-interpolation-filters="sRGB">
      <feFlood
         result="flood"
         flood-color="rgb(0,0,0)"
         flood-opacity="1"
         id="feFlood3349" />
      <feComposite
         result="composite1"
         operator="in"
         in="flood"
         in2="SourceGraphic"
         id="feComposite3351" />
      <feMorphology
         result="result3"
         radius="0.321"
         operator="dilate"
         id="feMorphology3353" />
      <feComposite
         result="composite2"
         operator="over"
         in="SourceGraphic"
         in2="result3"
         id="feComposite3355" />
    </filter>
    <filter
       inkscape:label="deevad outline effect"
       id="filter3357"
       color-interpolation-filters="sRGB">
      <feFlood
         result="flood"
         flood-color="rgb(0,0,0)"
         flood-opacity="1"
         id="feFlood3359" />
      <feComposite
         result="composite1"
         operator="in"
         in="flood"
         in2="SourceGraphic"
         id="feComposite3361" />
      <feMorphology
         result="result3"
         radius="0.321"
         operator="dilate"
         id="feMorphology3363" />
      <feComposite
         result="composite2"
         operator="over"
         in="SourceGraphic"
         in2="result3"
         id="feComposite3365" />
    </filter>
    <filter
       inkscape:label="deevad outline effect"
       id="filter4375-5-4-81-5-7"
       color-interpolation-filters="sRGB">
      <feFlood
         result="flood"
         flood-color="rgb(255,255,255)"
         flood-opacity="1"
         id="feFlood4377-0-3-3-6-2" />
      <feComposite
         result="composite1"
         operator="in"
         in="flood"
         in2="SourceGraphic"
         id="feComposite4379-6-6-36-2-8" />
      <feMorphology
         result="result3"
         radius="4"
         operator="dilate"
         id="feMorphology4393-0-9-1-4-4" />
      <feComposite
         result="composite2"
         operator="over"
         in="SourceGraphic"
         in2="result3"
         id="feComposite4385-7-5-4-1-1" />
    </filter>
    <filter
       inkscape:label="deevad outline effect"
       id="filter4375-5-4-81-0"
       color-interpolation-filters="sRGB">
      <feFlood
         result="flood"
         flood-color="rgb(255,255,255)"
         flood-opacity="1"
         id="feFlood4377-0-3-3-7" />
      <feComposite
         result="composite1"
         operator="in"
         in="flood"
         in2="SourceGraphic"
         id="feComposite4379-6-6-36-8" />
      <feMorphology
         result="result3"
         radius="4"
         operator="dilate"
         id="feMorphology4393-0-9-1-3" />
      <feComposite
         result="composite2"
         operator="over"
         in="SourceGraphic"
         in2="result3"
         id="feComposite4385-7-5-4-2" />
    </filter>
  </defs>
  <sodipodi:namedview
     inkscape:current-layer="layer1"
     inkscape:window-maximized="1"
     inkscape:window-y="26"
     inkscape:window-x="0"
     inkscape:cy="714.79641"
     inkscape:cx="1836.9294"
     inkscape:zoom="0.2630065"
     showgrid="false"
     id="namedview4"
     inkscape:window-height="1025"
     inkscape:window-width="1920"
     inkscape:pageshadow="2"
     inkscape:pageopacity="0"
     guidetolerance="10"
     gridtolerance="10"
     objecttolerance="10"
     borderopacity="1"
     bordercolor="#666666"
     pagecolor="#ffffff" />
  <g
     sodipodi:insensitive="true"
     inkscape:label="artwork"
     id="layer2"
     inkscape:groupmode="layer">
    <image
       sodipodi:absref="C:\Users\stero\Documents\Kernewek\Pepper and Carrot\webcomics\ep07_The-Wish\lang\gfx_Pepper-and-Carrot_by-David-Revoy_E07P02.png"
       xlink:href="../gfx_Pepper-and-Carrot_by-David-Revoy_E07P02.png"
       y="0"
       x="0"
       id="image10"
       height="3503"
       width="2481" />
  </g>
  <g
     inkscape:label="speechbubbles"
     id="layer3"
     inkscape:groupmode="layer">
    <flowRoot
       transform="matrix(0.87546097,-0.38319569,0,0.93952354,120.97401,407.02592)"
       style="font-style:normal;font-variant:normal;font-weight:normal;font-stretch:normal;line-height:0.01%;font-family:Lavi;-inkscape-font-specification:Lavi;letter-spacing:0px;word-spacing:0px;fill:#000000;fill-opacity:1;stroke:#000000;stroke-width:0.992362;stroke-miterlimit:4;stroke-dasharray:none;stroke-opacity:1;filter:url(#filter4375-5-4-81)"
       id="flowRoot2987-7-9-9-7-4-5-16"
       xml:space="preserve"><flowRegion
         style="stroke-width:5.40286"
         id="flowRegion2989-4-5-8-7-8-5-9"><rect
           style="font-style:normal;font-variant:normal;font-weight:normal;font-stretch:normal;font-family:Lavi;-inkscape-font-specification:Lavi;fill:#000000;fill-opacity:1;stroke:#000000;stroke-width:0.99236238;stroke-miterlimit:4;stroke-dasharray:none;stroke-opacity:1"
           y="265.53046"
           x="120.55251"
           height="56.089447"
           width="319.66232"
           id="rect2991-45-1-3-3-4-3-6" /></flowRegion><flowPara
         style="font-weight:normal;font-size:48px;line-height:1.25;-inkscape-font-specification:Lavi;fill:#000000;fill-opacity:1;stroke:#000000;stroke-width:0.992362;stroke-linejoin:miter;stroke-miterlimit:4;stroke-dasharray:none;stroke-opacity:1"
         id="flowPara2995-4-1-5-0-07-0-9">Zzzzz</flowPara></flowRoot>
    <flowRoot
       transform="matrix(0.98284477,-0.45949938,0,1.1266058,151.61578,283.74268)"
       style="font-style:normal;font-variant:normal;font-weight:normal;font-stretch:normal;line-height:0.01%;font-family:Lavi;-inkscape-font-specification:Lavi;letter-spacing:0px;word-spacing:0px;fill:#000000;fill-opacity:1;stroke:#000000;stroke-width:0.992362;stroke-miterlimit:4;stroke-dasharray:none;stroke-opacity:1;filter:url(#filter4375-5-4-81-5)"
       id="flowRoot2987-7-9-9-7-4-5-16-6"
       xml:space="preserve"><flowRegion
         style="stroke-width:5.40286"
         id="flowRegion2989-4-5-8-7-8-5-9-8"><rect
           style="font-style:normal;font-variant:normal;font-weight:normal;font-stretch:normal;font-family:Lavi;-inkscape-font-specification:Lavi;fill:#000000;fill-opacity:1;stroke:#000000;stroke-width:0.99236238;stroke-miterlimit:4;stroke-dasharray:none;stroke-opacity:1"
           y="265.53046"
           x="120.55251"
           height="56.089447"
           width="319.66232"
           id="rect2991-45-1-3-3-4-3-6-8" /></flowRegion><flowPara
         style="font-weight:normal;font-size:48px;line-height:1.25;-inkscape-font-specification:Lavi;fill:#000000;fill-opacity:1;stroke:#000000;stroke-width:0.992362;stroke-linejoin:miter;stroke-miterlimit:4;stroke-dasharray:none;stroke-opacity:1"
         id="flowPara2995-4-1-5-0-07-0-9-3">Zzzzz</flowPara></flowRoot>
    <path
       sodipodi:nodetypes="cssssc"
       inkscape:connector-curvature="0"
       id="path4974"
       d="m 1734.2315,926.26354 c -0.2908,-54.62154 71.5631,-75.15449 131.1859,-75.89262 59.6228,-0.73798 111.9643,12.31133 128.9156,47.73701 16.9041,35.32694 27.3143,61.00746 -9.9838,84.95843 -35.0093,22.48114 -97.5605,19.50574 -122.2307,20.08024 -24.67,0.5744 -123.2421,23.1604 -127.887,-76.88306 z"
       style="color:#000000;fill:#ffffff;fill-opacity:1;fill-rule:nonzero;stroke:none;stroke-width:1px;marker:none;visibility:visible;display:inline;overflow:visible;enable-background:accumulate" />
    <flowRoot
       transform="matrix(0.82433366,-0.36081689,0,0.88465495,394.11582,2199.3309)"
       style="font-style:normal;font-variant:normal;font-weight:normal;font-stretch:normal;line-height:0.01%;font-family:Lavi;-inkscape-font-specification:Lavi;letter-spacing:0px;word-spacing:0px;fill:#000000;fill-opacity:1;stroke:#000000;stroke-width:0.992362;stroke-miterlimit:4;stroke-dasharray:none;stroke-opacity:1;filter:url(#filter4375-5-4-81-0)"
       id="flowRoot2987-7-9-9-7-4-5-16-68"
       xml:space="preserve"><flowRegion
         style="stroke-width:5.40286"
         id="flowRegion2989-4-5-8-7-8-5-9-9"><rect
           style="font-style:normal;font-variant:normal;font-weight:normal;font-stretch:normal;font-family:Lavi;-inkscape-font-specification:Lavi;fill:#000000;fill-opacity:1;stroke:#000000;stroke-width:0.99236238;stroke-miterlimit:4;stroke-dasharray:none;stroke-opacity:1"
           y="265.53046"
           x="120.55251"
           height="56.089447"
           width="319.66232"
           id="rect2991-45-1-3-3-4-3-6-1" /></flowRegion><flowPara
         style="font-weight:normal;font-size:48px;line-height:1.25;-inkscape-font-specification:Lavi;fill:#000000;fill-opacity:1;stroke:#000000;stroke-width:0.992362;stroke-linejoin:miter;stroke-miterlimit:4;stroke-dasharray:none;stroke-opacity:1"
         id="flowPara2995-4-1-5-0-07-0-9-5">Zzzzz</flowPara></flowRoot>
    <flowRoot
       transform="matrix(0.89377961,-0.3912139,0,0.95918268,424.89882,2108.209)"
       style="font-style:normal;font-variant:normal;font-weight:normal;font-stretch:normal;line-height:0.01%;font-family:Lavi;-inkscape-font-specification:Lavi;letter-spacing:0px;word-spacing:0px;fill:#000000;fill-opacity:1;stroke:#000000;stroke-width:0.992362;stroke-miterlimit:4;stroke-dasharray:none;stroke-opacity:1;filter:url(#filter4375-5-4-81-5-7)"
       id="flowRoot2987-7-9-9-7-4-5-16-6-6"
       xml:space="preserve"><flowRegion
         style="stroke-width:5.40286"
         id="flowRegion2989-4-5-8-7-8-5-9-8-4"><rect
           style="font-style:normal;font-variant:normal;font-weight:normal;font-stretch:normal;font-family:Lavi;-inkscape-font-specification:Lavi;fill:#000000;fill-opacity:1;stroke:#000000;stroke-width:0.99236238;stroke-miterlimit:4;stroke-dasharray:none;stroke-opacity:1"
           y="265.53046"
           x="120.55251"
           height="56.089447"
           width="319.66232"
           id="rect2991-45-1-3-3-4-3-6-8-4" /></flowRegion><flowPara
         style="font-weight:normal;font-size:48px;line-height:1.25;-inkscape-font-specification:Lavi;fill:#000000;fill-opacity:1;stroke:#000000;stroke-width:0.992362;stroke-linejoin:miter;stroke-miterlimit:4;stroke-dasharray:none;stroke-opacity:1"
         id="flowPara2995-4-1-5-0-07-0-9-3-7">Zzzzz</flowPara></flowRoot>
  </g>
  <g
     inkscape:label="txt"
     id="layer1"
     inkscape:groupmode="layer">
    <path
       inkscape:transform-center-x="-15.455503"
       inkscape:transform-center-y="71.462901"
       inkscape:connector-curvature="0"
       id="path4538"
       d="m 1636.0097,977.59915 c 27.3556,10.33852 31.2311,9.31597 39.8278,-2.46199 8.5965,-11.77793 17.092,-31.33207 43.2861,-35.56122 26.194,-4.22923 38.9565,5.32671 47.7805,11.04509 1.7041,-18.49363 -8.3699,-45.58388 -17.2571,-56.16236 -8.8871,-10.57859 53.5622,7.08129 53.5622,7.08129 0,0 9.3674,47.51526 -6.9297,65.22649 -16.2968,17.71109 -53.5242,-4.16534 -71.9926,-3.92519 -18.4684,0.24004 -31.7356,26.66142 -46.278,29.76697 -14.5424,3.10555 -30.2338,-7.38452 -41.9992,-15.00908 z"
       style="color:#000000;fill:#ffffff;fill-opacity:1;fill-rule:nonzero;stroke:none;stroke-width:1px;marker:none;visibility:visible;display:inline;overflow:visible;enable-background:accumulate" />
    <flowRoot
       transform="translate(1448.7533,601.42995)"
       style="font-style:normal;font-variant:normal;font-weight:normal;font-stretch:normal;line-height:0.01%;font-family:Lavi;-inkscape-font-specification:Lavi;text-align:center;letter-spacing:0px;word-spacing:0px;text-anchor:middle;fill:#000000;fill-opacity:1;stroke:none"
       id="flowRoot2987-4-9-9-0"
       xml:space="preserve"><flowRegion
         id="flowRegion2989-5-4-7-8"><rect
           style="font-style:normal;font-variant:normal;font-weight:normal;font-stretch:normal;font-family:Lavi;-inkscape-font-specification:Lavi;text-align:center;text-anchor:middle"
           y="265.53046"
           x="120.55251"
           height="310.73996"
           width="602.40173"
           id="rect2991-7-9-4-30" /></flowRegion><flowPara
         id="flowPara3469"
         style="font-size:48px;line-height:1.25;text-align:center;text-anchor:middle">My re'th</flowPara><flowPara
         id="flowPara151"
         style="font-size:48px;line-height:1.25;text-align:center;text-anchor:middle">kavas!</flowPara></flowRoot>
    <path
       sodipodi:nodetypes="zssssz"
       inkscape:connector-curvature="0"
       id="path4040-4"
       d="m 82.757714,1458.8078 c 43.331296,-39.8441 418.471096,-63.9315 517.835696,1.5496 82.93827,54.6562 50.57848,190.7696 -23.18191,222.1207 -73.76015,31.3512 -319.13338,27.7124 -426.67493,13.4986 -102.394348,-13.5336 -119.588048,-54.3829 -124.624733,-136.6329 -2.055676,-33.5694 13.314357,-60.6918 56.645877,-100.536 z"
       style="color:#000000;display:inline;overflow:visible;visibility:visible;fill:#ffffff;fill-opacity:1;fill-rule:nonzero;stroke:none;stroke-width:1.03631377px;marker:none;enable-background:accumulate" />
    <flowRoot
       transform="translate(-57.155482,1223.5427)"
       style="font-style:normal;font-variant:normal;font-weight:normal;font-stretch:normal;line-height:0.01%;font-family:Lavi;-inkscape-font-specification:Lavi;text-align:center;letter-spacing:0px;word-spacing:0px;text-anchor:middle;fill:#000000;fill-opacity:1;stroke:none"
       id="flowRoot2987-4-9-9-0-2"
       xml:space="preserve"><flowRegion
         id="flowRegion2989-5-4-7-8-2"><rect
           style="font-style:normal;font-variant:normal;font-weight:normal;font-stretch:normal;font-family:Lavi;-inkscape-font-specification:Lavi;text-align:center;text-anchor:middle"
           y="265.53046"
           x="120.55251"
           height="310.73996"
           width="602.40173"
           id="rect2991-7-9-4-30-7" /></flowRegion><flowPara
         id="flowPara158"
         style="font-size:48px;line-height:1.25;text-align:center;text-anchor:middle">Deus yn-rag, gorfennys</flowPara><flowPara
         id="flowPara164"
         style="font-size:48px;line-height:1.25;text-align:center;text-anchor:middle">yw prys gogoska,</flowPara><flowPara
         id="flowPara160"
         style="font-size:48px;line-height:1.25;text-align:center;text-anchor:middle">prys mos tre yw!</flowPara></flowRoot>
    <path
       sodipodi:nodetypes="csccc"
       inkscape:connector-curvature="0"
       id="path3072"
       d="m 490.10322,1794.2233 c -50.70941,-19.4272 -62.37865,-49.0743 -71.88799,-72.8404 -11.37672,-28.4331 -11.16569,-80.2683 -11.16569,-80.2683 l -28.08087,40.3771 c 0,0 5.01322,102.3461 111.13455,112.7316 z"
       style="color:#000000;fill:#ffffff;fill-opacity:1;fill-rule:nonzero;stroke:none;stroke-width:1px;marker:none;visibility:visible;display:inline;overflow:visible;enable-background:accumulate" />
    <flowRoot
       inkscape:transform-center-y="113.88473"
       inkscape:transform-center-x="141.20764"
       transform="matrix(9.1020872,-1.522117,-1.9740766,15.164598,-6079.4751,-12454.127)"
       style="color:#000000;font-style:normal;font-variant:normal;font-weight:normal;font-stretch:normal;line-height:0.01%;font-family:Arial;-inkscape-font-specification:Arial;letter-spacing:0.00204969px;word-spacing:0px;display:inline;overflow:visible;visibility:visible;fill:#ffffff;fill-opacity:1;fill-rule:nonzero;stroke:#ffffff;stroke-width:0.0836072;stroke-linecap:butt;stroke-linejoin:miter;stroke-miterlimit:4;stroke-dasharray:none;stroke-dashoffset:0;stroke-opacity:1;marker:none;filter:url(#filter4375-4-1-1-15-1-3);enable-background:accumulate"
       id="flowRoot4133-6-9-4-8-5"
       xml:space="preserve"><flowRegion
         style="stroke-width:0.866467"
         id="flowRegion4135-2-9-3-5-2"><rect
           style="color:#000000;letter-spacing:0.00204969px;display:inline;overflow:visible;visibility:visible;fill:#ffffff;fill-opacity:1;fill-rule:nonzero;stroke:#ffffff;stroke-width:0.0836072;stroke-linecap:butt;stroke-linejoin:miter;stroke-miterlimit:4;stroke-dasharray:none;stroke-dashoffset:0;stroke-opacity:1;marker:none;filter:url(#filter4375-4-1-1-15-1-3);enable-background:accumulate"
           y="1078.5308"
           x="1125.3193"
           height="26.505198"
           width="68.471939"
           id="rect4137-1-7-1-2-1" /></flowRegion><flowPara
         style="color:#000000;font-style:normal;font-variant:normal;font-weight:normal;font-stretch:normal;font-size:12px;line-height:125%;font-family:Lavi;-inkscape-font-specification:Lavi;letter-spacing:0.00204969px;word-spacing:0.00204969px;display:inline;overflow:visible;visibility:visible;fill:#ffffff;fill-opacity:1;fill-rule:nonzero;stroke:#ffffff;stroke-width:0.0836072;stroke-linecap:butt;stroke-linejoin:miter;stroke-miterlimit:4;stroke-dasharray:none;stroke-dashoffset:0;stroke-opacity:1;marker:none;filter:url(#filter4375-4-1-1-15-1-3);enable-background:accumulate"
         id="flowPara4139-2-8-6-8-6"><flowSpan
   style="color:#000000;font-size:7.13246px;display:inline;overflow:visible;visibility:visible;fill:#ffffff;fill-opacity:1;fill-rule:nonzero;stroke:#ffffff;stroke-width:0.0836072;stroke-linecap:butt;stroke-linejoin:miter;stroke-miterlimit:4;stroke-dasharray:none;stroke-dashoffset:0;stroke-opacity:1;marker:none;filter:url(#filter4375-4-1-1-15-1-3);enable-background:accumulate"
   id="flowSpan4821">B</flowSpan><flowSpan
   style="color:#000000;font-size:8.55646px;display:inline;overflow:visible;visibility:visible;fill:#ffffff;fill-opacity:1;fill-rule:nonzero;stroke:#ffffff;stroke-width:0.0836072;stroke-linecap:butt;stroke-linejoin:miter;stroke-miterlimit:4;stroke-dasharray:none;stroke-dashoffset:0;stroke-opacity:1;marker:none;filter:url(#filter4375-4-1-1-15-1-3);enable-background:accumulate"
   id="flowSpan4823">Z</flowSpan><flowSpan
   id="flowSpan4271-5"
   style="color:#000000;font-size:9.90925px;display:inline;overflow:visible;visibility:visible;fill:#ffffff;fill-opacity:1;fill-rule:nonzero;stroke:#ffffff;stroke-width:0.0836072;stroke-linecap:butt;stroke-linejoin:miter;stroke-miterlimit:4;stroke-dasharray:none;stroke-dashoffset:0;stroke-opacity:1;marker:none;filter:url(#filter4375-4-1-1-15-1-3);enable-background:accumulate">Z</flowSpan>Z</flowPara></flowRoot>
    <flowRoot
       inkscape:transform-center-y="147.89855"
       inkscape:transform-center-x="130.14995"
       transform="matrix(8.7227054,-3.710383,-1.041873,15.649988,-6756.7183,-9626.2889)"
       style="color:#000000;font-style:normal;font-variant:normal;font-weight:normal;font-stretch:normal;line-height:0.01%;font-family:Arial;-inkscape-font-specification:Arial;letter-spacing:0.00204969px;word-spacing:0px;display:inline;overflow:visible;visibility:visible;fill:#ffffff;fill-opacity:1;fill-rule:nonzero;stroke:#ffffff;stroke-width:0.0836072;stroke-linecap:butt;stroke-linejoin:miter;stroke-miterlimit:4;stroke-dasharray:none;stroke-dashoffset:0;stroke-opacity:1;marker:none;filter:url(#filter4375-4-1-1-15-1-3-0);enable-background:accumulate"
       id="flowRoot4133-6-9-4-8-5-8"
       xml:space="preserve"><flowRegion
         style="stroke-width:0.866467"
         id="flowRegion4135-2-9-3-5-2-8"><rect
           style="color:#000000;letter-spacing:0.00204969px;display:inline;overflow:visible;visibility:visible;fill:#ffffff;fill-opacity:1;fill-rule:nonzero;stroke:#ffffff;stroke-width:0.0836072;stroke-linecap:butt;stroke-linejoin:miter;stroke-miterlimit:4;stroke-dasharray:none;stroke-dashoffset:0;stroke-opacity:1;marker:none;filter:url(#filter4375-4-1-1-15-1-3-0);enable-background:accumulate"
           y="1078.5308"
           x="1125.3193"
           height="26.505198"
           width="68.471939"
           id="rect4137-1-7-1-2-1-7" /></flowRegion><flowPara
         style="color:#000000;font-style:normal;font-variant:normal;font-weight:normal;font-stretch:normal;font-size:12px;line-height:125%;font-family:Lavi;-inkscape-font-specification:Lavi;letter-spacing:0.00204969px;word-spacing:0.00204969px;display:inline;overflow:visible;visibility:visible;fill:#ffffff;fill-opacity:1;fill-rule:nonzero;stroke:#ffffff;stroke-width:0.0836072;stroke-linecap:butt;stroke-linejoin:miter;stroke-miterlimit:4;stroke-dasharray:none;stroke-dashoffset:0;stroke-opacity:1;marker:none;filter:url(#filter4375-4-1-1-15-1-3-0);enable-background:accumulate"
         id="flowPara4139-2-8-6-8-6-3"><flowSpan
   id="flowSpan4271-5-9"
   style="color:#000000;font-size:9.90925px;display:inline;overflow:visible;visibility:visible;fill:#ffffff;fill-opacity:1;fill-rule:nonzero;stroke:#ffffff;stroke-width:0.0836072;stroke-linecap:butt;stroke-linejoin:miter;stroke-miterlimit:4;stroke-dasharray:none;stroke-dashoffset:0;stroke-opacity:1;marker:none;filter:url(#filter4375-4-1-1-15-1-3-0);enable-background:accumulate">POU</flowSpan>F!</flowPara></flowRoot>
  </g>
</svg>
