<?xml version="1.0" encoding="UTF-8" standalone="no"?>
<!-- Created with Inkscape (http://www.inkscape.org/) -->

<svg
   xmlns:dc="http://purl.org/dc/elements/1.1/"
   xmlns:cc="http://creativecommons.org/ns#"
   xmlns:rdf="http://www.w3.org/1999/02/22-rdf-syntax-ns#"
   xmlns:svg="http://www.w3.org/2000/svg"
   xmlns="http://www.w3.org/2000/svg"
   xmlns:xlink="http://www.w3.org/1999/xlink"
   xmlns:sodipodi="http://sodipodi.sourceforge.net/DTD/sodipodi-0.dtd"
   xmlns:inkscape="http://www.inkscape.org/namespaces/inkscape"
   id="svg2"
   version="1.1"
   inkscape:version="0.91 r13725"
   width="2481"
   height="3503"
   sodipodi:docname="E26P02.svg">
  <metadata
     id="metadata8">
    <rdf:RDF>
      <cc:Work
         rdf:about="">
        <dc:format>image/svg+xml</dc:format>
        <dc:type
           rdf:resource="http://purl.org/dc/dcmitype/StillImage" />
        <dc:title />
      </cc:Work>
    </rdf:RDF>
  </metadata>
  <defs
     id="defs6">
    <filter
       style="color-interpolation-filters:sRGB"
       id="filter4375-4-1-1-15-1-3"
       inkscape:label="deevad outline effect">
      <feFlood
         id="feFlood4377-7-9-0-4-4-4"
         flood-opacity="1"
         flood-color="rgb(0,0,0)"
         result="flood" />
      <feComposite
         id="feComposite4379-3-8-8-6-0-7"
         in2="SourceGraphic"
         in="flood"
         operator="in"
         result="composite1" />
      <feMorphology
         id="feMorphology4393-1-0-49-8-2-7"
         operator="dilate"
         radius="0.69999999999999996"
         result="result3" />
      <feComposite
         id="feComposite4385-9-5-7-2-1-2"
         in2="result3"
         in="SourceGraphic"
         operator="over"
         result="composite2" />
    </filter>
    <filter
       style="color-interpolation-filters:sRGB"
       id="filter4375-4-1-1-15-1-3-0"
       inkscape:label="deevad outline effect">
      <feFlood
         id="feFlood4377-7-9-0-4-4-4-0"
         flood-opacity="1"
         flood-color="rgb(0,0,0)"
         result="flood" />
      <feComposite
         id="feComposite4379-3-8-8-6-0-7-3"
         in2="SourceGraphic"
         in="flood"
         operator="in"
         result="composite1" />
      <feMorphology
         id="feMorphology4393-1-0-49-8-2-7-4"
         operator="dilate"
         radius="0.90000000000000002"
         result="result3" />
      <feComposite
         id="feComposite4385-9-5-7-2-1-2-6"
         in2="result3"
         in="SourceGraphic"
         operator="over"
         result="composite2" />
    </filter>
  </defs>
  <sodipodi:namedview
     pagecolor="#ffffff"
     bordercolor="#666666"
     borderopacity="1"
     objecttolerance="10"
     gridtolerance="10"
     guidetolerance="10"
     inkscape:pageopacity="0"
     inkscape:pageshadow="2"
     inkscape:window-width="1438"
     inkscape:window-height="836"
     id="namedview4"
     showgrid="false"
     inkscape:zoom="0.30570178"
     inkscape:cx="1220.0865"
     inkscape:cy="2355.5007"
     inkscape:window-x="0"
     inkscape:window-y="0"
     inkscape:window-maximized="0"
     inkscape:current-layer="layer1"
     inkscape:snap-global="false" />
  <g
     inkscape:groupmode="layer"
     id="layer2"
     inkscape:label="artwork"
     sodipodi:insensitive="true">
    <image
       sodipodi:absref="/home/jorge/Quellcode/webcomics/ep26_Books-Are-Great/lang/es/../gfx_Pepper-and-Carrot_by-David-Revoy_E26P02.png"
       xlink:href="../gfx_Pepper-and-Carrot_by-David-Revoy_E26P02.png"
       y="0"
       x="0"
       id="image10"
       height="3503"
       width="2481" />
  </g>
  <g
     inkscape:groupmode="layer"
     id="layer3"
     inkscape:label="speechbubbles">
    <path
       style="color:#000000;display:inline;overflow:visible;visibility:visible;fill:#ffffff;fill-opacity:1;fill-rule:nonzero;stroke:none;stroke-width:1.40293348px;marker:none;enable-background:accumulate"
       d="M 76.755796,661.00169 C 69.55697,637.97962 81.273583,533.58483 248.00411,524.31738 c 166.73063,-9.26747 216.09459,74.87042 220.77236,106.31448 4.67779,31.44388 -4.27609,66.53509 -41.75601,91.14313 -33.37568,22.1727 -69.83812,22.6164 -126.89684,29.5048 -65.82555,8.8109 -168.95797,-5.0701 -198.53151,-29.5142 C 72.0187,697.32155 87.805149,702.20924 76.755796,661.00169 Z"
       id="path3365-3"
       inkscape:connector-curvature="0"
       sodipodi:nodetypes="cssccsc" />
    <path
       style="color:#000000;display:inline;overflow:visible;visibility:visible;fill:#ffffff;fill-opacity:1;fill-rule:nonzero;stroke:none;stroke-width:1.63566649px;marker:none;enable-background:accumulate"
       d="M 181.80721,311.01848 C 194.59145,543.14637 235.94745,787.00744 378.6466,837.81258 276.65833,787.36708 219.49009,550.6603 218.48358,327.373 218.27015,280.02456 199.72673,307.82462 199.72673,307.82462 Z"
       id="path4440"
       inkscape:connector-curvature="0"
       sodipodi:nodetypes="ccscc" />
    <path
       style="fill:#ffffff;stroke:none;stroke-width:1.56719446"
       d="m 1120.891,139.68806 c 34.5123,-1.52633 201.2968,-8.75943 198.7027,138.44536 -3.2503,184.45191 -4.8879,268.74038 -183.4904,265.90669 C 944.2743,540.99656 982.88297,429.75018 981.38091,290.35117 980.05115,166.94013 1028.2815,144.14925 1120.891,139.68806 Z"
       id="path3280-8"
       inkscape:connector-curvature="0"
       sodipodi:nodetypes="csssc" />
    <path
       style="color:#000000;display:inline;overflow:visible;visibility:visible;fill:#ffffff;fill-opacity:1;fill-rule:nonzero;stroke:none;stroke-width:1.45930743px;marker:none;enable-background:accumulate"
       d="m 1260.9254,841.10918 c -46.5522,5.25512 -90.1219,-52.2826 -82.2673,-117.43179 7.8551,-73.36812 7.6985,-80.57712 7.6985,-80.57712 l -55.1615,2.38205 c 0,0 13.3049,221.04208 129.7303,195.62686 z"
       id="path3072"
       inkscape:connector-curvature="0"
       inkscape:transform-center-x="-3.4248275"
       inkscape:transform-center-y="27.464172"
       sodipodi:nodetypes="ccccc" />
    <path
       style="fill:#ffffff;fill-rule:evenodd;stroke:none;stroke-width:1.48127902px;stroke-linecap:butt;stroke-linejoin:miter;stroke-opacity:1"
       d="m 965.14687,556.76974 c 42.70153,4.54774 85.19713,-2.4062 50.67473,-70.87536 33.5041,24.25582 88.6337,49.74969 127.7063,-8.63045 11.1907,73.98443 82.7445,31.71031 118.1212,-0.71602 -52.767,77.02402 64.7051,43.20508 122.6074,15.41925 -65.2014,96.60761 45.1674,43.88983 85.8666,45.89592 -86.0953,77.24885 -86.4164,133.19086 -52.4918,162.28615 -84.6113,-21.52631 -64.1478,22.09008 -74.2539,46.75419 -91.9441,-71.16452 -153.6087,-52.38252 -179.7931,11.83676 -21.8107,-28.26306 -15.9349,-89.16381 -96.3387,0.63102 29.5666,-77.51886 -9.1883,-69.38217 -71.93319,-31.1693 9.83349,-26.404 68.27849,-66.55505 -30.16554,-62.3391 61.48983,-25.10092 74.38463,-59.10344 0,-109.09306 z"
       id="path4584"
       inkscape:connector-curvature="0"
       sodipodi:nodetypes="ccccccccccccc" />
    <path
       style="fill:#ffffff;fill-opacity:1;stroke:none;stroke-width:2.27392793"
       d="m 1834.4527,202.6783 c -6.7033,-57.38746 17.0736,-96.17502 57.5548,-109.698264 51.3042,-17.138792 475.0276,-23.349852 519.6885,24.687244 41.1313,44.24065 49.7991,140.94948 -73.019,181.1277 -122.8183,40.17806 -336.0836,7.2556 -370.9752,-0.0494 -34.8916,-7.30516 -126.2712,-33.97392 -133.2491,-96.06728 z"
       id="path3659-8"
       inkscape:connector-curvature="0"
       sodipodi:nodetypes="cssssc" />
    <path
       style="fill:#ffffff;stroke:none;stroke-width:1.12429571"
       d="m 2187.8594,352.9469 c -0.8756,-41.87209 25.2691,-51.27448 51.8008,-57.16805 26.5317,-5.89345 108.9888,0.63901 102.9316,51.8773 -6.0571,51.23841 -45.9531,58.33952 -78.9162,56.07445 -32.9632,-2.2652 -71.0332,-11.10871 -75.8162,-50.7837 z"
       id="path3938"
       inkscape:connector-curvature="0"
       sodipodi:nodetypes="csssc" />
    <path
       style="color:#000000;display:inline;overflow:visible;visibility:visible;fill:#ffffff;fill-opacity:1;fill-rule:nonzero;stroke:none;stroke-width:1px;marker:none;enable-background:accumulate"
       d="m 2155.8807,413.81052 c 41.2209,-1.94348 55.6641,-5.00539 71.331,-50.72285 15.6671,-45.71761 32.4158,-38.48457 32.4158,-38.48457 l 7.7097,32.88324 c 0,0 -40.1576,94.75832 -111.4565,56.32418 z"
       id="path3072-5"
       inkscape:connector-curvature="0" />
    <path
       style="color:#000000;display:inline;overflow:visible;visibility:visible;fill:#ffffff;fill-opacity:1;fill-rule:nonzero;stroke:none;stroke-width:1.17476618px;marker:none;enable-background:accumulate"
       d="m 2034.7477,1069.1481 c 0.2341,-30.8564 32.1832,-68.5892 178.3166,-72.51656 285.1318,-7.6631 193.2254,71.92246 192.0331,91.81486 -1.1921,19.8924 -8.2661,54.9313 -29.7247,59.9045 -21.4585,4.9731 -99.1989,7.7101 -146.9037,8.3309 -41.1913,0.6206 -107.6113,2.9366 -164.6773,-25.5321 -40.6317,-26.7079 -30.1509,-45.0809 -29.044,-62.0016 z"
       id="path3365-5"
       inkscape:connector-curvature="0"
       sodipodi:nodetypes="csccccc" />
    <path
       style="fill:#ffffff;stroke:none;stroke-width:1"
       d="m 2198.814,1073.9531 c -28.3487,40.1842 -21.9808,80.5701 -11.3851,96.8521 10.5958,16.2818 -14.1224,62.2852 -32.5966,66.3613 42.1318,-2.545 63.2033,-58.0225 57.8284,-106.2564 -1.5781,-14.1607 13.8192,-31.6694 32.5349,-30.4271 17.298,1.1482 33.3984,-19.3288 33.3984,-19.3288 z"
       id="path3276"
       inkscape:connector-curvature="0"
       sodipodi:nodetypes="cscsscc" />
    <path
       style="fill:#ffffff;stroke:none;stroke-width:1.10787654"
       d="m 91.804568,2231.8244 c -1.249877,-115.6716 18.542772,-159.2399 284.381012,-172.5534 367.91982,-18.426 398.59356,78.9421 398.3727,214.6852 -0.23828,146.4577 -217.39006,154.1391 -395.14223,155.5662 -306.74092,2.4628 -278.92306,-79.2482 -287.611482,-197.698 z"
       id="path3280-8-0"
       inkscape:connector-curvature="0"
       sodipodi:nodetypes="csssc" />
    <path
       style="fill:#ffffff;stroke:none;stroke-width:1.02124143"
       d="m 753.97956,2552.522 c 3.1603,90.2631 -10.58936,124.2924 -206.33178,135.0917 -270.90725,14.9461 -295.40724,-60.9883 -297.87168,-166.9165 -2.65894,-114.2894 126.92954,-104.2221 252.93347,-117.2657 224.4192,-23.2316 242.57154,56.6711 251.26999,149.0905 z"
       id="path3280-8-0-3"
       inkscape:connector-curvature="0"
       sodipodi:nodetypes="csssc" />
    <path
       style="color:#000000;display:inline;overflow:visible;visibility:visible;fill:#ffffff;fill-opacity:1;fill-rule:nonzero;stroke:none;stroke-width:1.01475489px;marker:none;enable-background:accumulate"
       d="m 1710.08,2882.2811 c -19.0778,-35.5133 -26.5937,-128.6457 140.3591,-116.517 129.8058,7.4146 156.6883,17.9823 166.3965,50.3202 7.8995,32.338 22.9683,107.8528 -80.9774,113.9927 -95.1685,3.1567 -194.1182,0.9294 -225.7782,-47.7959 z"
       id="path3525"
       inkscape:connector-curvature="0"
       sodipodi:nodetypes="ccccc" />
    <path
       style="color:#000000;display:inline;overflow:visible;visibility:visible;fill:#ffffff;fill-opacity:1;fill-rule:nonzero;stroke:none;stroke-width:1px;marker:none;enable-background:accumulate"
       d="m 792.35455,2651.1806 c -39.68166,14.7644 -54.70734,17.7108 -90.98256,-18.7444 -36.27518,-36.4553 -48.61836,-22.9531 -48.61836,-22.9531 l 8.24342,33.8557 c 0,0 82.41413,72.4693 131.3575,7.8418 z"
       id="path3072-6"
       inkscape:connector-curvature="0" />
    <path
       style="color:#000000;display:inline;overflow:visible;visibility:visible;fill:#ffffff;fill-opacity:1;fill-rule:nonzero;stroke:none;stroke-width:1px;marker:none;enable-background:accumulate"
       d="m 1906.8058,2855.5525 c -11.668,-40.4939 -52.7016,-101.4293 -82.6596,-133.4811 -38.3689,-41.0507 -76.6896,-47.66 -96.3769,-53.0051 -19.6875,-5.3452 -31.2982,12.7891 -48.9592,14.1277 -15.1734,1.1505 -26.1286,-4.806 -34.0232,-15.7096 11.8944,27.0342 36.3658,29.4886 46.823,26.0434 10.4575,-3.4453 25.7657,-14.6687 44.6745,-6.0161 25.1659,11.5161 49.7608,25.4196 81.7002,66.2837 28.865,36.9308 50.1191,73.1577 48.6688,87.618 -1.4504,14.4605 40.1524,14.1391 40.1524,14.1391 z"
       id="path4562"
       inkscape:connector-curvature="0"
       sodipodi:nodetypes="cssscssssc" />
    <path
       sodipodi:nodetypes="csccsc"
       inkscape:connector-curvature="0"
       id="path99"
       d="m 1803.3266,941.92976 c 19.3863,-40.10864 40.8606,-73.67309 232.0479,-73.67309 244.3688,0 252.7413,71.92246 251.1817,91.81486 -1.5591,19.8924 -10.8121,54.93127 -38.8802,59.90447 -28.068,4.9731 -253.7719,5.7905 -316.1733,6.0178 -108.0717,0.3935 -146.839,-41.31432 -128.1761,-84.06404 z"
       style="color:#000000;display:inline;overflow:visible;visibility:visible;fill:#ffffff;fill-opacity:1;fill-rule:nonzero;stroke:none;stroke-width:1.17476618px;marker:none;enable-background:accumulate" />
  </g>
  <g
     inkscape:groupmode="layer"
     id="layer1"
     inkscape:label="txt">
    <path
       style="color:#000000;display:inline;overflow:visible;visibility:visible;fill:#ffffff;fill-opacity:1;fill-rule:nonzero;stroke:none;stroke-width:1.3991822px;marker:none;enable-background:accumulate"
       d="M 69.119444,210.90916 C 66.366594,188.61867 93.04319,122.44898 261.78606,121.59112 483.33839,120.46479 470.40842,232.79269 458.03381,265.79197 447.4581,293.99425 424.1088,309.62883 388.31772,330.77759 352.52664,351.92634 251.02278,354.47944 209.72951,348.53552 168.43652,342.59129 117.29479,341.41918 83.695705,302.83445 59.83254,275.43032 71.872308,216.85323 69.119444,210.90916 Z"
       id="path3365"
       inkscape:connector-curvature="0"
       sodipodi:nodetypes="csszcsc" />
    <text
       xml:space="preserve"
       style="font-style:normal;font-variant:normal;font-weight:normal;font-stretch:normal;line-height:0%;font-family:Lavi;-inkscape-font-specification:Lavi;text-align:center;letter-spacing:0px;word-spacing:0px;text-anchor:middle;fill:#000000;fill-opacity:1;stroke:none"
       x="268.7869"
       y="195.31723"
       id="text4246"><tspan
         sodipodi:role="line"
         style="font-size:45px;line-height:1.25"
         x="268.7869"
         y="195.31723"
         id="tspan835">...y cubrimos</tspan><tspan
         sodipodi:role="line"
         style="font-size:45px;line-height:1.25"
         x="268.7869"
         y="251.56723"
         id="tspan92">el ojo con un</tspan><tspan
         sodipodi:role="line"
         style="font-size:45px;line-height:1.25"
         x="268.7869"
         y="307.81723"
         id="tspan105">sombrero...</tspan></text>
    <text
       xml:space="preserve"
       style="font-style:normal;font-variant:normal;font-weight:normal;font-stretch:normal;line-height:0%;font-family:Lavi;-inkscape-font-specification:Lavi;text-align:center;letter-spacing:0px;word-spacing:0px;text-anchor:middle;fill:#000000;fill-opacity:1;stroke:none"
       x="270.85187"
       y="597.30139"
       id="text4246-3"><tspan
         sodipodi:role="line"
         style="font-size:45px;line-height:1.25"
         x="270.85187"
         y="597.30139"
         id="tspan901">...¡la puerta</tspan><tspan
         sodipodi:role="line"
         style="font-size:45px;line-height:1.25"
         x="270.85187"
         y="653.55139"
         id="tspan102">se debería abrir</tspan><tspan
         sodipodi:role="line"
         style="font-size:45px;line-height:1.25"
         x="270.85187"
         y="709.80139"
         id="tspan118">por sí sola!</tspan></text>
    <text
       xml:space="preserve"
       style="font-style:normal;font-variant:normal;font-weight:normal;font-stretch:normal;font-size:12.18017006px;line-height:0%;font-family:Lavi;-inkscape-font-specification:Lavi;text-align:center;letter-spacing:0px;word-spacing:0px;text-anchor:middle;fill:#000000;fill-opacity:1;stroke:none;stroke-width:1.01501417"
       x="1124.5769"
       y="214.81369"
       id="text4246-5"
       transform="scale(1.0150142,0.9852079)"
       sodipodi:linespacing="0%"><tspan
         sodipodi:role="line"
         style="font-style:normal;font-variant:normal;font-weight:normal;font-stretch:normal;font-size:45px;line-height:1.25;font-family:Lavi;-inkscape-font-specification:'Lavi, Normal';text-align:center;writing-mode:lr-tb;text-anchor:middle;stroke-width:1.01501417"
         x="1124.5769"
         y="214.81369"
         id="tspan3421">Aconseja</tspan><tspan
         sodipodi:role="line"
         style="font-style:normal;font-variant:normal;font-weight:normal;font-stretch:normal;font-size:45px;line-height:1.25;font-family:Lavi;-inkscape-font-specification:'Lavi, Normal';text-align:center;writing-mode:lr-tb;text-anchor:middle;stroke-width:1.01501417"
         x="1124.5769"
         y="271.06369"
         id="tspan110">igualmente</tspan><tspan
         sodipodi:role="line"
         style="font-style:normal;font-variant:normal;font-weight:normal;font-stretch:normal;font-size:45px;line-height:1.25;font-family:Lavi;-inkscape-font-specification:'Lavi, Normal';text-align:center;writing-mode:lr-tb;text-anchor:middle;stroke-width:1.01501417"
         x="1124.5769"
         y="327.31369"
         id="tspan112">dejar el</tspan><tspan
         sodipodi:role="line"
         style="font-style:normal;font-variant:normal;font-weight:normal;font-stretch:normal;font-size:45px;line-height:1.25;font-family:Lavi;-inkscape-font-specification:'Lavi, Normal';text-align:center;writing-mode:lr-tb;text-anchor:middle;stroke-width:1.01501417"
         x="1124.5769"
         y="383.56369"
         id="tspan114">sombrero ahí</tspan><tspan
         sodipodi:role="line"
         style="font-style:normal;font-variant:normal;font-weight:normal;font-stretch:normal;font-size:45px;line-height:1.25;font-family:Lavi;-inkscape-font-specification:'Lavi, Normal';text-align:center;writing-mode:lr-tb;text-anchor:middle;stroke-width:1.01501417"
         x="1124.5769"
         y="439.81369"
         id="tspan153">para escapar</tspan><tspan
         sodipodi:role="line"
         style="font-style:normal;font-variant:normal;font-weight:normal;font-stretch:normal;font-size:45px;line-height:1.25;font-family:Lavi;-inkscape-font-specification:'Lavi, Normal';text-align:center;writing-mode:lr-tb;text-anchor:middle;stroke-width:1.01501417"
         x="1124.5769"
         y="496.06369"
         id="tspan159">fácilmente!</tspan></text>
    <text
       xml:space="preserve"
       style="font-style:normal;font-variant:normal;font-weight:normal;font-stretch:normal;line-height:0%;font-family:Lavi;-inkscape-font-specification:Lavi;text-align:center;letter-spacing:0px;word-spacing:0px;text-anchor:middle;fill:#000000;fill-opacity:1;stroke:none"
       x="1200.27"
       y="575.17053"
       id="text4246-1"><tspan
         sodipodi:role="line"
         style="font-style:normal;font-variant:normal;font-weight:bold;font-stretch:normal;font-size:45px;line-height:1.25;font-family:Lavi;-inkscape-font-specification:'Lavi Bold'"
         x="1200.27"
         y="575.17053"
         id="tspan1013">¡Los libros son</tspan><tspan
         sodipodi:role="line"
         style="font-style:normal;font-variant:normal;font-weight:bold;font-stretch:normal;font-size:45px;line-height:1.25;font-family:Lavi;-inkscape-font-specification:'Lavi Bold'"
         x="1200.27"
         y="631.42053"
         id="tspan165">verdaderamente</tspan><tspan
         sodipodi:role="line"
         style="font-style:normal;font-variant:normal;font-weight:bold;font-stretch:normal;font-size:45px;line-height:1.25;font-family:Lavi;-inkscape-font-specification:'Lavi Bold'"
         x="1200.27"
         y="687.67053"
         id="tspan167">geniales!</tspan></text>
    <text
       xml:space="preserve"
       style="font-style:normal;font-variant:normal;font-weight:normal;font-stretch:normal;line-height:0%;font-family:Lavi;-inkscape-font-specification:Lavi;text-align:center;letter-spacing:0px;word-spacing:0px;text-anchor:middle;fill:#000000;fill-opacity:1;stroke:none"
       x="2364.6357"
       y="159.40961"
       id="text4246-5-5"><tspan
         sodipodi:role="line"
         style="font-style:italic;font-variant:normal;font-weight:normal;font-stretch:normal;font-size:45px;line-height:1.25;font-family:Lavi;-inkscape-font-specification:'Lavi Italic';text-align:end;text-anchor:end"
         x="2378.6982"
         y="159.40961"
         id="tspan91">«Salta directamente por </tspan><tspan
         sodipodi:role="line"
         style="font-style:italic;font-variant:normal;font-weight:normal;font-stretch:normal;font-size:45px;line-height:1.25;font-family:Lavi;-inkscape-font-specification:'Lavi Italic';text-align:end;text-anchor:end"
         x="2364.6357"
         y="215.65961"
         id="tspan108">encima de la barandilla</tspan><tspan
         sodipodi:role="line"
         style="font-style:italic;font-variant:normal;font-weight:normal;font-stretch:normal;font-size:45px;line-height:1.25;font-family:Lavi;-inkscape-font-specification:'Lavi Italic';text-align:end;text-anchor:end"
         x="2364.6357"
         y="271.90961"
         id="tspan103">del primer balcón.»</tspan></text>
    <text
       xml:space="preserve"
       style="font-style:normal;font-variant:normal;font-weight:normal;font-stretch:normal;line-height:0%;font-family:Lavi;-inkscape-font-specification:Lavi;text-align:center;letter-spacing:0px;word-spacing:0px;text-anchor:middle;fill:#000000;fill-opacity:1;stroke:none"
       x="2266.8933"
       y="365.76685"
       id="text4246-1-3"><tspan
         sodipodi:role="line"
         style="font-style:normal;font-variant:normal;font-weight:bold;font-stretch:normal;font-size:45px;line-height:1.25;font-family:Lavi;-inkscape-font-specification:'Lavi Bold'"
         x="2266.8933"
         y="365.76685"
         id="tspan1013-7">¡OK!</tspan></text>
    <text
       xml:space="preserve"
       style="color:#000000;font-style:normal;font-variant:normal;font-weight:normal;font-stretch:normal;font-size:12.00003719px;line-height:0.01%;font-family:Lavi;-inkscape-font-specification:'Lavi, Normal';font-variant-ligatures:normal;font-variant-caps:normal;font-variant-numeric:normal;font-feature-settings:normal;text-align:start;letter-spacing:0.00204969px;word-spacing:0px;writing-mode:lr-tb;text-anchor:start;display:inline;overflow:visible;visibility:visible;fill:#ffffff;fill-opacity:1;fill-rule:nonzero;stroke:#ffffff;stroke-width:0.0836072;stroke-linecap:butt;stroke-linejoin:miter;stroke-miterlimit:4;stroke-dasharray:none;stroke-dashoffset:0;stroke-opacity:1;marker:none;filter:url(#filter4375-4-1-1-15-1-3);enable-background:accumulate"
       x="1125.3203"
       y="1091.2349"
       id="text1702"
       transform="matrix(5.7002708,-3.8236609,4.4936667,6.6234627,-10758.403,-1062.624)"><tspan
         sodipodi:role="line"
         id="tspan1032"
         x="1125.3203"
         y="1091.2349"
         style="font-style:normal;font-variant:normal;font-weight:bold;font-stretch:normal;font-family:Lavi;-inkscape-font-specification:'Lavi Bold'">BOING</tspan></text>
    <text
       xml:space="preserve"
       style="color:#000000;font-style:normal;font-variant:normal;font-weight:normal;font-stretch:normal;font-size:12.00003719px;line-height:0.01%;font-family:Lavi;-inkscape-font-specification:'Lavi, Normal';font-variant-ligatures:normal;font-variant-caps:normal;font-variant-numeric:normal;font-feature-settings:normal;text-align:start;letter-spacing:0.00204969px;word-spacing:0px;writing-mode:lr-tb;text-anchor:start;display:inline;overflow:visible;visibility:visible;fill:#ffffff;fill-opacity:1;fill-rule:nonzero;stroke:#ffffff;stroke-width:0.12600572;stroke-linecap:butt;stroke-linejoin:miter;stroke-miterlimit:4;stroke-dasharray:none;stroke-dashoffset:0;stroke-opacity:1;marker:none;filter:url(#filter4375-4-1-1-15-1-3-0);enable-background:accumulate"
       x="1125.3203"
       y="1091.2349"
       id="text1702-6"
       transform="matrix(3.1869294,3.2574207,-3.7023322,3.8125721,2178.3718,-6093.6173)"><tspan
         sodipodi:role="line"
         id="tspan1032-0"
         x="1125.3203"
         y="1091.2349"
         style="font-style:normal;font-variant:normal;font-weight:bold;font-stretch:normal;font-family:Lavi;-inkscape-font-specification:'Lavi Bold';stroke-width:0.12600572;stroke-miterlimit:4;stroke-dasharray:none">BOING</tspan></text>
    <text
       xml:space="preserve"
       style="font-style:italic;font-variant:normal;font-weight:normal;font-stretch:normal;font-size:45px;line-height:0%;font-family:Lavi;-inkscape-font-specification:'Lavi, Italic';font-variant-ligatures:normal;font-variant-caps:normal;font-variant-numeric:normal;font-feature-settings:normal;text-align:center;letter-spacing:0px;word-spacing:0px;writing-mode:lr-tb;text-anchor:middle;fill:#000000;fill-opacity:1;stroke:none"
       x="2048.7905"
       y="935.24103"
       id="text4246-5-5-2"><tspan
         sodipodi:role="line"
         style="font-style:italic;font-variant:normal;font-weight:normal;font-stretch:normal;font-size:45px;line-height:1.25;font-family:Lavi;-inkscape-font-specification:'Lavi, Italic';font-variant-ligatures:normal;font-variant-caps:normal;font-variant-numeric:normal;font-feature-settings:normal;text-align:center;writing-mode:lr-tb;text-anchor:middle"
         x="2048.7905"
         y="935.24103"
         id="tspan544">«Notarás una</tspan><tspan
         sodipodi:role="line"
         style="font-style:italic;font-variant:normal;font-weight:normal;font-stretch:normal;font-size:45px;line-height:1.25;font-family:Lavi;-inkscape-font-specification:'Lavi, Italic';font-variant-ligatures:normal;font-variant-caps:normal;font-variant-numeric:normal;font-feature-settings:normal;text-align:center;writing-mode:lr-tb;text-anchor:middle"
         x="2048.7905"
         y="991.49103"
         id="tspan115">sensación de caída.»</tspan></text>
    <text
       xml:space="preserve"
       style="font-style:normal;font-variant:normal;font-weight:normal;font-stretch:normal;line-height:0%;font-family:Lavi;-inkscape-font-specification:Lavi;text-align:center;letter-spacing:0px;word-spacing:0px;text-anchor:middle;fill:#000000;fill-opacity:1;stroke:none"
       x="423.79025"
       y="2153.9119"
       id="text4246-5-5-2-0"><tspan
         sodipodi:role="line"
         style="font-style:italic;font-variant:normal;font-weight:normal;font-stretch:normal;font-size:45px;line-height:1.25;font-family:Lavi;-inkscape-font-specification:'Lavi Italic';text-align:center;text-anchor:middle"
         x="423.79025"
         y="2153.9119"
         id="tspan564">«Disfruta de la comodidad</tspan><tspan
         sodipodi:role="line"
         style="font-style:italic;font-variant:normal;font-weight:normal;font-stretch:normal;font-size:45px;line-height:1.25;font-family:Lavi;-inkscape-font-specification:'Lavi Italic';text-align:center;text-anchor:middle"
         x="423.79025"
         y="2210.1619"
         id="tspan117">de la tela iluminada sin ningún</tspan><tspan
         sodipodi:role="line"
         style="font-style:italic;font-variant:normal;font-weight:normal;font-stretch:normal;font-size:45px;line-height:1.25;font-family:Lavi;-inkscape-font-specification:'Lavi Italic';text-align:center;text-anchor:middle"
         x="430.8215"
         y="2266.4119"
         id="tspan119">riesgo: estas arañas </tspan><tspan
         sodipodi:role="line"
         style="font-style:italic;font-variant:normal;font-weight:normal;font-stretch:normal;font-size:45px;line-height:1.25;font-family:Lavi;-inkscape-font-specification:'Lavi Italic';text-align:center;text-anchor:middle"
         x="430.8215"
         y="2322.6619"
         id="tspan261">fotosintéticas se alimentan </tspan><tspan
         sodipodi:role="line"
         style="font-style:italic;font-variant:normal;font-weight:normal;font-stretch:normal;font-size:45px;line-height:1.25;font-family:Lavi;-inkscape-font-specification:'Lavi Italic';text-align:center;text-anchor:middle"
         x="423.79025"
         y="2378.9119"
         id="tspan139">de la luz que se refleja.»</tspan></text>
    <flowRoot
       xml:space="preserve"
       id="flowRoot1141"
       style="fill:black;stroke:none;stroke-opacity:1;stroke-width:1px;stroke-linejoin:miter;stroke-linecap:butt;fill-opacity:1;font-family:Lavi;font-style:normal;font-weight:normal;font-size:0.66666667px;line-height:0%;letter-spacing:0px;word-spacing:0px;-inkscape-font-specification:Lavi;font-stretch:normal;font-variant:normal;text-anchor:middle;text-align:center;writing-mode:lr"><flowRegion
         id="flowRegion1143"><rect
           id="rect1145"
           width="37.375"
           height="11.5"
           x="1802.6249"
           y="2272.5" /></flowRegion><flowPara
         id="flowPara1147" /></flowRoot>    <text
       xml:space="preserve"
       style="font-style:normal;font-variant:normal;font-weight:normal;font-stretch:normal;line-height:0%;font-family:Lavi;-inkscape-font-specification:Lavi;text-align:center;letter-spacing:0px;word-spacing:0px;text-anchor:middle;fill:#000000;fill-opacity:1;stroke:none"
       x="497.5051"
       y="2484.1272"
       id="text4246-5-5-2-0-7"><tspan
         sodipodi:role="line"
         style="font-style:italic;font-variant:normal;font-weight:normal;font-stretch:normal;font-size:45px;line-height:1.25;font-family:Lavi;-inkscape-font-specification:'Lavi Italic';text-align:center;text-anchor:middle"
         x="497.5051"
         y="2484.1272"
         id="tspan1226">«Recomiendo echar</tspan><tspan
         sodipodi:role="line"
         style="font-style:italic;font-variant:normal;font-weight:normal;font-stretch:normal;font-size:45px;line-height:1.25;font-family:Lavi;-inkscape-font-specification:'Lavi Italic';text-align:center;text-anchor:middle"
         x="497.5051"
         y="2540.3772"
         id="tspan292">una siesta rápida para</tspan><tspan
         sodipodi:role="line"
         style="font-style:italic;font-variant:normal;font-weight:normal;font-stretch:normal;font-size:45px;line-height:1.25;font-family:Lavi;-inkscape-font-specification:'Lavi Italic';text-align:center;text-anchor:middle"
         x="497.5051"
         y="2596.6272"
         id="tspan304">recuperar todas</tspan><tspan
         sodipodi:role="line"
         style="font-style:italic;font-variant:normal;font-weight:normal;font-stretch:normal;font-size:45px;line-height:1.25;font-family:Lavi;-inkscape-font-specification:'Lavi Italic';text-align:center;text-anchor:middle"
         x="497.5051"
         y="2652.8772"
         id="tspan300">las fuerzas. »</tspan></text>
    <text
       xml:space="preserve"
       style="font-style:normal;font-variant:normal;font-weight:normal;font-stretch:normal;font-size:14.09488487px;line-height:0%;font-family:Lavi;-inkscape-font-specification:Lavi;text-align:center;letter-spacing:0px;word-spacing:0px;text-anchor:middle;fill:#000000;fill-opacity:1;stroke:none;stroke-width:1"
       x="1844.5907"
       y="2866.0083"
       id="text4246-1-8"
       transform="scale(1.0104523,0.98965582)"><tspan
         sodipodi:role="line"
         style="font-style:normal;font-variant:normal;font-weight:bold;font-stretch:normal;font-size:52.8558197px;line-height:1.25;font-family:Lavi;-inkscape-font-specification:'Lavi Bold';stroke-width:1"
         x="1844.5907"
         y="2866.0083"
         id="tspan1251">¡Adoro los</tspan><tspan
         sodipodi:role="line"
         style="font-style:normal;font-variant:normal;font-weight:bold;font-stretch:normal;font-size:52.8558197px;line-height:1.25;font-family:Lavi;-inkscape-font-specification:'Lavi Bold';stroke-width:1"
         x="1844.5907"
         y="2932.0781"
         id="tspan308">libros!</tspan></text>
    <text
       xml:space="preserve"
       style="color:#000000;font-style:normal;font-variant:normal;font-weight:normal;font-stretch:normal;font-size:11.10639572px;line-height:0.01%;font-family:Arial;-inkscape-font-specification:Arial;letter-spacing:0.89570737px;word-spacing:0px;display:inline;overflow:visible;visibility:visible;fill:#e69d76;fill-opacity:1;fill-rule:nonzero;stroke:#e99f77;stroke-width:4.05566978;stroke-opacity:1;marker:none;enable-background:accumulate"
       x="617.72089"
       y="603.46979"
       id="text1711"
       transform="matrix(0.78576578,-0.49307246,0.54549744,0.93034115,0,0)"><tspan
         sodipodi:role="line"
         x="618.16876"
         y="603.46979"
         id="tspan1709"
         style="letter-spacing:0.89570737px;word-spacing:0px;fill:#ffffff;fill-opacity:1;stroke:#ffffff;stroke-width:4.05566978;stroke-opacity:1"><tspan
           x="617.72089"
           y="603.46979"
           style="color:#000000;font-style:normal;font-variant:normal;font-weight:normal;font-stretch:normal;font-size:59.2341156px;line-height:1.25;font-family:Lavi;-inkscape-font-specification:Lavi;text-align:center;letter-spacing:0.89570737px;word-spacing:0px;text-anchor:middle;display:inline;overflow:visible;visibility:visible;fill:#ffffff;fill-opacity:1;fill-rule:nonzero;stroke:#ffffff;stroke-width:3.1970036;stroke-miterlimit:4;stroke-dasharray:none;stroke-opacity:1;marker:none;enable-background:accumulate"
           id="tspan1707">¡Puf!</tspan></tspan></text>
    <text
       id="text111"
       y="1063.616"
       x="2228.053"
       style="font-style:italic;font-variant:normal;font-weight:normal;font-stretch:normal;font-size:45px;line-height:0%;font-family:Lavi;-inkscape-font-specification:'Lavi, Italic';font-variant-ligatures:normal;font-variant-caps:normal;font-variant-numeric:normal;font-feature-settings:normal;text-align:center;letter-spacing:0px;word-spacing:0px;writing-mode:lr-tb;text-anchor:middle;fill:#000000;fill-opacity:1;stroke:none"
       xml:space="preserve"><tspan
         id="tspan109"
         y="1063.616"
         x="2228.053"
         style="font-style:italic;font-variant:normal;font-weight:normal;font-stretch:normal;font-size:45px;line-height:1.25;font-family:Lavi;-inkscape-font-specification:'Lavi, Italic';font-variant-ligatures:normal;font-variant-caps:normal;font-variant-numeric:normal;font-feature-settings:normal;text-align:center;writing-mode:lr-tb;text-anchor:middle"
         sodipodi:role="line">«Es normal.</tspan><tspan
         y="1119.866"
         x="2228.053"
         style="font-style:italic;font-variant:normal;font-weight:normal;font-stretch:normal;font-size:45px;line-height:1.25;font-family:Lavi;-inkscape-font-specification:'Lavi, Italic';font-variant-ligatures:normal;font-variant-caps:normal;font-variant-numeric:normal;font-feature-settings:normal;text-align:center;writing-mode:lr-tb;text-anchor:middle"
         sodipodi:role="line"
         id="tspan116">Es un atajo.»</tspan></text>
    <text
       xml:space="preserve"
       style="font-style:normal;font-variant:normal;font-weight:normal;font-stretch:normal;font-size:13.33333302px;line-height:139.99999762%;font-family:sans-serif;-inkscape-font-specification:'sans-serif, Normal';font-variant-ligatures:normal;font-variant-caps:normal;font-variant-numeric:normal;font-feature-settings:normal;text-align:center;letter-spacing:0px;word-spacing:0px;writing-mode:lr-tb;text-anchor:middle;fill:#000000;fill-opacity:1;stroke:none;stroke-width:1px;stroke-linecap:butt;stroke-linejoin:miter;stroke-opacity:1"
       x="1826.1614"
       y="992.17261"
       id="text126"><tspan
         sodipodi:role="line"
         id="tspan124"
         x="1826.1614"
         y="1004.9695" /></text>
  </g>
</svg>
