<?xml version="1.0" encoding="UTF-8" standalone="no"?>
<!-- Created with Inkscape (http://www.inkscape.org/) -->

<svg
   xmlns:dc="http://purl.org/dc/elements/1.1/"
   xmlns:cc="http://creativecommons.org/ns#"
   xmlns:rdf="http://www.w3.org/1999/02/22-rdf-syntax-ns#"
   xmlns:svg="http://www.w3.org/2000/svg"
   xmlns="http://www.w3.org/2000/svg"
   xmlns:xlink="http://www.w3.org/1999/xlink"
   xmlns:sodipodi="http://sodipodi.sourceforge.net/DTD/sodipodi-0.dtd"
   xmlns:inkscape="http://www.inkscape.org/namespaces/inkscape"
   id="svg2"
   version="1.1"
   inkscape:version="0.92.5 (2060ec1f9f, 2020-04-08)"
   width="2481"
   height="3503"
   sodipodi:docname="E36P11.svg">
  <metadata
     id="metadata8">
    <rdf:RDF>
      <cc:Work
         rdf:about="">
        <dc:format>image/svg+xml</dc:format>
        <dc:type
           rdf:resource="http://purl.org/dc/dcmitype/StillImage" />
      </cc:Work>
    </rdf:RDF>
  </metadata>
  <defs
     id="defs6" />
  <sodipodi:namedview
     pagecolor="#1e1e1e"
     bordercolor="#111111"
     borderopacity="1"
     objecttolerance="10"
     gridtolerance="10"
     guidetolerance="10"
     inkscape:pageopacity="0"
     inkscape:pageshadow="2"
     inkscape:window-width="1366"
     inkscape:window-height="704"
     id="namedview4"
     showgrid="false"
     inkscape:zoom="0.32526913"
     inkscape:cx="1155.9658"
     inkscape:cy="845.45372"
     inkscape:window-x="0"
     inkscape:window-y="27"
     inkscape:window-maximized="1"
     inkscape:current-layer="layer3"
     inkscape:pagecheckerboard="0"
     inkscape:snap-global="false" />
  <g
     inkscape:groupmode="layer"
     id="layer2"
     inkscape:label="artwork"
     sodipodi:insensitive="true">
    <image
       sodipodi:absref="/home/juanjo/Comics/lang-ep36/es/../gfx_Pepper-and-Carrot_by-David-Revoy_E36P11.png"
       xlink:href="../gfx_Pepper-and-Carrot_by-David-Revoy_E36P11.png"
       width="2481"
       height="3503"
       id="image10"
       x="0"
       y="0" />
  </g>
  <g
     inkscape:groupmode="layer"
     id="layer3"
     inkscape:label="speechbubbles"
     style="display:inline">
    <path
       style="color:#000000;display:inline;overflow:visible;visibility:visible;fill:#ffffff;fill-opacity:1;fill-rule:nonzero;stroke:none;stroke-width:0.649444px;marker:none;enable-background:accumulate"
       d="m 384.22008,282.95177 c -36.52082,21.41551 -81.08506,17.53589 -121.80587,16.52247 -42.52036,-3.44423 -93.06761,-16.67254 -112.2994,-58.54734 -17.96129,-38.78476 2.10016,-87.11707 40.45297,-105.22628 35.18838,-16.98124 75.64954,-18.66814 114.10065,-19.46171 49.92399,1.16875 104.76155,32.33519 112.49934,84.58625 4.21244,30.58574 -9.514,62.20135 -32.94769,82.12661 z"
       id="path4040-40"
       inkscape:connector-curvature="0"
       sodipodi:nodetypes="zssssz" />
    <path
       style="color:#000000;display:inline;overflow:visible;visibility:visible;fill:#ffffff;fill-opacity:1;fill-rule:nonzero;stroke:none;stroke-width:0.895703px;marker:none;enable-background:accumulate"
       d="m 617.61025,105.88672 c -27.34146,0.48289 -55.30789,1.99485 -81.01026,10.55273 -19.27663,6.28483 -36.60817,17.59434 -46.89078,32.88401 -10.78797,15.11503 -15.24648,32.66921 -17.99958,49.9598 -3.75274,20.5909 -5.45897,42.02901 1.14989,62.34728 10.14236,29.028 40.31222,51.93542 75.16053,58.49046 45.59561,10.88095 94.50308,13.37614 140.83587,4.25676 26.56867,-5.64189 52.37207,-15.47968 72.95579,-30.96068 13.87857,-11.91714 20.4242,-28.63021 21.90443,-45.0154 2.97723,-25.0214 3.57178,-50.80265 -4.83215,-75.17205 -8.00131,-22.85714 -29.42504,-41.60583 -55.43746,-50.51416 -20.18886,-7.20666 -41.79469,-10.9992 -63.31684,-14.11157 -14.05315,-1.87992 -28.28771,-2.85024 -42.51944,-2.71718 z"
       id="path3365-90"
       inkscape:connector-curvature="0"
       sodipodi:nodetypes="csssssc" />
    <path
       style="color:#000000;display:inline;overflow:visible;visibility:visible;fill:#ffffff;fill-opacity:1;fill-rule:nonzero;stroke:none;stroke-width:1.01249px;marker:none;enable-background:accumulate"
       d="m 831.70611,253.23429 c 0.65189,-53.37318 13.35058,-103.84716 125.92177,-102.10038 84.40642,1.30895 106.88442,42.43199 108.75442,96.38138 1.318,38.01967 -44.3465,73.2116 -116.86614,71.34686 -69.31484,-1.78194 -112.74092,-24.9245 -117.81005,-65.62786 z"
       id="path5026-3"
       inkscape:connector-curvature="0"
       sodipodi:nodetypes="csssc" />
    <path
       style="color:#000000;display:inline;overflow:visible;visibility:visible;fill:#ffffff;fill-opacity:1;fill-rule:nonzero;stroke:none;stroke-width:1.06703px;marker:none;enable-background:accumulate"
       d="m 958.1944,309.83323 c -43.34053,0.0194 -52.18434,75.22752 -14.63328,128.2568 -16.5114,-21.59304 -72.61174,-61.13455 -7.77479,-172.66812 29.32893,-50.45175 14.74185,29.39163 14.74185,29.39163 z"
       id="path4035-4"
       inkscape:connector-curvature="0"
       sodipodi:nodetypes="ccscc" />
    <path
       style="color:#000000;display:inline;overflow:visible;visibility:visible;fill:#ffffff;fill-opacity:1;fill-rule:nonzero;stroke:none;stroke-width:0.981579px;marker:none;enable-background:accumulate"
       d="m 1009.012,1094.6346 c -26.43581,1.1484 -53.24587,7.7527 -76.27963,23.5314 -16.40054,12.3784 -26.93722,33.445 -31.19305,55.4641 -7.94354,38.6136 -10.6984,79.112 -5.14873,118.4482 2.35716,16.0514 5.9219,32.0482 12.17216,46.6559 4.1586,9.2339 10.51963,17.1216 18.3892,22.066 10.67207,7.4415 22.22492,12.9311 33.76261,18.2058 22.82406,9.5453 47.08524,13.0032 71.13634,14.9446 11.3654,0.8281 22.7583,-0.7563 33.8165,-3.8244 14.447,-3.9599 28.4874,-9.8455 42.046,-16.8758 17.888,-9.9344 34.6397,-24.5383 44.7245,-44.9041 9.8558,-19.8239 13.0333,-42.9855 14.4971,-65.5549 2.0786,-29.3229 1.301,-59.5941 -7.1468,-87.5786 -7.7166,-24.7296 -23.8246,-45.787 -44.2321,-56.861 -23.7669,-13.5387 -50.1839,-18.4822 -76.1744,-22.1318 -10.0801,-1.2491 -20.2336,-1.8989 -30.3697,-1.5854 z"
       id="path3365-90-4"
       inkscape:connector-curvature="0"
       sodipodi:nodetypes="csssssc" />
    <path
       style="fill:#ffffff;fill-rule:evenodd;stroke:none;stroke-width:1.18884px;stroke-linecap:butt;stroke-linejoin:miter;stroke-opacity:1"
       d="m 1051.5368,1104.645 c -7.0579,-18.4075 1.4646,-58.4739 28.7582,-72.4342 -20.0938,4.5574 -50.5407,19.6541 -55.3048,46.5586 -7.4355,41.9896 24.8168,27.8537 24.8168,27.8537 z"
       id="path4248"
       inkscape:connector-curvature="0"
       sodipodi:nodetypes="ccscc" />
    <path
       style="color:#000000;display:inline;overflow:visible;visibility:visible;fill:#ffffff;fill-opacity:1;fill-rule:nonzero;stroke:none;stroke-width:1.62144685px;marker:none;enable-background:accumulate"
       d="m 1774.6771,1162.7594 c -60.7872,1.2799 -121.3674,6.0446 -181.7694,11.5238 -26.449,2.7708 -53.9248,6.2437 -76.8087,18.1612 -34.9143,18.1514 -57.9398,51.1376 -57.3519,85.0387 -1.2787,25.1978 3.6908,51.7072 21.4512,72.9215 19.2163,22.5647 50.8801,36.6132 83.6608,41.4064 45.3006,7.6948 91.6297,9.9039 137.2474,15.977 72.3316,7.911 144.4944,17.4222 217.3453,21.6447 70.8192,2.3942 141.5061,-8.5797 208.3971,-27.0199 28.5251,-7.1245 57.8177,-15.249 80.6387,-31.5174 21.9365,-15.4348 34.5372,-38.6443 35.843,-62.0743 2.8606,-23.2801 0.7613,-47.5211 -10.5957,-69.2323 -10.3621,-18.0119 -29.5332,-32.2123 -51.9424,-39.9111 -31.6813,-12.1393 -66.3806,-17.3807 -100.467,-22.9672 -60.3621,-8.9285 -121.8267,-11.1017 -183.0497,-11.951 -40.8599,-0.8703 -81.7184,-2.084 -122.5987,-2.0001 z"
       id="path4546-6-5"
       inkscape:connector-curvature="0"
       sodipodi:nodetypes="cssssc" />
    <path
       style="color:#000000;display:inline;overflow:visible;visibility:visible;fill:#ffffff;fill-opacity:1;fill-rule:nonzero;stroke:none;stroke-width:1.05454px;marker:none;enable-background:accumulate"
       d="m 1694.5582,1378.7198 c -16.5897,0.7686 -33.3872,1.5531 -49.5727,6.4878 -20.4238,6.7228 -39.6203,21.5376 -50.1742,43.0811 -7.2956,15.3973 -7.6929,34.7592 -0.5003,49.9925 7.831,17.3844 22.3661,29.2546 37.4982,37.5218 24.6702,13.303 52.3221,17.0248 79.4036,19.2006 32.811,2.4153 65.7606,1.7256 98.6464,2.3266 62.1928,0.3822 124.4354,1.051 186.6353,-2.7314 23.8635,-1.8246 47.8705,-4.3611 71.1495,-11.3215 17.2399,-5.5469 34.4602,-14.8541 46.1389,-30.9849 12.8174,-18.2228 15.4604,-44.8387 6.2491,-65.318 -7.7439,-18.297 -22.8665,-31.6625 -39.869,-37.2899 -36.2583,-14.7003 -75.6038,-19.0046 -114.0937,-14.3817 -23.6774,2.5405 -47.4342,6.3149 -71.1987,4.5964 -26.7443,-1.2172 -53.4535,-3.4825 -80.2621,-3.1143 -38.6398,-0.3109 -77.2973,0.9637 -115.9451,1.7698 -1.3684,0.055 -2.7369,0.1102 -4.1052,0.1654 z"
       id="path4546-6-5-7-9"
       inkscape:connector-curvature="0"
       sodipodi:nodetypes="cssssc" />
    <path
       style="color:#000000;display:inline;overflow:visible;visibility:visible;fill:#ffffff;fill-opacity:1;fill-rule:nonzero;stroke:none;stroke-width:1.16782px;marker:none;enable-background:accumulate"
       d="m 1834.6759,1063.9074 c -58.4661,16.7056 -74.2086,55.188 -42.9987,96.676 31.21,41.487 10.2962,43.1429 10.2962,43.1429 l -38.5277,-15.376 c 0,0 -61.7873,-122.5503 71.2302,-124.4429 z"
       id="path3072-56"
       inkscape:connector-curvature="0"
       sodipodi:nodetypes="ccccc" />
    <path
       style="color:#000000;display:inline;overflow:visible;visibility:visible;fill:#ffffff;fill-opacity:1;fill-rule:nonzero;stroke:none;stroke-width:0.573748px;marker:none;enable-background:accumulate"
       d="m 160.63477,1627.5134 c 15.21148,-13.7787 202.8582,-23.5914 246.20663,7.571 30.20959,21.7169 18.55564,63.3637 -7.33783,74.2047 -25.89348,10.8417 -150.90537,13.8952 -186.43591,8.3737 -31.95093,-4.9645 -65.48819,-15.6511 -67.25632,-44.0939 -0.72163,-11.6083 -0.38805,-32.2773 14.82343,-46.0555 z"
       id="path4040-5"
       inkscape:connector-curvature="0"
       sodipodi:nodetypes="zssssz" />
    <path
       style="color:#000000;display:inline;overflow:visible;visibility:visible;fill:#ffffff;fill-opacity:1;fill-rule:nonzero;stroke:none;stroke-width:0.791779px;marker:none;enable-background:accumulate"
       d="m 233.22496,1712.5896 c 17.72695,-22.517 236.40418,-38.5528 286.921,12.3724 35.20525,35.4896 21.62412,103.5483 -8.55126,121.2646 -30.1754,17.7174 -175.86009,22.7074 -217.26619,13.6842 -37.23455,-8.1128 -76.31776,-25.5768 -78.37828,-72.0577 -0.84094,-18.9703 -0.45222,-52.7473 17.27473,-75.2635 z"
       id="path4040-5-3"
       inkscape:connector-curvature="0"
       sodipodi:nodetypes="zssssz" />
    <path
       style="color:#000000;display:inline;overflow:visible;visibility:visible;fill:#ffffff;fill-opacity:1;fill-rule:nonzero;stroke:none;stroke-width:0.855677px;marker:none;enable-background:accumulate"
       d="m 467.32955,1948.136 c 13.3495,-41.5666 52.33232,-60.4288 7.51958,-104.8642 -33.47159,-33.1897 12.91326,-29.7973 12.91326,-29.7973 0,0 5.02259,-41.3782 24.01835,27.0751 18.99576,68.4534 -9.8869,64.3755 -44.45119,107.5864 z"
       id="path3072-6"
       inkscape:connector-curvature="0"
       sodipodi:nodetypes="csczc" />
    <path
       style="fill:#ffffff;stroke:none;stroke-width:1.06269"
       d="m 648.85732,1730.1201 c -11.22175,-76.5007 70.8139,-115.1924 131.15308,-112.723 88.78518,-8.7008 178.60453,-5.3418 267.0976,4.4695 66.501,10.7781 109.1027,94.2417 71.8849,156.3201 -42.1876,64.3363 -124.96626,56.6219 -190.17054,62.9721 -75.86992,1.7482 -155.17027,-0.035 -226.33463,-30.4452 -28.1094,-16.6843 -46.54473,-47.7754 -53.63041,-80.5935 z"
       id="path3286-6"
       inkscape:connector-curvature="0"
       sodipodi:nodetypes="csssssssc" />
    <path
       style="fill:#ffffff;stroke:none;stroke-width:1.09297752"
       d="m 635.16386,1887.4266 c -13.33293,-68.1098 84.13628,-102.5575 155.8272,-100.3591 105.48854,-7.7464 212.20584,-4.7559 317.34714,3.9793 79.0121,9.5959 129.6285,83.9049 85.4088,139.1742 -50.1244,57.2796 -148.4762,50.4114 -225.94762,56.0651 -90.14348,1.5564 -184.36287,-0.031 -268.91549,-27.1059 -33.39769,-14.8542 -55.3013,-42.5351 -63.72003,-71.7536 z"
       id="path3286-6-7"
       inkscape:connector-curvature="0"
       sodipodi:nodetypes="csssssssc" />
    <path
       style="fill:#ffffff;stroke:none;stroke-width:0.835231"
       d="m 732.86459,1988.2364 c -3.51573,-53.9327 71.56051,-81.2101 124.22701,-79.4692 78.51387,-6.134 156.938,-3.7659 233.6672,3.151 57.3795,7.5985 87.8161,66.44 50.0791,110.205 -42.2782,45.3569 -114.1735,39.9181 -171.83111,44.3951 -66.62314,1.2324 -135.96052,-0.025 -195.80508,-21.4638 -23.25234,-11.7623 -36.83844,-33.6814 -40.33712,-56.8181 z"
       id="path3286-6-7-4"
       inkscape:connector-curvature="0"
       sodipodi:nodetypes="csssssssc" />
    <path
       style="fill:#ffffff;stroke:none;stroke-width:0.77287"
       d="m 1551.5063,2263.7186 c -42.4656,0.9856 -85.3665,1.4285 -127.0007,8.2171 -24.5764,5.0646 -48.6805,14.6572 -63.1291,30.3859 -12.5979,15.0743 -10.92,34.6485 0.034,49.9505 9.04,14.5227 27.9492,25.5007 49.4503,28.7663 48.4935,10.8118 99.7265,11.8471 150.0661,11.8441 46.1184,-0.2085 92.2405,-2.118 138.0556,-5.9578 25.4261,-2.6624 51.6349,-8.0568 71.0503,-20.8645 23.4965,-15.4056 33.7393,-41.4194 22.0674,-63.0951 -8.0664,-14.8343 -26.4953,-25.8059 -47.1759,-30.5955 -21.8229,-5.1627 -45.0541,-4.7949 -67.6901,-6.0981 -41.4951,-1.8463 -83.0821,-3.227 -124.6616,-2.5776 -0.3552,0.011 -0.7104,0.016 -1.0656,0.025 z"
       id="path3286-6-7-4-2-5"
       inkscape:connector-curvature="0"
       sodipodi:nodetypes="csssssssc" />
    <path
       style="display:inline;fill:#ffffff;stroke:none;stroke-width:1.03505659"
       d="m 1569.1521,2336.9329 c -51.8696,1.4473 -104.2707,2.0975 -155.1247,12.066 -30.0187,7.4367 -59.4607,21.5225 -77.1089,44.6184 -15.3877,22.135 -13.3384,50.8777 0.04,73.3471 11.0417,21.325 34.1384,37.445 60.4007,42.2402 59.2324,15.876 121.8108,17.3962 183.2981,17.3919 56.3312,-0.3062 112.6668,-3.1102 168.6276,-8.7484 31.0566,-3.9095 63.0693,-11.8306 86.7843,-30.6374 28.6997,-22.6215 41.2107,-60.82 26.9544,-92.6485 -9.853,-21.7826 -32.363,-37.8932 -57.6233,-44.9262 -26.6555,-7.581 -55.0312,-7.0409 -82.6799,-8.9544 -50.684,-2.7111 -101.4805,-4.7386 -152.2676,-3.785 -0.4339,0.016 -0.8676,0.024 -1.3014,0.037 z"
       id="path3286-6-7-4-2-5-3"
       inkscape:connector-curvature="0"
       sodipodi:nodetypes="csssssssc" />
    <path
       style="color:#000000;display:inline;overflow:visible;visibility:visible;fill:#ffffff;fill-opacity:1;fill-rule:nonzero;stroke:none;stroke-width:1.03365px;marker:none;enable-background:accumulate"
       d="m 1109.0561,1984.7544 c -8.1997,41.8065 59.3043,70.6591 115.2035,48.7714 -22.9931,10.09 -81.6027,63.8105 -171.9044,-28.8625 -40.8476,-41.9203 41.4313,-16.5735 41.4313,-16.5735 z"
       id="path4035-4-5"
       inkscape:connector-curvature="0"
       sodipodi:nodetypes="ccscc" />
    <path
       style="color:#000000;display:inline;overflow:visible;visibility:visible;fill:#ffffff;fill-opacity:1;fill-rule:nonzero;stroke:none;stroke-width:1.14715px;marker:none;enable-background:accumulate"
       d="m 1640.0206,2360.0065 c 85.321,-69.4317 155.0537,-160.9776 126.0876,-275.9291 50.0818,114.8531 -29.8722,233.4391 -50.2498,258.0963 -21.5049,26.0213 -75.8378,17.8328 -75.8378,17.8328 z"
       id="path4008-7"
       inkscape:connector-curvature="0"
       sodipodi:nodetypes="ccsc" />
    <path
       style="color:#000000;display:inline;overflow:visible;visibility:visible;fill:#ffffff;fill-opacity:1;fill-rule:nonzero;stroke:none;stroke-width:0.923908px;marker:none;enable-background:accumulate"
       d="m 1999.7453,2481.5298 c 2.3308,-54.303 42.207,-94.2785 147.9697,-84.7482 56.6523,5.1058 120.9338,8.2785 118.1755,87.8248 -2.7583,79.5464 -95.096,78.0975 -114.1175,80.0803 -19.0213,1.9828 -118.4149,-5.7151 -136.2571,-32.6526 -11.1688,-16.8627 -15.7793,-33.6902 -15.7706,-50.5043 z"
       id="path4546-6-89"
       inkscape:connector-curvature="0"
       sodipodi:nodetypes="cssssc" />
    <path
       style="fill:#ffffff;fill-rule:evenodd;stroke:none;stroke-width:1px;stroke-linecap:butt;stroke-linejoin:miter;stroke-opacity:1"
       d="m 2127.4405,2420.4639 c 0,0 -20.8561,-32.9672 -21.8804,-43.1562 -1.0243,-10.189 2.4576,-31.6896 11.9397,-43.6552 -22.2118,19.0145 -28.0641,35.9803 -27.9104,44.0276 0.1532,8.0482 12.5159,40.8376 12.5159,40.8376 z"
       id="path1367"
       inkscape:connector-curvature="0"
       inkscape:transform-center-x="-1.8067567"
       inkscape:transform-center-y="-52.12792"
       sodipodi:nodetypes="cscscc" />
    <path
       style="color:#000000;display:inline;overflow:visible;visibility:visible;fill:#ffffff;fill-opacity:1;fill-rule:nonzero;stroke:none;stroke-width:0.942339px;marker:none;enable-background:accumulate"
       d="m 344.6648,2688.4878 c -50.60513,0.5708 -102.02477,2.3063 -150.91773,20.2949 -24.12609,9.316 -47.03358,27.3632 -60.49879,54.6 -12.11064,24.5018 -15.32361,56.6281 -5.42591,83.1112 8.75364,24.5329 27.61742,42.3971 48.51963,47.9668 28.10941,10.2056 57.1283,15.7397 86.0694,20.7786 78.01441,12.397 157.66238,11.9336 235.13485,-5.7705 21.85061,-5.1737 43.84218,-13.5905 61.78001,-30.5738 14.41973,-13.2844 26.04566,-32.3192 29.75511,-54.5101 6.32949,-33.8827 -2.58454,-72.679 -24.7921,-94.5648 -16.09266,-15.7188 -36.4584,-21.9881 -56.17009,-26.5667 -32.93369,-7.3205 -66.38948,-9.7106 -99.71042,-12.6139 -21.2265,-1.4372 -42.48493,-2.2507 -63.74396,-2.1517 z"
       id="path4546-7"
       inkscape:connector-curvature="0"
       sodipodi:nodetypes="cssssc" />
    <path
       style="color:#000000;display:inline;overflow:visible;visibility:visible;fill:#ffffff;fill-opacity:1;fill-rule:nonzero;stroke:none;stroke-width:1.19696px;marker:none;enable-background:accumulate"
       d="m 310.18788,2871.5088 c -36.75155,0.8193 -73.91606,6.1732 -106.55052,25.8203 -20.02581,12.3925 -37.95681,31.8953 -47.19666,58.9224 -8.82074,25.1197 -10.76088,55.9717 -2.2461,83.9115 5.41775,18.3906 13.94152,35.8256 25.35073,49.1787 11.62296,11.6309 25.5354,17.2693 38.98433,22.6325 29.23224,10.8736 59.07258,15.5849 88.71862,19.397 23.15677,2.7322 46.33778,4.7959 69.40382,4.9702 20.00797,-0.5469 39.93308,-2.1609 59.65282,-5.0665 26.98454,-4.3287 53.88697,-12.519 76.78063,-30.4277 15.9711,-12.766 29.47845,-32.0208 34.43353,-56.6791 4.88964,-23.8613 3.25628,-50.3678 -2.92402,-74.9871 -5.91006,-22.2633 -18.17538,-42.0509 -33.60231,-54.5157 -21.79282,-18.2667 -46.87375,-25.5795 -71.22057,-30.7727 -30.3403,-6.2846 -60.74027,-8.3618 -91.0898,-11.2698 -12.85801,-0.9106 -25.70117,-1.3254 -38.4945,-1.114 z"
       id="path4546-6-5-4"
       inkscape:connector-curvature="0"
       sodipodi:nodetypes="cssssc" />
    <path
       style="color:#000000;display:inline;overflow:visible;visibility:visible;fill:#ffffff;fill-opacity:1;fill-rule:nonzero;stroke:none;stroke-width:0.94912px;marker:none;enable-background:accumulate"
       d="m 570.40008,2788.5105 c 0.70291,-20.5931 2.79564,-98.204 79.29359,-67.917 -12.96153,-15.3177 -101.3034,-57.4847 -117.55274,67.9555 -4.05901,31.3344 6.93857,21.4416 13.2428,23.8225 6.30431,2.3809 25.01635,-23.861 25.01635,-23.861 z"
       id="path4064-5"
       inkscape:connector-curvature="0"
       sodipodi:nodetypes="ccszc" />
    <path
       style="fill:#ffffff;stroke:none;stroke-width:0.77707523"
       d="m 1422.3899,2662.0926 c -59.4424,0.9233 -119.1446,3.0072 -177.8583,13.7868 -22.1604,4.2349 -44.8151,9.6729 -64.0337,22.854 -11.0928,7.6153 -20.3726,18.2822 -26.293,30.9504 -10.0441,20.4817 -13.7801,44.1433 -12.4527,67.129 1.5837,22.6463 9.8617,45.3697 25.5744,60.9924 16.5657,16.9557 38.395,26.3212 60.1584,32.6695 29.1455,8.2434 59.3706,10.5336 89.3624,12.1032 43.5079,1.8442 87.0586,0.5955 130.5687,-0.4765 48.8116,-1.6962 98.0136,-5.1368 145.4365,-18.4821 22.4876,-6.6438 45.0112,-15.6931 63.2578,-31.7281 11.7583,-10.6908 20.9109,-25.6331 22.4127,-42.3978 1.9215,-16.1243 0.4412,-32.522 -2.469,-48.399 -4.8827,-22.5265 -17.1828,-43.304 -34.8404,-56.7029 -21.5092,-17.2682 -47.7567,-25.7704 -73.7394,-31.476 -38.6927,-8.2674 -78.2521,-10.2803 -117.6086,-10.915 -9.1591,-0.1186 -18.3174,-0.073 -27.4758,0.092 z"
       id="path3280-8-0"
       inkscape:connector-curvature="0"
       sodipodi:nodetypes="csssc" />
    <path
       style="color:#000000;display:inline;overflow:visible;visibility:visible;fill:#ffffff;fill-opacity:1;fill-rule:nonzero;stroke:none;stroke-width:1px;marker:none;enable-background:accumulate"
       d="m 1190.5649,2938.1193 c 71.9512,20.8726 126.9981,-3.0998 138.6013,-80.4717 29.2254,-33.921 39.4944,-8.1295 39.4944,-8.1295 0,0 9.6333,15.8558 9.2,26.1866 -1.6876,40.2341 -97.4111,114.3526 -187.2957,62.4146 z"
       id="path3072-7"
       inkscape:connector-curvature="0"
       sodipodi:nodetypes="cccsc" />
    <path
       style="fill:#ffffff;fill-rule:evenodd;stroke:none;stroke-width:1px;stroke-linecap:butt;stroke-linejoin:miter;stroke-opacity:1"
       d="m 611.87816,457.91854 c -12.3953,-22.626 4.8341,-35.579 4.6846,-49.244 -0.1543,-14.107 -33.2797,-25.956 -34.0153,-39.032 -0.7356,-13.076 20.5032,-26.957 19.032,-47.388 -1.4712,-20.432 -25.011,-24.518 -22.8041,-0.818 2.2069,23.701 -15.6571,27.839 -11.7699,46.584 6.483,31.261 30.8848,30.638 38.523,39.431 5.057,5.822 -4.6847,18.594 -2.4778,32.487 2.2069,13.894 8.8275,17.98 8.8275,17.98 z"
       id="path4272-2"
       inkscape:connector-curvature="0"
       sodipodi:nodetypes="csssssssc" />
    <path
       style="display:inline;fill:#ffffff;stroke:none;stroke-width:0.877336"
       d="M 395.5572,452.67668 C 407.56611,407.77396 413.32098,333.81277 360.54542,296.86263 333.08948,277.6397 320.11233,262.96148 320.11233,262.96148 l 22.24546,-19.14958 c 105.35115,77.35453 72.21397,163.85407 53.19941,208.86478 z"
       id="path3063-1-0"
       inkscape:connector-curvature="0"
       sodipodi:nodetypes="csccc" />
  </g>
  <g
     inkscape:groupmode="layer"
     id="layer1"
     inkscape:label="txt">
    <text
       id="text4246-4-2-7"
       y="195.79843"
       x="276.44409"
       style="font-style:normal;font-variant:normal;font-weight:normal;font-stretch:normal;line-height:0%;font-family:Lavi;-inkscape-font-specification:Lavi;text-align:center;letter-spacing:0px;word-spacing:0px;text-anchor:middle;fill:#000000;fill-opacity:1;stroke:none"
       xml:space="preserve"><tspan
         y="195.79843"
         x="276.44409"
         style="font-size:45px;line-height:1.25;fill:#000000"
         sodipodi:role="line"
         id="tspan2967">¿Qué le</tspan><tspan
         y="252.04843"
         x="276.44409"
         style="font-size:45px;line-height:1.25;fill:#000000"
         sodipodi:role="line"
         id="tspan2293">pasa?</tspan></text>
    <text
       id="text4246-4-2-7-3"
       y="176.08881"
       x="630.43268"
       style="font-style:normal;font-variant:normal;font-weight:normal;font-stretch:normal;line-height:0%;font-family:Lavi;-inkscape-font-specification:Lavi;text-align:center;letter-spacing:0px;word-spacing:0px;text-anchor:middle;fill:#000000;fill-opacity:1;stroke:none"
       xml:space="preserve"><tspan
         y="176.08881"
         x="630.43268"
         style="font-size:45px;line-height:1.25;fill:#000000"
         sodipodi:role="line"
         id="tspan3727">¿Pepper?</tspan><tspan
         y="232.33881"
         x="630.43268"
         style="font-size:45px;line-height:1.25;fill:#000000"
         sodipodi:role="line"
         id="tspan10316">¿Está todo</tspan><tspan
         y="288.58881"
         x="630.43268"
         style="font-size:45px;line-height:1.25;fill:#000000"
         sodipodi:role="line"
         id="tspan14641">bien?</tspan></text>
    <text
       id="text4246-4-2-7-3-5"
       y="216.69748"
       x="952.75238"
       style="font-style:normal;font-variant:normal;font-weight:normal;font-stretch:normal;line-height:0%;font-family:Lavi;-inkscape-font-specification:Lavi;text-align:center;letter-spacing:0px;word-spacing:0px;text-anchor:middle;fill:#000000;fill-opacity:1;stroke:none"
       xml:space="preserve"><tspan
         y="216.69748"
         x="952.75238"
         style="font-size:45px;line-height:1.25;fill:#000000"
         sodipodi:role="line"
         id="tspan6111">Sí,</tspan><tspan
         y="272.94748"
         x="952.75238"
         style="font-size:45px;line-height:1.25;fill:#000000"
         sodipodi:role="line"
         id="tspan17268">estoy bien.</tspan></text>
    <text
       id="text4246-4-2-7-3-5-2"
       y="1182.4652"
       x="1034.8293"
       style="font-style:normal;font-variant:normal;font-weight:normal;font-stretch:normal;line-height:0%;font-family:Lavi;-inkscape-font-specification:Lavi;text-align:center;letter-spacing:0px;word-spacing:0px;text-anchor:middle;fill:#000000;fill-opacity:1;stroke:none"
       xml:space="preserve"><tspan
         y="1182.4652"
         x="1034.8293"
         style="font-size:45px;line-height:1.25;fill:#000000"
         sodipodi:role="line"
         id="tspan25929">Me acabo</tspan><tspan
         y="1238.7152"
         x="1034.8293"
         style="font-size:45px;line-height:1.25;fill:#000000"
         sodipodi:role="line"
         id="tspan24070">de dar</tspan><tspan
         y="1294.9652"
         x="1034.8293"
         style="font-size:45px;line-height:1.25;fill:#000000"
         sodipodi:role="line"
         id="tspan24072">cuenta de</tspan><tspan
         y="1351.2152"
         x="1034.8293"
         style="font-size:45px;line-height:1.25;fill:#000000"
         sodipodi:role="line"
         id="tspan24074">algo.</tspan></text>
    <text
       id="text4246-4-2-7-3-5-2-2"
       y="1243.312"
       x="1848.1265"
       style="font-style:normal;font-variant:normal;font-weight:normal;font-stretch:normal;line-height:0%;font-family:Lavi;-inkscape-font-specification:Lavi;text-align:center;letter-spacing:0px;word-spacing:0px;text-anchor:middle;fill:#000000;fill-opacity:1;stroke:none"
       xml:space="preserve"><tspan
         y="1243.312"
         x="1848.1265"
         style="font-size:45px;line-height:1.25;fill:#000000"
         sodipodi:role="line"
         id="tspan10626">Todo lo que ha ocurrido es,</tspan><tspan
         y="1299.562"
         x="1848.1265"
         style="font-size:45px;line-height:1.25;fill:#000000"
         sodipodi:role="line"
         id="tspan5516"> directa o indirectamente, el resultado</tspan><tspan
         y="1355.812"
         x="1848.1265"
         style="font-size:45px;line-height:1.25;fill:#000000"
         sodipodi:role="line"
         id="tspan10142"> de mis acciones, mis elecciones...</tspan></text>
    <text
       id="text4246-4-2-7-3-5-2-2-6"
       y="1432.9945"
       x="1862.4454"
       style="font-style:normal;font-variant:normal;font-weight:normal;font-stretch:normal;line-height:0%;font-family:Lavi;-inkscape-font-specification:Lavi;text-align:center;letter-spacing:0px;word-spacing:0px;text-anchor:middle;fill:#000000;fill-opacity:1;stroke:none"
       xml:space="preserve"><tspan
         y="1432.9945"
         x="1862.4454"
         style="font-style:normal;font-variant:normal;font-weight:normal;font-stretch:normal;font-size:45px;line-height:1.25;font-family:Lavi;-inkscape-font-specification:Lavi;fill:#000000"
         sodipodi:role="line"
         id="tspan48292">...en otras palabras,</tspan><tspan
         y="1489.2445"
         x="1862.4454"
         style="font-style:normal;font-variant:normal;font-weight:bold;font-stretch:normal;font-size:45px;line-height:1.25;font-family:Lavi;-inkscape-font-specification:Lavi;fill:#000000"
         sodipodi:role="line"
         id="tspan16620">¡mi reacción en cadena!</tspan></text>
    <text
       id="text4246-4-2-7-3-5-2-2-6-7-2"
       y="1679.4132"
       x="284.14807"
       style="font-style:normal;font-variant:normal;font-weight:normal;font-stretch:normal;line-height:0%;font-family:Lavi;-inkscape-font-specification:Lavi;text-align:center;letter-spacing:0px;word-spacing:0px;text-anchor:middle;fill:#000000;fill-opacity:1;stroke:none"
       xml:space="preserve"><tspan
         y="1679.4132"
         x="284.14807"
         style="font-style:normal;font-variant:normal;font-weight:normal;font-stretch:normal;font-size:45px;line-height:1.25;font-family:Lavi;-inkscape-font-specification:Lavi;fill:#000000"
         sodipodi:role="line"
         id="tspan104696-2-8">¿De verdad?</tspan></text>
    <text
       id="text4246-4-2-7-3-5-2-2-6-7-2-9"
       y="1764.6151"
       x="378.92795"
       style="font-style:normal;font-variant:normal;font-weight:normal;font-stretch:normal;line-height:0%;font-family:Lavi;-inkscape-font-specification:Lavi;text-align:center;letter-spacing:0px;word-spacing:0px;text-anchor:middle;fill:#000000;fill-opacity:1;stroke:none"
       xml:space="preserve"><tspan
         y="1764.6151"
         x="378.92795"
         style="font-style:normal;font-variant:normal;font-weight:normal;font-stretch:normal;font-size:45px;line-height:1.25;font-family:Lavi;-inkscape-font-specification:Lavi;fill:#000000"
         sodipodi:role="line"
         id="tspan55293">Nos lo tienes</tspan><tspan
         y="1820.8651"
         x="378.92795"
         style="font-style:normal;font-variant:normal;font-weight:normal;font-stretch:normal;font-size:45px;line-height:1.25;font-family:Lavi;-inkscape-font-specification:Lavi;fill:#000000"
         sodipodi:role="line"
         id="tspan86513">que explicar.</tspan></text>
    <text
       id="text4246-4-2-7-3-5-2-2-6-7-2-9-3"
       y="1676.4771"
       x="897.13013"
       style="font-style:normal;font-variant:normal;font-weight:normal;font-stretch:normal;line-height:0%;font-family:Lavi;-inkscape-font-specification:Lavi;text-align:center;letter-spacing:0px;word-spacing:0px;text-anchor:middle;fill:#000000;fill-opacity:1;stroke:none"
       xml:space="preserve"><tspan
         y="1676.4771"
         x="897.13013"
         style="font-style:normal;font-variant:normal;font-weight:normal;font-stretch:normal;font-size:45px;line-height:1.25;font-family:Lavi;-inkscape-font-specification:Lavi;fill:#000000"
         sodipodi:role="line"
         id="tspan64017">Suficiente charla, </tspan><tspan
         y="1732.7271"
         x="897.13013"
         style="font-style:normal;font-variant:normal;font-weight:normal;font-stretch:normal;font-size:45px;line-height:1.25;font-family:Lavi;-inkscape-font-specification:Lavi;fill:#000000"
         sodipodi:role="line"
         id="tspan93679">estamos en medio de </tspan><tspan
         y="1788.9771"
         x="897.13013"
         style="font-style:normal;font-variant:normal;font-weight:normal;font-stretch:normal;font-size:45px;line-height:1.25;font-family:Lavi;-inkscape-font-specification:Lavi;fill:#000000"
         sodipodi:role="line"
         id="tspan72039">un campo de batalla.</tspan></text>
    <text
       id="text4246-4-2-7-3-5-2-2-6-7-2-9-3-2"
       y="1862.5121"
       x="920.66687"
       style="font-style:normal;font-variant:normal;font-weight:normal;font-stretch:normal;line-height:0%;font-family:Lavi;-inkscape-font-specification:Lavi;text-align:center;letter-spacing:0px;word-spacing:0px;text-anchor:middle;fill:#000000;fill-opacity:1;stroke:none"
       xml:space="preserve"><tspan
         y="1862.5121"
         x="920.66687"
         style="font-style:normal;font-variant:normal;font-weight:normal;font-stretch:normal;font-size:45px;line-height:1.25;font-family:Lavi;-inkscape-font-specification:Lavi;fill:#000000"
         sodipodi:role="line"
         id="tspan184397">Hablaremos de eso</tspan><tspan
         y="1918.7621"
         x="920.66687"
         style="font-style:normal;font-variant:normal;font-weight:normal;font-stretch:normal;font-size:45px;line-height:1.25;font-family:Lavi;-inkscape-font-specification:Lavi;fill:#000000"
         sodipodi:role="line"
         id="tspan78621"> cuando estemos volando.</tspan></text>
    <text
       id="text4246-4-2-7-3-5-2-2-6-7-2-9-3-2-9"
       y="2008.9945"
       x="945.51813"
       style="font-style:normal;font-variant:normal;font-weight:normal;font-stretch:normal;line-height:0%;font-family:Lavi;-inkscape-font-specification:Lavi;text-align:center;letter-spacing:0px;word-spacing:0px;text-anchor:middle;fill:#000000;fill-opacity:1;stroke:none"
       xml:space="preserve"><tspan
         y="2008.9945"
         x="945.51813"
         style="font-style:normal;font-variant:normal;font-weight:normal;font-stretch:normal;font-size:45px;line-height:1.25;font-family:Lavi;-inkscape-font-specification:Lavi;fill:#000000"
         sodipodi:role="line"
         id="tspan184397-7">¡Súbete, Pepper!</tspan></text>
    <text
       id="text4246-4-2-7-3-5-2-2-6-7-2-9-3-2-9-8"
       y="2333.4099"
       x="1578.2986"
       style="font-style:normal;font-variant:normal;font-weight:normal;font-stretch:normal;line-height:0%;font-family:Lavi;-inkscape-font-specification:Lavi;text-align:center;letter-spacing:0px;word-spacing:0px;text-anchor:middle;fill:#000000;fill-opacity:1;stroke:none"
       xml:space="preserve"><tspan
         y="2333.4099"
         x="1578.2986"
         style="font-style:normal;font-variant:normal;font-weight:normal;font-stretch:normal;font-size:45px;line-height:1.25;font-family:Lavi;-inkscape-font-specification:Lavi;fill:#000000"
         sodipodi:role="line"
         id="tspan189870">Torreya tiene razón.</tspan></text>
    <text
       id="text4246-4-2-7-3-5-2-2-6-7-2-9-3-2-9-8-3"
       y="2419.3562"
       x="1602.3444"
       style="font-style:normal;font-variant:normal;font-weight:normal;font-stretch:normal;line-height:0%;font-family:Lavi;-inkscape-font-specification:Lavi;text-align:center;letter-spacing:0px;word-spacing:0px;text-anchor:middle;fill:#000000;fill-opacity:1;stroke:none"
       xml:space="preserve"><tspan
         y="2419.3562"
         x="1609.3756"
         style="font-style:normal;font-variant:normal;font-weight:normal;font-stretch:normal;font-size:45px;line-height:1.25;font-family:Lavi;-inkscape-font-specification:Lavi;fill:#000000"
         sodipodi:role="line"
         id="tspan88679">Tenemos que llegar </tspan><tspan
         y="2475.6062"
         x="1602.3444"
         style="font-style:normal;font-variant:normal;font-weight:normal;font-stretch:normal;font-size:45px;line-height:1.25;font-family:Lavi;-inkscape-font-specification:Lavi;fill:#000000"
         sodipodi:role="line"
         id="tspan152609">a Caliciudad, como sea.</tspan></text>
    <text
       id="text4246-4-2-7-3-5-2-2-6-7-2-9-3-2-9-8-5"
       y="2464.9375"
       x="2133.2007"
       style="font-style:normal;font-variant:normal;font-weight:normal;font-stretch:normal;line-height:0%;font-family:Lavi;-inkscape-font-specification:Lavi;text-align:center;letter-spacing:0px;word-spacing:0px;text-anchor:middle;fill:#000000;fill-opacity:1;stroke:none"
       xml:space="preserve"><tspan
         y="2464.9375"
         x="2133.2007"
         style="font-style:normal;font-variant:normal;font-weight:normal;font-stretch:normal;font-size:45px;line-height:1.25;font-family:Lavi;-inkscape-font-specification:Lavi;fill:#000000"
         sodipodi:role="line"
         id="tspan106897">Espera un</tspan><tspan
         y="2521.1875"
         x="2133.2007"
         style="font-style:normal;font-variant:normal;font-weight:normal;font-stretch:normal;font-size:45px;line-height:1.25;font-family:Lavi;-inkscape-font-specification:Lavi;fill:#000000"
         sodipodi:role="line"
         id="tspan156825">momento.</tspan></text>
    <text
       id="text4246-4-2-7-3-5-2-2-6-7-2-9-3-2-9-8-5-1"
       y="2753.7256"
       x="363.28015"
       style="font-style:normal;font-variant:normal;font-weight:normal;font-stretch:normal;line-height:0%;font-family:Lavi;-inkscape-font-specification:Lavi;text-align:center;letter-spacing:0px;word-spacing:0px;text-anchor:middle;fill:#000000;fill-opacity:1;stroke:none"
       xml:space="preserve"><tspan
         y="2753.7256"
         x="363.28015"
         style="font-style:normal;font-variant:normal;font-weight:normal;font-stretch:normal;font-size:45px;line-height:1.25;font-family:Lavi;-inkscape-font-specification:Lavi;fill:#000000"
         sodipodi:role="line"
         id="tspan145655">El ejército de </tspan><tspan
         y="2809.9756"
         x="363.28015"
         style="font-style:normal;font-variant:normal;font-weight:normal;font-stretch:normal;font-size:45px;line-height:1.25;font-family:Lavi;-inkscape-font-specification:Lavi;fill:#000000"
         sodipodi:role="line"
         id="tspan165128">Wasabi está a punto </tspan><tspan
         y="2866.2256"
         x="363.28015"
         style="font-style:normal;font-variant:normal;font-weight:normal;font-stretch:normal;font-size:45px;line-height:1.25;font-family:Lavi;-inkscape-font-specification:Lavi;fill:#000000"
         sodipodi:role="line"
         id="tspan165130">de contraatacar.</tspan></text>
    <text
       id="text4246-4-2-7-3-5-2-2-6-7-2-9-3-2-9-8-5-1-3"
       y="2968.9463"
       x="352.77548"
       style="font-style:normal;font-variant:normal;font-weight:normal;font-stretch:normal;line-height:0%;font-family:Lavi;-inkscape-font-specification:Lavi;text-align:center;letter-spacing:0px;word-spacing:0px;text-anchor:middle;fill:#000000;fill-opacity:1;stroke:none"
       xml:space="preserve"><tspan
         y="2968.9463"
         x="352.77548"
         style="font-style:normal;font-variant:normal;font-weight:normal;font-stretch:normal;font-size:45px;line-height:1.25;font-family:Lavi;-inkscape-font-specification:Lavi;fill:#000000"
         sodipodi:role="line"
         id="tspan166612">No podemos </tspan><tspan
         y="3025.1963"
         x="352.77548"
         style="font-style:normal;font-variant:normal;font-weight:normal;font-stretch:normal;font-size:45px;line-height:1.25;font-family:Lavi;-inkscape-font-specification:Lavi;fill:#000000"
         sodipodi:role="line"
         id="tspan179797">dejar que se maten</tspan><tspan
         y="3081.4463"
         x="352.77548"
         style="font-style:normal;font-variant:normal;font-weight:normal;font-stretch:normal;font-size:45px;line-height:1.25;font-family:Lavi;-inkscape-font-specification:Lavi;fill:#000000"
         sodipodi:role="line"
         id="tspan179799">entre ellos.</tspan></text>
    <text
       id="text4246-4-2-7-3-5-2-2-6-7-2-9-3-2-9-8-5-1-3-6"
       y="2739.7092"
       x="1412.0334"
       style="font-style:normal;font-variant:normal;font-weight:normal;font-stretch:normal;line-height:0%;font-family:Lavi;-inkscape-font-specification:Lavi;text-align:center;letter-spacing:0px;word-spacing:0px;text-anchor:middle;fill:#000000;fill-opacity:1;stroke:none"
       xml:space="preserve"><tspan
         y="2739.7092"
         x="1412.0334"
         style="font-style:normal;font-variant:normal;font-weight:normal;font-stretch:normal;font-size:45px;line-height:1.25;font-family:Lavi;-inkscape-font-specification:Lavi;fill:#000000"
         sodipodi:role="line"
         id="tspan179595">Siento que es</tspan><tspan
         y="2795.9592"
         x="1412.0334"
         style="font-style:normal;font-variant:normal;font-weight:normal;font-stretch:normal;font-size:45px;line-height:1.25;font-family:Lavi;-inkscape-font-specification:Lavi;fill:#000000"
         sodipodi:role="line"
         id="tspan190228"> mi responsabilidad  </tspan><tspan
         y="2852.2092"
         x="1412.0334"
         style="font-style:normal;font-variant:normal;font-weight:normal;font-stretch:normal;font-size:45px;line-height:1.25;font-family:Lavi;-inkscape-font-specification:Lavi;fill:#000000"
         sodipodi:role="line"
         id="tspan190230">terminar esta batalla.</tspan></text>
  </g>
</svg>
