<?xml version="1.0" encoding="UTF-8" standalone="no"?>
<!-- Created with Inkscape (http://www.inkscape.org/) -->

<svg
   xmlns:dc="http://purl.org/dc/elements/1.1/"
   xmlns:cc="http://creativecommons.org/ns#"
   xmlns:rdf="http://www.w3.org/1999/02/22-rdf-syntax-ns#"
   xmlns:svg="http://www.w3.org/2000/svg"
   xmlns="http://www.w3.org/2000/svg"
   xmlns:xlink="http://www.w3.org/1999/xlink"
   xmlns:sodipodi="http://sodipodi.sourceforge.net/DTD/sodipodi-0.dtd"
   xmlns:inkscape="http://www.inkscape.org/namespaces/inkscape"
   id="svg2"
   version="1.1"
   inkscape:version="0.92.4 (5da689c313, 2019-01-14)"
   width="2481"
   height="3503"
   sodipodi:docname="E03P05.svg">
  <metadata
     id="metadata8">
    <rdf:RDF>
      <cc:Work
         rdf:about="">
        <dc:format>image/svg+xml</dc:format>
        <dc:type
           rdf:resource="http://purl.org/dc/dcmitype/StillImage" />
        <dc:title />
      </cc:Work>
    </rdf:RDF>
  </metadata>
  <defs
     id="defs6" />
  <sodipodi:namedview
     pagecolor="#ffffff"
     bordercolor="#666666"
     borderopacity="1"
     objecttolerance="10"
     gridtolerance="10"
     guidetolerance="10"
     inkscape:pageopacity="0"
     inkscape:pageshadow="2"
     inkscape:window-width="1372"
     inkscape:window-height="1368"
     id="namedview4"
     showgrid="false"
     inkscape:zoom="0.27255256"
     inkscape:cx="1174.6954"
     inkscape:cy="1595.1971"
     inkscape:window-x="1179"
     inkscape:window-y="34"
     inkscape:window-maximized="0"
     inkscape:current-layer="layer1"
     inkscape:document-units="px" />
  <g
     inkscape:groupmode="layer"
     id="layer2"
     inkscape:label="artwork"
     sodipodi:insensitive="true"
     style="display:inline"
     transform="matrix(0.937500,0.000000,0.000000,0.937500,0.000000,0.000000)">
    <image
       sodipodi:absref="/home/deevad/peppercarrot/webcomics/ep03_The-secret-ingredients/lang/da/../gfx_Pepper-and-Carrot_by-David-Revoy_E03P05.png"
       xlink:href="../gfx_Pepper-and-Carrot_by-David-Revoy_E03P05.png"
       width="2646.3999"
       height="3736.5334"
       id="image10"
       x="0"
       y="0" />
  </g>
  <g
     inkscape:groupmode="layer"
     id="layer3"
     inkscape:label="speechbubbles"
     transform="matrix(0.937500,0.000000,0.000000,0.937500,0.000000,0.000000)">
    <path
       style="fill:#ffffff;stroke:none;stroke-width:1.06666672px;stroke-linecap:butt;stroke-linejoin:miter;stroke-opacity:1"
       d="m 1726.5915,798.43526 c 12.2374,-87.88707 116.8119,-104.57448 131.2744,-112.36195 14.4624,-7.78745 101.2369,-11.12494 111.2494,-10.01245 10.0125,1.11251 121.262,20.02491 133.4994,18.91241 12.2375,-1.11249 112.3619,-10.01245 136.8368,2.22499 24.4749,12.23744 82.3246,91.22456 82.3246,123.48689 0,32.26235 -27.8124,97.89952 -94.562,127.93688 -66.7497,30.03735 -194.6866,55.62477 -273.6737,50.06225 -78.9871,-5.56247 -137.9494,-20.0249 -161.3117,-43.38729 -23.3624,-23.36238 -76.7621,-113.47444 -65.6372,-156.86173 z"
       id="path3061"
       inkscape:connector-curvature="0" />
    <path
       style="fill:#ffffff;stroke:none;stroke-width:1.06666672px;stroke-linecap:butt;stroke-linejoin:miter;stroke-opacity:1"
       d="m 1690.9917,1038.7341 c 63.4121,20.0249 160.1992,-14.4624 166.8742,-62.29971 6.6749,-47.83727 21.1374,-74.53713 21.1374,-74.53713 l 32.2623,36.71232 -15.5749,52.28724 c 0,0 -71.1997,122.37448 -204.699,47.83728 z"
       id="path3063"
       inkscape:connector-curvature="0" />
    <path
       style="fill:#ffffff;stroke:none;stroke-width:1.06666672px;stroke-linecap:butt;stroke-linejoin:miter;stroke-opacity:1"
       d="m 1150.3194,2013.2793 c 3.3375,-80.0996 46.7248,-139.0618 282.5736,-137.9493 235.8488,1.1125 288.136,20.0249 300.3735,99.012 12.2374,78.9871 -27.8124,105.687 -82.3246,134.6118 -54.5122,28.9249 -181.3366,67.8622 -285.9111,47.8372 -104.5745,-20.0248 -221.3864,-66.7496 -214.7114,-143.5117 z"
       id="path3065"
       inkscape:connector-curvature="0" />
    <path
       style="fill:#ffffff;stroke:none;stroke-width:1.06666672px;stroke-linecap:butt;stroke-linejoin:miter;stroke-opacity:1"
       d="m 1257.1188,2341.4652 c -52.2872,-105.687 -46.7248,-135.7244 54.5122,-219.1614 101.2371,-83.4371 33.3749,-94.562 33.3749,-94.562 0,0 -251.4238,164.6491 -87.8871,313.7234 z"
       id="path3067"
       inkscape:connector-curvature="0" />
  </g>
  <g
     inkscape:groupmode="layer"
     id="layer1"
     inkscape:label="txt"
     transform="matrix(0.937500,0.000000,0.000000,0.937500,0.000000,0.000000)">
    <flowRoot
       xml:space="preserve"
       id="flowRoot2987"
       style="font-style:normal;font-variant:normal;font-weight:normal;font-stretch:normal;font-size:12.80000019px;line-height:0.01%;font-family:Lavi;-inkscape-font-specification:Lavi;letter-spacing:0px;word-spacing:0px;fill:#000000;fill-opacity:1;stroke:none;stroke-width:1.06666672"><flowRegion
         id="flowRegion2989"
         style="stroke-width:1.06666672"><rect
           id="rect2991"
           width="520.94696"
           height="262.53717"
           x="1752.7495"
           y="722.78467"
           style="font-style:normal;font-variant:normal;font-weight:normal;font-stretch:normal;font-family:Lavi;-inkscape-font-specification:Lavi;stroke-width:1.13777781" /></flowRegion><flowPara
         style="font-size:51.20000076px;line-height:1.25;text-align:center;text-anchor:middle;stroke-width:1.06666672"
         id="flowPara3017">Først har jeg brug</flowPara><flowPara
         style="font-size:51.20000076px;line-height:1.25;text-align:center;text-anchor:middle;stroke-width:1.06666672"
         id="flowPara3009">for et par dugdråber fra de sorte skyer...</flowPara><flowPara
         style="font-size:51.20000076px;line-height:1.25;text-align:center;text-anchor:middle;stroke-width:1.06666672"
         id="flowPara3005"> </flowPara></flowRoot>    <flowRoot
       xml:space="preserve"
       id="flowRoot2987-3"
       style="font-style:normal;font-variant:normal;font-weight:normal;font-stretch:normal;font-size:12.80000019px;line-height:0.01%;font-family:Lavi;-inkscape-font-specification:Lavi;letter-spacing:0px;word-spacing:0px;fill:#000000;fill-opacity:1;stroke:none;stroke-width:1.06666672"><flowRegion
         id="flowRegion2989-7"
         style="stroke-width:1.06666672"><rect
           id="rect2991-1"
           width="556.97272"
           height="324.29556"
           x="1173.6295"
           y="1923.2672"
           style="font-style:normal;font-variant:normal;font-weight:normal;font-stretch:normal;font-family:Lavi;-inkscape-font-specification:Lavi;stroke-width:1.13777781" /></flowRegion><flowPara
         style="font-size:51.20000076px;line-height:1.25;text-align:center;text-anchor:middle;stroke-width:1.06666672"
         id="flowPara3059">... og nogle røde bær</flowPara><flowPara
         style="font-size:51.20000076px;line-height:1.25;text-align:center;text-anchor:middle;stroke-width:1.06666672"
         id="flowPara3016">fra den hjemsøgte skov...</flowPara></flowRoot>  </g>
</svg>
