<?xml version="1.0" encoding="UTF-8" standalone="no"?>
<svg
   xmlns:dc="http://purl.org/dc/elements/1.1/"
   xmlns:cc="http://creativecommons.org/ns#"
   xmlns:rdf="http://www.w3.org/1999/02/22-rdf-syntax-ns#"
   xmlns:svg="http://www.w3.org/2000/svg"
   xmlns="http://www.w3.org/2000/svg"
   xmlns:xlink="http://www.w3.org/1999/xlink"
   xmlns:sodipodi="http://sodipodi.sourceforge.net/DTD/sodipodi-0.dtd"
   xmlns:inkscape="http://www.inkscape.org/namespaces/inkscape"
   id="svg2"
   version="1.1"
   inkscape:version="1.0.2-2 (e86c870879, 2021-01-15)"
   width="2481"
   height="3503"
   sodipodi:docname="E35P10.svg">
  <metadata
     id="metadata8">
    <rdf:RDF>
      <cc:Work
         rdf:about="">
        <dc:format>image/svg+xml</dc:format>
        <dc:type
           rdf:resource="http://purl.org/dc/dcmitype/StillImage" />
        <dc:title />
      </cc:Work>
    </rdf:RDF>
  </metadata>
  <defs
     id="defs6" />
  <sodipodi:namedview
     pagecolor="#ffffff"
     bordercolor="#666666"
     borderopacity="1"
     objecttolerance="10"
     gridtolerance="10"
     guidetolerance="10"
     inkscape:pageopacity="0"
     inkscape:pageshadow="2"
     inkscape:window-width="2560"
     inkscape:window-height="1390"
     id="namedview4"
     showgrid="false"
     inkscape:zoom="0.37618364"
     inkscape:cx="960.51812"
     inkscape:cy="2219.637"
     inkscape:window-x="0"
     inkscape:window-y="24"
     inkscape:window-maximized="1"
     inkscape:current-layer="layer1"
     inkscape:document-rotation="0"
     inkscape:snap-global="false"
     inkscape:pagecheckerboard="0" />
  <g
     inkscape:groupmode="layer"
     id="layer2"
     inkscape:label="artwork"
     sodipodi:insensitive="true">
    <image
       sodipodi:absref="C:\Users\stero\Documents\Kernewek\Pepper and Carrot\webcomics\ep35_The-Reflection\lang\gfx_Pepper-and-Carrot_by-David-Revoy_E35P10.png"
       xlink:href="../gfx_Pepper-and-Carrot_by-David-Revoy_E35P10.png"
       width="2481"
       height="3503"
       id="image10"
       x="0"
       y="0" />
  </g>
  <g
     inkscape:groupmode="layer"
     id="layer3"
     inkscape:label="speechbubbles">
    <path
       style="fill:#ffffff;stroke:none;stroke-width:0.953514"
       d="M 1261.291 157.25391 C 1207.7357 157.54489 1153.594 156.77924 1100.9434 168.07031 C 1079.0515 172.63737 1056.7703 178.05516 1037.541 189.92578 C 1014.7661 204.15435 995.86341 225.73768 987.83184 251.63897 C 981.27062 274.19125 985.39243 298.69085 995.30674 319.62389 C 1007.0019 345.58404 1028.2668 367.35364 1054.5756 378.52378 C 1081.5622 391.2018 1110.2419 399.83365 1139.1015 407.07235 C 1181.0204 416.67526 1224.2013 418.26528 1267.0361 419.0483 C 1318.7866 420.54802 1370.8139 423.45207 1422.3754 417.1585 C 1454.2487 413.43906 1486.0071 408.45644 1517.3258 401.42549 C 1548.668 394.18699 1579.903 383.56425 1606.2534 364.65158 C 1618.3453 356.29101 1627.4265 344.1997 1633.6247 330.98008 C 1637.8988 321.88336 1640.9749 312.28247 1643.9727 302.70807 C 1649.4597 283.9668 1651.0927 263.63441 1645.5571 244.70093 C 1638.5385 219.47018 1619.7506 197.97675 1595.9061 187.24726 C 1571.7096 175.34708 1544.9375 170.37134 1518.594 165.73016 C 1480.2608 159.64674 1441.3661 158.84703 1402.6436 157.82525 C 1356.0424 157.11629 1309.4336 157.28069 1262.8288 157.24308 C 1262.3162 157.24669 1261.8036 157.2503 1261.291 157.25391 z "
       id="path3100-98"
       inkscape:connector-curvature="0"
       sodipodi:nodetypes="zsssssz" />
    <path
       style="color:#000000;display:inline;overflow:visible;visibility:visible;fill:#ffffff;fill-opacity:1;fill-rule:nonzero;stroke:none;stroke-width:0.83737px;marker:none;enable-background:accumulate"
       d="m 1448.7795,517.63055 c 2.403,-24.32977 -9.2766,-33.6163 -20.6628,-38.28253 -11.3869,-4.66626 -19.0826,-5.58729 -28.1978,-26.0826 -9.1142,-20.49521 -0.7357,-41.29642 -4.8853,-52.46499 -11.4569,-16.24953 -34.9307,-26.06627 -44.5289,-30.51513 -21.6856,-10.05119 11.3091,-23.29909 11.3091,-23.29909 8.77,-0.30545 47.7455,23.68713 57.7575,33.72157 14.4084,14.44054 -4.0636,48.20741 4.0399,65.52593 7.5675,16.17219 18.2749,17.40774 23.9472,28.63593 5.6729,11.22843 4.8219,31.66667 1.2211,42.76091 z"
       id="path4538-8"
       inkscape:connector-curvature="0"
       sodipodi:nodetypes="csscscsssc" />
    <path
       style="color:#000000;display:inline;overflow:visible;visibility:visible;fill:#ffffff;fill-opacity:1;fill-rule:nonzero;stroke:none;stroke-width:1.21196px;marker:none;enable-background:accumulate"
       d="m 128.60526,1521.6618 c 4.04686,-52.835 4.62778,-103.8757 58.15572,-134.3848 53.52782,-30.5077 147.82948,-38.1731 266.27874,-29.2988 63.44774,4.7531 143.3755,11.1057 193.97011,33.0647 50.59462,21.9591 71.8562,59.5245 66.66422,136.9162 -5.19199,77.3916 -33.21031,110.9507 -91.65593,130.2669 -58.44553,19.3177 -147.31858,24.3928 -168.71908,26.3926 -21.40048,1.9996 -87.77534,-0.5587 -153.62887,-10.1499 -65.85341,-9.5912 -110.89691,-16.2888 -130.21198,-42.4256 -30.27953,-33.1568 -42.6943,-71.9148 -40.85293,-110.3813 z"
       id="path4546-6-2-0"
       inkscape:connector-curvature="0"
       sodipodi:nodetypes="cssssssscc" />
    <path
       style="fill:#ffffff;fill-rule:evenodd;stroke:none;stroke-width:1.12465px;stroke-linecap:butt;stroke-linejoin:miter;stroke-opacity:1"
       d="m 566.83527,1651.6586 c 4.43847,-15.3188 61.8645,41.4938 43.56991,104.2767 2.42387,27.4208 22.18027,42.2423 21.12076,57.0045 -1.05963,24.2524 -9.53608,35.8508 -36.02508,55.8848 33.90594,-15.8168 54.23301,-33.7608 55.29264,-58.0121 1.05951,-24.2524 -17.71625,-25.1329 -17.14842,-60.0829 1.05952,-10.5449 25.79381,-65.3353 -26.69151,-120.7385 19.07205,-20.0341 -40.1183,21.6675 -40.1183,21.6675 z"
       id="path1303"
       inkscape:connector-curvature="0"
       sodipodi:nodetypes="cccccccc" />
    <path
       style="color:#000000;display:inline;overflow:visible;visibility:visible;fill:#ffffff;fill-opacity:1;fill-rule:nonzero;stroke:none;stroke-width:0.832105px;marker:none;enable-background:accumulate"
       d="m 1263.2226,1541.7467 c 2.6956,-37.3903 3.0825,-73.5107 38.7379,-95.1015 35.655,-21.5896 98.4698,-27.0143 177.3693,-20.7341 42.263,3.3636 95.5031,7.8593 129.2046,23.3992 33.7013,15.54 47.8636,42.1243 44.4052,96.8929 -3.4581,54.7685 -22.1213,78.5176 -61.0523,92.1873 -38.931,13.6708 -98.1296,17.2623 -112.3846,18.6775 -14.2549,1.4151 -58.4678,-0.3954 -102.3331,-7.1829 -43.8654,-6.7874 -73.8688,-11.5272 -86.7347,-30.0237 -20.1693,-23.4644 -28.4389,-50.8927 -27.2123,-78.1147 z"
       id="path4546-6-2-0-3"
       inkscape:connector-curvature="0"
       sodipodi:nodetypes="cssssssscc" />
    <path
       style="color:#000000;display:inline;overflow:visible;visibility:visible;fill:#ffffff;fill-opacity:1;fill-rule:nonzero;stroke:none;stroke-width:0.855249px;marker:none;enable-background:accumulate"
       d="m 1322.0699,1759.375 c 2.5873,-41.1512 2.9587,-80.9047 37.1825,-104.6672 34.2237,-23.7613 94.5168,-29.7316 170.2485,-22.8197 40.5662,3.702 91.6689,8.6498 124.0173,25.7529 32.3483,17.1029 45.9422,46.3614 42.6226,106.6388 -3.3195,60.2772 -21.2335,86.415 -58.6013,101.4599 -37.3678,15.0458 -94.19,18.9986 -107.8728,20.556 -13.6825,1.5576 -56.1203,-0.4349 -98.2244,-7.9053 -42.1042,-7.4703 -70.9032,-12.6866 -83.2526,-33.0436 -19.3597,-25.8245 -27.2971,-56.0116 -26.1198,-85.9718 z"
       id="path4546-6-2-0-3-6"
       inkscape:connector-curvature="0"
       sodipodi:nodetypes="cssssssscc" />
    <path
       style="color:#000000;display:inline;overflow:visible;visibility:visible;fill:#ffffff;fill-opacity:1;fill-rule:nonzero;stroke:none;stroke-width:1.47843px;marker:none;enable-background:accumulate"
       d="m 1474.8245,1844.8292 c 6.1533,73.3287 -47.1663,130.4434 -118.01,146.3855 114.7363,-9.2052 166.2605,-106.0374 160.9588,-137.1332 -5.191,-30.4467 -42.9488,-9.2523 -42.9488,-9.2523 z"
       id="path5010-4"
       inkscape:connector-curvature="0"
       sodipodi:nodetypes="ccsc" />
  </g>
  <g
     inkscape:groupmode="layer"
     id="layer1"
     inkscape:label="txt">
    <text
       xml:space="preserve"
       style="font-style:normal;font-variant:normal;font-weight:normal;font-stretch:normal;font-size:45px;line-height:1.25;font-family:Lavi;-inkscape-font-specification:Lavi;text-align:center;letter-spacing:0px;word-spacing:0px;text-anchor:middle;fill:#000000;fill-opacity:1;stroke:none"
       x="1325.0667"
       y="244.98175"
       id="text4246-3-2-2"><tspan
         style="font-size:45px"
         sodipodi:role="line"
         x="1325.0667"
         y="244.98175"
         id="tspan20039">Ty a wor na wra dha</tspan><tspan
         style="font-size:45px"
         sodipodi:role="line"
         x="1325.0667"
         y="301.23175"
         id="tspan39">omrians dhe Wasabi</tspan><tspan
         style="font-size:45px"
         sodipodi:role="line"
         x="1325.0667"
         y="357.48175"
         id="tspan41">gorfenna yn ta ragos?</tspan></text>
    <text
       xml:space="preserve"
       style="font-style:normal;font-variant:normal;font-weight:normal;font-stretch:normal;font-size:45px;line-height:1.25;font-family:Lavi;-inkscape-font-specification:Lavi;text-align:center;letter-spacing:0px;word-spacing:0px;text-anchor:middle;fill:#000000;fill-opacity:1;stroke:none"
       x="415.41315"
       y="1452.8612"
       id="text4246-3-2-2-3"><tspan
         style="font-size:45px"
         sodipodi:role="line"
         x="415.41315"
         y="1452.8612"
         id="tspan892">My a wor, mes dell</tspan><tspan
         style="font-size:45px"
         sodipodi:role="line"
         x="415.41315"
         y="1509.1112"
         id="tspan60">omglewav yma neb fordh</tspan><tspan
         style="font-size:45px"
         sodipodi:role="line"
         x="415.41315"
         y="1565.3612"
         id="tspan62">a wul dhedhi gweles - a</tspan><tspan
         style="font-size:45px"
         sodipodi:role="line"
         x="415.41315"
         y="1621.6112"
         id="tspan64">wul dhedhi gonvedhes.</tspan></text>
    <text
       xml:space="preserve"
       style="font-style:normal;font-variant:normal;font-weight:normal;font-stretch:normal;font-size:45px;line-height:1.25;font-family:Lavi;-inkscape-font-specification:Lavi;text-align:center;letter-spacing:0px;word-spacing:0px;text-anchor:middle;fill:#000000;fill-opacity:1;stroke:none"
       x="1460.6498"
       y="1490.1573"
       id="text4246-3-2-2-3-3"><tspan
         style="font-size:45px"
         sodipodi:role="line"
         x="1460.6498"
         y="1490.1573"
         id="tspan896">Wosa oll,</tspan><tspan
         style="font-size:45px"
         sodipodi:role="line"
         x="1460.6498"
         y="1546.4073"
         id="tspan71">nyns yw tra vyth</tspan><tspan
         style="font-size:45px"
         sodipodi:role="line"
         x="1460.6498"
         y="1602.6573"
         id="tspan73">anewnadow.</tspan></text>
    <text
       xml:space="preserve"
       style="font-style:normal;font-variant:normal;font-weight:normal;font-stretch:normal;font-size:45px;line-height:1.25;font-family:Lavi;-inkscape-font-specification:Lavi;text-align:center;letter-spacing:0px;word-spacing:0px;text-anchor:middle;fill:#000000;fill-opacity:1;stroke:none"
       x="1516.4325"
       y="1717.9688"
       id="text4246-3-2-2-3-3-1"><tspan
         style="font-size:45px"
         sodipodi:role="line"
         x="1516.4325"
         y="1717.9688"
         id="tspan913">My a dhyskas</tspan><tspan
         style="font-size:45px"
         sodipodi:role="line"
         x="1516.4325"
         y="1774.2188"
         id="tspan40">henna dhyworth</tspan><tspan
         style="font-size:45px"
         sodipodi:role="line"
         x="1516.4325"
         y="1830.4688"
         id="tspan42">kowethes koth.</tspan></text>
  </g>
</svg>
