<?xml version="1.0" encoding="UTF-8" standalone="no"?>
<!-- Created with Inkscape (http://www.inkscape.org/) -->

<svg
   xmlns:dc="http://purl.org/dc/elements/1.1/"
   xmlns:cc="http://creativecommons.org/ns#"
   xmlns:rdf="http://www.w3.org/1999/02/22-rdf-syntax-ns#"
   xmlns:svg="http://www.w3.org/2000/svg"
   xmlns="http://www.w3.org/2000/svg"
   xmlns:xlink="http://www.w3.org/1999/xlink"
   xmlns:sodipodi="http://sodipodi.sourceforge.net/DTD/sodipodi-0.dtd"
   xmlns:inkscape="http://www.inkscape.org/namespaces/inkscape"
   id="svg2"
   version="1.1"
   inkscape:version="0.92.3 (2405546, 2018-03-11)"
   width="2481"
   height="3503"
   sodipodi:docname="E27P02.svg">
  <metadata
     id="metadata8">
    <rdf:RDF>
      <cc:Work
         rdf:about="">
        <dc:format>image/svg+xml</dc:format>
        <dc:type
           rdf:resource="http://purl.org/dc/dcmitype/StillImage" />
        <dc:title />
      </cc:Work>
    </rdf:RDF>
  </metadata>
  <defs
     id="defs6" />
  <sodipodi:namedview
     pagecolor="#ffffff"
     bordercolor="#666666"
     borderopacity="1"
     objecttolerance="10"
     gridtolerance="10"
     guidetolerance="10"
     inkscape:pageopacity="0"
     inkscape:pageshadow="2"
     inkscape:window-width="1366"
     inkscape:window-height="713"
     id="namedview4"
     showgrid="false"
     inkscape:zoom="0.4574026"
     inkscape:cx="1302.1288"
     inkscape:cy="3227.7429"
     inkscape:window-x="0"
     inkscape:window-y="27"
     inkscape:window-maximized="1"
     inkscape:current-layer="layer1"
     inkscape:snap-global="false" />
  <g
     inkscape:groupmode="layer"
     id="layer2"
     inkscape:label="artwork"
     sodipodi:insensitive="true">
    <image
       sodipodi:absref="/home/juanjo/Comics/Pepper and Carrot/webcomics-master_181103/ep27_Coriander-s-Invention/lang/es/../gfx_Pepper-and-Carrot_by-David-Revoy_E27P02.png"
       xlink:href="../gfx_Pepper-and-Carrot_by-David-Revoy_E27P02.png"
       y="0"
       x="0"
       id="image10"
       height="3503"
       width="2481" />
  </g>
  <g
     inkscape:groupmode="layer"
     id="layer3"
     inkscape:label="speechbubbles">
    <path
       style="fill:#ffffff;fill-rule:evenodd;stroke:none;stroke-width:1.06020212px;stroke-linecap:butt;stroke-linejoin:miter;stroke-opacity:1"
       d="m 453.88422,203.969 c 6.8051,1.55099 70.96772,0 76.80066,-0.77549 5.83295,-0.7755 49.58017,-6.97946 60.27395,-5.42847 10.69377,1.551 84.57795,10.08144 98.18821,10.85694 13.61022,0.77549 78.74497,2.32648 90.41088,6.97946 11.66595,4.65297 27.22051,9.30594 35.96996,17.0609 8.74945,7.75495 21.38753,31.79532 20.41537,37.22378 -0.97217,5.42847 -14.58242,42.65225 -22.3597,48.08072 -7.77727,5.42847 -34.99777,23.26486 -42.77504,25.59136 -7.77731,2.32648 -25.27618,8.53044 -34.02562,10.85693 -8.74946,2.32649 -207.07017,4.65297 -231.37418,5.42847 -24.30401,0.77549 -118.60356,-4.65298 -135.1303,-5.42847 -16.52673,-0.7755 -55.41315,1.551 -80.68929,-6.20397 -25.2762,-7.75495 -42.7751,-36.44828 -50.55235,-41.87675 -7.77731,-5.42847 -21.38755,-28.69333 -20.41537,-37.22379 0.97214,-8.53045 20.41537,-28.69333 30.13695,-31.01981 9.72159,-2.32649 49.58019,-21.71388 72.91203,-25.59136 23.33185,-3.87747 79.71715,-13.18341 90.41091,-12.40792 14.6377,1.55822 13.09989,0.15471 41.80293,3.87747 z"
       id="path1323"
       inkscape:connector-curvature="0"
       sodipodi:nodetypes="ccsscscsscsssccsscc" />
    <path
       style="fill:#ffffff;fill-rule:evenodd;stroke:none;stroke-width:1.02273285px;stroke-linecap:butt;stroke-linejoin:miter;stroke-opacity:1"
       d="m 172.8578,163.77351 c 11.01752,-19.15682 30.98678,-29.0442 41.31569,-31.51605 10.32893,-2.47185 27.54381,3.08981 37.18415,1.85389 9.64032,-1.23593 46.13585,-12.35924 59.90776,-11.74128 13.77189,0.61796 54.399,4.32573 67.48231,4.9437 13.08329,0.61796 45.44727,3.0898 57.15338,9.88738 11.70613,6.79758 24.78942,14.21312 26.85521,21.0107 2.06578,6.79758 6.88595,19.77478 2.06578,30.89809 -4.82016,11.12331 -16.52627,30.28013 -31.67536,32.13401 -15.14909,1.85389 -90.20596,8.65147 -106.73223,8.0335 -16.52628,-0.61796 -61.97356,0 -72.99108,0 -11.01752,0 -50.95603,-4.32573 -62.66215,-12.35923 -11.70611,-8.0335 -20.65784,-24.10051 -22.03503,-33.9879 -1.3772,-9.88738 4.13157,-19.15681 4.13157,-19.15681 z"
       id="path1325"
       inkscape:connector-curvature="0" />
    <path
       style="fill:#ffffff;fill-rule:evenodd;stroke:none;stroke-width:1px;stroke-linecap:butt;stroke-linejoin:miter;stroke-opacity:1"
       d="m 544.4243,343.97954 c 6.17962,25.33643 -4.94369,76.0093 4.32573,89.60445 9.26943,13.59516 11.12331,11.74128 19.15682,18.53886 -12.35924,15.44904 -17.92089,33.36993 -16.68497,42.63936 1.23592,9.26942 4.32573,33.36993 35.84178,44.49324 -27.19032,-19.15681 -24.71847,-38.31363 -23.48255,-43.87528 1.23593,-5.56166 6.17962,-34.60586 21.62867,-42.0214 -15.44905,-11.74127 -23.48255,-24.71847 -23.48255,-32.13401 0,-7.41554 8.65146,-82.80688 8.65146,-82.80688 z"
       id="path1327"
       inkscape:connector-curvature="0" />
    <path
       style="fill:#ffffff;fill-rule:evenodd;stroke:none;stroke-width:1px;stroke-linecap:butt;stroke-linejoin:miter;stroke-opacity:1"
       d="m 1028.778,99.513979 c -32.42456,17.031151 -62.38624,30.970451 -66.70952,55.949461 -4.32327,24.97901 -16.21228,45.41639 -17.2931,62.44753 -1.08082,17.03115 7.26449,79.16428 14.83022,101.87247 7.56573,22.7082 48.6369,74.93704 54.0409,79.47868 5.4041,4.54163 41.0712,19.30196 58.3643,26.11442 17.2931,6.81246 155.6379,11.35409 180.4967,14.76032 24.8589,3.40623 91.8696,-15.89573 109.1628,-23.8436 17.2931,-7.94787 41.0711,-11.3541 51.8793,-24.97901 10.8082,-13.62491 35.667,-49.95802 39.9903,-65.85375 4.3232,-15.89574 4.3232,-70.3954 4.3232,-81.7495 0,-11.3541 -1.0808,-61.31212 -21.6163,-82.8849 -20.5356,-21.57278 -55.1218,-51.09344 -82.1423,-60.17671 -27.0205,-9.083277 -190.2241,-22.708193 -208.598,-23.843603 -18.374,-1.135409 -116.7285,22.708192 -116.7285,22.708192 z"
       id="path1329"
       inkscape:connector-curvature="0"
       sodipodi:nodetypes="cssscsscscscssc" />
    <path
       style="fill:#ffffff;fill-rule:evenodd;stroke:none;stroke-width:0.80892998px;stroke-linecap:butt;stroke-linejoin:miter;stroke-opacity:1"
       d="m 1055.2353,392.70793 c -23.5293,13.51482 -49.7736,26.18499 -55.2035,35.47643 -5.42982,9.29144 -12.66963,34.63174 -9.04979,46.45723 3.61997,11.82548 15.38469,60.81674 28.95929,70.10818 13.5746,9.29144 57.0136,38.01046 78.733,38.01046 21.7194,0 91.4025,10.9808 103.1673,10.13612 11.7646,-0.84467 87.7826,9.29145 107.6922,0.84468 19.9094,-8.44678 45.2487,-23.65095 60.6334,-28.71902 15.3844,-5.06805 52.4885,-7.60209 63.3482,-26.18498 10.8598,-18.58289 15.7192,-51.76522 7.2399,-76.02093 -8.2009,-23.45904 -25.3393,-43.92318 -52.4887,-56.59335 -27.1492,-12.67014 -114.027,-40.54448 -114.027,-40.54448 l -130.3165,-10.9808 c 0,0 -20.8145,7.60209 -42.534,18.58289 -21.7194,10.9808 -46.1538,19.42757 -46.1538,19.42757 z"
       id="path1331"
       inkscape:connector-curvature="0"
       sodipodi:nodetypes="csccsccccasccsc" />
    <path
       style="fill:#ffffff;fill-rule:evenodd;stroke:none;stroke-width:1px;stroke-linecap:butt;stroke-linejoin:miter;stroke-opacity:1"
       d="m 1351.9814,570.45483 c 0,0 27.0205,22.6972 35.667,37.82867 8.6466,15.13146 27.0205,36.74784 22.6972,76.73814 10.8082,-51.87931 10.8082,-67.01077 -20.5355,-116.72844 -31.3438,-49.71768 -37.8287,2.16163 -37.8287,2.16163 z"
       id="path1333"
       inkscape:connector-curvature="0" />
    <path
       style="fill:#ffffff;fill-rule:evenodd;stroke:none;stroke-width:1.04164481px;stroke-linecap:butt;stroke-linejoin:miter;stroke-opacity:1"
       d="m 1602.6001,231.8935 c 12.1377,-46.74643 16.1834,-74.01519 44.5046,-90.89585 28.321,-16.88066 144.3024,-31.16429 160.4859,-32.4628 16.1835,-1.29851 64.7338,3.89554 87.6604,3.89554 22.9266,0 141.6052,-2.59703 160.486,-2.59703 18.8807,0 95.7522,0 115.9816,2.59703 20.2292,2.59702 91.7062,18.17916 103.8438,29.86578 12.1376,11.6866 47.2016,61.03006 48.5504,93.49287 1.3487,32.4628 -1.3488,85.7018 -25.6239,106.47799 -24.2752,20.77619 -80.9173,46.74643 -118.6788,54.53751 -37.7613,7.79107 -222.5225,16.88065 -244.1003,16.88065 -21.5781,0 -113.2842,3.89554 -157.7888,-2.59702 -44.5045,-6.49256 -93.055,-25.97024 -115.9815,-44.14941 -22.9266,-18.17918 -51.2477,-31.16429 -59.3394,-66.22412 -8.0917,-35.05983 0,-68.82114 0,-68.82114 z"
       id="path1335"
       inkscape:connector-curvature="0" />
    <path
       style="fill:#ffffff;fill-rule:evenodd;stroke:none;stroke-width:1px;stroke-linecap:butt;stroke-linejoin:miter;stroke-opacity:1"
       d="m 1746.5526,423.03907 c 27.5116,26.61792 42.8588,47.56076 -11.4058,80.71719 49.1355,-0.72812 43.5728,20.05383 34.2174,45.56614 66.8976,-20.5973 113.7421,-7.40942 120.3948,32.54725 43.9171,-32.2476 50.5645,-26.46532 83.6426,-1.30189 39.6321,-49.89404 62.6056,-15.54139 91.2465,-10.41512 -5.8821,-23.03081 13.5288,-43.92498 62.4748,-10.21797 -17.5693,-18.88765 -10.6126,-65.99877 56.6527,-69.19731 -30.151,-10.89059 -73.1985,-22.51429 -22.8117,-69.00017 -77.6206,-8.98442 -39.9485,-27.33589 -51.9598,-41.66048 l -112.7909,-13.0189 -114.0581,7.81134 -58.2964,5.20756 c -1.4105,20.45876 4.4806,42.79545 -77.3061,42.96236 z"
       id="path1337"
       inkscape:connector-curvature="0"
       sodipodi:nodetypes="cccccccccccccc" />
    <path
       style="fill:#ffffff;fill-rule:evenodd;stroke:none;stroke-width:1px;stroke-linecap:butt;stroke-linejoin:miter;stroke-opacity:1"
       d="m 2083.819,528.58622 c 24.8588,19.45474 57.2834,63.76832 55.1217,92.95043 10.8082,-38.90948 -17.2931,-97.27371 -31.3437,-112.40517 -14.0507,-15.13147 -23.778,19.45474 -23.778,19.45474 z"
       id="path1339"
       inkscape:connector-curvature="0" />
    <path
       style="fill:#ffffff;fill-rule:evenodd;stroke:none;stroke-width:1.08426356px;stroke-linecap:butt;stroke-linejoin:miter;stroke-opacity:1"
       d="m 857.43956,1438.6648 c 12.92574,-34.2595 38.77722,-50.6446 73.86139,-59.5818 35.08415,-8.9372 127.41085,1.4895 151.41575,1.4895 24.005,0 120.0249,7.4477 132.9506,19.3641 12.9257,11.9164 44.3168,37.2387 35.0841,64.0505 -9.2327,26.8118 -20.3119,53.6236 -70.1683,68.519 -49.8566,14.8954 -96.0197,0 -114.4853,1.4896 -18.4653,1.4895 -42.4701,8.9372 -94.17309,1.4895 -51.70297,-7.4477 -118.17826,-46.1759 -114.48515,-96.8204 z"
       id="path1341"
       inkscape:connector-curvature="0" />
    <path
       style="fill:#ffffff;fill-rule:evenodd;stroke:none;stroke-width:1px;stroke-linecap:butt;stroke-linejoin:miter;stroke-opacity:1"
       d="m 1321.8416,1549.9601 c -25.1103,-26.3097 -29.3743,-46.7563 -36.94,-53.2412 -7.5658,-6.4849 -52.768,-40.79 -87.3542,-44.0325 -34.5862,-3.2424 -28.1013,24.8589 -28.1013,24.8589 0,0 36.7479,1.0808 51.8793,5.4041 15.1315,4.3232 48.6369,20.5355 54.041,24.8588 5.4041,4.3233 19.4547,27.0205 46.4752,42.1519 z"
       id="path1343"
       inkscape:connector-curvature="0"
       sodipodi:nodetypes="cccccsc" />
    <path
       style="fill:#ffffff;fill-rule:evenodd;stroke:none;stroke-width:1px;stroke-linecap:butt;stroke-linejoin:miter;stroke-opacity:1"
       d="m 1847.0115,1634.8585 c 65.8759,-41.0171 79.5483,-53.4465 129.266,-55.9324 49.7176,-2.4859 59.6612,-29.8306 59.6612,-29.8306 0,0 -34.8024,-1.243 -72.0906,6.2147 -37.2883,7.4576 -95.7066,37.2882 -116.8366,79.5483 z"
       id="path1345"
       inkscape:connector-curvature="0" />
    <path
       style="fill:#ffffff;fill-rule:evenodd;stroke:none;stroke-width:1.03158092px;stroke-linecap:butt;stroke-linejoin:miter;stroke-opacity:1"
       d="m 1969.5614,1520.4703 c 18.4638,-21.5156 65.9422,-44.3758 94.9567,-48.41 29.0144,-4.0341 121.3335,5.3789 141.1162,17.4814 19.7825,12.1025 60.6667,21.5156 59.3479,60.5124 -1.319,38.9969 5.2753,56.4783 -25.058,77.9938 -30.3334,21.5156 -137.1597,16.1367 -160.8988,14.792 -23.7393,-1.3447 -68.5799,-6.7236 -92.319,-30.9286 -23.7392,-24.2049 -34.2899,-49.7546 -17.145,-91.441 z"
       id="path1347"
       inkscape:connector-curvature="0" />
    <path
       style="fill:#ffffff;fill-rule:evenodd;stroke:none;stroke-width:1px;stroke-linecap:butt;stroke-linejoin:miter;stroke-opacity:1"
       d="m 2013.5657,1655.9885 c 19.8871,-34.8024 68.3618,-47.2318 79.5483,-47.2318 11.1865,0 98.1924,7.4576 114.3506,7.4576 16.1583,0 49.7177,-7.4576 68.3618,-4.9717 18.6442,2.4859 53.4465,0 68.3618,24.8588 14.9153,24.8588 26.1018,79.5483 22.373,103.1642 -3.7288,23.6159 4.9718,54.6894 -11.1865,90.7347 -16.1582,36.0453 -22.3729,49.7177 -45.9888,60.9042 -23.6159,11.1865 -135.4807,6.2147 -160.3395,2.4859 -24.8589,-3.7289 -73.3336,0 -94.4636,-6.2147 -21.13,-6.2148 -54.6894,-27.3448 -49.7177,-53.4465 4.9718,-26.1018 -8.7006,-49.7177 -2.4859,-94.4636 6.2148,-44.7459 11.1865,-83.2771 11.1865,-83.2771 z"
       id="path1349"
       inkscape:connector-curvature="0" />
    <path
       style="fill:#ffffff;fill-rule:evenodd;stroke:none;stroke-width:1.12449646px;stroke-linecap:butt;stroke-linejoin:miter;stroke-opacity:1"
       d="m 110.82753,2399.1151 c 0,-35.8207 32.71576,-41.7908 54.05211,-41.7908 21.33637,0 91.03513,-4.7762 100.99211,-4.7762 9.95697,0 83.92302,7.1642 96.72483,13.1343 12.80182,5.9701 32.71574,10.7462 29.87091,32.2386 -2.84485,21.4925 0,33.4327 -28.44847,39.4028 -28.44849,5.9702 -139.39757,8.3582 -159.31151,7.1642 -19.91392,-1.194 -49.78483,-10.7463 -64.00908,-17.9104 -14.22424,-7.1641 -32.71576,-9.5522 -29.8709,-27.4625 z"
       id="path1351"
       inkscape:connector-curvature="0" />
    <path
       style="fill:#ffffff;fill-rule:evenodd;stroke:none;stroke-width:0.96320325px;stroke-linecap:butt;stroke-linejoin:miter;stroke-opacity:1"
       d="m 309.11422,2417.8476 c 48.15781,-12.4074 82.20391,-9.4641 96.44438,-7.6234 14.9867,1.9372 52.96013,13.3791 64.84914,23.4065 11.889,10.0274 27.05014,30.343 25.96932,42.3759 -1.08082,12.033 6.91442,45.0959 5.8336,61.1398 -1.08082,16.0438 -12.59967,71.222 -20.1654,94.2851 -7.56574,23.063 -25.93966,50.137 -107.00108,55.1508 -81.06142,5.0137 -130.77909,3.0082 -162.12284,-5.0138 -31.34375,-8.0218 -71.33406,-13.0355 -82.14225,-51.1397 -10.80819,-38.1042 -14.05064,-81.2221 -10.80819,-99.2714 3.24246,-18.0494 6.48492,-58.159 10.80819,-65.1782 4.32328,-7.0192 17.38212,-34.354 27.10949,-40.3704 9.72737,-6.0164 151.22564,-7.7612 151.22564,-7.7612 z"
       id="path1353"
       inkscape:connector-curvature="0"
       sodipodi:nodetypes="csssscscsscsc" />
    <path
       style="fill:#ffffff;fill-rule:evenodd;stroke:none;stroke-width:1px;stroke-linecap:butt;stroke-linejoin:miter;stroke-opacity:1"
       d="m 532.84375,2533.5054 c 1.08082,-19.4547 14.05064,-55.1218 33.50539,-61.6067 19.45474,-6.4849 73.49568,-6.4849 84.30387,-3.2424 10.80819,3.2424 28.1013,27.0204 32.42457,36.7478 4.32328,9.7274 16.21229,44.3136 -3.24245,58.3642 -19.45474,14.0507 -38.90949,24.8589 -59.44505,23.778 -20.53556,-1.0808 -61.60668,-8.6465 -71.33405,-21.6163 -9.72737,-12.9699 -16.21228,-32.4246 -16.21228,-32.4246 z"
       id="path1355"
       inkscape:connector-curvature="0" />
    <path
       style="fill:#ffffff;fill-rule:evenodd;stroke:none;stroke-width:1px;stroke-linecap:butt;stroke-linejoin:miter;stroke-opacity:1"
       d="m 371.0335,2688.1612 c 0,0 10.62431,7.3553 12.25882,23.7003 1.63451,16.3451 -0.81725,35.142 -13.89333,54.7561 28.60391,-32.6902 43.31449,-55.5733 34.32469,-83.36 -8.9898,-27.7866 -32.69018,4.9036 -32.69018,4.9036 z"
       id="path1357"
       inkscape:connector-curvature="0" />
    <path
       style="fill:#ffffff;fill-rule:evenodd;stroke:none;stroke-width:1px;stroke-linecap:butt;stroke-linejoin:miter;stroke-opacity:1"
       d="m 609.41023,2578.6689 c 0,0 17.16235,24.5177 9.80706,38.411 -7.35529,13.8933 -8.9898,18.7968 -25.33489,35.1419 26.9694,-17.9796 37.5937,-31.0556 40.86272,-43.3145 3.26902,-12.2588 5.72078,-35.9592 5.72078,-42.4972 0,-6.538 -31.05567,12.2588 -31.05567,12.2588 z"
       id="path1359"
       inkscape:connector-curvature="0" />
    <path
       style="fill:#ffffff;fill-rule:evenodd;stroke:none;stroke-width:1.00331306px;stroke-linecap:butt;stroke-linejoin:miter;stroke-opacity:1"
       d="m 734.52173,2510.6937 c -8.77399,-42.5634 -7.01919,-84.1134 4.38698,-95.2608 4.44306,-26.065 56.07644,-65.3013 76.33364,-59.7915 15.79316,-4.0536 100.90077,-25.3353 117.57133,-23.3084 16.67057,2.0267 110.46442,4.6109 128.01232,22.8524 17.548,18.2414 31.9812,28.5276 42.5101,47.7825 10.5287,19.2548 16.5389,57.2071 21.8033,63.2875 5.2643,6.0806 3.334,36.3309 -1.053,53.5589 -4.3869,17.2281 -20.1801,31.4159 -42.9924,37.4963 -22.8124,6.0806 -53.5214,14.1878 -73.7015,15.2013 -20.18014,1.0134 -66.68223,1.0134 -101.77816,-2.0268 -41.78829,-9.5027 -67.79495,-9.7453 -109.47791,-14.0847 -7.89658,-1.0133 -59.85991,-18.3446 -61.6147,-45.7067 z"
       id="path1361"
       inkscape:connector-curvature="0"
       sodipodi:nodetypes="ccccccccccccc" />
    <path
       style="fill:#ffffff;fill-rule:evenodd;stroke:none;stroke-width:1px;stroke-linecap:butt;stroke-linejoin:miter;stroke-opacity:1"
       d="m 1048.8643,2539.6614 c 40.4132,37.5937 65.789,69.5483 47.932,102.4428 29.1351,-35.714 14.0976,-69.5483 -24.4359,-117.4803 -38.5336,-47.932 -23.4961,15.0375 -23.4961,15.0375 z"
       id="path1363"
       inkscape:connector-curvature="0" />
    <path
       style="fill:#ffffff;fill-rule:evenodd;stroke:none;stroke-width:1px;stroke-linecap:butt;stroke-linejoin:miter;stroke-opacity:1"
       d="m 1362.7766,2499.8218 c -0.8172,-27.7867 20.4314,-32.6902 31.8729,-34.3247 11.4416,-1.6345 58.8423,-9.807 76.8219,3.269 17.9796,13.0761 22.8832,35.142 14.7106,43.3145 -8.1725,8.1726 -34.3247,20.4314 -50.6698,21.2486 -16.345,0.8173 -51.487,-4.0862 -62.9285,-15.5278 -11.4416,-11.4416 -9.8071,-17.9796 -9.8071,-17.9796 z"
       id="path1365"
       inkscape:connector-curvature="0" />
    <path
       style="fill:#ffffff;fill-rule:evenodd;stroke:none;stroke-width:1px;stroke-linecap:butt;stroke-linejoin:miter;stroke-opacity:1"
       d="m 1445.7231,2523.112 c 0,0 19.6141,10.6243 24.5176,19.6141 4.9035,8.9898 13.0761,31.0556 8.9898,45.7662 13.0761,-26.1521 8.1725,-42.4972 4.9035,-49.8525 -3.269,-7.3553 -23.7004,-34.3247 -23.7004,-34.3247 z"
       id="path1367"
       inkscape:connector-curvature="0" />
    <path
       style="fill:#ffffff;fill-rule:evenodd;stroke:none;stroke-width:1px;stroke-linecap:butt;stroke-linejoin:miter;stroke-opacity:1"
       d="m 1811.2557,2452.444 c 4.5211,-52.9602 32.7775,-69.1724 51.992,-76.7382 19.2144,-7.5657 98.3326,-18.3739 125.4588,-17.2931 27.1262,1.0808 127.7194,11.889 144.6733,12.9698 16.9539,1.0809 59.9037,25.9397 63.2945,32.4246 3.3908,6.4849 18.0842,23.778 13.5631,43.2328 -4.521,19.4547 -30.517,45.3944 -55.3828,55.1217 -24.8657,9.7274 -124.3284,17.2931 -143.5429,15.1315 -19.2144,-2.1616 -51.9919,-5.4041 -71.2064,-5.4041 -19.2144,0 -80.2484,-1.0808 -96.0721,-12.9698 -15.8236,-11.889 -32.7775,-46.4752 -32.7775,-46.4752 z"
       id="path1369"
       inkscape:connector-curvature="0" />
    <path
       style="fill:#ffffff;fill-rule:evenodd;stroke:none;stroke-width:1.05092192px;stroke-linecap:butt;stroke-linejoin:miter;stroke-opacity:1"
       d="m 1975.3627,2507.5657 c 17.314,24.1512 6.8068,34.5534 -22.4952,35.6671 22.6629,9.9586 50.9517,15.5923 44.9903,47.556 25.161,-0.375 41.0782,-19.937 81.2324,10.8082 23.7449,-25.3561 47.4896,-13.281 71.2346,-2.1617 11.3889,-11.3113 32.3579,-12.0311 76.2336,-6.4849 -3.3881,-25.0109 24.1456,-36.1565 49.9892,-44.3136 -21.882,-13.1763 -41.592,-27.5479 -27.4941,-60.5258 -31.7986,7.2773 -58.5389,6.6803 -73.734,-11.889 -31.5478,4.157 -55.2449,21.8927 -98.7288,5.4041 -23.4161,19.9279 -49.5158,21.2885 -76.2336,18.3739 6.0887,17.7643 -1.0985,21.4958 -24.9944,7.5657 z"
       id="path1371"
       inkscape:connector-curvature="0"
       sodipodi:nodetypes="cccccccccccc" />
    <path
       style="fill:#ffffff;fill-rule:evenodd;stroke:none;stroke-width:1px;stroke-linecap:butt;stroke-linejoin:miter;stroke-opacity:1"
       d="m 2142.1832,2571.3341 c -3.2425,28.1012 8.6465,79.9806 34.5862,113.4859 -3.2425,16.2123 1.0808,33.5054 15.1315,47.5561 -12.9699,-29.1821 -7.5658,-36.7479 -1.0809,-50.7985 -12.9698,-20.5356 -31.3437,-69.1724 -34.5862,-109.1627 -3.2424,-39.9903 -14.0506,-1.0808 -14.0506,-1.0808 z"
       id="path1373"
       inkscape:connector-curvature="0" />
  </g>
  <g
     inkscape:groupmode="layer"
     id="layer1"
     inkscape:label="txt">
    <text
       xml:space="preserve"
       style="font-style:normal;font-variant:normal;font-weight:normal;font-stretch:normal;line-height:0%;font-family:Lavi;-inkscape-font-specification:Lavi;text-align:center;letter-spacing:0px;word-spacing:0px;text-anchor:middle;fill:#000000;fill-opacity:1;stroke:none"
       x="318.61392"
       y="193.67375"
       id="text4246"><tspan
         sodipodi:role="line"
         style="font-size:45px;line-height:1.20000005"
         x="318.61392"
         y="193.67375"
         id="tspan4252">Sabéis...</tspan></text>
    <text
       xml:space="preserve"
       style="font-style:normal;font-variant:normal;font-weight:normal;font-stretch:normal;line-height:0%;font-family:Lavi;-inkscape-font-specification:Lavi;text-align:center;letter-spacing:0px;word-spacing:0px;text-anchor:middle;fill:#000000;fill-opacity:1;stroke:none"
       x="528.04688"
       y="265.45801"
       id="text4246-3"><tspan
         sodipodi:role="line"
         style="font-size:45px;line-height:1.20000005"
         x="528.04688"
         y="265.45801"
         id="tspan841"> He estado pensando</tspan><tspan
         sodipodi:role="line"
         style="font-size:45px;line-height:1.20000005"
         x="528.04688"
         y="319.45801"
         id="tspan899">en la seguridad de nuevo...</tspan></text>
    <text
       xml:space="preserve"
       style="font-style:normal;font-variant:normal;font-weight:normal;font-stretch:normal;line-height:0%;font-family:Lavi;-inkscape-font-specification:Lavi;text-align:center;letter-spacing:0px;word-spacing:0px;text-anchor:middle;fill:#000000;fill-opacity:1;stroke:none"
       x="1203.0967"
       y="169.41882"
       id="text4246-3-7"><tspan
         sodipodi:role="line"
         style="font-size:45px;line-height:1.20000005"
         x="1203.0967"
         y="169.41882"
         id="tspan872">Tantas jóvenes reinas</tspan><tspan
         sodipodi:role="line"
         style="font-size:45px;line-height:1.20000005"
         x="1203.0967"
         y="223.41882"
         id="tspan99">y reyes han sido</tspan><tspan
         sodipodi:role="line"
         style="font-size:45px;line-height:1.20000005"
         x="1203.0967"
         y="277.41882"
         id="tspan915">asesinados durante</tspan><tspan
         sodipodi:role="line"
         style="font-size:45px;line-height:1.20000005"
         x="1203.0967"
         y="331.41882"
         id="tspan937">su ceremonia</tspan><tspan
         sodipodi:role="line"
         style="font-size:45px;line-height:1.20000005"
         x="1203.0967"
         y="385.41882"
         id="tspan115">de coronación.</tspan></text>
    <text
       xml:space="preserve"
       style="font-style:normal;font-variant:normal;font-weight:normal;font-stretch:normal;line-height:0%;font-family:Lavi;-inkscape-font-specification:Lavi;text-align:center;letter-spacing:0px;word-spacing:0px;text-anchor:middle;fill:#000000;fill-opacity:1;stroke:none"
       x="1216.4489"
       y="479.01553"
       id="text4246-3-7-7"><tspan
         sodipodi:role="line"
         style="font-size:45px;line-height:1.20000005"
         x="1216.4489"
         y="479.01553"
         id="tspan905">Forma parte de mi</tspan><tspan
         sodipodi:role="line"
         style="font-size:45px;line-height:1.20000005"
         x="1216.4489"
         y="533.01556"
         id="tspan907">historia familiar.</tspan></text>
    <text
       xml:space="preserve"
       style="font-style:normal;font-variant:normal;font-weight:normal;font-stretch:normal;line-height:0%;font-family:Lavi;-inkscape-font-specification:Lavi;text-align:center;letter-spacing:0px;word-spacing:0px;text-anchor:middle;fill:#000000;fill-opacity:1;stroke:none"
       x="1961.5282"
       y="176.76515"
       id="text4246-3-7-7-6"><tspan
         sodipodi:role="line"
         style="font-size:45px;line-height:1.20000005"
         x="1961.5282"
         y="176.76515"
         id="tspan996">Y ahora, en unas pocas horas,</tspan><tspan
         sodipodi:role="line"
         style="font-size:45px;line-height:1.20000005"
         x="1961.5282"
         y="230.76515"
         id="tspan123">recibiremos miles de invitados</tspan><tspan
         sodipodi:role="line"
         style="font-size:45px;line-height:1.20000005"
         x="1968.5594"
         y="284.76517"
         id="tspan976">procedentes del mundo </tspan><tspan
         sodipodi:role="line"
         style="font-size:45px;line-height:1.20000005"
         x="1968.5594"
         y="338.76517"
         id="tspan986">entero y yo seré el centro </tspan><tspan
         sodipodi:role="line"
         style="font-size:45px;line-height:1.20000005"
         x="1968.5594"
         y="392.76517"
         id="tspan139">de atención. </tspan><tspan
         sodipodi:role="line"
         style="font-size:45px;line-height:1.20000005"
         x="1961.5282"
         y="410.14716"
         id="tspan968" /><tspan
         sodipodi:role="line"
         style="font-size:45px;line-height:1.20000005"
         x="1961.5282"
         y="410.14716"
         id="tspan970" /><tspan
         sodipodi:role="line"
         style="font-size:45px;line-height:1.20000005"
         x="1961.5282"
         y="410.14716"
         id="tspan972" /></text>
    <text
       xml:space="preserve"
       style="font-style:normal;font-variant:normal;font-weight:normal;font-stretch:normal;line-height:0%;font-family:Lavi;-inkscape-font-specification:Lavi;text-align:center;letter-spacing:0px;word-spacing:0px;text-anchor:middle;fill:#000000;fill-opacity:1;stroke:none"
       x="1059.3418"
       y="1445.7167"
       id="text4246-3-7-7-6-7"><tspan
         sodipodi:role="line"
         style="font-size:45px;line-height:1.20000005"
         x="1066.373"
         y="1445.7167"
         id="tspan1067">No te preocupes, </tspan><tspan
         sodipodi:role="line"
         style="font-size:45px;line-height:1.20000005"
         x="1059.3418"
         y="1499.7167"
         id="tspan1007">Celandria.</tspan></text>
    <text
       xml:space="preserve"
       style="font-style:normal;font-variant:normal;font-weight:normal;font-stretch:normal;line-height:0%;font-family:Lavi;-inkscape-font-specification:Lavi;text-align:center;letter-spacing:0px;word-spacing:0px;text-anchor:middle;fill:#000000;fill-opacity:1;stroke:none"
       x="1957.3252"
       y="459.72366"
       id="text4246-3-7-7-6-7-7"><tspan
         sodipodi:role="line"
         style="font-size:45px;line-height:1.20000005"
         x="1964.3564"
         y="459.72366"
         id="tspan1042-9">¡Tengo mucho, </tspan><tspan
         sodipodi:role="line"
         style="font-size:45px;line-height:1.20000005"
         x="1957.3252"
         y="513.72369"
         id="tspan990">mucho miedo!</tspan></text>
    <text
       xml:space="preserve"
       style="font-style:normal;font-variant:normal;font-weight:normal;font-stretch:normal;line-height:0%;font-family:Lavi;-inkscape-font-specification:Lavi;text-align:center;letter-spacing:0px;word-spacing:0px;text-anchor:middle;fill:#000000;fill-opacity:1;stroke:none"
       x="2121.4336"
       y="1547.2563"
       id="text4246-3-7-7-6-7-2"><tspan
         sodipodi:role="line"
         style="font-size:45px;line-height:1.20000005"
         x="2121.4336"
         y="1547.2563"
         id="tspan1011">Seguiremos</tspan><tspan
         sodipodi:role="line"
         style="font-size:45px;line-height:1.20000005"
         x="2121.4336"
         y="1601.2563"
         id="tspan147">nuestro plan.</tspan></text>
    <text
       xml:space="preserve"
       style="font-style:normal;font-variant:normal;font-weight:normal;font-stretch:normal;line-height:0%;font-family:Lavi;-inkscape-font-specification:Lavi;text-align:center;letter-spacing:0px;word-spacing:0px;text-anchor:middle;fill:#000000;fill-opacity:1;stroke:none"
       x="2182.6404"
       y="1691.4915"
       id="text4246-3-7-7-6-7-2-9"><tspan
         sodipodi:role="line"
         style="font-size:45px;line-height:1.20000005"
         x="2189.6716"
         y="1691.4915"
         id="tspan1121">Shichimi y yo </tspan><tspan
         sodipodi:role="line"
         style="font-size:45px;line-height:1.20000005"
         x="2182.6404"
         y="1745.4915"
         id="tspan1022">seremos tus</tspan><tspan
         sodipodi:role="line"
         style="font-size:45px;line-height:1.20000005"
         x="2189.6716"
         y="1799.4915"
         id="tspan1024">guardaespaldas, </tspan><tspan
         sodipodi:role="line"
         style="font-size:45px;line-height:1.20000005"
         x="2182.6404"
         y="1853.4915"
         id="tspan1026">¿recuerdas?</tspan></text>
    <text
       xml:space="preserve"
       style="font-style:normal;font-variant:normal;font-weight:normal;font-stretch:normal;line-height:0%;font-family:Lavi;-inkscape-font-specification:Lavi;text-align:center;letter-spacing:0px;word-spacing:0px;text-anchor:middle;fill:#000000;fill-opacity:1;stroke:none"
       x="254.1396"
       y="2407.7466"
       id="text4246-3-7-7-6-7-2-9-6"><tspan
         sodipodi:role="line"
         style="font-size:45px;line-height:1.20000005"
         x="254.1396"
         y="2407.7466"
         id="tspan1121-3">Exacto.</tspan></text>
    <text
       xml:space="preserve"
       style="font-style:normal;font-variant:normal;font-weight:normal;font-stretch:normal;line-height:0%;font-family:Lavi;-inkscape-font-specification:Lavi;text-align:center;letter-spacing:0px;word-spacing:0px;text-anchor:middle;fill:#000000;fill-opacity:1;stroke:none"
       x="310.79276"
       y="2481.5852"
       id="text4246-3-7-7-6-7-2-9-6-1"><tspan
         sodipodi:role="line"
         style="font-size:45px;line-height:1.20000005"
         x="317.82401"
         y="2481.5852"
         id="tspan1183">Deberías hacer </tspan><tspan
         sodipodi:role="line"
         style="font-size:45px;line-height:1.20000005"
         x="317.82401"
         y="2535.5852"
         id="tspan1048">una pausa y </tspan><tspan
         sodipodi:role="line"
         style="font-size:45px;line-height:1.20000005"
         x="317.82401"
         y="2589.5852"
         id="tspan1050">pensar en otra </tspan><tspan
         sodipodi:role="line"
         style="font-size:45px;line-height:1.20000005"
         x="310.79276"
         y="2643.5852"
         id="tspan155">cosa por ahora.</tspan></text>
    <text
       xml:space="preserve"
       style="font-style:normal;font-variant:normal;font-weight:normal;font-stretch:normal;line-height:0%;font-family:Lavi;-inkscape-font-specification:Lavi;text-align:center;letter-spacing:0px;word-spacing:0px;text-anchor:middle;fill:#000000;fill-opacity:1;stroke:none"
       x="612.41107"
       y="2544.4858"
       id="text4246-3-7-7-6-7-2-9-6-1-4"><tspan
         sodipodi:role="line"
         style="font-size:45px;line-height:1.20000005"
         x="612.41107"
         y="2544.4858"
         id="tspan1183-0">OK.</tspan></text>
    <text
       xml:space="preserve"
       style="font-style:normal;font-variant:normal;font-weight:normal;font-stretch:normal;line-height:0%;font-family:Lavi;-inkscape-font-specification:Lavi;text-align:center;letter-spacing:0px;word-spacing:0px;text-anchor:middle;fill:#000000;fill-opacity:1;stroke:none"
       x="930.10059"
       y="2411.3877"
       id="text4246-3-7-7-6-7-2-9-6-1-4-3"><tspan
         sodipodi:role="line"
         style="font-size:45px;line-height:1.20000005"
         x="930.10059"
         y="2411.3877"
         id="tspan1249">¡Eh! ¿Y si os</tspan><tspan
         sodipodi:role="line"
         style="font-size:45px;line-height:1.20000005"
         x="930.10059"
         y="2465.3877"
         id="tspan157">enseño mi</tspan><tspan
         sodipodi:role="line"
         style="font-size:45px;line-height:1.20000005"
         x="930.10059"
         y="2519.3877"
         id="tspan1063">último invento?</tspan></text>
    <text
       xml:space="preserve"
       style="font-style:normal;font-variant:normal;font-weight:normal;font-stretch:normal;line-height:0%;font-family:Lavi;-inkscape-font-specification:Lavi;text-align:center;letter-spacing:0px;word-spacing:0px;text-anchor:middle;fill:#000000;fill-opacity:1;stroke:none"
       x="1429.6105"
       y="2501.0703"
       id="text4246-3-7-7-6-7-2-9-6-1-4-3-1"><tspan
         sodipodi:role="line"
         style="font-size:45px;line-height:1.20000005"
         x="1429.6105"
         y="2501.0703"
         id="tspan1249-3">...</tspan></text>
    <text
       xml:space="preserve"
       style="font-style:normal;font-variant:normal;font-weight:normal;font-stretch:normal;line-height:0%;font-family:Lavi;-inkscape-font-specification:Lavi;text-align:center;letter-spacing:0px;word-spacing:0px;text-anchor:middle;fill:#000000;fill-opacity:1;stroke:none"
       x="2014.7648"
       y="2425.7151"
       id="text4246-3-7-7-6-7-2-9-6-1-4-3-1-2"><tspan
         sodipodi:role="line"
         style="font-size:45px;line-height:1.20000005"
         x="2014.7648"
         y="2425.7151"
         id="tspan1298">Está aquí abajo,</tspan><tspan
         sodipodi:role="line"
         style="font-size:45px;line-height:1.20000005"
         x="2014.7648"
         y="2479.7151"
         id="tspan1076">en mi taller.</tspan></text>
    <text
       xml:space="preserve"
       style="font-style:normal;font-variant:normal;font-weight:normal;font-stretch:normal;line-height:0%;font-family:Lavi;-inkscape-font-specification:Lavi;text-align:center;letter-spacing:0px;word-spacing:0px;text-anchor:middle;fill:#000000;fill-opacity:1;stroke:none"
       x="2118.0996"
       y="2553.5225"
       id="text4246-3-7-7-6-7-2-9-6-1-4-3-1-2-6"><tspan
         sodipodi:role="line"
         style="font-size:45px;line-height:1.20000005"
         x="2118.0996"
         y="2553.5225"
         id="tspan1298-5">Seguidme.</tspan></text>
  </g>
</svg>
