<?xml version="1.0" encoding="UTF-8" standalone="no"?>
<!-- Created with Inkscape (http://www.inkscape.org/) -->

<svg
   xmlns:dc="http://purl.org/dc/elements/1.1/"
   xmlns:cc="http://creativecommons.org/ns#"
   xmlns:rdf="http://www.w3.org/1999/02/22-rdf-syntax-ns#"
   xmlns:svg="http://www.w3.org/2000/svg"
   xmlns="http://www.w3.org/2000/svg"
   xmlns:xlink="http://www.w3.org/1999/xlink"
   xmlns:sodipodi="http://sodipodi.sourceforge.net/DTD/sodipodi-0.dtd"
   xmlns:inkscape="http://www.inkscape.org/namespaces/inkscape"
   id="svg2"
   version="1.1"
   inkscape:version="0.92.4 (5da689c313, 2019-01-14)"
   width="2481"
   height="3503"
   sodipodi:docname="E22P01.svg">
  <sodipodi:namedview
     pagecolor="#ffffff"
     bordercolor="#666666"
     inkscape:pageopacity="0"
     inkscape:pageshadow="2"
     inkscape:window-width="1813"
     inkscape:window-height="955"
     id="namedview70"
     showgrid="false"
     inkscape:zoom="0.8"
     inkscape:cx="1052.1449"
     inkscape:cy="1504.5636"
     inkscape:current-layer="layer1"
     inkscape:window-x="0"
     inkscape:window-y="74"
     inkscape:window-maximized="0" />
  <metadata
     id="metadata8">
    <rdf:RDF>
      <cc:Work
         rdf:about="">
        <dc:format>image/svg+xml</dc:format>
        <dc:type
           rdf:resource="http://purl.org/dc/dcmitype/StillImage" />
        <dc:title />
      </cc:Work>
    </rdf:RDF>
  </metadata>
  <defs
     id="defs6">
    <filter
       inkscape:collect="always"
       style="color-interpolation-filters:sRGB"
       id="filter4213"
       x="-0.0010298714"
       width="1.0020597"
       y="-0.0014578935"
       height="1.0029159">
      <feGaussianBlur
         inkscape:collect="always"
         stdDeviation="0.24308766"
         id="feGaussianBlur4215" />
    </filter>
    <filter
       style="color-interpolation-filters:sRGB"
       inkscape:label="Drop Shadow"
       id="filter4348">
      <feFlood
         flood-opacity="0.498039"
         flood-color="rgb(70,103,83)"
         result="flood"
         id="feFlood4350" />
      <feComposite
         in="flood"
         in2="SourceGraphic"
         operator="in"
         result="composite1"
         id="feComposite4352" />
      <feGaussianBlur
         in="composite1"
         stdDeviation="3"
         result="blur"
         id="feGaussianBlur4354" />
      <feOffset
         dx="6"
         dy="6"
         result="offset"
         id="feOffset4356" />
      <feComposite
         in="SourceGraphic"
         in2="offset"
         operator="over"
         result="composite2"
         id="feComposite4358" />
    </filter>
    <filter
       style="color-interpolation-filters:sRGB"
       inkscape:label="Drop Shadow"
       id="filter4105">
      <feFlood
         flood-opacity="0.498039"
         flood-color="rgb(70,103,83)"
         result="flood"
         id="feFlood4107" />
      <feComposite
         in="flood"
         in2="SourceGraphic"
         operator="in"
         result="composite1"
         id="feComposite4109" />
      <feGaussianBlur
         in="composite1"
         stdDeviation="3"
         result="blur"
         id="feGaussianBlur4111" />
      <feOffset
         dx="6"
         dy="6"
         result="offset"
         id="feOffset4113" />
      <feComposite
         in="SourceGraphic"
         in2="offset"
         operator="over"
         result="composite2"
         id="feComposite4115" />
    </filter>
  </defs>
  <sodipodi:namedview
     pagecolor="#ffffff"
     bordercolor="#666666"
     borderopacity="1"
     objecttolerance="10"
     gridtolerance="10"
     guidetolerance="10"
     inkscape:pageopacity="0"
     inkscape:pageshadow="2"
     inkscape:window-width="1920"
     inkscape:window-height="1025"
     id="namedview4"
     showgrid="false"
     inkscape:zoom="0.50655138"
     inkscape:cx="1201.6662"
     inkscape:cy="477.65474"
     inkscape:window-x="0"
     inkscape:window-y="26"
     inkscape:window-maximized="1"
     inkscape:current-layer="layer3" />
  <g
     inkscape:groupmode="layer"
     id="layer2"
     inkscape:label="artwork"
     sodipodi:insensitive="true">
    <image
       sodipodi:absref="/felles/omsetting/pepper-carrot/webcomics/ep22_The-Voting-System/lang/nn/../gfx_Pepper-and-Carrot_by-David-Revoy_E22P01.png"
       xlink:href="../gfx_Pepper-and-Carrot_by-David-Revoy_E22P01.png"
       y="0"
       x="0"
       id="image10"
       height="3503"
       width="2481" />
  </g>
  <g
     inkscape:groupmode="layer"
     id="layer3"
     inkscape:label="speechbubbles">
    <rect
       style="color:#000000;display:inline;overflow:visible;visibility:visible;fill:#fff6d5;fill-opacity:1;fill-rule:nonzero;stroke:none;stroke-width:2.5999999;marker:none;enable-background:accumulate"
       id="rect4632-8-6-1"
       width="324.94952"
       height="311.66745"
       x="319.42093"
       y="1895.1672"
       ry="40"
       rx="29.55051" />
    <path
       style="color:#000000;fill:#fff6d5;fill-opacity:1;fill-rule:nonzero;stroke:none;stroke-width:1px;marker:none;visibility:visible;display:inline;overflow:visible;enable-background:accumulate"
       d="m 993.15181,2171.014 c -43.09438,-29.8746 -125.30019,-80.5305 -146.24629,-103.1479 l -16.54791,22.8126 c -12.29225,-2.4407 -54.74882,-38.6572 -63.03221,-47.2104 l -19.9425,20.6691 c -25.27418,-16.7783 -111.94735,-63.5086 -130.92572,-85.0896 l -4.55774,47.94 c 23.60285,20.2117 114.08408,55.1051 140.32099,64.1208 l 21.87133,-20.701 c 8.70491,10.4888 58.41082,38.7682 65.61721,45.5247 l 13.72027,-23.6602 z"
       id="path4032"
       inkscape:connector-curvature="0"
       sodipodi:nodetypes="cccccccccccc" />
  </g>
  <g
     inkscape:groupmode="layer"
     id="layer1"
     inkscape:label="txt">
    <text
       xml:space="preserve"
       style="font-style:normal;font-variant:normal;font-weight:normal;font-stretch:normal;line-height:0%;font-family:Lavi;-inkscape-font-specification:'Lavi, Normal';text-align:center;letter-spacing:0px;word-spacing:0px;writing-mode:lr-tb;text-anchor:middle;display:inline;fill:#000000;fill-opacity:1;stroke:none"
       x="482.89032"
       y="1958.0786"
       id="text4246-2-3-1"><tspan
         sodipodi:role="line"
         x="482.89032"
         y="1958.0786"
         style="font-size:45px;line-height:1.25"
         id="tspan4158">Vår store</tspan><tspan
         sodipodi:role="line"
         x="482.89032"
         y="2014.3286"
         style="font-size:45px;line-height:1.25"
         id="tspan848">trolldoms-</tspan><tspan
         sodipodi:role="line"
         x="482.89032"
         y="2070.5786"
         style="font-size:45px;line-height:1.25"
         id="tspan850">konkurranse</tspan><tspan
         sodipodi:role="line"
         x="482.89032"
         y="2126.8286"
         style="font-size:45px;line-height:1.25"
         id="tspan852">kan endeleg</tspan><tspan
         sodipodi:role="line"
         x="482.89032"
         y="2183.0786"
         style="font-size:45px;line-height:1.25"
         id="tspan845">starta!</tspan></text>
    <text
       xml:space="preserve"
       style="font-style:normal;font-variant:normal;font-weight:normal;font-stretch:normal;font-size:6.81315565px;line-height:0%;font-family:Lavi;-inkscape-font-specification:Lavi;text-align:center;letter-spacing:0px;word-spacing:0px;text-anchor:middle;display:inline;opacity:0.6;fill:#000000;fill-opacity:1;stroke:none;filter:url(#filter4213)"
       id="text4246"
       transform="matrix(0.92508896,0,0,0.92508896,132.01018,213.59877)"><textPath
         xlink:href="#path854"
         startOffset="50%"
         id="textPath859"
         style="font-style:normal;font-variant:normal;font-weight:normal;font-stretch:normal;font-size:33.14996338px;line-height:1.26999998;font-family:Fondamento;-inkscape-font-specification:Fondamento;stroke:#000000;stroke-width:1.67631352;stroke-opacity:1">Trolldomkonkurranse</textPath></text>
    <path
       style="fill:none;fill-opacity:0.75;fill-rule:evenodd;stroke:none;stroke-width:1px;stroke-linecap:butt;stroke-linejoin:miter;stroke-opacity:1"
       d="m 1611.2094,2940.0895 c 0,0 101.638,-20.1751 180.1332,-53.5264 85.2923,-36.2393 96.2738,-50.7285 96.2738,-50.7285"
       id="path854"
       inkscape:connector-curvature="0"
       sodipodi:nodetypes="csc" />
  </g>
</svg>
