<?xml version="1.0" encoding="UTF-8" standalone="no"?>
<!-- Created with Inkscape (http://www.inkscape.org/) -->

<svg
   xmlns:dc="http://purl.org/dc/elements/1.1/"
   xmlns:cc="http://creativecommons.org/ns#"
   xmlns:rdf="http://www.w3.org/1999/02/22-rdf-syntax-ns#"
   xmlns:svg="http://www.w3.org/2000/svg"
   xmlns="http://www.w3.org/2000/svg"
   xmlns:xlink="http://www.w3.org/1999/xlink"
   xmlns:sodipodi="http://sodipodi.sourceforge.net/DTD/sodipodi-0.dtd"
   xmlns:inkscape="http://www.inkscape.org/namespaces/inkscape"
   id="svg2"
   version="1.1"
   inkscape:version="0.91 r13725"
   width="2481"
   height="3503"
   sodipodi:docname="E36P14.svg">
  <metadata
     id="metadata8">
    <rdf:RDF>
      <cc:Work
         rdf:about="">
        <dc:format>image/svg+xml</dc:format>
        <dc:type
           rdf:resource="http://purl.org/dc/dcmitype/StillImage" />
        <dc:title />
      </cc:Work>
    </rdf:RDF>
  </metadata>
  <defs
     id="defs6">
    <filter
       x="-0.037815797"
       width="1.0733296"
       height="1.3636776"
       inkscape:label="magic-Fx-red_background"
       id="filter4375-4-1-1-1-9-5-8-8-3-3-3-6-1-3"
       style="color-interpolation-filters:sRGB"
       y="-0.13017575">
      <feFlood
         radius="5.0999999999999996"
         result="flood"
         flood-color="rgb(216,88,33)"
         flood-opacity="1"
         id="feFlood4377-7-9-0-8-1-7-3-1-6-61-6-2-0-1" />
      <feComposite
         baseFrequency="0.053999999999999999 0.053999999999999999"
         result="composite1"
         operator="in"
         in="flood"
         in2="SourceGraphic"
         id="feComposite4379-3-8-8-2-77-4-1-0-7-2-7-6-6-4" />
      <feMorphology
         result="result3"
         radius="0.96959439099754563"
         operator="dilate"
         id="feMorphology4393-1-0-49-8-9-3-0-1-5-9-5-1-3-9" />
      <feComposite
         numOctaves="4"
         result="fbSourceGraphic"
         operator="over"
         in="SourceGraphic"
         in2="result3"
         id="feComposite4385-9-5-7-0-8-8-7-5-3-3-3-8-2-2" />
      <feColorMatrix
         id="feColorMatrix4544-9-5-1-5-7-0-0"
         values="0 0 0 -1 0 0 0 0 -1 0 0 0 0 -1 0 0 0 0 1 0"
         in="fbSourceGraphic"
         result="fbSourceGraphicAlpha" />
      <feTurbulence
         result="turbulence"
         baseFrequency="0.062 0.054054054054054057"
         seed="172"
         numOctaves="4.4123222748815163"
         type="fractalNoise"
         id="feTurbulence4546-3-6-9-6-9-6-6" />
      <feDisplacementMap
         result="fbSourceGraphic"
         xChannelSelector="R"
         yChannelSelector="G"
         scale="11.642079"
         in="fbSourceGraphic"
         in2="turbulence"
         id="feDisplacementMap4548-8-2-4-2-2-1-8" />
      <feColorMatrix
         scale="10.800000000000001"
         id="feColorMatrix4670-7-9-7-9-0-5-9"
         values="0 0 0 -1 0 0 0 0 -1 0 0 0 0 -1 0 0 0 0 1 0"
         in="fbSourceGraphic"
         result="fbSourceGraphicAlpha" />
      <feComposite
         result="composite1"
         operator="in"
         in="flood"
         in2="fbSourceGraphic"
         id="feComposite4674-8-2-4-1-2-5-2" />
      <feGaussianBlur
         result="blur"
         stdDeviation="1.5865199271065846"
         in="composite1"
         id="feGaussianBlur4676-3-7-50-2-3-4-6" />
      <feOffset
         result="offset"
         dy="5.2374444725016502"
         dx="-0.42771311737301687"
         id="feOffset4678-6-0-3-7-7-7-6" />
      <feComposite
         result="composite2"
         operator="over"
         in="fbSourceGraphic"
         in2="offset"
         id="feComposite4680-4-9-6-0-5-6-4" />
      <feGaussianBlur
         stdDeviation="0.76414472307477677"
         id="feGaussianBlur58-9-9-5-9" />
      <feOffset
         dx="0"
         dy="0"
         id="feOffset60-3-2-6-5" />
    </filter>
    <filter
       style="color-interpolation-filters:sRGB"
       id="filter4375-4-1-1-1-9-5-8-8-3-3-3-6-1"
       inkscape:label="magic-Fx-red"
       height="1.2649201"
       width="1.0488953"
       x="-0.025336075"
       y="-0.09061606">
      <feFlood
         id="feFlood4377-7-9-0-8-1-7-3-1-6-61-6-2-0"
         flood-opacity="1"
         flood-color="rgb(216,88,33)"
         result="flood"
         radius="5.0999999999999996" />
      <feComposite
         id="feComposite4379-3-8-8-2-77-4-1-0-7-2-7-6-6"
         in2="SourceGraphic"
         in="flood"
         operator="in"
         result="composite1"
         baseFrequency="0.053999999999999999 0.053999999999999999" />
      <feMorphology
         id="feMorphology4393-1-0-49-8-9-3-0-1-5-9-5-1-3"
         operator="dilate"
         radius="0.96959439099754563"
         result="result3" />
      <feComposite
         id="feComposite4385-9-5-7-0-8-8-7-5-3-3-3-8-2"
         in2="result3"
         in="SourceGraphic"
         operator="over"
         result="fbSourceGraphic"
         numOctaves="4" />
      <feColorMatrix
         result="fbSourceGraphicAlpha"
         in="fbSourceGraphic"
         values="0 0 0 -1 0 0 0 0 -1 0 0 0 0 -1 0 0 0 0 1 0"
         id="feColorMatrix4544-9-5-1-5-7-0" />
      <feTurbulence
         id="feTurbulence4546-3-6-9-6-9-6"
         type="fractalNoise"
         numOctaves="4.4123222748815163"
         seed="172"
         baseFrequency="0.062 0.054054054054054057"
         result="turbulence" />
      <feDisplacementMap
         id="feDisplacementMap4548-8-2-4-2-2-1"
         in2="turbulence"
         in="fbSourceGraphic"
         scale="11.642079"
         yChannelSelector="G"
         xChannelSelector="R"
         result="fbSourceGraphic" />
      <feColorMatrix
         result="fbSourceGraphicAlpha"
         in="fbSourceGraphic"
         values="0 0 0 -1 0 0 0 0 -1 0 0 0 0 -1 0 0 0 0 1 0"
         id="feColorMatrix4670-7-9-7-9-0-5"
         scale="10.800000000000001" />
      <feComposite
         id="feComposite4674-8-2-4-1-2-5"
         in2="fbSourceGraphic"
         in="flood"
         operator="in"
         result="composite1" />
      <feGaussianBlur
         id="feGaussianBlur4676-3-7-50-2-3-4"
         in="composite1"
         stdDeviation="1.5865199271065846"
         result="blur" />
      <feOffset
         id="feOffset4678-6-0-3-7-7-7"
         dx="-0.42771311737301687"
         dy="5.2374444725016502"
         result="offset" />
      <feComposite
         id="feComposite4680-4-9-6-0-5-6"
         in2="offset"
         in="fbSourceGraphic"
         operator="over"
         result="composite2" />
      <feGaussianBlur
         id="feGaussianBlur58-9-9-5"
         stdDeviation="0.60935760846819198" />
      <feOffset
         id="feOffset60-3-2-6"
         dy="0"
         dx="0" />
    </filter>
    <filter
       x="-0.042513414"
       width="1.0824388"
       height="1.3636776"
       inkscape:label="magic-Fx-red_background"
       id="filter4375-4-1-1-1-9-5-8-8-3-3-3-6-1-3-3"
       style="color-interpolation-filters:sRGB"
       y="-0.13017575">
      <feFlood
         radius="5.0999999999999996"
         result="flood"
         flood-color="rgb(216,88,33)"
         flood-opacity="1"
         id="feFlood4377-7-9-0-8-1-7-3-1-6-61-6-2-0-1-6" />
      <feComposite
         baseFrequency="0.053999999999999999 0.053999999999999999"
         result="composite1"
         operator="in"
         in="flood"
         in2="SourceGraphic"
         id="feComposite4379-3-8-8-2-77-4-1-0-7-2-7-6-6-4-7" />
      <feMorphology
         result="result3"
         radius="0.96959439099754563"
         operator="dilate"
         id="feMorphology4393-1-0-49-8-9-3-0-1-5-9-5-1-3-9-5" />
      <feComposite
         numOctaves="4"
         result="fbSourceGraphic"
         operator="over"
         in="SourceGraphic"
         in2="result3"
         id="feComposite4385-9-5-7-0-8-8-7-5-3-3-3-8-2-2-3" />
      <feColorMatrix
         id="feColorMatrix4544-9-5-1-5-7-0-0-5"
         values="0 0 0 -1 0 0 0 0 -1 0 0 0 0 -1 0 0 0 0 1 0"
         in="fbSourceGraphic"
         result="fbSourceGraphicAlpha" />
      <feTurbulence
         result="turbulence"
         baseFrequency="0.062 0.054054054054054057"
         seed="172"
         numOctaves="4.4123222748815163"
         type="fractalNoise"
         id="feTurbulence4546-3-6-9-6-9-6-6-6" />
      <feDisplacementMap
         result="fbSourceGraphic"
         xChannelSelector="R"
         yChannelSelector="G"
         scale="11.642079"
         in="fbSourceGraphic"
         in2="turbulence"
         id="feDisplacementMap4548-8-2-4-2-2-1-8-2" />
      <feColorMatrix
         scale="10.800000000000001"
         id="feColorMatrix4670-7-9-7-9-0-5-9-9"
         values="0 0 0 -1 0 0 0 0 -1 0 0 0 0 -1 0 0 0 0 1 0"
         in="fbSourceGraphic"
         result="fbSourceGraphicAlpha" />
      <feComposite
         result="composite1"
         operator="in"
         in="flood"
         in2="fbSourceGraphic"
         id="feComposite4674-8-2-4-1-2-5-2-1" />
      <feGaussianBlur
         result="blur"
         stdDeviation="1.5865199271065846"
         in="composite1"
         id="feGaussianBlur4676-3-7-50-2-3-4-6-2" />
      <feOffset
         result="offset"
         dy="5.2374444725016502"
         dx="-0.42771311737301687"
         id="feOffset4678-6-0-3-7-7-7-6-7" />
      <feComposite
         result="composite2"
         operator="over"
         in="fbSourceGraphic"
         in2="offset"
         id="feComposite4680-4-9-6-0-5-6-4-0" />
      <feGaussianBlur
         stdDeviation="0.76414472307477677"
         id="feGaussianBlur58-9-9-5-9-9" />
      <feOffset
         dx="0"
         dy="0"
         id="feOffset60-3-2-6-5-3" />
    </filter>
    <filter
       x="-0.035524962"
       width="1.0688256"
       height="1.3559863"
       inkscape:label="magic-Fx-red_background"
       id="filter4375-4-1-1-1-9-5-8-8-3-3-3-6-1-3-6"
       style="color-interpolation-filters:sRGB"
       y="-0.1263301">
      <feFlood
         radius="5.0999999999999996"
         result="flood"
         flood-color="rgb(216,88,33)"
         flood-opacity="1"
         id="feFlood4377-7-9-0-8-1-7-3-1-6-61-6-2-0-1-2" />
      <feComposite
         baseFrequency="0.053999999999999999 0.053999999999999999"
         result="composite1"
         operator="in"
         in="flood"
         in2="SourceGraphic"
         id="feComposite4379-3-8-8-2-77-4-1-0-7-2-7-6-6-4-6" />
      <feMorphology
         result="result3"
         radius="0.96959439099754563"
         operator="dilate"
         id="feMorphology4393-1-0-49-8-9-3-0-1-5-9-5-1-3-9-1" />
      <feComposite
         numOctaves="4"
         result="fbSourceGraphic"
         operator="over"
         in="SourceGraphic"
         in2="result3"
         id="feComposite4385-9-5-7-0-8-8-7-5-3-3-3-8-2-2-8" />
      <feColorMatrix
         id="feColorMatrix4544-9-5-1-5-7-0-0-7"
         values="0 0 0 -1 0 0 0 0 -1 0 0 0 0 -1 0 0 0 0 1 0"
         in="fbSourceGraphic"
         result="fbSourceGraphicAlpha" />
      <feTurbulence
         result="turbulence"
         baseFrequency="0.062 0.054054054054054057"
         seed="172"
         numOctaves="4.4123222748815163"
         type="fractalNoise"
         id="feTurbulence4546-3-6-9-6-9-6-6-9" />
      <feDisplacementMap
         result="fbSourceGraphic"
         xChannelSelector="R"
         yChannelSelector="G"
         scale="11.642079"
         in="fbSourceGraphic"
         in2="turbulence"
         id="feDisplacementMap4548-8-2-4-2-2-1-8-20" />
      <feColorMatrix
         scale="10.800000000000001"
         id="feColorMatrix4670-7-9-7-9-0-5-9-2"
         values="0 0 0 -1 0 0 0 0 -1 0 0 0 0 -1 0 0 0 0 1 0"
         in="fbSourceGraphic"
         result="fbSourceGraphicAlpha" />
      <feComposite
         result="composite1"
         operator="in"
         in="flood"
         in2="fbSourceGraphic"
         id="feComposite4674-8-2-4-1-2-5-2-3" />
      <feGaussianBlur
         result="blur"
         stdDeviation="1.5865199271065846"
         in="composite1"
         id="feGaussianBlur4676-3-7-50-2-3-4-6-7" />
      <feOffset
         result="offset"
         dy="5.2374444725016502"
         dx="-0.42771311737301687"
         id="feOffset4678-6-0-3-7-7-7-6-5" />
      <feComposite
         result="composite2"
         operator="over"
         in="fbSourceGraphic"
         in2="offset"
         id="feComposite4680-4-9-6-0-5-6-4-9" />
      <feGaussianBlur
         stdDeviation="0.76414472307477677"
         id="feGaussianBlur58-9-9-5-9-2" />
      <feOffset
         dx="0"
         dy="0"
         id="feOffset60-3-2-6-5-2" />
    </filter>
    <filter
       style="color-interpolation-filters:sRGB"
       id="filter4375-4-1-1-1-9-5-8-8-3-3-3-6-1-8"
       inkscape:label="magic-Fx-red"
       height="1.2719578"
       width="1.0643212"
       x="-0.033287142"
       y="-0.094134915">
      <feFlood
         id="feFlood4377-7-9-0-8-1-7-3-1-6-61-6-2-0-9"
         flood-opacity="1"
         flood-color="rgb(216,88,33)"
         result="flood"
         radius="5.0999999999999996" />
      <feComposite
         id="feComposite4379-3-8-8-2-77-4-1-0-7-2-7-6-6-7"
         in2="SourceGraphic"
         in="flood"
         operator="in"
         result="composite1"
         baseFrequency="0.053999999999999999 0.053999999999999999" />
      <feMorphology
         id="feMorphology4393-1-0-49-8-9-3-0-1-5-9-5-1-3-3"
         operator="dilate"
         radius="0.96959439099754563"
         result="result3" />
      <feComposite
         id="feComposite4385-9-5-7-0-8-8-7-5-3-3-3-8-2-6"
         in2="result3"
         in="SourceGraphic"
         operator="over"
         result="fbSourceGraphic"
         numOctaves="4" />
      <feColorMatrix
         result="fbSourceGraphicAlpha"
         in="fbSourceGraphic"
         values="0 0 0 -1 0 0 0 0 -1 0 0 0 0 -1 0 0 0 0 1 0"
         id="feColorMatrix4544-9-5-1-5-7-0-1" />
      <feTurbulence
         id="feTurbulence4546-3-6-9-6-9-6-2"
         type="fractalNoise"
         numOctaves="4.4123222748815163"
         seed="172"
         baseFrequency="0.062 0.054054054054054057"
         result="turbulence" />
      <feDisplacementMap
         id="feDisplacementMap4548-8-2-4-2-2-1-9"
         in2="turbulence"
         in="fbSourceGraphic"
         scale="11.642079"
         yChannelSelector="G"
         xChannelSelector="R"
         result="fbSourceGraphic" />
      <feColorMatrix
         result="fbSourceGraphicAlpha"
         in="fbSourceGraphic"
         values="0 0 0 -1 0 0 0 0 -1 0 0 0 0 -1 0 0 0 0 1 0"
         id="feColorMatrix4670-7-9-7-9-0-5-3"
         scale="10.800000000000001" />
      <feComposite
         id="feComposite4674-8-2-4-1-2-5-1"
         in2="fbSourceGraphic"
         in="flood"
         operator="in"
         result="composite1" />
      <feGaussianBlur
         id="feGaussianBlur4676-3-7-50-2-3-4-9"
         in="composite1"
         stdDeviation="1.5865199271065846"
         result="blur" />
      <feOffset
         id="feOffset4678-6-0-3-7-7-7-4"
         dx="-0.42771311737301687"
         dy="5.2374444725016502"
         result="offset" />
      <feComposite
         id="feComposite4680-4-9-6-0-5-6-7"
         in2="offset"
         in="fbSourceGraphic"
         operator="over"
         result="composite2" />
      <feGaussianBlur
         id="feGaussianBlur58-9-9-5-8"
         stdDeviation="0.60935760846819198" />
      <feOffset
         id="feOffset60-3-2-6-4"
         dy="0"
         dx="0" />
    </filter>
    <filter
       x="-0.028194762"
       width="1.0546242"
       height="1.3498527"
       inkscape:label="magic-Fx-red_background"
       id="filter4375-4-1-1-1-9-5-8-8-3-3-3-6-1-3-6-5"
       style="color-interpolation-filters:sRGB"
       y="-0.12415344">
      <feFlood
         radius="5.0999999999999996"
         result="flood"
         flood-color="rgb(216,88,33)"
         flood-opacity="1"
         id="feFlood4377-7-9-0-8-1-7-3-1-6-61-6-2-0-1-2-0" />
      <feComposite
         baseFrequency="0.053999999999999999 0.053999999999999999"
         result="composite1"
         operator="in"
         in="flood"
         in2="SourceGraphic"
         id="feComposite4379-3-8-8-2-77-4-1-0-7-2-7-6-6-4-6-3" />
      <feMorphology
         result="result3"
         radius="0.96959439099754563"
         operator="dilate"
         id="feMorphology4393-1-0-49-8-9-3-0-1-5-9-5-1-3-9-1-6" />
      <feComposite
         numOctaves="4"
         result="fbSourceGraphic"
         operator="over"
         in="SourceGraphic"
         in2="result3"
         id="feComposite4385-9-5-7-0-8-8-7-5-3-3-3-8-2-2-8-1" />
      <feColorMatrix
         id="feColorMatrix4544-9-5-1-5-7-0-0-7-0"
         values="0 0 0 -1 0 0 0 0 -1 0 0 0 0 -1 0 0 0 0 1 0"
         in="fbSourceGraphic"
         result="fbSourceGraphicAlpha" />
      <feTurbulence
         result="turbulence"
         baseFrequency="0.062 0.054054054054054057"
         seed="172"
         numOctaves="4.4123222748815163"
         type="fractalNoise"
         id="feTurbulence4546-3-6-9-6-9-6-6-9-6" />
      <feDisplacementMap
         result="fbSourceGraphic"
         xChannelSelector="R"
         yChannelSelector="G"
         scale="11.642079"
         in="fbSourceGraphic"
         in2="turbulence"
         id="feDisplacementMap4548-8-2-4-2-2-1-8-20-3" />
      <feColorMatrix
         scale="10.800000000000001"
         id="feColorMatrix4670-7-9-7-9-0-5-9-2-2"
         values="0 0 0 -1 0 0 0 0 -1 0 0 0 0 -1 0 0 0 0 1 0"
         in="fbSourceGraphic"
         result="fbSourceGraphicAlpha" />
      <feComposite
         result="composite1"
         operator="in"
         in="flood"
         in2="fbSourceGraphic"
         id="feComposite4674-8-2-4-1-2-5-2-3-0" />
      <feGaussianBlur
         result="blur"
         stdDeviation="1.5865199271065846"
         in="composite1"
         id="feGaussianBlur4676-3-7-50-2-3-4-6-7-6" />
      <feOffset
         result="offset"
         dy="5.2374444725016502"
         dx="-0.42771311737301687"
         id="feOffset4678-6-0-3-7-7-7-6-5-1" />
      <feComposite
         result="composite2"
         operator="over"
         in="fbSourceGraphic"
         in2="offset"
         id="feComposite4680-4-9-6-0-5-6-4-9-5" />
      <feGaussianBlur
         stdDeviation="0.76414472307477677"
         id="feGaussianBlur58-9-9-5-9-2-5" />
      <feOffset
         dx="0"
         dy="0"
         id="feOffset60-3-2-6-5-2-4" />
    </filter>
    <filter
       style="color-interpolation-filters:sRGB"
       id="filter4375-4-1-1-1-9-5-8-8-3-3-3-6-1-8-5"
       inkscape:label="magic-Fx-red"
       height="1.2719578"
       width="1.0643212"
       x="-0.033287142"
       y="-0.094134915">
      <feFlood
         id="feFlood4377-7-9-0-8-1-7-3-1-6-61-6-2-0-9-6"
         flood-opacity="1"
         flood-color="rgb(216,88,33)"
         result="flood"
         radius="5.0999999999999996" />
      <feComposite
         id="feComposite4379-3-8-8-2-77-4-1-0-7-2-7-6-6-7-9"
         in2="SourceGraphic"
         in="flood"
         operator="in"
         result="composite1"
         baseFrequency="0.053999999999999999 0.053999999999999999" />
      <feMorphology
         id="feMorphology4393-1-0-49-8-9-3-0-1-5-9-5-1-3-3-3"
         operator="dilate"
         radius="0.96959439099754563"
         result="result3" />
      <feComposite
         id="feComposite4385-9-5-7-0-8-8-7-5-3-3-3-8-2-6-7"
         in2="result3"
         in="SourceGraphic"
         operator="over"
         result="fbSourceGraphic"
         numOctaves="4" />
      <feColorMatrix
         result="fbSourceGraphicAlpha"
         in="fbSourceGraphic"
         values="0 0 0 -1 0 0 0 0 -1 0 0 0 0 -1 0 0 0 0 1 0"
         id="feColorMatrix4544-9-5-1-5-7-0-1-4" />
      <feTurbulence
         id="feTurbulence4546-3-6-9-6-9-6-2-5"
         type="fractalNoise"
         numOctaves="4.4123222748815163"
         seed="172"
         baseFrequency="0.062 0.054054054054054057"
         result="turbulence" />
      <feDisplacementMap
         id="feDisplacementMap4548-8-2-4-2-2-1-9-2"
         in2="turbulence"
         in="fbSourceGraphic"
         scale="11.642079"
         yChannelSelector="G"
         xChannelSelector="R"
         result="fbSourceGraphic" />
      <feColorMatrix
         result="fbSourceGraphicAlpha"
         in="fbSourceGraphic"
         values="0 0 0 -1 0 0 0 0 -1 0 0 0 0 -1 0 0 0 0 1 0"
         id="feColorMatrix4670-7-9-7-9-0-5-3-5"
         scale="10.800000000000001" />
      <feComposite
         id="feComposite4674-8-2-4-1-2-5-1-4"
         in2="fbSourceGraphic"
         in="flood"
         operator="in"
         result="composite1" />
      <feGaussianBlur
         id="feGaussianBlur4676-3-7-50-2-3-4-9-7"
         in="composite1"
         stdDeviation="1.5865199271065846"
         result="blur" />
      <feOffset
         id="feOffset4678-6-0-3-7-7-7-4-4"
         dx="-0.42771311737301687"
         dy="5.2374444725016502"
         result="offset" />
      <feComposite
         id="feComposite4680-4-9-6-0-5-6-7-4"
         in2="offset"
         in="fbSourceGraphic"
         operator="over"
         result="composite2" />
      <feGaussianBlur
         id="feGaussianBlur58-9-9-5-8-3"
         stdDeviation="0.60935760846819198" />
      <feOffset
         id="feOffset60-3-2-6-4-0"
         dy="0"
         dx="0" />
    </filter>
    <filter
       style="color-interpolation-filters:sRGB"
       id="filter4375-4-1-1-1-9-5-8-8-3-3-3-6-1-6"
       inkscape:label="magic-Fx-red"
       height="1.2649201"
       width="1.0488953"
       x="-0.025336075"
       y="-0.09061606">
      <feFlood
         id="feFlood4377-7-9-0-8-1-7-3-1-6-61-6-2-0-8"
         flood-opacity="1"
         flood-color="rgb(216,88,33)"
         result="flood"
         radius="5.0999999999999996" />
      <feComposite
         id="feComposite4379-3-8-8-2-77-4-1-0-7-2-7-6-6-8"
         in2="SourceGraphic"
         in="flood"
         operator="in"
         result="composite1"
         baseFrequency="0.053999999999999999 0.053999999999999999" />
      <feMorphology
         id="feMorphology4393-1-0-49-8-9-3-0-1-5-9-5-1-3-4"
         operator="dilate"
         radius="0.96959439099754563"
         result="result3" />
      <feComposite
         id="feComposite4385-9-5-7-0-8-8-7-5-3-3-3-8-2-3"
         in2="result3"
         in="SourceGraphic"
         operator="over"
         result="fbSourceGraphic"
         numOctaves="4" />
      <feColorMatrix
         result="fbSourceGraphicAlpha"
         in="fbSourceGraphic"
         values="0 0 0 -1 0 0 0 0 -1 0 0 0 0 -1 0 0 0 0 1 0"
         id="feColorMatrix4544-9-5-1-5-7-0-14" />
      <feTurbulence
         id="feTurbulence4546-3-6-9-6-9-6-9"
         type="fractalNoise"
         numOctaves="4.4123222748815163"
         seed="172"
         baseFrequency="0.062 0.054054054054054057"
         result="turbulence" />
      <feDisplacementMap
         id="feDisplacementMap4548-8-2-4-2-2-1-2"
         in2="turbulence"
         in="fbSourceGraphic"
         scale="11.642079"
         yChannelSelector="G"
         xChannelSelector="R"
         result="fbSourceGraphic" />
      <feColorMatrix
         result="fbSourceGraphicAlpha"
         in="fbSourceGraphic"
         values="0 0 0 -1 0 0 0 0 -1 0 0 0 0 -1 0 0 0 0 1 0"
         id="feColorMatrix4670-7-9-7-9-0-5-0"
         scale="10.800000000000001" />
      <feComposite
         id="feComposite4674-8-2-4-1-2-5-6"
         in2="fbSourceGraphic"
         in="flood"
         operator="in"
         result="composite1" />
      <feGaussianBlur
         id="feGaussianBlur4676-3-7-50-2-3-4-8"
         in="composite1"
         stdDeviation="1.5865199271065846"
         result="blur" />
      <feOffset
         id="feOffset4678-6-0-3-7-7-7-9"
         dx="-0.42771311737301687"
         dy="5.2374444725016502"
         result="offset" />
      <feComposite
         id="feComposite4680-4-9-6-0-5-6-2"
         in2="offset"
         in="fbSourceGraphic"
         operator="over"
         result="composite2" />
      <feGaussianBlur
         id="feGaussianBlur58-9-9-5-6"
         stdDeviation="0.60935760846819198" />
      <feOffset
         id="feOffset60-3-2-6-6"
         dy="0"
         dx="0" />
    </filter>
    <filter
       x="-0.037815797"
       width="1.0733296"
       height="1.3636776"
       inkscape:label="magic-Fx-red_background"
       id="filter4375-4-1-1-1-9-5-8-8-3-3-3-6-1-3-5"
       style="color-interpolation-filters:sRGB"
       y="-0.13017575">
      <feFlood
         radius="5.0999999999999996"
         result="flood"
         flood-color="rgb(216,88,33)"
         flood-opacity="1"
         id="feFlood4377-7-9-0-8-1-7-3-1-6-61-6-2-0-1-0" />
      <feComposite
         baseFrequency="0.053999999999999999 0.053999999999999999"
         result="composite1"
         operator="in"
         in="flood"
         in2="SourceGraphic"
         id="feComposite4379-3-8-8-2-77-4-1-0-7-2-7-6-6-4-4" />
      <feMorphology
         result="result3"
         radius="0.96959439099754563"
         operator="dilate"
         id="feMorphology4393-1-0-49-8-9-3-0-1-5-9-5-1-3-9-8" />
      <feComposite
         numOctaves="4"
         result="fbSourceGraphic"
         operator="over"
         in="SourceGraphic"
         in2="result3"
         id="feComposite4385-9-5-7-0-8-8-7-5-3-3-3-8-2-2-7" />
      <feColorMatrix
         id="feColorMatrix4544-9-5-1-5-7-0-0-1"
         values="0 0 0 -1 0 0 0 0 -1 0 0 0 0 -1 0 0 0 0 1 0"
         in="fbSourceGraphic"
         result="fbSourceGraphicAlpha" />
      <feTurbulence
         result="turbulence"
         baseFrequency="0.062 0.054054054054054057"
         seed="172"
         numOctaves="4.4123222748815163"
         type="fractalNoise"
         id="feTurbulence4546-3-6-9-6-9-6-6-7" />
      <feDisplacementMap
         result="fbSourceGraphic"
         xChannelSelector="R"
         yChannelSelector="G"
         scale="11.642079"
         in="fbSourceGraphic"
         in2="turbulence"
         id="feDisplacementMap4548-8-2-4-2-2-1-8-27" />
      <feColorMatrix
         scale="10.800000000000001"
         id="feColorMatrix4670-7-9-7-9-0-5-9-22"
         values="0 0 0 -1 0 0 0 0 -1 0 0 0 0 -1 0 0 0 0 1 0"
         in="fbSourceGraphic"
         result="fbSourceGraphicAlpha" />
      <feComposite
         result="composite1"
         operator="in"
         in="flood"
         in2="fbSourceGraphic"
         id="feComposite4674-8-2-4-1-2-5-2-6" />
      <feGaussianBlur
         result="blur"
         stdDeviation="1.5865199271065846"
         in="composite1"
         id="feGaussianBlur4676-3-7-50-2-3-4-6-1" />
      <feOffset
         result="offset"
         dy="5.2374444725016502"
         dx="-0.42771311737301687"
         id="feOffset4678-6-0-3-7-7-7-6-0" />
      <feComposite
         result="composite2"
         operator="over"
         in="fbSourceGraphic"
         in2="offset"
         id="feComposite4680-4-9-6-0-5-6-4-6" />
      <feGaussianBlur
         stdDeviation="0.76414472307477677"
         id="feGaussianBlur58-9-9-5-9-1" />
      <feOffset
         dx="0"
         dy="0"
         id="feOffset60-3-2-6-5-5" />
    </filter>
    <filter
       x="-0.035524962"
       width="1.0688256"
       height="1.3559863"
       inkscape:label="magic-Fx-red_background"
       id="filter4375-4-1-1-1-9-5-8-8-3-3-3-6-1-3-6-9"
       style="color-interpolation-filters:sRGB"
       y="-0.1263301">
      <feFlood
         radius="5.0999999999999996"
         result="flood"
         flood-color="rgb(216,88,33)"
         flood-opacity="1"
         id="feFlood4377-7-9-0-8-1-7-3-1-6-61-6-2-0-1-2-09" />
      <feComposite
         baseFrequency="0.053999999999999999 0.053999999999999999"
         result="composite1"
         operator="in"
         in="flood"
         in2="SourceGraphic"
         id="feComposite4379-3-8-8-2-77-4-1-0-7-2-7-6-6-4-6-1" />
      <feMorphology
         result="result3"
         radius="0.96959439099754563"
         operator="dilate"
         id="feMorphology4393-1-0-49-8-9-3-0-1-5-9-5-1-3-9-1-7" />
      <feComposite
         numOctaves="4"
         result="fbSourceGraphic"
         operator="over"
         in="SourceGraphic"
         in2="result3"
         id="feComposite4385-9-5-7-0-8-8-7-5-3-3-3-8-2-2-8-7" />
      <feColorMatrix
         id="feColorMatrix4544-9-5-1-5-7-0-0-7-1"
         values="0 0 0 -1 0 0 0 0 -1 0 0 0 0 -1 0 0 0 0 1 0"
         in="fbSourceGraphic"
         result="fbSourceGraphicAlpha" />
      <feTurbulence
         result="turbulence"
         baseFrequency="0.062 0.054054054054054057"
         seed="172"
         numOctaves="4.4123222748815163"
         type="fractalNoise"
         id="feTurbulence4546-3-6-9-6-9-6-6-9-1" />
      <feDisplacementMap
         result="fbSourceGraphic"
         xChannelSelector="R"
         yChannelSelector="G"
         scale="11.642079"
         in="fbSourceGraphic"
         in2="turbulence"
         id="feDisplacementMap4548-8-2-4-2-2-1-8-20-5" />
      <feColorMatrix
         scale="10.800000000000001"
         id="feColorMatrix4670-7-9-7-9-0-5-9-2-9"
         values="0 0 0 -1 0 0 0 0 -1 0 0 0 0 -1 0 0 0 0 1 0"
         in="fbSourceGraphic"
         result="fbSourceGraphicAlpha" />
      <feComposite
         result="composite1"
         operator="in"
         in="flood"
         in2="fbSourceGraphic"
         id="feComposite4674-8-2-4-1-2-5-2-3-7" />
      <feGaussianBlur
         result="blur"
         stdDeviation="1.5865199271065846"
         in="composite1"
         id="feGaussianBlur4676-3-7-50-2-3-4-6-7-7" />
      <feOffset
         result="offset"
         dy="5.2374444725016502"
         dx="-0.42771311737301687"
         id="feOffset4678-6-0-3-7-7-7-6-5-6" />
      <feComposite
         result="composite2"
         operator="over"
         in="fbSourceGraphic"
         in2="offset"
         id="feComposite4680-4-9-6-0-5-6-4-9-7" />
      <feGaussianBlur
         stdDeviation="0.76414472307477677"
         id="feGaussianBlur58-9-9-5-9-2-3" />
      <feOffset
         dx="0"
         dy="0"
         id="feOffset60-3-2-6-5-2-6" />
    </filter>
    <filter
       x="-0.028194762"
       width="1.0546242"
       height="1.3498527"
       inkscape:label="magic-Fx-red_background"
       id="filter4375-4-1-1-1-9-5-8-8-3-3-3-6-1-3-6-5-9"
       style="color-interpolation-filters:sRGB"
       y="-0.12415344">
      <feFlood
         radius="5.0999999999999996"
         result="flood"
         flood-color="rgb(216,88,33)"
         flood-opacity="1"
         id="feFlood4377-7-9-0-8-1-7-3-1-6-61-6-2-0-1-2-0-4" />
      <feComposite
         baseFrequency="0.053999999999999999 0.053999999999999999"
         result="composite1"
         operator="in"
         in="flood"
         in2="SourceGraphic"
         id="feComposite4379-3-8-8-2-77-4-1-0-7-2-7-6-6-4-6-3-8" />
      <feMorphology
         result="result3"
         radius="0.96959439099754563"
         operator="dilate"
         id="feMorphology4393-1-0-49-8-9-3-0-1-5-9-5-1-3-9-1-6-1" />
      <feComposite
         numOctaves="4"
         result="fbSourceGraphic"
         operator="over"
         in="SourceGraphic"
         in2="result3"
         id="feComposite4385-9-5-7-0-8-8-7-5-3-3-3-8-2-2-8-1-2" />
      <feColorMatrix
         id="feColorMatrix4544-9-5-1-5-7-0-0-7-0-9"
         values="0 0 0 -1 0 0 0 0 -1 0 0 0 0 -1 0 0 0 0 1 0"
         in="fbSourceGraphic"
         result="fbSourceGraphicAlpha" />
      <feTurbulence
         result="turbulence"
         baseFrequency="0.062 0.054054054054054057"
         seed="172"
         numOctaves="4.4123222748815163"
         type="fractalNoise"
         id="feTurbulence4546-3-6-9-6-9-6-6-9-6-3" />
      <feDisplacementMap
         result="fbSourceGraphic"
         xChannelSelector="R"
         yChannelSelector="G"
         scale="11.642079"
         in="fbSourceGraphic"
         in2="turbulence"
         id="feDisplacementMap4548-8-2-4-2-2-1-8-20-3-9" />
      <feColorMatrix
         scale="10.800000000000001"
         id="feColorMatrix4670-7-9-7-9-0-5-9-2-2-0"
         values="0 0 0 -1 0 0 0 0 -1 0 0 0 0 -1 0 0 0 0 1 0"
         in="fbSourceGraphic"
         result="fbSourceGraphicAlpha" />
      <feComposite
         result="composite1"
         operator="in"
         in="flood"
         in2="fbSourceGraphic"
         id="feComposite4674-8-2-4-1-2-5-2-3-0-8" />
      <feGaussianBlur
         result="blur"
         stdDeviation="1.5865199271065846"
         in="composite1"
         id="feGaussianBlur4676-3-7-50-2-3-4-6-7-6-8" />
      <feOffset
         result="offset"
         dy="5.2374444725016502"
         dx="-0.42771311737301687"
         id="feOffset4678-6-0-3-7-7-7-6-5-1-5" />
      <feComposite
         result="composite2"
         operator="over"
         in="fbSourceGraphic"
         in2="offset"
         id="feComposite4680-4-9-6-0-5-6-4-9-5-0" />
      <feGaussianBlur
         stdDeviation="0.76414472307477677"
         id="feGaussianBlur58-9-9-5-9-2-5-9" />
      <feOffset
         dx="0"
         dy="0"
         id="feOffset60-3-2-6-5-2-4-6" />
    </filter>
  </defs>
  <sodipodi:namedview
     pagecolor="#1e1e1e"
     bordercolor="#111111"
     borderopacity="1"
     objecttolerance="10"
     gridtolerance="10"
     guidetolerance="10"
     inkscape:pageopacity="0"
     inkscape:pageshadow="2"
     inkscape:window-width="959"
     inkscape:window-height="576"
     id="namedview4"
     showgrid="false"
     inkscape:zoom="0.30417501"
     inkscape:cx="1357.5418"
     inkscape:cy="540.35643"
     inkscape:window-x="65"
     inkscape:window-y="24"
     inkscape:window-maximized="1"
     inkscape:current-layer="layer1"
     inkscape:pagecheckerboard="0"
     inkscape:snap-global="false" />
  <g
     inkscape:groupmode="layer"
     id="layer2"
     inkscape:label="artwork"
     sodipodi:insensitive="true"
     style="display:inline">
    <image
       sodipodi:absref="/home/denez/Desktop/Link to Projet ADG/AdG 2-Travaux/5-BD pepper trad/36/gfx_Pepper-and-Carrot_by-David-Revoy_E36P14.png"
       xlink:href="../gfx_Pepper-and-Carrot_by-David-Revoy_E36P14.png"
       width="2481"
       height="3503"
       id="image10"
       x="0"
       y="0" />
  </g>
  <g
     inkscape:groupmode="layer"
     id="layer3"
     inkscape:label="speechbubbles"
     style="display:inline">
    <path
       style="fill:#ffffff;stroke:none;stroke-width:1.77159"
       d="m 136.09207,1586.496 c 1.33471,-85.6882 52.05427,-149.8081 282.29437,-141.1913 230.24009,8.6169 347.77874,1.3029 343.80928,119.2189 -3.75369,111.4979 -154.48958,118.4927 -328.75988,125.8263 -179.65375,7.5597 -290.51789,-24.9446 -297.34377,-103.8539 z"
       id="path3280-81"
       inkscape:connector-curvature="0"
       sodipodi:nodetypes="csssc" />
    <path
       style="display:inline;fill:#ffffff;stroke:none;stroke-width:1.54793"
       d="m 1771.1213,1712.9531 c 1.047,-65.8159 39.682,-124.9952 215.1976,-114.4324 175.5157,10.5629 233.1534,17.6542 233.5122,107.3909 0.3758,93.9137 -86.9044,116.0021 -219.7533,119.6374 -136.953,3.747 -228.4145,-34.4184 -228.9565,-112.5959 z"
       id="path3280-64"
       inkscape:connector-curvature="0"
       sodipodi:nodetypes="csssc" />
    <path
       style="display:inline;fill:#ffffff;stroke:none;stroke-width:1.43683"
       d="m 2018.1211,1797.0059 c -33.1384,1.4344 -67.6453,10.5424 -92.528,33.5344 -26.0517,26.9121 -34.5279,66.3708 -31.7273,102.7761 3.0803,37.1758 26.1255,72.5776 60.1566,88.5298 35.3203,18.8152 76.2465,22.5903 115.6253,22.056 45.4872,0.3961 92.2674,-1.9356 134.9184,-19.2156 25.4094,-13.7623 40.4603,-41.6452 44.1268,-69.651 6.2937,-33.1186 5.5129,-68.699 -8.4154,-99.8494 -11.545,-21.9189 -34.047,-36.5541 -57.9929,-41.4675 -34.1698,-9.1179 -69.6829,-10.677 -104.6772,-14.5301 -19.7876,-1.5332 -39.6375,-2.348 -59.4863,-2.1827 z"
       id="path3280-64-8"
       inkscape:connector-curvature="0"
       sodipodi:nodetypes="csssc" />
    <path
       style="color:#000000;display:inline;overflow:visible;visibility:visible;fill:#ffffff;fill-opacity:1;fill-rule:nonzero;stroke:none;stroke-width:0.7952px;marker:none;enable-background:accumulate"
       d="m 1845.2653,1737.8419 c -29.7393,69.1013 -104.0003,106.0588 -163.3594,41.2595 61.0824,42.1591 110.1258,-5.0852 123.9653,-46.3021 7.2263,-26.1929 39.3941,5.0426 39.3941,5.0426 z"
       id="path3978-4"
       inkscape:connector-curvature="0"
       sodipodi:nodetypes="cccc" />
    <path
       style="color:#000000;display:inline;overflow:visible;visibility:visible;fill:#ffffff;fill-opacity:1;fill-rule:nonzero;stroke:none;stroke-width:1.05427px;marker:none;enable-background:accumulate"
       d="m 359.44908,3067.3432 c -6.24476,16.7553 -41.46657,18.1602 -54.43272,14.7551 26.13662,18.7443 25.22549,30.3906 -10.26086,32.1985 59.51114,33.7828 10.87946,28.6709 1.28723,37.2371 46.72729,11.6425 25.82098,26.1312 17.50187,40.5548 53.70842,0.4959 36.13211,23.6166 38.39584,42.0304 4.55318,-8.6405 26.1839,-34.9472 27.48538,-5.6569 35.52502,-27.9438 78.31388,-45.9945 81.71152,2.9083 14.31359,-24.6018 28.5842,-34.9992 27.4855,-5.6569 35.46456,-38.1638 67.33436,-24.4264 99.39316,-13.64 8.42003,-11.519 9.40119,-29.215 36.64203,-25.0679 -3.81943,-11.4169 5.37814,-19.2653 26.14955,-23.9259 -27.60185,-6.8965 -32.68877,-14.0104 18.56167,-21.6656 -38.99864,-0.741 -75.36512,-2.2583 -29.61121,-28.3654 -14.3543,-0.6323 -48.41121,21.1531 -32.53257,-42.6014 -24.6829,20.4102 -51.01739,31.6748 -84.04322,-11.0789 -15.62944,21.3592 -42.73838,31.9283 -54.53219,5.2493 -4.23887,11.3732 -21.81567,15.6512 -36.73708,16.1693 -5.77016,-4.5175 -11.72141,-10.6536 -17.9317,-18.6932 -10.15039,16.8807 -25.33417,28.2818 -54.5322,5.2493 z"
       id="path3549-3-7-3"
       inkscape:connector-curvature="0"
       sodipodi:nodetypes="cccccccccccccccccccc" />
    <path
       style="color:#000000;display:inline;overflow:visible;visibility:visible;fill:#ffffff;fill-opacity:1;fill-rule:nonzero;stroke:none;stroke-width:0.996749px;marker:none;enable-background:accumulate"
       d="m 550.34916,3192.1562 c 8.48763,-44.7457 27.8345,-91.7573 219.94454,-87.9466 192.11018,3.8108 236.2893,42.8288 238.3929,88.9782 2.7561,60.4522 -47.00318,71.396 -74.87445,79.4332 -27.87111,8.0371 -93.43093,17.5802 -140.69795,20.7931 -25.41442,1.7281 -179.95498,-2.1433 -209.64496,-24.6804 -29.58416,-22.4561 -34.71516,-44.4998 -33.12008,-76.5775 z"
       id="path3365-90"
       inkscape:connector-curvature="0"
       sodipodi:nodetypes="csssssc" />
    <path
       id="path3276"
       style="fill:#ffffff;stroke:none;stroke-width:0.912983"
       d="m 1057.9504,3304.7191 c -4.3232,-0.085 -8.8431,0.1477 -13.5273,0.7049 v 43.8096 c 8.8524,-5.8434 19.238,-7.3713 26.2988,-3.3717 42.0295,23.8079 101.7715,22.172 121.7324,-21.7354 -11.47,18.1429 -64.0406,27.2135 -74.5547,9.8266 -7.8856,-13.0403 -29.2134,-28.6316 -59.9492,-29.234 z" />
    <path
       style="color:#000000;display:inline;overflow:visible;visibility:visible;fill:#ffffff;fill-opacity:1;fill-rule:nonzero;stroke:none;stroke-width:0.854626px;marker:none;enable-background:accumulate"
       d="m 720.53832,3321.7454 c 7.33763,-38.0506 24.0632,-78.0279 190.14433,-74.7874 166.08115,3.2405 204.27455,36.4204 206.09315,75.6646 2.3826,51.4071 -40.6348,60.7134 -64.7298,67.548 -24.0949,6.8345 -80.77197,14.9497 -121.6348,17.6818 -21.97103,1.4696 -155.57295,-1.8225 -181.24024,-20.9875 -25.57582,-19.0961 -30.01162,-37.8415 -28.63264,-65.1195 z"
       id="path3365-90-7"
       inkscape:connector-curvature="0"
       sodipodi:nodetypes="csssssc" />
    <path
       style="color:#000000;display:inline;overflow:visible;visibility:visible;fill:#ffffff;fill-opacity:1;fill-rule:nonzero;stroke:none;stroke-width:0.787935px;marker:none;enable-background:accumulate"
       d="m 2209.1094,3168.3652 c -30.9682,0.5826 -62.5948,0.2355 -92.4828,9.5262 -15.3965,4.6628 -30.521,12.791 -39.8825,26.2784 -15.0227,20.369 -19.0474,49.1768 -7.7428,72.1731 6.421,12.6127 19.0665,20.996 32.4624,24.6893 14.6788,4.66 29.6967,8.1513 44.6402,11.8364 41.7864,9.5756 85.1592,14.1576 127.8809,8.8926 29.1935,-3.0721 58.4107,-7.4693 86.5614,-15.9815 13.9341,-4.765 27.703,-13.1443 34.5018,-26.7074 11.7311,-22.0897 9.3448,-51.406 -7.1278,-70.5029 -9.6119,-10.9792 -23.2271,-17.3864 -36.9922,-21.468 -20.7635,-6.4119 -42.4025,-9.1024 -63.7383,-12.8747 -25.8247,-3.9479 -51.9484,-6.0598 -78.0803,-5.8615 z"
       id="path3365-90-6"
       inkscape:connector-curvature="0"
       sodipodi:nodetypes="csssssc" />
    <path
       style="fill:#ffffff;stroke:none;stroke-width:1"
       d="m 2060.3927,3117.2826 c 64.1096,-1.6892 106.8258,48.5697 75.1583,113.8693 -16.0406,33.0764 -21.1443,23.5068 -21.1443,23.5068 l 38.2008,36.4869 c 0,0 -0.2914,27.1432 19.214,-31.4883 19.5056,-58.6316 0.9907,-165.8098 -111.4288,-142.3747 z"
       id="path3063-5"
       inkscape:connector-curvature="0"
       sodipodi:nodetypes="cscczc" />
    <path
       style="color:#000000;display:inline;overflow:visible;visibility:visible;fill:#ffffff;fill-opacity:1;fill-rule:nonzero;stroke:none;stroke-width:1px;marker:none;enable-background:accumulate"
       d="m 732.3068,1586.4738 c -23.04249,42.2508 33.63788,87.0354 96.992,77.7365 -24.17076,5.4407 -92.89367,44.0832 -149.10354,-61.0571 -25.42623,-47.5599 31.7117,-21.0159 31.7117,-21.0159 z"
       id="path4035-4"
       inkscape:connector-curvature="0"
       sodipodi:nodetypes="ccscc" />
  </g>
  <g
     inkscape:groupmode="layer"
     id="layer1"
     inkscape:label="txt"
     style="display:inline">
    <text
       xml:space="preserve"
       style="font-style:normal;font-variant:normal;font-weight:normal;font-stretch:normal;line-height:0%;font-family:Lavi;-inkscape-font-specification:Lavi;letter-spacing:3.03024px;word-spacing:0px;fill:#ffffdb;fill-opacity:1;stroke:#aa7640;stroke-width:1.24228;stroke-miterlimit:4;stroke-dasharray:none;stroke-opacity:1;filter:url(#filter4375-4-1-1-1-9-5-8-8-3-3-3-6-1-8-5)"
       x="787.65729"
       y="1584.5073"
       id="text4580-6-0-0-3-3-6-2-9-8-7"
       transform="matrix(1.295973,-0.11177744,-0.01945363,1.4325643,899.57281,-1826.6039)"><tspan
         sodipodi:role="line"
         id="tspan4582-1-1-0-6-9-0-8-3-4-8"
         x="787.65729"
         y="1584.5073"
         style="font-style:normal;font-variant:normal;font-weight:bold;font-stretch:normal;font-size:70px;line-height:1.25;font-family:Drukah;-inkscape-font-specification:'Drukah Bold';fill:#ffffdb;fill-opacity:1;stroke:#aa7640;stroke-width:1.24228;stroke-miterlimit:4;stroke-dasharray:none;stroke-opacity:1">Fiizz !</tspan></text>
    <text
       transform="matrix(0.8887746,-0.07714721,-0.01334125,0.98873558,851.32129,-1142.9091)"
       id="text4580-6-0-0-3-3-6-2-9-4"
       y="1584.5073"
       x="787.65729"
       style="font-style:normal;font-variant:normal;font-weight:normal;font-stretch:normal;line-height:0%;font-family:Lavi;-inkscape-font-specification:Lavi;letter-spacing:3.03024px;word-spacing:0px;fill:#ffffdb;fill-opacity:1;stroke:#aa7640;stroke-width:0.801839;stroke-miterlimit:4;stroke-dasharray:none;stroke-opacity:1;filter:url(#filter4375-4-1-1-1-9-5-8-8-3-3-3-6-1-6)"
       xml:space="preserve"><tspan
         style="font-style:normal;font-variant:normal;font-weight:bold;font-stretch:normal;font-size:70px;line-height:1.25;font-family:Drukah;-inkscape-font-specification:'Drukah Bold';fill:#ffffdb;fill-opacity:1;stroke:#aa7640;stroke-width:0.801839;stroke-miterlimit:4;stroke-dasharray:none;stroke-opacity:1"
         y="1584.5073"
         x="787.65729"
         id="tspan4582-1-1-0-6-9-0-8-3-9"
         sodipodi:role="line">Dziing !</tspan></text>
    <text
       xml:space="preserve"
       style="font-style:normal;font-variant:normal;font-weight:normal;font-stretch:normal;line-height:0%;font-family:Lavi;-inkscape-font-specification:Lavi;letter-spacing:3.03024px;word-spacing:0px;fill:#ffffdb;fill-opacity:1;stroke:#aa7640;stroke-width:1.91363;stroke-miterlimit:4;stroke-dasharray:none;stroke-opacity:1;paint-order:stroke fill markers;filter:url(#filter4375-4-1-1-1-9-5-8-8-3-3-3-6-1-3-5)"
       x="787.65729"
       y="1584.5073"
       id="text4580-6-0-0-3-3-6-2-9-8-0-4-9"
       transform="matrix(0.76777999,-0.07210909,-0.01152502,0.92416579,656.97311,-918.58641)"><tspan
         sodipodi:role="line"
         id="tspan4582-1-1-0-6-9-0-8-3-4-4-9-4"
         x="787.65729"
         y="1584.5073"
         style="font-style:normal;font-variant:normal;font-weight:bold;font-stretch:normal;font-size:70px;line-height:1.25;font-family:Drukah;-inkscape-font-specification:'Drukah Bold';fill:#ffffdb;fill-opacity:1;stroke:#aa7640;stroke-width:1.91363;stroke-miterlimit:4;stroke-dasharray:none;stroke-opacity:1;paint-order:stroke fill markers">Ffhii !</tspan></text>
    <text
       transform="matrix(0.78114637,-0.07089707,-0.01172566,0.90863239,394.33171,-863.37644)"
       id="text4580-6-0-0-3-3-6-2-9-8-0-5"
       y="1584.5073"
       x="787.65729"
       style="font-style:normal;font-variant:normal;font-weight:normal;font-stretch:normal;line-height:0%;font-family:Lavi;-inkscape-font-specification:Lavi;letter-spacing:3.03024px;word-spacing:0px;fill:#ffffdb;fill-opacity:1;stroke:#aa7640;stroke-width:1.52377;stroke-miterlimit:4;stroke-dasharray:none;stroke-opacity:1;paint-order:stroke fill markers;filter:url(#filter4375-4-1-1-1-9-5-8-8-3-3-3-6-1-3-6-9)"
       xml:space="preserve"><tspan
         style="font-style:normal;font-variant:normal;font-weight:bold;font-stretch:normal;font-size:70px;line-height:1.25;font-family:Drukah;-inkscape-font-specification:'Drukah Bold';fill:#ffffdb;fill-opacity:1;stroke:#aa7640;stroke-width:1.52377;stroke-miterlimit:4;stroke-dasharray:none;stroke-opacity:1;paint-order:stroke fill markers"
         y="1584.5073"
         x="787.65729"
         id="tspan4582-1-1-0-6-9-0-8-3-4-4-63"
         sodipodi:role="line">Schii !</tspan></text>
    <text
       transform="matrix(0.52908421,-0.04732561,-0.00794199,0.60653531,384.72385,-322.37447)"
       id="text4580-6-0-0-3-3-6-2-9-8-0-7-3"
       y="1584.5073"
       x="787.65729"
       style="font-style:normal;font-variant:normal;font-weight:normal;font-stretch:normal;line-height:0%;font-family:Lavi;-inkscape-font-specification:Lavi;letter-spacing:3.03024px;word-spacing:0px;opacity:0.659539;fill:#ffffdb;fill-opacity:1;stroke:#aa7640;stroke-width:1.52377;stroke-miterlimit:4;stroke-dasharray:none;stroke-opacity:1;paint-order:stroke fill markers;filter:url(#filter4375-4-1-1-1-9-5-8-8-3-3-3-6-1-3-6-5-9)"
       xml:space="preserve"><tspan
         style="font-style:normal;font-variant:normal;font-weight:bold;font-stretch:normal;font-size:70px;line-height:1.25;font-family:Drukah;-inkscape-font-specification:'Drukah Bold';fill:#ffffdb;fill-opacity:1;stroke:#aa7640;stroke-width:1.52377;stroke-miterlimit:4;stroke-dasharray:none;stroke-opacity:1;paint-order:stroke fill markers"
         y="1584.5073"
         x="787.65729"
         id="tspan4582-1-1-0-6-9-0-8-3-4-4-6-8"
         sodipodi:role="line">Schsss !</tspan></text>
    <text
       xml:space="preserve"
       style="font-style:normal;font-variant:normal;font-weight:normal;font-stretch:normal;line-height:0%;font-family:Lavi;-inkscape-font-specification:Lavi;letter-spacing:3.03024px;word-spacing:0px;fill:#ffffdb;fill-opacity:1;stroke:#aa7640;stroke-width:1.24228;stroke-miterlimit:4;stroke-dasharray:none;stroke-opacity:1;filter:url(#filter4375-4-1-1-1-9-5-8-8-3-3-3-6-1-8)"
       x="787.65729"
       y="1584.5073"
       id="text4580-6-0-0-3-3-6-2-9-8"
       transform="matrix(1.0756032,-0.09277059,-0.0161457,1.1889683,-60.339021,-838.68468)"><tspan
         sodipodi:role="line"
         id="tspan4582-1-1-0-6-9-0-8-3-4"
         x="787.65729"
         y="1584.5073"
         style="font-style:normal;font-variant:normal;font-weight:bold;font-stretch:normal;font-size:70px;line-height:1.25;font-family:Drukah;-inkscape-font-specification:'Drukah Bold';fill:#ffffdb;fill-opacity:1;stroke:#aa7640;stroke-width:1.24228;stroke-miterlimit:4;stroke-dasharray:none;stroke-opacity:1">Fiizz !</tspan></text>
    <text
       transform="matrix(1.0742995,-0.10209861,-0.01612613,1.3085182,140.28476,-851.43004)"
       id="text4580-6-0-0-3-3-6-2-9"
       y="1584.5073"
       x="787.65729"
       style="font-style:normal;font-variant:normal;font-weight:normal;font-stretch:normal;line-height:0%;font-family:Lavi;-inkscape-font-specification:Lavi;letter-spacing:3.03024px;word-spacing:0px;fill:#ffffdb;fill-opacity:1;stroke:#aa7640;stroke-width:0.801839;stroke-miterlimit:4;stroke-dasharray:none;stroke-opacity:1;filter:url(#filter4375-4-1-1-1-9-5-8-8-3-3-3-6-1)"
       xml:space="preserve"><tspan
         style="font-style:normal;font-variant:normal;font-weight:bold;font-stretch:normal;font-size:70px;line-height:1.25;font-family:Drukah;-inkscape-font-specification:'Drukah Bold';fill:#ffffdb;fill-opacity:1;stroke:#aa7640;stroke-width:0.801839;stroke-miterlimit:4;stroke-dasharray:none;stroke-opacity:1"
         y="1584.5073"
         x="787.65729"
         id="tspan4582-1-1-0-6-9-0-8-3"
         sodipodi:role="line">Dziing !</tspan></text>
    <text
       transform="matrix(0.78114637,-0.07089707,-0.01172566,0.90863239,817.65377,-252.48009)"
       id="text4580-6-0-0-3-3-6-2-9-8-0"
       y="1584.5073"
       x="787.65729"
       style="font-style:normal;font-variant:normal;font-weight:normal;font-stretch:normal;line-height:0%;font-family:Lavi;-inkscape-font-specification:Lavi;letter-spacing:3.03024px;word-spacing:0px;fill:#ffffdb;fill-opacity:1;stroke:#aa7640;stroke-width:1.52377;stroke-miterlimit:4;stroke-dasharray:none;stroke-opacity:1;paint-order:stroke fill markers;filter:url(#filter4375-4-1-1-1-9-5-8-8-3-3-3-6-1-3-6)"
       xml:space="preserve"><tspan
         style="font-style:normal;font-variant:normal;font-weight:bold;font-stretch:normal;font-size:70px;line-height:1.25;font-family:Drukah;-inkscape-font-specification:'Drukah Bold';fill:#ffffdb;fill-opacity:1;stroke:#aa7640;stroke-width:1.52377;stroke-miterlimit:4;stroke-dasharray:none;stroke-opacity:1;paint-order:stroke fill markers"
         y="1584.5073"
         x="787.65729"
         id="tspan4582-1-1-0-6-9-0-8-3-4-4"
         sodipodi:role="line">Schii !</tspan></text>
    <text
       xml:space="preserve"
       style="font-style:normal;font-variant:normal;font-weight:normal;font-stretch:normal;line-height:0%;font-family:Lavi;-inkscape-font-specification:Lavi;letter-spacing:3.03024px;word-spacing:0px;fill:#ffffdb;fill-opacity:1;stroke:#aa7640;stroke-width:1.91363;stroke-miterlimit:4;stroke-dasharray:none;stroke-opacity:1;paint-order:stroke fill markers;filter:url(#filter4375-4-1-1-1-9-5-8-8-3-3-3-6-1-3)"
       x="787.65729"
       y="1584.5073"
       id="text4580-6-0-0-3-3-6-2-9-8-0-4"
       transform="matrix(0.76777999,-0.07210909,-0.01152502,0.92416579,657.45155,-441.27199)"><tspan
         sodipodi:role="line"
         id="tspan4582-1-1-0-6-9-0-8-3-4-4-9"
         x="787.65729"
         y="1584.5073"
         style="font-style:normal;font-variant:normal;font-weight:bold;font-stretch:normal;font-size:70px;line-height:1.25;font-family:Drukah;-inkscape-font-specification:'Drukah Bold';fill:#ffffdb;fill-opacity:1;stroke:#aa7640;stroke-width:1.91363;stroke-miterlimit:4;stroke-dasharray:none;stroke-opacity:1;paint-order:stroke fill markers">Ffhii !</tspan></text>
    <text
       transform="matrix(0.52908421,-0.04732561,-0.00794199,0.60653531,1213.4732,207.74235)"
       id="text4580-6-0-0-3-3-6-2-9-8-0-7"
       y="1584.5073"
       x="787.65729"
       style="font-style:normal;font-variant:normal;font-weight:normal;font-stretch:normal;line-height:0%;font-family:Lavi;-inkscape-font-specification:Lavi;letter-spacing:3.03024px;word-spacing:0px;opacity:0.659539;fill:#ffffdb;fill-opacity:1;stroke:#aa7640;stroke-width:1.52377;stroke-miterlimit:4;stroke-dasharray:none;stroke-opacity:1;paint-order:stroke fill markers;filter:url(#filter4375-4-1-1-1-9-5-8-8-3-3-3-6-1-3-6-5)"
       xml:space="preserve"><tspan
         style="font-style:normal;font-variant:normal;font-weight:bold;font-stretch:normal;font-size:70px;line-height:1.25;font-family:Drukah;-inkscape-font-specification:'Drukah Bold';fill:#ffffdb;fill-opacity:1;stroke:#aa7640;stroke-width:1.52377;stroke-miterlimit:4;stroke-dasharray:none;stroke-opacity:1;paint-order:stroke fill markers"
         y="1584.5073"
         x="787.65729"
         id="tspan4582-1-1-0-6-9-0-8-3-4-4-6"
         sodipodi:role="line">Schsss !</tspan></text>
    <text
       id="text4246-4-2-7"
       y="1513.8961"
       x="448.45761"
       style="font-style:normal;font-variant:normal;font-weight:normal;font-stretch:normal;line-height:0%;font-family:Lavi;-inkscape-font-specification:Lavi;text-align:center;letter-spacing:0px;word-spacing:0px;text-anchor:middle;fill:#000000;fill-opacity:1;stroke:none"
       xml:space="preserve"
       sodipodi:linespacing="0%"><tspan
         y="1513.8961"
         x="448.45761"
         style="font-size:42.5px;line-height:1.25"
         sodipodi:role="line"
         id="tspan6200">Le sort-ilae, ç’a étae mon</tspan><tspan
         y="1567.0211"
         x="448.45761"
         style="font-size:42.5px;line-height:1.25"
         sodipodi:role="line"
         id="tspan6196">permier du temp qe je m'</tspan><tspan
         y="1620.1461"
         x="448.45761"
         style="font-size:42.5px;line-height:1.25"
         sodipodi:role="line"
         id="tspan6216">assaeyaes ez engenaodeys</tspan><tspan
         y="1673.2711"
         x="448.45761"
         style="font-size:42.5px;line-height:1.25"
         sodipodi:role="line"
         id="tspan6212">contr la gherre</tspan></text>
    <text
       id="text4246-4-2-7-5"
       y="1658.7592"
       x="1996.5997"
       style="font-style:normal;font-variant:normal;font-weight:normal;font-stretch:normal;line-height:0%;font-family:Lavi;-inkscape-font-specification:Lavi;text-align:center;letter-spacing:0px;word-spacing:0px;text-anchor:middle;fill:#000000;fill-opacity:1;stroke:none"
       xml:space="preserve"
       sodipodi:linespacing="0%"><tspan
         y="1658.7592"
         x="1996.5997"
         style="font-size:42.5px;line-height:1.25"
         sodipodi:role="line"
         id="tspan16121">Sti-ci terchanje</tspan><tspan
         y="1711.8842"
         x="1996.5997"
         style="font-size:42.5px;line-height:1.25"
         sodipodi:role="line"
         id="tspan6225"> lez nemis en amins</tspan></text>
    <text
       id="text4246-4-2-7-5-5"
       y="1792.6376"
       x="2034.968"
       style="font-style:normal;font-variant:normal;font-weight:normal;font-stretch:normal;line-height:0%;font-family:Lavi;-inkscape-font-specification:Lavi;text-align:center;letter-spacing:0px;word-spacing:0px;text-anchor:middle;fill:#000000;fill-opacity:1;stroke:none"
       xml:space="preserve"
       sodipodi:linespacing="0%"><tspan
         y="1792.6376"
         x="2034.968"
         style="font-size:42.5px;line-height:1.25"
         sodipodi:role="line"
         id="tspan21119">S’entr porter</tspan><tspan
         y="1845.7626"
         x="2041.7332"
         style="font-size:42.5px;line-height:1.25"
         sodipodi:role="line"
         id="tspan6232">yun pour </tspan><tspan
         y="1898.8876"
         x="2041.7332"
         style="font-size:42.5px;line-height:1.25"
         sodipodi:role="line"
         id="tspan6244">l     l’aotr en lieu </tspan><tspan
         y="1952.0126"
         x="2041.7332"
         style="font-size:42.5px;line-height:1.25"
         sodipodi:role="line"
         id="tspan6236">qe de </tspan><tspan
         y="2005.1376"
         x="2034.968"
         style="font-size:42.5px;line-height:1.25"
         sodipodi:role="line"
         id="tspan6252">      s’entr fllaeuler</tspan></text>
    <text
       id="text4246-4-2-7-5-5-1"
       y="3098.0037"
       x="477.61322"
       style="font-style:normal;font-variant:normal;font-weight:normal;font-stretch:normal;font-size:14.20110035px;line-height:0%;font-family:Lavi;-inkscape-font-specification:Lavi;text-align:center;letter-spacing:0px;word-spacing:0px;text-anchor:middle;fill:#000000;fill-opacity:1;stroke:none;stroke-width:1.18342996"
       xml:space="preserve"
       transform="scale(0.98030566,1.02009)"
       sodipodi:linespacing="0%"><tspan
         y="3098.0037"
         x="477.61322"
         style="font-style:normal;font-variant:normal;font-weight:bold;font-stretch:normal;font-size:53.25429916px;line-height:1.25;font-family:Lavi;-inkscape-font-specification:'Lavi Bold';stroke-width:1.18342996"
         sodipodi:role="line"
         id="tspan21119-0">Youhou !</tspan></text>
    <text
       id="text4246-4-2-7-5-5-4"
       y="3158.688"
       x="780.77283"
       style="font-style:normal;font-variant:normal;font-weight:normal;font-stretch:normal;line-height:0%;font-family:Lavi;-inkscape-font-specification:Lavi;text-align:center;letter-spacing:0px;word-spacing:0px;text-anchor:middle;fill:#000000;fill-opacity:1;stroke:none"
       xml:space="preserve"
       sodipodi:linespacing="0%"><tspan
         y="3158.688"
         x="780.77283"
         style="font-size:45px;line-height:1.25"
         sodipodi:role="line"
         id="tspan38538">Maez… maez</tspan><tspan
         y="3214.938"
         x="787.93591"
         style="font-size:45px;line-height:1.25"
         sodipodi:role="line"
         id="tspan6260"> c’ét de permiere, </tspan><tspan
         y="3271.188"
         x="780.77283"
         style="font-size:45px;line-height:1.25"
         sodipodi:role="line"
         id="tspan6262">Pepper!</tspan></text>
    <text
       id="text4246-4-2-7-5-5-4-6"
       y="3331.8535"
       x="928.12756"
       style="font-style:normal;font-variant:normal;font-weight:normal;font-stretch:normal;line-height:0%;font-family:Lavi;-inkscape-font-specification:Lavi;text-align:center;letter-spacing:0px;word-spacing:0px;text-anchor:middle;fill:#000000;fill-opacity:1;stroke:none"
       xml:space="preserve"
       sodipodi:linespacing="0%"><tspan
         y="3331.8535"
         x="928.12756"
         style="font-size:45px;line-height:1.25"
         sodipodi:role="line"
         id="tspan44610">Il decessent de</tspan><tspan
         y="3388.1035"
         x="928.12756"
         style="font-size:45px;line-height:1.25"
         sodipodi:role="line"
         id="tspan6266">s’entr batr !</tspan></text>
    <text
       id="text4246-4-2-7-5-5-4-6-7"
       y="3262.3872"
       x="2226.9204"
       style="font-style:normal;font-variant:normal;font-weight:normal;font-stretch:normal;line-height:0%;font-family:Lavi;-inkscape-font-specification:Lavi;text-align:center;letter-spacing:0px;word-spacing:0px;text-anchor:middle;fill:#000000;fill-opacity:1;stroke:none"
       xml:space="preserve"
       sodipodi:linespacing="0%"><tspan
         y="3262.3872"
         x="2226.9204"
         style="font-size:45px;line-height:1.25"
         sodipodi:role="line"
         id="tspan44610-9">Ça jeue !</tspan></text>
  </g>
</svg>
