<?xml version="1.0" encoding="UTF-8" standalone="no"?>
<!-- Created with Inkscape (http://www.inkscape.org/) -->

<svg
   xmlns:dc="http://purl.org/dc/elements/1.1/"
   xmlns:cc="http://creativecommons.org/ns#"
   xmlns:rdf="http://www.w3.org/1999/02/22-rdf-syntax-ns#"
   xmlns:svg="http://www.w3.org/2000/svg"
   xmlns="http://www.w3.org/2000/svg"
   xmlns:xlink="http://www.w3.org/1999/xlink"
   xmlns:sodipodi="http://sodipodi.sourceforge.net/DTD/sodipodi-0.dtd"
   xmlns:inkscape="http://www.inkscape.org/namespaces/inkscape"
   id="svg2"
   version="1.1"
   inkscape:version="0.92.2 (5c3e80d, 2017-08-06)"
   width="2481"
   height="3503"
   sodipodi:docname="E23P04.svg"
   inkscape:export-filename="E:\Users\jamesmichael\Downloads\Compressed\eps\ep23_Take-a-Chance_lang-pack\lang\ph\E23P04.png"
   inkscape:export-xdpi="90"
   inkscape:export-ydpi="90">
  <metadata
     id="metadata8">
    <rdf:RDF>
      <cc:Work
         rdf:about="">
        <dc:format>image/svg+xml</dc:format>
        <dc:type
           rdf:resource="http://purl.org/dc/dcmitype/StillImage" />
        <dc:title />
      </cc:Work>
    </rdf:RDF>
  </metadata>
  <defs
     id="defs6" />
  <sodipodi:namedview
     pagecolor="#ffffff"
     bordercolor="#666666"
     borderopacity="1"
     objecttolerance="10"
     gridtolerance="10"
     guidetolerance="10"
     inkscape:pageopacity="0"
     inkscape:pageshadow="2"
     inkscape:window-width="1920"
     inkscape:window-height="1026"
     id="namedview4"
     showgrid="false"
     inkscape:zoom="0.24734684"
     inkscape:cx="838.57205"
     inkscape:cy="1368.8079"
     inkscape:window-x="1920"
     inkscape:window-y="27"
     inkscape:window-maximized="1"
     inkscape:current-layer="layer3"
     inkscape:document-rotation="0" />
  <g
     inkscape:groupmode="layer"
     id="layer2"
     inkscape:label="artwork"
     sodipodi:insensitive="true">
    <image
       sodipodi:absref="E:\Users\jamesmichael\Downloads\Compressed\eps\ep23_Take-a-Chance_lang-pack\lang\ph\../gfx_Pepper-and-Carrot_by-David-Revoy_E23P04.png"
       xlink:href="../gfx_Pepper-and-Carrot_by-David-Revoy_E23P04.png"
       width="2481"
       height="3503"
       id="image10"
       x="0"
       y="0" />
  </g>
  <g
     inkscape:groupmode="layer"
     id="layer3"
     inkscape:label="speechbubbles">
    <path
       style="fill:#ffffff;fill-rule:evenodd;stroke:none;stroke-width:0.99999994px;stroke-linecap:butt;stroke-linejoin:miter;stroke-opacity:1"
       d="m 2135.1868,188.30947 c 32.9348,12.8414 61.3785,48.511 68.8637,59.9255 7.4852,11.4144 20.474,190.2094 20.474,217.3188 0,27.1089 -12.7853,187.5691 -30.9533,206.6315 -18.8561,19.7842 -68.8637,45.7052 -91.3193,42.8516 -22.4555,-2.8537 -97.3074,-33.0552 -109.2837,-63.0178 -11.9764,-29.9628 -20.9586,-186.9107 -20.9586,-216.8736 0,-29.9625 5.9882,-159.8014 25.4497,-191.1909 19.4615,-31.3896 64.4299,-55.3376 73.4121,-55.3376 8.9822,0 64.3154,-0.3075 64.3154,-0.3075 z"
       id="path4246"
       inkscape:connector-curvature="0"
       sodipodi:nodetypes="cssssssssc" />
    <path
       style="fill:#ffffff;fill-rule:evenodd;stroke:none;stroke-width:1px;stroke-linecap:butt;stroke-linejoin:miter;stroke-opacity:1"
       d="m 2014.8761,180.24212 c 3.8122,-24.29312 8.2944,-49.93369 -6.7376,-69.58867 12.7474,9.99691 30.4412,33.00886 28.3517,60.17215 -3.2611,42.39294 -20.8306,11.79987 -20.8306,11.79987 z"
       id="path4248"
       inkscape:connector-curvature="0"
       sodipodi:nodetypes="ccscc" />
    <path
       style="fill:#ffffff;stroke:none;stroke-width:1.08947849"
       d="m 987.69373,1021.5884 c 36.96147,-2.4383 129.49087,41.2799 122.53107,254.535 -6.9598,213.2552 -47.6161,280.0008 -113.3151,286.25 -103.93404,9.8862 -131.70876,-102.3072 -139.40702,-263.4067 -7.93631,-166.0761 63.40754,-279.9558 130.19105,-277.3783 z"
       id="path3280-8"
       inkscape:connector-curvature="0"
       sodipodi:nodetypes="csssc" />
    <path
       style="color:#000000;display:inline;overflow:visible;visibility:visible;fill:#ffffff;fill-opacity:1;fill-rule:nonzero;stroke:none;stroke-width:1.06383252px;marker:none;enable-background:accumulate"
       d="m 2011.4487,1808.7185 c 51.0615,-4.2911 98.8381,25.3882 109.587,62.9371 33.8926,63.7731 23.7543,136.2785 3.648,201.3665 -11.2907,31.2427 -44.1622,63.7183 -79.1693,80.5231 -42.2027,19.6039 -84.4174,-9.8461 -91.9201,-42.9286 -22.9637,-63.5609 -21.7378,-131.0899 -15.5622,-196.5006 6.5947,-30.0573 3.221,-64.8737 28.9149,-89.6738 10.9383,-10.0804 27.3705,-17.2117 44.5017,-15.7237 z"
       id="path3357"
       inkscape:connector-curvature="0"
       sodipodi:nodetypes="cccccccc" />
    <path
       style="color:#000000;display:inline;overflow:visible;visibility:visible;fill:#ffffff;fill-opacity:1;fill-rule:nonzero;stroke:none;stroke-width:1.15579581px;marker:none;enable-background:accumulate"
       d="m 371.39941,1947.7802 c 45.00161,20.1974 71.67587,68.9442 80.1081,117.4578 10.06374,54.1985 5.28984,110.1689 -3.98079,164.0978 -7.36554,35.5401 -19.80191,71.137 -42.37356,99.3373 -13.6147,10.6452 -29.90125,22.6884 -46.2405,26.0038 -38.7254,16.3449 -76.47312,2.3032 -127.362,-32.1404 -30.04723,-38.0648 -30.15356,-89.4995 -33.22428,-136.1819 -6.17437,-52.8822 -0.58044,-107.8973 20.13998,-156.8784 13.85926,-30.4456 33.68648,-61.0318 63.96035,-75.5035 28.63138,-10.5664 61.60091,-18.4053 88.9727,-6.1925 z"
       id="path3365"
       inkscape:connector-curvature="0"
       sodipodi:nodetypes="cccccccccc" />
    <path
       style="fill:#ffffff;stroke:none;stroke-width:1.42146337"
       d="m 1661.9089,2820.7583 c 40.6545,-2.6231 142.4292,-38.8352 132.2817,254.1171 -7.9466,229.4158 -13.6812,303.0041 -138.3986,309.8268 -115.6519,6.3267 -118.6703,-194.4968 -120.6528,-303.9961 -2.8351,-156.579 53.3134,-262.7207 126.7697,-259.9478 z"
       id="path3280-8-9"
       inkscape:connector-curvature="0"
       sodipodi:nodetypes="csssc" />
  </g>
  <g
     inkscape:groupmode="layer"
     id="layer1"
     inkscape:label="txt">
    <text
       xml:space="preserve"
       style="font-style:normal;font-variant:normal;font-weight:normal;font-stretch:normal;line-height:0%;font-family:Lavi;-inkscape-font-specification:Lavi;text-align:center;letter-spacing:0px;word-spacing:0px;text-anchor:middle;fill:#d45500;fill-opacity:1;stroke:none;"
       x="2095.9011"
       y="321.53461"
       id="text4246"><tspan
         sodipodi:role="line"
         style="font-style:italic;font-variant:normal;font-weight:normal;font-stretch:normal;font-size:35.77793884px;line-height:1.25;font-family:Lavi;-inkscape-font-specification:'Lavi Italic';fill:#d45500;"
         x="2102.1902"
         y="321.53461"
         id="tspan4809">*hindi </tspan><tspan
         sodipodi:role="line"
         style="font-style:italic;font-variant:normal;font-weight:normal;font-stretch:normal;font-size:35.77793884px;line-height:1.25;font-family:Lavi;-inkscape-font-specification:'Lavi Italic';fill:#d45500;"
         x="2102.1902"
         y="366.25702"
         id="tspan4821">kasama </tspan><tspan
         sodipodi:role="line"
         style="font-style:italic;font-variant:normal;font-weight:normal;font-stretch:normal;font-size:35.77793884px;line-height:1.25;font-family:Lavi;-inkscape-font-specification:'Lavi Italic';fill:#d45500;"
         x="2102.1902"
         y="410.97946"
         id="tspan4785">ang holidays </tspan><tspan
         sodipodi:role="line"
         style="font-style:italic;font-variant:normal;font-weight:normal;font-stretch:normal;font-size:35.77793884px;line-height:1.25;font-family:Lavi;-inkscape-font-specification:'Lavi Italic';fill:#d45500;"
         x="2095.9011"
         y="455.70187"
         id="tspan4815">at weekends,</tspan><tspan
         sodipodi:role="line"
         style="font-style:italic;font-variant:normal;font-weight:normal;font-stretch:normal;font-size:35.77793884px;line-height:1.25;font-family:Lavi;-inkscape-font-specification:'Lavi Italic';fill:#d45500;"
         x="2095.9011"
         y="500.42432"
         id="tspan4787">MagAvail na!</tspan><tspan
         sodipodi:role="line"
         style="font-style:italic;font-variant:normal;font-weight:normal;font-stretch:normal;font-size:35.77793884px;line-height:1.25;font-family:Lavi;-inkscape-font-specification:'Lavi Italic';fill:#d45500;"
         x="2095.9011"
         y="545.14673"
         id="tspan4789">Limited-time</tspan><tspan
         sodipodi:role="line"
         style="font-style:italic;font-variant:normal;font-weight:normal;font-stretch:normal;font-size:35.77793884px;line-height:1.25;font-family:Lavi;-inkscape-font-specification:'Lavi Italic';fill:#d45500;"
         x="2095.9011"
         y="589.86914"
         id="tspan4819">only!</tspan></text>
    <text
       xml:space="preserve"
       style="font-style:normal;font-variant:normal;font-weight:normal;font-stretch:normal;line-height:0%;font-family:Lavi;-inkscape-font-specification:Lavi;text-align:center;letter-spacing:0px;word-spacing:0px;text-anchor:middle;fill:#d45500;fill-opacity:1;stroke:none;"
       x="984.65302"
       y="1244.5535"
       id="text4246-3"><tspan
         sodipodi:role="line"
         style="font-size:45px;line-height:1.25;fill:#d45500;"
         x="992.56317"
         y="1244.5535"
         id="tspan46">Magkaroon </tspan><tspan
         sodipodi:role="line"
         style="font-size:45px;line-height:1.25;fill:#d45500;"
         x="992.56317"
         y="1300.8035"
         id="tspan4823">ng </tspan><tspan
         sodipodi:role="line"
         style="font-size:45px;line-height:1.25;fill:#d45500;"
         x="984.65302"
         y="1357.0535"
         id="tspan4796">Insta-</tspan><tspan
         sodipodi:role="line"
         style="font-size:45px;line-height:1.25;fill:#d45500;"
         x="984.65302"
         y="1413.3035"
         id="tspan4825">Kayamanan</tspan></text>
    <text
       xml:space="preserve"
       style="font-style:normal;font-variant:normal;font-weight:normal;font-stretch:normal;line-height:0%;font-family:Lavi;-inkscape-font-specification:Lavi;text-align:center;letter-spacing:0px;word-spacing:0px;text-anchor:middle;fill:#d45500;fill-opacity:1;stroke:none;"
       x="2037.5197"
       y="1956.0619"
       id="text4246-3-7"><tspan
         sodipodi:role="line"
         style="font-size:45px;line-height:1.25;fill:#d45500;"
         x="2037.5197"
         y="1956.0619"
         id="tspan63">Insta-</tspan><tspan
         sodipodi:role="line"
         style="font-size:45px;line-height:1.25;fill:#d45500;"
         x="2037.5197"
         y="2012.3119"
         id="tspan4827">Kasikatan</tspan></text>
    <text
       xml:space="preserve"
       style="font-style:normal;font-variant:normal;font-weight:normal;font-stretch:normal;line-height:0%;font-family:Lavi;-inkscape-font-specification:Lavi;text-align:center;letter-spacing:0px;word-spacing:0px;text-anchor:middle;fill:#d45500;fill-opacity:1;stroke:none;"
       x="317.84491"
       y="2108.1274"
       id="text4246-3-7-6"><tspan
         sodipodi:role="line"
         style="font-size:45px;line-height:1.25;fill:#d45500;"
         x="317.84491"
         y="2108.1274"
         id="tspan55">Insta-</tspan><tspan
         sodipodi:role="line"
         style="font-size:45px;line-height:1.25;fill:#d45500;"
         x="317.84491"
         y="2164.3774"
         id="tspan4829">Kagandahan</tspan></text>
    <text
       xml:space="preserve"
       style="font-style:normal;font-variant:normal;font-weight:normal;font-stretch:normal;line-height:0%;font-family:Lavi;-inkscape-font-specification:Lavi;text-align:center;letter-spacing:0px;word-spacing:0px;text-anchor:middle;fill:#d45500;fill-opacity:1;stroke:none;"
       x="1667.0062"
       y="3053.8743"
       id="text4246-3-7-6-1"><tspan
         sodipodi:role="line"
         style="font-size:45px;line-height:1.25;fill:#d45500;"
         x="1667.0062"
         y="3053.8743"
         id="tspan59">Insta-</tspan><tspan
         sodipodi:role="line"
         style="font-size:45px;line-height:1.25;fill:#d45500;"
         x="1674.9164"
         y="3110.1243"
         id="tspan4831">Agad-Agad </tspan><tspan
         sodipodi:role="line"
         style="font-size:45px;line-height:1.25;fill:#d45500;"
         x="1667.0062"
         y="3166.3743"
         id="tspan4807">Guaranteed!</tspan></text>
  </g>
</svg>
