<?xml version="1.0" encoding="UTF-8" standalone="no"?>
<!-- Created with Inkscape (http://www.inkscape.org/) -->

<svg
   xmlns:dc="http://purl.org/dc/elements/1.1/"
   xmlns:cc="http://creativecommons.org/ns#"
   xmlns:rdf="http://www.w3.org/1999/02/22-rdf-syntax-ns#"
   xmlns:svg="http://www.w3.org/2000/svg"
   xmlns="http://www.w3.org/2000/svg"
   xmlns:xlink="http://www.w3.org/1999/xlink"
   xmlns:sodipodi="http://sodipodi.sourceforge.net/DTD/sodipodi-0.dtd"
   xmlns:inkscape="http://www.inkscape.org/namespaces/inkscape"
   id="svg2"
   version="1.1"
   inkscape:version="0.92.2 (5c3e80d, 2017-08-06)"
   width="2481"
   height="3503"
   sodipodi:docname="E23P06.svg">
  <metadata
     id="metadata8">
    <rdf:RDF>
      <cc:Work
         rdf:about="">
        <dc:format>image/svg+xml</dc:format>
        <dc:type
           rdf:resource="http://purl.org/dc/dcmitype/StillImage" />
        <dc:title />
      </cc:Work>
    </rdf:RDF>
  </metadata>
  <defs
     id="defs6" />
  <sodipodi:namedview
     pagecolor="#ffffff"
     bordercolor="#666666"
     borderopacity="1"
     objecttolerance="10"
     gridtolerance="10"
     guidetolerance="10"
     inkscape:pageopacity="0"
     inkscape:pageshadow="2"
     inkscape:window-width="1920"
     inkscape:window-height="1027"
     id="namedview4"
     showgrid="false"
     inkscape:zoom="0.49469369"
     inkscape:cx="1084.7417"
     inkscape:cy="870.53946"
     inkscape:window-x="0"
     inkscape:window-y="26"
     inkscape:window-maximized="1"
     inkscape:current-layer="layer1"
     inkscape:document-rotation="0" />
  <g
     inkscape:groupmode="layer"
     id="layer2"
     inkscape:label="artwork"
     sodipodi:insensitive="true"
     style="display:inline">
    <image
       sodipodi:absref="/home/nightlock/peppercarrot/webcomics/ep23_Take-a-Chance/lang/kr/../gfx_Pepper-and-Carrot_by-David-Revoy_E23P06.png"
       xlink:href="../gfx_Pepper-and-Carrot_by-David-Revoy_E23P06.png"
       y="0"
       x="0"
       id="image10"
       height="3503"
       width="2481" />
  </g>
  <g
     inkscape:groupmode="layer"
     id="layer3"
     inkscape:label="speechbubbles"
     style="display:inline">
    <path
       style="fill:#ffffff;fill-rule:evenodd;stroke:none;stroke-width:0.99999994px;stroke-linecap:butt;stroke-linejoin:miter;stroke-opacity:1"
       d="m 192.06698,2081.3114 c 4.93691,-58.4563 30.85569,-95.1613 56.7745,-99.2397 25.91878,-4.0783 278.93553,0 303.62009,9.5161 24.68458,9.5161 60.47719,48.9401 59.24295,78.848 -1.23423,29.9078 3.42921,74.9097 -34.55838,110.1152 -27.003,25.0253 -182.66575,19.0323 -208.58455,19.0323 -25.91879,0 -97.34655,13.2272 -138.23355,-20.3917 -41.2643,-33.9291 -38.26106,-97.8802 -38.26106,-97.8802 z"
       id="path4272"
       inkscape:connector-curvature="0"
       sodipodi:nodetypes="cssssssc" />
    <path
       style="fill:#ffffff;fill-rule:evenodd;stroke:none;stroke-width:1px;stroke-linecap:butt;stroke-linejoin:miter;stroke-opacity:1"
       d="m 1315.3865,2116.5886 c -4.2828,47.152 -36.9129,74.7813 -63.0428,78.4692 -26.1298,3.6878 -288.62862,6.6743 -313.67558,-0.6049 -25.04687,-7.2792 -75.45903,-39.637 -74.5724,-63.7411 0.88672,-24.1042 1.37875,-59.1054 39.32395,-88.0479 26.9729,-20.5732 192.31213,-18.1697 218.49103,-18.5732 26.179,-0.4034 114.2479,-0.5028 155.95,25.9344 42.0869,26.681 37.5258,66.5635 37.5258,66.5635 z"
       id="path4272-6"
       inkscape:connector-curvature="0"
       sodipodi:nodetypes="cssssssc" />
    <path
       style="fill:#ffffff;fill-rule:evenodd;stroke:none;stroke-width:1px;stroke-linecap:butt;stroke-linejoin:miter;stroke-opacity:1"
       d="m 1174.8502,2374.625 c 53.2945,-58.4181 71.3886,-137.4736 64.8491,-196.709 -6.4438,-58.3689 -35.667,-20.5356 -35.667,-20.5356 0,0 -7.6853,2.1941 0,30.2629 7.8496,28.6688 31.1185,75.2067 -29.1821,186.9817 z"
       id="path4289"
       inkscape:connector-curvature="0"
       sodipodi:nodetypes="cscsc" />
    <path
       style="fill:#ffffff;fill-rule:evenodd;stroke:none;stroke-width:0.95183671px;stroke-linecap:butt;stroke-linejoin:miter;stroke-opacity:1"
       d="m 1902.2734,2035.12 c 16.3303,-35.4245 47.1258,-58.9166 79.8217,-69.5015 32.6923,-11.0752 67.1897,-11.9139 100.917,-9.1723 51.1011,-2.1936 103.6194,-7.4303 153.3573,9.8305 22.0151,7.9842 43.5316,20.428 59.9047,39.6232 21.8515,30.0872 29.9606,73.0526 21.4569,111.1275 -5.3858,24.8542 -21.5395,46.7741 -43.0534,53.8367 -41.5368,13.0852 -84.4761,19.2931 -127.4363,20.9878 -37.5213,1.5207 -75.0976,1.0481 -112.6172,0.076 -33.2792,-2.9921 -68.0248,-7.4152 -97.269,-27.6892 -18.7993,-12.8014 -32.4271,-35.2941 -35.7245,-60.4593 -4.4541,-22.5252 -3.9469,-46.2228 0.6428,-68.6597 z"
       id="path4291"
       inkscape:connector-curvature="0" />
    <path
       style="fill:#ffffff;fill-rule:evenodd;stroke:none;stroke-width:1px;stroke-linecap:butt;stroke-linejoin:miter;stroke-opacity:1"
       d="m 2064.9587,2367.1575 c 85.5504,-62.8829 112.322,-138.9575 103.3436,-179.057 -8.9784,-40.0995 -31.8164,-49.0097 -31.7823,-17.5409 0.034,31.4688 34.0662,86.4163 -71.5613,196.5979 z"
       id="path4293"
       inkscape:connector-curvature="0" />
  </g>
  <g
     inkscape:groupmode="layer"
     id="layer1"
     inkscape:label="txt"
     style="display:inline">
    <text
       transform="matrix(0.76133526,-0.51280204,0.4098681,1.0374126,0,0)"
       id="text3361"
       y="1491.1957"
       x="1952.3691"
       style="font-style:normal;font-variant:normal;font-weight:normal;font-stretch:normal;line-height:0%;font-family:'Nanum Pen Script OTF';-inkscape-font-specification:'Nanum Pen Script OTF';text-align:center;letter-spacing:0px;word-spacing:0px;text-anchor:middle;fill:#000000;fill-opacity:1;stroke:#000000;stroke-width:0.54762101;stroke-miterlimit:4;stroke-dasharray:none;stroke-opacity:1"
       xml:space="preserve"><tspan
         id="tspan3363"
         y="1491.1957"
         x="1952.3691"
         style="font-style:normal;font-variant:normal;font-weight:normal;font-stretch:normal;font-size:55.3870163px;line-height:1.25;font-family:'Nanum Pen Script OTF';-inkscape-font-specification:'Nanum Pen Script OTF';fill:#000000;stroke:#000000;stroke-width:0.54762101;stroke-miterlimit:4;stroke-dasharray:none;stroke-opacity:1"
         sodipodi:role="line">짹짹!</tspan></text>
    <text
       transform="matrix(0.8070703,-0.42305912,0.27884184,1.092883,0,0)"
       id="text3365"
       y="1371.1963"
       x="2096.106"
       style="font-style:normal;font-variant:normal;font-weight:normal;font-stretch:normal;line-height:0%;font-family:'Nanum Pen Script OTF';-inkscape-font-specification:'Nanum Pen Script OTF';text-align:center;letter-spacing:0px;word-spacing:0px;text-anchor:middle;fill:#000000;fill-opacity:1;stroke:#000000;stroke-width:0.51460415;stroke-miterlimit:4;stroke-dasharray:none;stroke-opacity:1"
       xml:space="preserve"><tspan
         id="tspan3367"
         y="1371.1963"
         x="2096.106"
         style="font-style:normal;font-variant:normal;font-weight:normal;font-stretch:normal;font-size:48.06934738px;line-height:1.25;font-family:'Nanum Pen Script OTF';-inkscape-font-specification:'Nanum Pen Script OTF';fill:#000000;stroke:#000000;stroke-width:0.51460415;stroke-miterlimit:4;stroke-dasharray:none;stroke-opacity:1"
         sodipodi:role="line">구우!</tspan></text>
    <text
       transform="matrix(0.8070703,-0.42305912,0.27884184,1.092883,0,0)"
       id="text3369"
       y="1416.6825"
       x="2132.0898"
       style="font-style:normal;font-variant:normal;font-weight:normal;font-stretch:normal;line-height:0%;font-family:'Nanum Pen Script OTF';-inkscape-font-specification:'Nanum Pen Script OTF';text-align:center;letter-spacing:0px;word-spacing:0px;text-anchor:middle;fill:#000000;fill-opacity:1;stroke:#000000;stroke-width:0.51809889;stroke-miterlimit:4;stroke-dasharray:none;stroke-opacity:1"
       xml:space="preserve"><tspan
         id="tspan3371"
         y="1416.6825"
         x="2132.0898"
         style="font-style:normal;font-variant:normal;font-weight:normal;font-stretch:normal;font-size:48.3957901px;line-height:1.25;font-family:'Nanum Pen Script OTF';-inkscape-font-specification:'Nanum Pen Script OTF';fill:#000000;stroke:#000000;stroke-width:0.51809889;stroke-miterlimit:4;stroke-dasharray:none;stroke-opacity:1"
         sodipodi:role="line">구우우!</tspan></text>
    <text
       transform="matrix(0.73266151,-0.54180126,0.44311163,1.0372069,0,0)"
       id="text3373"
       y="1663.4366"
       x="1868.3315"
       style="font-style:normal;font-variant:normal;font-weight:normal;font-stretch:normal;line-height:0%;font-family:'Nanum Pen Script OTF';-inkscape-font-specification:'Nanum Pen Script OTF';text-align:center;letter-spacing:0px;word-spacing:0px;text-anchor:middle;fill:#000000;fill-opacity:1;stroke:#000000;stroke-width:0.52582741;stroke-miterlimit:4;stroke-dasharray:none;stroke-opacity:1"
       xml:space="preserve"><tspan
         id="tspan3375"
         y="1663.4366"
         x="1868.3315"
         style="font-style:normal;font-variant:normal;font-weight:normal;font-stretch:normal;font-size:49.11771393px;line-height:1.25;font-family:'Nanum Pen Script OTF';-inkscape-font-specification:'Nanum Pen Script OTF';fill:#000000;stroke:#000000;stroke-width:0.52582741;stroke-miterlimit:4;stroke-dasharray:none;stroke-opacity:1"
         sodipodi:role="line">짹짹!</tspan></text>
    <text
       id="text3377"
       y="2056.8157"
       x="396.92725"
       style="font-style:normal;font-variant:normal;font-weight:normal;font-stretch:normal;line-height:0%;font-family:'Nanum Pen Script OTF';-inkscape-font-specification:'Nanum Pen Script OTF';text-align:center;letter-spacing:0px;word-spacing:0px;text-anchor:middle;fill:#000000;fill-opacity:1;stroke:none"
       xml:space="preserve"><tspan
         id="tspan3379"
         y="2056.8157"
         x="396.92725"
         style="font-style:normal;font-variant:normal;font-weight:normal;font-stretch:normal;font-size:56.55879974px;line-height:100%;font-family:'Nanum Pen Script OTF';-inkscape-font-specification:'Nanum Pen Script OTF'"
         sodipodi:role="line">있잖아 당근아,</tspan><tspan
         id="tspan3383"
         y="2113.3745"
         x="396.92725"
         style="font-style:normal;font-variant:normal;font-weight:normal;font-stretch:normal;font-size:56.55879974px;line-height:100%;font-family:'Nanum Pen Script OTF';-inkscape-font-specification:'Nanum Pen Script OTF'"
         sodipodi:role="line">자란다는 건 바로</tspan><tspan
         y="2169.9333"
         x="396.92725"
         style="font-style:normal;font-variant:normal;font-weight:normal;font-stretch:normal;font-size:56.55879974px;line-height:100%;font-family:'Nanum Pen Script OTF';-inkscape-font-specification:'Nanum Pen Script OTF'"
         sodipodi:role="line"
         id="tspan3421">이런 의미인 것 같아.</tspan></text>
    <text
       id="text3385"
       y="2104.4482"
       x="1085.6733"
       style="font-style:normal;font-variant:normal;font-weight:normal;font-stretch:normal;line-height:0%;font-family:'Nanum Pen Script OTF';-inkscape-font-specification:'Nanum Pen Script OTF';text-align:center;letter-spacing:0px;word-spacing:0px;text-anchor:middle;fill:#000000;fill-opacity:1;stroke:none"
       xml:space="preserve"><tspan
         id="tspan3389"
         y="2104.4482"
         x="1093.3818"
         style="font-style:normal;font-variant:normal;font-weight:normal;font-stretch:normal;font-size:55.19942474px;line-height:100%;font-family:'Nanum Pen Script OTF';-inkscape-font-specification:'Nanum Pen Script OTF'"
         sodipodi:role="line">급할수록 돌아가라; </tspan><tspan
         id="tspan3391"
         y="2159.6477"
         x="1085.6733"
         style="font-style:normal;font-variant:normal;font-weight:normal;font-stretch:normal;font-size:55.19942474px;line-height:100%;font-family:'Nanum Pen Script OTF';-inkscape-font-specification:'Nanum Pen Script OTF'"
         sodipodi:role="line">노력한 만큼 얻는다…</tspan></text>
    <text
       id="text3393"
       y="2033.4546"
       x="2106.259"
       style="font-style:normal;font-variant:normal;font-weight:normal;font-stretch:normal;line-height:0%;font-family:'Nanum Pen Script OTF';-inkscape-font-specification:'Nanum Pen Script OTF';text-align:center;letter-spacing:0px;word-spacing:0px;text-anchor:middle;fill:#000000;fill-opacity:1;stroke:none"
       xml:space="preserve"><tspan
         id="tspan3399"
         y="2033.4546"
         x="2106.259"
         style="font-style:normal;font-variant:normal;font-weight:normal;font-stretch:normal;font-size:55.0985527px;line-height:100%;font-family:'Nanum Pen Script OTF';-inkscape-font-specification:'Nanum Pen Script OTF'"
         sodipodi:role="line">…다른 사람의 성공에</tspan><tspan
         y="2088.5532"
         x="2106.259"
         style="font-style:normal;font-variant:normal;font-weight:normal;font-stretch:normal;font-size:55.0985527px;line-height:100%;font-family:'Nanum Pen Script OTF';-inkscape-font-specification:'Nanum Pen Script OTF'"
         sodipodi:role="line"
         id="tspan3369">질투심을 느낄</tspan><tspan
         y="2143.6516"
         x="2106.259"
         style="font-style:normal;font-variant:normal;font-weight:normal;font-stretch:normal;font-size:55.0985527px;line-height:100%;font-family:'Nanum Pen Script OTF';-inkscape-font-specification:'Nanum Pen Script OTF'"
         sodipodi:role="line"
         id="tspan3372">필요도 없다!</tspan></text>
  </g>
</svg>
