<?xml version="1.0" encoding="UTF-8" standalone="no"?>
<!-- Created With Inkscape (http://www.inkscape.org/) -->

<svg
   xmlns:dc="http://purl.org/dc/elements/1.1/"
   xmlns:cc="http://creativecommons.org/ns#"
   xmlns:rdf="http://www.w3.org/1999/02/22-rdf-syntax-ns#"
   xmlns:svg="http://www.w3.org/2000/svg"
   xmlns="http://www.w3.org/2000/svg"
   xmlns:xlink="http://www.w3.org/1999/xlink"
   xmlns:sodipodi="http://sodipodi.sourceforge.net/DTD/sodipodi-0.dtd"
   xmlns:inkscape="http://www.inkscape.org/namespaces/inkscape"
   id="svg2"
   version="1.1"
   inkscape:version="0.92.4 5da689c313, 2019-01-14"
   width="2481"
   height="3503"
   sodipodi:docname="E26P03.svg">
  <metadata
     id="metadata8">
    <rdf:RDF>
      <cc:Work
         rdf:about="">
        <dc:format>image/svg+xml</dc:format>
        <dc:type
           rdf:resource="http://purl.org/dc/dcmitype/StillImage" />
        <dc:title />
      </cc:Work>
    </rdf:RDF>
  </metadata>
  <defs
     id="defs6" />
  <sodipodi:namedview
     pagecolor="#ffffff"
     bordercolor="#666666"
     borderopacity="1"
     objecttolerance="10"
     gridtolerance="10"
     guidetolerance="10"
     inkscape:pageopacity="0"
     inkscape:pageshadow="2"
     inkscape:window-width="1438"
     inkscape:window-height="836"
     id="namedview4"
     showgrid="false"
     inkscape:zoom="0.4375"
     inkscape:cx="1837.2137"
     inkscape:cy="584.87395"
     inkscape:window-x="0"
     inkscape:window-y="0"
     inkscape:window-maximized="0"
     inkscape:current-layer="layer1" />
  <g
     inkscape:groupmode="layer"
     id="layer2"
     inkscape:label="artwork"
     sodipodi:insensitive="true">
    <image
       sodipodi:absref="/home/tirifto/Développement/Pepper &amp; Carrot/webcomics/ep26_Books-Are-Great/lang/eo/../gfx_Pepper-and-Carrot_by-David-Revoy_E26P03.png"
       xlink:href="../gfx_Pepper-and-Carrot_by-David-Revoy_E26P03.png"
       y="0"
       x="0"
       id="image10"
       height="3503"
       width="2481" />
  </g>
  <g
     inkscape:groupmode="layer"
     id="layer3"
     inkscape:label="speechbubbles"
     style="opacity:1">
    <path
       style="color:#000000;display:inline;overflow:visible;visibility:visible;fill:#ffffff;fill-opacity:1;fill-rule:nonzero;stroke:none;stroke-width:0.94309884px;marker:none;enable-background:accumulate"
       d="m 265.83657,623.49642 c 19.86266,-26.98761 264.88632,-46.20731 321.48951,14.82975 39.44676,42.5367 24.22943,124.10935 -9.58155,145.34442 -33.81091,21.23515 -197.04784,27.21564 -243.4426,16.40149 -41.72067,-9.7247 -85.51262,-30.6561 -87.82139,-86.36645 -0.94229,-22.73759 -0.50668,-63.22153 19.35603,-90.20921 z"
       id="path4040"
       inkscape:connector-curvature="0"
       sodipodi:nodetypes="zssssz" />
    <path
       style="fill:#ffffff;stroke:none;stroke-width:0.99999994"
       d="m 628.34471,847.51507 c -38.61917,12.80883 -55.09288,-0.0828 -66.95346,-14.05699 -11.86058,-13.97408 -28.36174,-20.89656 -39.29055,-22.32443 -10.92881,-1.42786 -28.67404,2.49427 -37.73175,7.41599 -9.05781,4.92182 -23.30007,-9.35873 -32.51481,-17.85685 -12.1752,-11.22835 -10.17368,-21.3089 -10.17368,-21.3089 0,0 -63.56569,-10.64656 -52.32882,1.21103 11.23688,11.85757 53.851,43.51663 59.4257,47.15218 5.57479,3.63555 23.61454,12.58563 34.54483,10.2648 10.93033,-2.32073 19.07986,-12.5098 32.07626,-12.9737 13.38845,-0.4779 22.37583,3.75223 33.30162,12.67727 10.92577,8.92503 37.52895,25.44728 54.48293,19.70573 16.95397,-5.74156 25.16173,-9.90613 25.16173,-9.90613 z"
       id="path3023"
       inkscape:connector-curvature="0"
       sodipodi:nodetypes="csssscssssssc" />
    <path
       style="color:#000000;display:inline;overflow:visible;visibility:visible;fill:#ffffff;fill-opacity:1;fill-rule:nonzero;stroke:none;stroke-width:1px;marker:none;enable-background:accumulate"
       d="m 232.67034,1785.6735 c -2.68476,-15.6414 20.91072,-100.9773 120.5528,-98.2199 99.64209,2.7575 123.14345,61.1522 123.74969,82.2405 0.60623,21.0882 -21.52489,55.5835 -35.7674,61.9839 -14.2424,6.4003 -51.50581,22.0026 -76.11721,19.7048 -24.61125,-2.2981 -57.55035,8.9837 -95.49777,-15.6682 -30.1609,-19.5937 -35.01483,-45.9633 -36.92011,-50.0411 z"
       id="path3365"
       inkscape:connector-curvature="0"
       sodipodi:nodetypes="cssccsc" />
    <path
       style="color:#000000;display:inline;overflow:visible;visibility:visible;fill:#ffffff;fill-opacity:1;fill-rule:nonzero;stroke:none;stroke-width:1.00914943px;marker:none;enable-background:accumulate"
       d="m 1102.2198,2238.3052 c -4.418,-22.1849 -13.1391,-149.6664 182.4138,-141.2009 171.4874,7.4239 196.775,110.4476 197.5419,140.3152 0.7668,29.8679 -12.6649,60.2079 -43.1168,77.7478 -32.6411,16.8163 -90.2679,26.4305 -132.6238,22.8289 -42.3556,-3.6018 -99.1414,-0.5615 -142.766,-17.7756 -30.0078,-11.8408 -56.6223,-50.8963 -61.4491,-81.9154 z"
       id="path3365-5"
       inkscape:connector-curvature="0"
       sodipodi:nodetypes="cssccsc" />
    <path
       style="color:#000000;display:inline;overflow:visible;visibility:visible;fill:#ffffff;fill-opacity:1;fill-rule:nonzero;stroke:none;stroke-width:1px;marker:none;enable-background:accumulate"
       d="m 377.75121,1797.7955 c 0.14136,37.7496 7.44343,98.937 94.82871,86.7057 -14.99489,10.61 -114.59779,34.3786 -127.13109,-74.0559 -3.63685,-31.4647 8.70865,-21.0527 15.81183,-23.0996 7.10319,-2.047 16.49055,10.4498 16.49055,10.4498 z"
       id="path4064"
       inkscape:connector-curvature="0"
       sodipodi:nodetypes="ccszc" />
    <path
       style="color:#000000;display:inline;overflow:visible;visibility:visible;fill:#ffffff;fill-opacity:1;fill-rule:nonzero;stroke:none;stroke-width:1px;marker:none;enable-background:accumulate"
       d="m 1237.4731,2165.1562 c 16.4769,-33.9641 36.832,-92.1267 -47.0265,-119.5779 18.1333,-2.9332 118.0386,19.5304 81.6003,122.4254 -10.5733,29.8573 -17.0809,15.0765 -24.3604,13.7904 -7.2795,-1.2859 -10.2134,-16.6379 -10.2134,-16.6379 z"
       id="path4064-3"
       inkscape:connector-curvature="0"
       sodipodi:nodetypes="ccszc" />
    <path
       style="fill:#ffffff;stroke:none;stroke-width:1.002231"
       d="m 50.228832,2694.5432 c -30.881699,-196.2754 65.820888,-174.0783 314.441458,-175.3217 316.81618,-1.5846 318.81597,42.9484 316.18356,126.9449 -5.69433,181.6981 -70.07339,250.1842 -397.82784,238.3378 C -4.5880137,2874.1087 13.017024,2828.3513 50.228832,2694.5432 Z"
       id="path3280-8"
       inkscape:connector-curvature="0"
       sodipodi:nodetypes="csssc" />
    <path
       style="color:#000000;display:inline;overflow:visible;visibility:visible;fill:#ffffff;fill-opacity:1;fill-rule:nonzero;stroke:none;stroke-width:1.09098148px;marker:none;enable-background:accumulate"
       d="m 541.6664,2826.0288 c 14.75467,36.3891 56.10784,84.8029 132.56738,64.1383 -52.93998,24.1174 -112.04254,21.8254 -162.9129,-49.9788 -68.01242,-96.0004 -45.71056,-118.3536 -45.71056,-118.3536 z"
       id="path4064-6"
       inkscape:connector-curvature="0"
       sodipodi:nodetypes="ccscc" />
    <path
       style="color:#000000;display:inline;overflow:visible;visibility:visible;fill:#ffffff;fill-opacity:1;fill-rule:nonzero;stroke:none;stroke-width:0.98498011px;marker:none;enable-background:accumulate"
       d="m 1866.8691,2967.1271 c -2.2435,-17.8749 32.4697,-97.3439 169.3281,-85.4272 136.8583,11.9166 156.3236,54.5174 157.6876,94.0272 -2.3647,40.7155 -29.8036,70.4216 -49.9958,76.3799 -20.1922,5.9583 -50.5433,14.2286 -106.5701,15.4915 -64.7271,0.057 -102.8837,-2.4468 -143.8699,-34.9007 -39.0958,-28.7858 -24.3363,-60.8041 -26.5799,-65.5707 z"
       id="path3365-7"
       inkscape:connector-curvature="0"
       sodipodi:nodetypes="cscsccc" />
    <path
       style="color:#000000;display:inline;overflow:visible;visibility:visible;fill:#ffffff;fill-opacity:1;fill-rule:nonzero;stroke:none;stroke-width:1px;marker:none;enable-background:accumulate"
       d="m 1963.5548,2926.8144 c -22.0372,-41.7339 -131.901,-116.3258 -202.9973,-80.3598 84.8906,-21.0574 174.3494,70.9697 177.3562,85.6217 3.0068,14.6521 25.6411,-5.2619 25.6411,-5.2619 z"
       id="path3978"
       inkscape:connector-curvature="0"
       sodipodi:nodetypes="cccc" />
    <path
       style="color:#000000;display:inline;overflow:visible;visibility:visible;fill:#ffffff;fill-opacity:1;fill-rule:nonzero;stroke:none;stroke-width:0.58296984px;marker:none;enable-background:accumulate"
       d="m 234.7553,526.58536 c 15.11182,-14.31867 181.53977,-24.51596 224.60435,7.86814 30.0117,22.56846 28.429,63.39355 2.7051,74.66012 -25.72387,11.26661 -149.91701,14.43965 -185.21484,8.70205 -31.74173,-5.15958 -65.05931,-16.26504 -66.81585,-45.82297 -0.71691,-12.06376 9.60938,-31.08864 24.72124,-45.40734 z"
       id="path4040-3"
       inkscape:connector-curvature="0"
       sodipodi:nodetypes="zssssz" />
  </g>
  <g
     inkscape:groupmode="layer"
     id="layer1"
     inkscape:label="txt">
    <text
       xml:space="preserve"
       style="font-style:normal;font-variant:normal;font-weight:normal;font-stretch:normal;line-height:0%;font-family:Lavi;-inkscape-font-specification:Lavi;text-align:center;letter-spacing:0px;word-spacing:0px;text-anchor:middle;fill:#000000;fill-opacity:1;stroke:none;stroke-width:0.8825497"
       x="424.30801"
       y="605.92554"
       id="text4246-5"><tspan
         sodipodi:role="line"
         style="font-size:39.71473694px;line-height:1.25;stroke-width:0.8825497"
         x="430.51343"
         y="605.92554"
         id="tspan491"> </tspan><tspan
         sodipodi:role="line"
         style="font-size:45px;line-height:1.25;stroke-width:0.8825497"
         x="424.30801"
         y="660.41266"
         id="tspan435">mi scias kiom</tspan><tspan
         sodipodi:role="line"
         style="font-size:45px;line-height:1.25;stroke-width:0.8825497"
         x="424.30801"
         y="716.66266"
         id="tspan500">katoj malŝatas</tspan><tspan
         sodipodi:role="line"
         style="font-size:45px;line-height:1.25;stroke-width:0.8825497"
         x="424.30801"
         y="772.91266"
         id="tspan439">malsekiĝi.</tspan></text>
    <text
       xml:space="preserve"
       style="font-style:normal;font-variant:normal;font-weight:normal;font-stretch:normal;line-height:0%;font-family:Lavi;-inkscape-font-specification:Lavi;text-align:center;letter-spacing:0px;word-spacing:0px;text-anchor:middle;fill:#000000;fill-opacity:1;stroke:none"
       x="351.44214"
       y="1757.9678"
       id="text4246-1"><tspan
         sodipodi:role="line"
         style="font-style:normal;font-variant:normal;font-weight:bold;font-stretch:normal;font-size:45px;line-height:1.25;font-family:Lavi;-inkscape-font-specification:'Lavi Bold'"
         x="351.44214"
         y="1757.9678"
         id="tspan1013">Ne</tspan><tspan
         sodipodi:role="line"
         style="font-style:normal;font-variant:normal;font-weight:bold;font-stretch:normal;font-size:45px;line-height:1.25;font-family:Lavi;-inkscape-font-specification:'Lavi Bold'"
         x="351.44214"
         y="1814.2178"
         id="tspan887">zorgu !</tspan></text>
    <text
       xml:space="preserve"
       style="font-style:normal;font-variant:normal;font-weight:normal;font-stretch:normal;line-height:0%;font-family:Lavi;-inkscape-font-specification:Lavi;text-align:center;letter-spacing:0px;word-spacing:0px;text-anchor:middle;fill:#000000;fill-opacity:1;stroke:none;stroke-width:0.99999994"
       x="1288.4023"
       y="2174.0071"
       id="text4246-1-3"
       transform="scale(0.99789912,1.0021053)"><tspan
         sodipodi:role="line"
         style="font-style:normal;font-variant:normal;font-weight:bold;font-stretch:normal;font-size:50.60649872px;line-height:1.25;font-family:Lavi;-inkscape-font-specification:'Lavi Bold';stroke-width:0.99999994"
         x="1288.4023"
         y="2174.0071"
         id="tspan887-7">Libroj estas</tspan><tspan
         sodipodi:role="line"
         style="font-style:normal;font-variant:normal;font-weight:bold;font-stretch:normal;font-size:50.60649872px;line-height:1.25;font-family:Lavi;-inkscape-font-specification:'Lavi Bold';stroke-width:0.99999994"
         x="1296.3096"
         y="2237.2651"
         id="tspan912">ankaŭ bonaj </tspan><tspan
         sodipodi:role="line"
         style="font-style:normal;font-variant:normal;font-weight:bold;font-stretch:normal;font-size:50.60649872px;line-height:1.25;font-family:Lavi;-inkscape-font-specification:'Lavi Bold';stroke-width:0.99999994"
         x="1288.4023"
         y="2300.5234"
         id="tspan914">por tio !</tspan></text>
    <text
       xml:space="preserve"
       style="font-style:normal;font-variant:normal;font-weight:normal;font-stretch:normal;line-height:0%;font-family:Lavi;-inkscape-font-specification:Lavi;text-align:center;letter-spacing:0px;word-spacing:0px;text-anchor:middle;fill:#000000;fill-opacity:1;stroke:none;stroke-width:0.95053005"
       x="130.04561"
       y="2587.7312"
       id="text4246-5-5"><tspan
         sodipodi:role="line"
         style="font-size:42.7738533px;line-height:1.25;text-align:start;text-anchor:start;stroke-width:0.95053005"
         x="130.04561"
         y="2587.7312"
         id="tspan968">Kaj post malpli ol dek</tspan><tspan
         sodipodi:role="line"
         style="font-size:42.7738533px;line-height:1.25;text-align:start;text-anchor:start;stroke-width:0.95053005"
         x="130.04561"
         y="2641.1985"
         id="tspan3414">minutoj ekde la eniro en</tspan><tspan
         sodipodi:role="line"
         style="font-size:42.7738533px;line-height:1.25;text-align:start;text-anchor:start;stroke-width:0.95053005"
         x="130.04561"
         y="2694.6658"
         id="tspan1018">la malliberejon, mi sidas en </tspan><tspan
         sodipodi:role="line"
         style="font-size:42.7738533px;line-height:1.25;text-align:start;text-anchor:start;stroke-width:0.95053005"
         x="130.04561"
         y="2748.1331"
         id="tspan851">la trezorĉambro,</tspan><tspan
         sodipodi:role="line"
         style="font-size:42.7738533px;line-height:1.25;text-align:start;text-anchor:start;stroke-width:0.95053005"
         x="130.04561"
         y="2801.6006"
         id="tspan3412">deprenante foliojn de</tspan><tspan
         sodipodi:role="line"
         style="font-size:42.7738533px;line-height:1.25;text-align:start;text-anchor:start;stroke-width:0.95053005"
         x="130.04561"
         y="2855.0679"
         id="tspan4585">la malofta Akvoarbo.</tspan></text>
    <text
       xml:space="preserve"
       style="font-style:normal;font-variant:normal;font-weight:normal;font-stretch:normal;line-height:0%;font-family:Lavi;-inkscape-font-specification:Lavi;text-align:center;letter-spacing:0px;word-spacing:0px;text-anchor:middle;fill:#000000;fill-opacity:1;stroke:none;stroke-width:0.99999994"
       x="2036.212"
       y="2964.1724"
       id="text4246-1-3-2"
       transform="scale(0.99789912,1.0021053)"><tspan
         sodipodi:role="line"
         style="font-style:normal;font-variant:normal;font-weight:bold;font-stretch:normal;font-size:45px;line-height:1.25;font-family:Lavi;-inkscape-font-specification:'Lavi Bold';stroke-width:0.99999994"
         x="2036.212"
         y="2964.1724"
         id="tspan887-7-9">Libroj estas</tspan><tspan
         sodipodi:role="line"
         style="font-style:normal;font-variant:normal;font-weight:bold;font-stretch:normal;font-size:45px;line-height:1.25;font-family:Lavi;-inkscape-font-specification:'Lavi Bold';stroke-width:0.99999994"
         x="2036.212"
         y="3020.4224"
         id="tspan914-2">magiaj !</tspan></text>
    <text
       xml:space="preserve"
       style="font-style:normal;font-variant:normal;font-weight:normal;font-stretch:normal;line-height:0%;font-family:Lavi;-inkscape-font-specification:Lavi;text-align:center;letter-spacing:0px;word-spacing:0px;text-anchor:middle;fill:#000000;fill-opacity:1;stroke:none;stroke-width:0.8825497"
       x="343.39139"
       y="579.64038"
       id="text4246-5-6"><tspan
         sodipodi:role="line"
         style="font-size:39.71473694px;line-height:1.25;stroke-width:0.8825497"
         x="343.39139"
         y="579.64038"
         id="tspan439-5">Ho, Karoĉjo ;</tspan></text>
    <flowRoot
       xml:space="preserve"
       id="flowRoot3378"
       style="font-style:normal;font-weight:normal;line-height:0.01%;font-family:sans-serif;letter-spacing:0px;word-spacing:0px;fill:#000000;fill-opacity:1;stroke:none;stroke-width:1px;stroke-linecap:butt;stroke-linejoin:miter;stroke-opacity:1"><flowRegion
         id="flowRegion3380"><rect
           id="rect3382"
           width="218.10834"
           height="75.634338"
           x="304.2963"
           y="695.73468" /></flowRegion><flowPara
         id="flowPara3384"
         style="font-size:40px;line-height:1.25"> </flowPara></flowRoot>    <flowRoot
       xml:space="preserve"
       id="flowRoot3398"
       style="font-style:normal;font-weight:normal;line-height:0.01%;font-family:sans-serif;letter-spacing:0px;word-spacing:0px;fill:#000000;fill-opacity:1;stroke:none;stroke-width:1px;stroke-linecap:butt;stroke-linejoin:miter;stroke-opacity:1"><flowRegion
         id="flowRegion3400"><rect
           id="rect3402"
           width="313.091"
           height="124.88461"
           x="371.13596"
           y="2688.6116" /></flowRegion><flowPara
         id="flowPara3404"
         style="font-size:40px;line-height:1.25"> </flowPara></flowRoot>    <flowRoot
       xml:space="preserve"
       id="flowRoot3424"
       style="font-style:normal;font-weight:normal;line-height:0.01%;font-family:sans-serif;letter-spacing:0px;word-spacing:0px;fill:#000000;fill-opacity:1;stroke:none;stroke-width:1px;stroke-linecap:butt;stroke-linejoin:miter;stroke-opacity:1"><flowRegion
         id="flowRegion3426"><rect
           id="rect3428"
           width="300.77841"
           height="228.66196"
           x="151.26868"
           y="2639.3613" /></flowRegion><flowPara
         id="flowPara3430"
         style="font-size:40px;line-height:1.25"> </flowPara></flowRoot>    <flowRoot
       xml:space="preserve"
       id="flowRoot3432"
       style="font-style:normal;font-weight:normal;line-height:0.01%;font-family:sans-serif;letter-spacing:0px;word-spacing:0px;fill:#000000;fill-opacity:1;stroke:none;stroke-width:1px;stroke-linecap:butt;stroke-linejoin:miter;stroke-opacity:1"><flowRegion
         id="flowRegion3434"><rect
           id="rect3436"
           width="299.0195"
           height="179.4117"
           x="151.26868"
           y="2681.5759" /></flowRegion><flowPara
         id="flowPara3438"
         style="font-size:40px;line-height:1.25"> </flowPara></flowRoot>  </g>
</svg>
