<?xml version="1.0" encoding="UTF-8" standalone="no"?>
<!-- Created with Inkscape (http://www.inkscape.org/) -->

<svg
   xmlns:dc="http://purl.org/dc/elements/1.1/"
   xmlns:cc="http://creativecommons.org/ns#"
   xmlns:rdf="http://www.w3.org/1999/02/22-rdf-syntax-ns#"
   xmlns:svg="http://www.w3.org/2000/svg"
   xmlns="http://www.w3.org/2000/svg"
   xmlns:xlink="http://www.w3.org/1999/xlink"
   xmlns:sodipodi="http://sodipodi.sourceforge.net/DTD/sodipodi-0.dtd"
   xmlns:inkscape="http://www.inkscape.org/namespaces/inkscape"
   id="svg2"
   version="1.1"
   inkscape:version="0.92.4 (unknown)"
   width="2481"
   height="3503"
   sodipodi:docname="E28P07.svg">
  <metadata
     id="metadata8">
    <rdf:RDF>
      <cc:Work
         rdf:about="">
        <dc:format>image/svg+xml</dc:format>
        <dc:type
           rdf:resource="http://purl.org/dc/dcmitype/StillImage" />
        <dc:title />
      </cc:Work>
    </rdf:RDF>
  </metadata>
  <defs
     id="defs6" />
  <sodipodi:namedview
     pagecolor="#ffffff"
     bordercolor="#666666"
     borderopacity="1"
     objecttolerance="10"
     gridtolerance="10"
     guidetolerance="10"
     inkscape:pageopacity="0"
     inkscape:pageshadow="2"
     inkscape:window-width="1920"
     inkscape:window-height="1027"
     id="namedview4"
     showgrid="false"
     inkscape:zoom="0.51498715"
     inkscape:cx="1349.2956"
     inkscape:cy="1052.4534"
     inkscape:window-x="0"
     inkscape:window-y="0"
     inkscape:window-maximized="1"
     inkscape:current-layer="layer1" />
  <g
     inkscape:groupmode="layer"
     id="layer2"
     inkscape:label="artwork"
     sodipodi:insensitive="true">
    <image
       sodipodi:absref="/mnt/Media/Komiksy/webcomics/ep28_The-Festivities/lang/pl/../gfx_Pepper-and-Carrot_by-David-Revoy_E28P07.png"
       xlink:href="../gfx_Pepper-and-Carrot_by-David-Revoy_E28P07.png"
       y="0"
       x="0"
       id="image10"
       height="3503"
       width="2481" />
  </g>
  <g
     inkscape:groupmode="layer"
     id="layer3"
     inkscape:label="speechbubbles">
    <path
       style="fill:#ffffff;fill-rule:evenodd;stroke:none;stroke-width:1px;stroke-linecap:butt;stroke-linejoin:miter;stroke-opacity:1"
       d="m 148.95287,112.08096 c 49.18814,-35.950301 135.32776,-35.845145 182.55248,-34.944858 47.22472,0.900288 162.55649,0.02496 190.00064,22.066158 27.44414,22.04121 45.47672,23.92198 44.71078,73.09138 -0.76594,49.16942 -12.26062,73.54231 -44.58974,97.51799 -32.3291,23.9757 -160.23334,29.22234 -196.3703,30.07043 -36.13696,0.84809 -126.37164,-3.94614 -153.83975,-24.4508 -27.46809,-20.50464 -51.89494,-57.85834 -50.02727,-88.56274 1.86769,-30.7044 12.06913,-61.24994 27.56316,-74.78756 z"
       id="path1035"
       inkscape:connector-curvature="0" />
    <path
       style="fill:#ffffff;fill-rule:evenodd;stroke:none;stroke-width:1px;stroke-linecap:butt;stroke-linejoin:miter;stroke-opacity:1"
       d="m 196.4271,253.96422 c -32.89449,39.47339 -40.41323,56.39055 -51.69134,74.24756 -11.27811,17.85701 -8.45859,59.21009 6.57889,70.4882 15.03749,11.27811 23.49607,17.857 15.97733,33.83433 -7.51874,15.97732 -7.37083,33.58627 -0.79194,42.9847 6.5789,9.39842 29.92706,24.68396 29.92706,24.68396 0,0 -21.13136,-17.00501 -23.34412,-22.26143 -3.75295,-8.91514 -2.08603,-20.48379 2.61318,-28.94238 4.69922,-8.45858 19.28439,-35.64147 -2.76513,-53.11871 -14.61974,-11.58813 -21.61638,-35.71402 -1.87968,-65.78898 19.73669,-30.07496 90.22489,-81.76631 90.22489,-81.76631 z"
       id="path1037"
       inkscape:connector-curvature="0"
       sodipodi:nodetypes="csssccscsscc" />
    <path
       style="fill:#ffffff;fill-rule:evenodd;stroke:none;stroke-width:1px;stroke-linecap:butt;stroke-linejoin:miter;stroke-opacity:1"
       d="m 126.47069,980.9704 c 18.85584,-68.75955 59.6181,-70.73268 116.11642,-75.18984 56.49833,-4.45716 260.39808,-12.17718 310.04813,4.9868 49.65004,17.16395 63.49976,38.95048 77.85868,82.20999 12.51384,37.70085 0.60963,117.26405 -9.43524,144.23105 -10.04487,26.9674 -27.34344,61.6032 -70.39289,64.3376 -43.04943,2.7345 -308.47587,4.2726 -334.34609,3.7394 -25.87022,-0.5333 -73.85868,-18.5451 -86.31294,-67.1152 -12.96844,-50.5753 -22.39191,-88.4403 -3.53607,-157.1998 z"
       id="path1039"
       inkscape:connector-curvature="0"
       sodipodi:nodetypes="zsssccssz" />
    <path
       style="fill:#ffffff;fill-rule:evenodd;stroke:none;stroke-width:1px;stroke-linecap:butt;stroke-linejoin:miter;stroke-opacity:1"
       d="m 217.83103,924.91046 c -17.7664,-36.95411 -18.47706,-61.82707 -3.55328,-69.64429 14.92378,-7.81721 21.31968,-12.7918 12.79181,-21.31968 -8.52787,-8.52787 -16.34509,-27.71558 -9.94919,-39.08608 6.39591,-11.37049 16.34509,-17.05574 26.29428,-18.47705 -15.63444,9.23852 -19.89837,17.05574 -19.18772,25.58361 0.71066,8.52787 2.84263,19.18771 12.79181,25.58362 9.94919,6.3959 23.45165,22.74099 2.13197,39.08608 -21.31968,16.34509 43.35002,66.09101 43.35002,66.09101 z"
       id="path1041"
       inkscape:connector-curvature="0" />
    <path
       style="fill:#ffffff;fill-rule:evenodd;stroke:none;stroke-width:1px;stroke-linecap:butt;stroke-linejoin:miter;stroke-opacity:1"
       d="m 1810.2187,188.73057 c 10.8239,-30.89516 34.8771,-41.58964 50.5116,-43.96619 15.6345,-2.37655 55.3222,1.18827 78.1726,2.37655 22.8505,1.18827 92.6046,1.18827 98.6178,0 6.0134,-1.18828 105.8338,7.12965 120.2657,4.7531 14.4319,-2.37655 50.6395,-4.4733 67.4767,-2.09675 16.8372,2.37655 44.4984,20.20068 46.9036,29.70689 2.4053,9.5062 8.2907,25.86225 3.48,41.30983 -4.8105,15.44758 -33.6743,32.08343 -62.5381,40.40137 -28.8638,8.31792 -111.847,1.18827 -123.8736,-1.18829 -12.0266,-2.37654 -55.3222,-10.69447 -79.3753,-5.94136 -24.0532,4.75309 -92.6045,11.88274 -129.8869,7.12965 -37.2823,-4.75311 -68.5514,-19.01241 -69.7541,-33.27171 -1.2026,-14.25931 -3.608,-10.69448 0,-39.21309 z"
       id="path1043"
       inkscape:connector-curvature="0"
       sodipodi:nodetypes="csscssccsccscc" />
    <path
       style="fill:#ffffff;fill-rule:evenodd;stroke:none;stroke-width:1px;stroke-linecap:butt;stroke-linejoin:miter;stroke-opacity:1"
       d="m 1944.3016,233.0595 c -22.8961,17.75617 -71.9593,58.40848 -78.0338,64.01569 -6.0744,5.60722 -9.8126,23.83066 4.2055,19.15798 14.018,-4.67267 32.2414,-13.0835 37.8487,-14.01803 5.6072,-0.93454 9.8126,-1.86907 13.5507,-1.4018 -18.2234,4.20541 -68.2211,21.49432 -96.7244,92.51903 35.5123,-65.4175 80.37,-77.0992 89.2481,-80.37007 8.8781,-3.27088 23.8307,-7.47629 24.298,-14.95257 0.4672,-7.47629 -9.8127,-14.95257 -27.5688,-10.27989 22.4288,-13.08351 59.343,-45.32499 73.8283,-45.32499 14.4853,0 -40.6523,-9.34535 -40.6523,-9.34535 z"
       id="path1045"
       inkscape:connector-curvature="0" />
    <path
       style="fill:#ffffff;fill-rule:evenodd;stroke:none;stroke-width:1.04479074px;stroke-linecap:butt;stroke-linejoin:miter;stroke-opacity:1"
       d="m 216.77081,1362.7906 c 36.00632,-28.0194 48.38351,-26.1515 63.01109,-28.9534 14.62756,-2.8018 126.02216,-6.5378 147.40093,-4.6699 21.37877,1.8681 117.02059,9.3398 147.40094,35.4912 30.38033,26.1515 59.63549,48.5669 56.2599,87.794 -3.3756,39.2271 -12.37719,110.2096 -32.63074,133.5589 -20.25358,23.3495 -64.13629,39.2272 -113.645,47.633 -49.50872,8.4058 -192.40887,-3.7359 -213.78763,-5.6039 -21.37876,-1.8679 -73.13787,-19.6136 -90.01583,-42.963 -16.87798,-23.3495 -41.63234,-75.6523 -33.75595,-110.2095 7.87639,-34.5571 27.00475,-81.2562 69.76229,-112.0774 z"
       id="path1047"
       inkscape:connector-curvature="0" />
    <path
       style="fill:#ffffff;fill-rule:evenodd;stroke:none;stroke-width:1px;stroke-linecap:butt;stroke-linejoin:miter;stroke-opacity:1"
       d="m 268.18916,1597.7451 c 44.86802,-26.468 72.55253,-29.7763 98.32776,-31.982 25.77523,-2.2057 84.00817,1.1027 111.69268,15.4395 27.68452,14.3368 46.77728,41.9075 53.45975,56.2443 6.68246,14.3368 12.4103,60.6555 1.90927,81.6093 -10.50101,20.9536 -45.82263,51.8328 -66.82467,61.7583 -21.00204,9.9255 -113.60196,13.2339 -151.7875,0 -38.18554,-13.234 -65.87005,-34.1877 -75.41643,-63.964 -9.54639,-29.7763 -9.54639,-94.8432 28.63914,-119.1054 z"
       id="path1049"
       inkscape:connector-curvature="0" />
    <path
       style="fill:#ffffff;fill-rule:evenodd;stroke:none;stroke-width:1px;stroke-linecap:butt;stroke-linejoin:miter;stroke-opacity:1"
       d="m 571.51827,1489.8102 c 22.69719,-37.8287 85.61623,-110.0078 124.52571,-129.4625 38.90949,-19.4548 94.88053,-25.0946 113.25446,-22.933 15.70987,1.7353 35.90084,19.0754 55.12176,42.152 -15.13146,-30.263 -47.25978,-48.6478 -52.66387,-49.7286 -18.40862,-4.2887 -108.87383,-25.5751 -222.35983,69.5369 -113.48599,95.1121 -51.38362,121.779 -51.38362,121.779 z"
       id="path1051"
       inkscape:connector-curvature="0"
       sodipodi:nodetypes="cccccscc" />
    <path
       style="fill:#ffffff;fill-rule:evenodd;stroke:none;stroke-width:0.94600844px;stroke-linecap:butt;stroke-linejoin:miter;stroke-opacity:1"
       d="m 217.77599,2223.9008 c -1.23715,-28.3372 23.50591,-38.1463 44.53752,-41.4159 21.03159,-3.2698 75.92509,-3.2698 89.54136,-1.09 13.61627,2.1798 97.53712,0 110.29179,1.09 12.75468,1.0898 54.20735,8.7191 61.64758,28.3372 7.44023,19.6181 18.06911,25.0675 7.44023,43.5958 -10.6289,18.5282 -23.38357,34.8766 -66.96203,39.2362 -43.57846,4.3596 -152.47282,1.0899 -198.24748,-9.8091 -45.77465,-10.8989 -48.24897,-32.6968 -48.24897,-59.9442 z"
       id="path1053"
       inkscape:connector-curvature="0"
       sodipodi:nodetypes="ccscscscc" />
    <path
       style="fill:#ffffff;fill-rule:evenodd;stroke:none;stroke-width:1px;stroke-linecap:butt;stroke-linejoin:miter;stroke-opacity:1"
       d="m 348.19942,2246.5661 c -29.42116,45.7663 -39.16091,33.6645 -43.24718,61.4512 -4.08627,27.7866 9.73975,53.7817 22.81582,64.406 13.07607,10.6243 34.32468,25.3349 15.52783,41.68 -18.79685,16.3451 -40.04547,26.1521 -35.95919,72.7356 4.08627,46.5835 21.24861,49.0353 27.78665,53.1215 -25.33489,-10.1025 -30.23842,-73.5529 -15.52784,-93.167 14.71058,-19.6141 16.91712,-15.0754 32.69018,-26.1521 13.88076,-9.7478 27.00207,-30.3114 -3.85728,-57.4442 -30.85936,-27.1329 -14.46952,-78.6996 28.77766,-101.4055 85.22691,-44.7462 -29.00665,-15.2255 -29.00665,-15.2255 z"
       id="path1055"
       inkscape:connector-curvature="0"
       sodipodi:nodetypes="csssscsszsc" />
    <path
       style="fill:#ffffff;fill-rule:evenodd;stroke:none;stroke-width:0.99320918px;stroke-linecap:butt;stroke-linejoin:miter;stroke-opacity:1"
       d="m 823.03179,2210.8783 c 25.53242,-41.3941 53.52609,-46.0445 91.72949,-52.5883 82.78977,-7.601 153.09262,2.4767 232.52302,0.237 41.1247,-1.2174 97.2884,15.8272 115.6921,37.7417 18.404,21.9145 46.8394,87.658 40.321,108.355 -6.5184,20.6971 -18.5233,75.4834 -46.1203,90.093 -27.597,14.6096 -47.9854,28.002 -94.6021,31.6544 -46.6167,3.6523 -223.47401,6.0873 -244.82621,4.8698 -21.35224,-1.2175 -82.80266,-19.4795 -100.31685,-57.2212 -17.51419,-37.7416 -19.65884,-126.6171 5.59985,-163.1414 z"
       id="path1057"
       inkscape:connector-curvature="0"
       sodipodi:nodetypes="cccscssssc" />
    <path
       style="fill:#ffffff;fill-rule:evenodd;stroke:none;stroke-width:1px;stroke-linecap:butt;stroke-linejoin:miter;stroke-opacity:1"
       d="m 1092.1624,2422.8545 c 7.4155,31.516 12.9772,52.5267 19.7748,59.9423 6.7976,7.4155 22.8646,14.2131 33.3699,15.449 10.5054,1.236 21.0107,6.1796 6.1796,23.4826 -14.831,17.3029 -1.8538,54.9986 45.1112,57.4704 -46.965,-11.7413 -43.8752,-47.583 -27.8082,-54.3806 16.067,-6.7976 20.3927,-39.5496 -16.685,-50.6729 -32.752,-8.6514 -11.1233,-129.7719 -11.1233,-129.7719 z"
       id="path1059"
       inkscape:connector-curvature="0" />
  </g>
  <g
     inkscape:groupmode="layer"
     id="layer1"
     inkscape:label="txt"
     style="opacity:1">
    <text
       xml:space="preserve"
       style="font-style:normal;font-variant:normal;font-weight:normal;font-stretch:normal;line-height:0%;font-family:Lavi;-inkscape-font-specification:Lavi;text-align:center;letter-spacing:0px;word-spacing:0px;text-anchor:middle;fill:#000000;fill-opacity:1;stroke:none"
       x="349.19534"
       y="156.53017"
       id="text4246"><tspan
         sodipodi:role="line"
         style="font-size:45px;line-height:1.20000005"
         x="349.19534"
         y="156.53017"
         id="tspan60">Dziwnie się czuję,</tspan><tspan
         sodipodi:role="line"
         style="font-size:45px;line-height:1.20000005"
         x="349.19534"
         y="210.53017"
         id="tspan67">wymykając się,</tspan><tspan
         sodipodi:role="line"
         style="font-size:45px;line-height:1.20000005"
         x="349.19534"
         y="264.53018"
         id="tspan69">by coś zjeść,</tspan></text>
    <text
       xml:space="preserve"
       style="font-style:normal;font-variant:normal;font-weight:normal;font-stretch:normal;line-height:0%;font-family:Lavi;-inkscape-font-specification:Lavi;text-align:center;letter-spacing:0px;word-spacing:0px;text-anchor:middle;fill:#000000;fill-opacity:1;stroke:none"
       x="374.90222"
       y="960.30322"
       id="text4246-3"><tspan
         sodipodi:role="line"
         style="font-size:45px;line-height:1.20000005"
         x="374.90222"
         y="960.30322"
         id="tspan868">ale nasza mentorka</tspan><tspan
         sodipodi:role="line"
         style="font-size:45px;line-height:1.20000005"
         x="374.90222"
         y="1014.3032"
         id="tspan80">powtarza, że musimy</tspan><tspan
         sodipodi:role="line"
         style="font-size:45px;line-height:1.20000005"
         x="374.90222"
         y="1068.3032"
         id="tspan90">wyglądać nieskazitelnie</tspan><tspan
         sodipodi:role="line"
         style="font-size:45px;line-height:1.20000005"
         x="374.90222"
         y="1122.3032"
         id="tspan94">niczym duchy, bez śla-</tspan><tspan
         sodipodi:role="line"
         style="font-size:45px;line-height:1.20000005"
         x="374.90222"
         y="1176.3032"
         id="tspan86">du ludzkich potrzeb.</tspan></text>
    <text
       xml:space="preserve"
       style="font-style:normal;font-variant:normal;font-weight:normal;font-stretch:normal;line-height:0%;font-family:Lavi;-inkscape-font-specification:Lavi;text-align:center;letter-spacing:0px;word-spacing:0px;text-anchor:middle;fill:#000000;fill-opacity:1;stroke:none"
       x="2042.5908"
       y="218.61415"
       id="text4246-3-3"><tspan
         sodipodi:role="line"
         style="font-size:45px;line-height:1.20000005"
         x="2042.5908"
         y="218.61415"
         id="tspan868-9">Ha! Tutaj jesteście!</tspan></text>
    <text
       xml:space="preserve"
       style="font-style:normal;font-variant:normal;font-weight:normal;font-stretch:normal;line-height:0%;font-family:Lavi;-inkscape-font-specification:Lavi;text-align:center;letter-spacing:0px;word-spacing:0px;text-anchor:middle;fill:#000000;fill-opacity:1;stroke:none"
       x="391.99753"
       y="1406.5085"
       id="text4246-3-3-1"><tspan
         sodipodi:role="line"
         style="font-size:45px;line-height:1.20000005"
         x="391.99753"
         y="1406.5085"
         id="tspan928">Nareszcie!</tspan><tspan
         sodipodi:role="line"
         style="font-size:45px;line-height:1.20000005"
         x="391.99753"
         y="1460.5085"
         id="tspan117">W końcu znalazłam</tspan><tspan
         sodipodi:role="line"
         style="font-size:45px;line-height:1.20000005"
         x="391.99753"
         y="1514.5085"
         id="tspan119">miejsce, w którym</tspan><tspan
         sodipodi:role="line"
         style="font-size:45px;line-height:1.20000005"
         x="391.99753"
         y="1568.5085"
         id="tspan121">nie ma paparazzi.</tspan></text>
    <text
       xml:space="preserve"
       style="font-style:normal;font-variant:normal;font-weight:normal;font-stretch:normal;line-height:0%;font-family:Lavi;-inkscape-font-specification:Lavi;text-align:center;letter-spacing:0px;word-spacing:0px;text-anchor:middle;fill:#000000;fill-opacity:1;stroke:none"
       x="388.59467"
       y="1642.9772"
       id="text4246-3-3-1-7"><tspan
         sodipodi:role="line"
         style="font-size:45px;line-height:1.20000005"
         x="388.59467"
         y="1642.9772"
         id="tspan966">Doprowa-</tspan><tspan
         sodipodi:role="line"
         style="font-size:45px;line-height:1.20000005"
         x="388.59467"
         y="1696.9772"
         id="tspan125">dzają mnie</tspan><tspan
         sodipodi:role="line"
         style="font-size:45px;line-height:1.20000005"
         x="388.59467"
         y="1750.9772"
         id="tspan127">do szału.</tspan></text>
    <text
       xml:space="preserve"
       style="font-style:normal;font-variant:normal;font-weight:normal;font-stretch:normal;line-height:0%;font-family:Lavi;-inkscape-font-specification:Lavi;text-align:center;letter-spacing:0px;word-spacing:0px;text-anchor:middle;fill:#000000;fill-opacity:1;stroke:none"
       x="378.09384"
       y="2251.155"
       id="text4246-3-3-1-7-0"><tspan
         sodipodi:role="line"
         style="font-size:45px;line-height:1.20000005"
         x="378.09384"
         y="2251.155"
         id="tspan966-2">„Paparazzi”?</tspan></text>
    <text
       xml:space="preserve"
       style="font-style:normal;font-variant:normal;font-weight:normal;font-stretch:normal;line-height:0%;font-family:Lavi;-inkscape-font-specification:Lavi;text-align:center;letter-spacing:0px;word-spacing:0px;text-anchor:middle;fill:#000000;fill-opacity:1;stroke:none"
       x="1053.5374"
       y="2225.1152"
       id="text4246-3-3-1-7-0-6"><tspan
         sodipodi:role="line"
         style="font-size:45px;line-height:1.20000005"
         x="1053.5374"
         y="2225.1152"
         id="tspan147">Spróbuj z czymś</tspan><tspan
         sodipodi:role="line"
         style="font-size:45px;line-height:1.20000005"
         x="1053.5374"
         y="2279.1152"
         id="tspan65">takim na głowie uniknąć</tspan><tspan
         sodipodi:role="line"
         style="font-size:45px;line-height:1.20000005"
         x="1053.5374"
         y="2333.1152"
         id="tspan70">nudnych dyskusji</tspan><tspan
         sodipodi:role="line"
         style="font-size:45px;line-height:1.20000005"
         x="1053.5374"
         y="2387.1152"
         id="tspan72">z politykami.</tspan></text>
    <text
       xml:space="preserve"
       style="font-style:normal;font-variant:normal;font-weight:normal;font-stretch:normal;font-size:13.67166328px;line-height:0%;font-family:Lavi;-inkscape-font-specification:Lavi;text-align:center;letter-spacing:0px;word-spacing:0px;text-anchor:middle;fill:#ffffff;fill-opacity:0.43137255;stroke:#ffffff;stroke-width:0.41015574;stroke-miterlimit:4;stroke-dasharray:none;stroke-opacity:1"
       x="1673.4884"
       y="2527.4509"
       id="text4246-8"
       transform="matrix(0.89761483,-0.24846861,0.02683826,1.1066345,0,0)"><tspan
         sodipodi:role="line"
         style="font-size:35.04694366px;line-height:1.25;fill:#ffffff;fill-opacity:0.43137255;stroke:#ffffff;stroke-width:0.41015574;stroke-miterlimit:4;stroke-dasharray:none;stroke-opacity:1"
         x="1673.4884"
         y="2527.4509"
         id="tspan1033">DRAP</tspan><tspan
         sodipodi:role="line"
         style="font-size:35.04694366px;line-height:1.25;fill:#ffffff;fill-opacity:0.43137255;stroke:#ffffff;stroke-width:0.41015574;stroke-miterlimit:4;stroke-dasharray:none;stroke-opacity:1"
         x="1673.4884"
         y="2571.2595"
         id="tspan151">DRAP</tspan></text>
  </g>
</svg>
