<?xml version="1.0" encoding="UTF-8" standalone="no"?>
<!-- Created with Inkscape (http://www.inkscape.org/) -->

<svg
   xmlns:dc="http://purl.org/dc/elements/1.1/"
   xmlns:cc="http://creativecommons.org/ns#"
   xmlns:rdf="http://www.w3.org/1999/02/22-rdf-syntax-ns#"
   xmlns:svg="http://www.w3.org/2000/svg"
   xmlns="http://www.w3.org/2000/svg"
   xmlns:xlink="http://www.w3.org/1999/xlink"
   xmlns:sodipodi="http://sodipodi.sourceforge.net/DTD/sodipodi-0.dtd"
   xmlns:inkscape="http://www.inkscape.org/namespaces/inkscape"
   id="svg2"
   version="1.1"
   inkscape:version="0.92.3 (2405546, 2018-03-11)"
   width="2481"
   height="3503"
   sodipodi:docname="E17P07.svg">
  <sodipodi:namedview
     pagecolor="#ffffff"
     bordercolor="#666666"
     inkscape:pageopacity="0"
     inkscape:pageshadow="2"
     inkscape:window-width="1813"
     inkscape:window-height="955"
     id="namedview70"
     showgrid="false"
     inkscape:zoom="0.8"
     inkscape:cx="1248.1561"
     inkscape:cy="450.92541"
     inkscape:current-layer="layer3"
     inkscape:window-x="64"
     inkscape:window-y="0"
     inkscape:window-maximized="0" />
  <metadata
     id="metadata8">
    <rdf:RDF>
      <cc:Work
         rdf:about="">
        <dc:format>image/svg+xml</dc:format>
        <dc:type
           rdf:resource="http://purl.org/dc/dcmitype/StillImage" />
        <dc:title />
      </cc:Work>
    </rdf:RDF>
  </metadata>
  <defs
     id="defs6">
    <filter
       style="color-interpolation-filters:sRGB;"
       inkscape:label="Drop Shadow"
       id="filter5522">
      <feFlood
         flood-opacity="1"
         flood-color="rgb(0,0,0)"
         result="flood"
         id="feFlood5524" />
      <feComposite
         in="flood"
         in2="SourceGraphic"
         operator="in"
         result="composite1"
         id="feComposite5526" />
      <feGaussianBlur
         in="composite1"
         stdDeviation="1"
         result="blur"
         id="feGaussianBlur5528" />
      <feOffset
         dx="2.5"
         dy="2.5"
         result="offset"
         id="feOffset5530" />
      <feComposite
         in="SourceGraphic"
         in2="offset"
         operator="over"
         result="composite2"
         id="feComposite5532" />
    </filter>
    <filter
       style="color-interpolation-filters:sRGB;"
       inkscape:label="Drop Shadow"
       id="filter5534">
      <feFlood
         flood-opacity="1"
         flood-color="rgb(0,0,0)"
         result="flood"
         id="feFlood5536" />
      <feComposite
         in="flood"
         in2="SourceGraphic"
         operator="in"
         result="composite1"
         id="feComposite5538" />
      <feGaussianBlur
         in="composite1"
         stdDeviation="1"
         result="blur"
         id="feGaussianBlur5540" />
      <feOffset
         dx="2.5"
         dy="2.5"
         result="offset"
         id="feOffset5542" />
      <feComposite
         in="SourceGraphic"
         in2="offset"
         operator="over"
         result="composite2"
         id="feComposite5544" />
    </filter>
    <filter
       style="color-interpolation-filters:sRGB;"
       inkscape:label="Drop Shadow"
       id="filter5546">
      <feFlood
         flood-opacity="1"
         flood-color="rgb(0,0,0)"
         result="flood"
         id="feFlood5548" />
      <feComposite
         in="flood"
         in2="SourceGraphic"
         operator="in"
         result="composite1"
         id="feComposite5550" />
      <feGaussianBlur
         in="composite1"
         stdDeviation="1"
         result="blur"
         id="feGaussianBlur5552" />
      <feOffset
         dx="2.5"
         dy="2.5"
         result="offset"
         id="feOffset5554" />
      <feComposite
         in="SourceGraphic"
         in2="offset"
         operator="over"
         result="composite2"
         id="feComposite5556" />
    </filter>
    <filter
       style="color-interpolation-filters:sRGB;"
       inkscape:label="Drop Shadow"
       id="filter5558">
      <feFlood
         flood-opacity="1"
         flood-color="rgb(0,0,0)"
         result="flood"
         id="feFlood5560" />
      <feComposite
         in="flood"
         in2="SourceGraphic"
         operator="in"
         result="composite1"
         id="feComposite5562" />
      <feGaussianBlur
         in="composite1"
         stdDeviation="1"
         result="blur"
         id="feGaussianBlur5564" />
      <feOffset
         dx="2.5"
         dy="2.5"
         result="offset"
         id="feOffset5566" />
      <feComposite
         in="SourceGraphic"
         in2="offset"
         operator="over"
         result="composite2"
         id="feComposite5568" />
    </filter>
  </defs>
  <sodipodi:namedview
     pagecolor="#ffffff"
     bordercolor="#666666"
     borderopacity="1"
     objecttolerance="10"
     gridtolerance="10"
     guidetolerance="10"
     inkscape:pageopacity="0"
     inkscape:pageshadow="2"
     inkscape:window-width="1920"
     inkscape:window-height="1025"
     id="namedview4"
     showgrid="false"
     inkscape:zoom="0.34782609"
     inkscape:cx="1055.0796"
     inkscape:cy="2404.6248"
     inkscape:window-x="0"
     inkscape:window-y="26"
     inkscape:window-maximized="1"
     inkscape:current-layer="layer1" />
  <g
     inkscape:groupmode="layer"
     id="layer2"
     inkscape:label="artwork"
     sodipodi:insensitive="true">
    <image
       sodipodi:absref="/home/fici/Desktop/P&amp;C/all/sl/../gfx_Pepper-and-Carrot_by-David-Revoy_E17P07.png"
       xlink:href="../gfx_Pepper-and-Carrot_by-David-Revoy_E17P07.png"
       width="2481"
       height="3503"
       id="image10"
       x="0"
       y="0" />
  </g>
  <g
     inkscape:groupmode="layer"
     id="layer3"
     inkscape:label="speechbubbles"
     style="opacity:1">
    <path
       style="color:#000000;display:inline;overflow:visible;visibility:visible;fill:#ffffff;fill-opacity:1;fill-rule:nonzero;stroke:none;stroke-width:1px;marker:none;enable-background:accumulate"
       d="m 1010.4621,421.307 c 54.2775,-26.75111 453.3103,-39.26401 541.9755,7.3524 100.1463,52.65267 28.5903,165.2971 -50.5879,188.87154 -74.8443,22.2841 -273.5123,37.87117 -371.5409,15.37822 -98.0288,-22.49294 -174.24531,-52.895 -178.63306,-120.05427 -1.79109,-27.41037 4.50876,-64.79677 58.78636,-91.54789 z"
       id="path4040"
       inkscape:connector-curvature="0"
       sodipodi:nodetypes="zssssz" />
    <path
       style="color:#000000;display:inline;overflow:visible;visibility:visible;fill:#ffffff;fill-opacity:1;fill-rule:nonzero;stroke:none;stroke-width:1px;marker:none;enable-background:accumulate"
       d="m 1718.5209,509.9842 c -7.7418,16.19807 -15.5076,33.1973 -32.4434,44.53252 -4.9282,3.13091 -10.3949,6.06413 -16.7951,7.55715 -7.4315,0.34787 -14.9982,-3.69945 -19.5221,-8.64539 -7.1207,-6.8955 -11.3036,-15.81586 -21.4899,-20.78482 -7.4974,-3.49757 -15.0354,-1.37767 -21.6815,-0.0597 -16.7822,3.62734 -32.5282,9.11411 -50.5605,10.55753 -19.8886,2.65529 -41.3726,4.30783 -62.9062,-1.38774 -8.498,-2.35513 -17.1818,-5.65988 -23.4987,-11.12248 -16.9211,-13.58117 -25.455,-33.19058 -18.7509,-48.31082 5.6068,-9.14761 23.0937,-12.59261 36.7206,-5.62125 7.2465,3.60893 11.003,9.87667 12.2022,15.6104 4.8041,10.62809 13.5292,16.17886 27.3657,20.48853 11.3777,3.68742 23.4851,4.84238 34.5115,3.72094 16.3526,1.58414 28.7095,-5.25897 41.9672,-9.32447 6.1131,-1.78274 14.7425,-0.81807 21.9596,0.003 10.4123,2.98538 18.6964,8.13329 22.7748,15.25714 4.4423,7.30296 9.0427,15.99488 19.2106,20.41309 6.6879,3.70799 9.9042,1.61642 15.0888,-0.007 15.318,-7.03414 27.7026,-16.42843 34.5809,-29.01708 0.5231,-1.25492 0.8972,-2.55454 1.2667,-3.85901 z"
       id="path4496-6"
       inkscape:connector-curvature="0"
       sodipodi:nodetypes="cccccccccccccccccccccc" />
    <path
       style="fill:#ffffff;stroke:none;stroke-width:0.86817408"
       d="m 696.39203,229.85747 c 23.95484,-77.62817 88.35728,-70.50379 137.33971,-74.34331 61.97074,-4.65443 154.15795,-0.20301 184.12926,37.08895 47.7715,64.87671 -20.7059,101.7908 -68.45928,117.23307 -76.29639,21.71321 -154.96567,11.70202 -230.5477,-11.55407 -14.04832,-5.68219 -29.98696,-41.78218 -22.46199,-68.42464 z"
       id="path3100"
       inkscape:connector-curvature="0"
       sodipodi:nodetypes="cccccc" />
    <path
       style="color:#000000;display:inline;overflow:visible;visibility:visible;fill:#ffffff;fill-opacity:1;fill-rule:nonzero;stroke:none;stroke-width:1px;marker:none;enable-background:accumulate"
       d="m 767.76638,470.98308 c 62.14532,-16.29259 90.41803,-60.54356 101.98459,-144.73098 11.48796,-83.61528 42.62521,-40.29844 42.62521,-40.29844 0,0 -10.34632,173.42219 -144.6098,185.02942 z"
       id="path3984"
       inkscape:connector-curvature="0"
       sodipodi:nodetypes="cscc" />
    <text
       xml:space="preserve"
       style="font-style:normal;font-variant:normal;font-weight:normal;font-stretch:normal;line-height:0%;font-family:Arial;-inkscape-font-specification:Arial;text-align:center;letter-spacing:0px;word-spacing:0px;text-anchor:middle;display:inline;opacity:0.85500004;fill:#ffffff;fill-opacity:1;stroke:#ffffff;filter:url(#filter5558)"
       x="1240.6473"
       y="3388.5505"
       id="text4229"><tspan
         sodipodi:role="line"
         x="1240.6473"
         y="3388.5505"
         style="font-style:normal;font-variant:normal;font-weight:normal;font-stretch:normal;font-size:27.5px;line-height:1.25;font-family:Lavi;-inkscape-font-specification:Lavi;fill:#ffffff;stroke:#ffffff"
         id="tspan4169">Licenca : Creative Commons Attribution 4.0, Programska oprema: Krita, G'MIC, Inkscape na Ubuntu</tspan></text>
    <text
       xml:space="preserve"
       style="color:#000000;font-style:normal;font-variant:normal;font-weight:normal;font-stretch:normal;line-height:0%;font-family:Lavi;-inkscape-font-specification:Lavi;text-indent:0;text-align:center;text-decoration:none;text-decoration-line:none;letter-spacing:0px;word-spacing:0px;text-transform:none;writing-mode:lr-tb;direction:ltr;baseline-shift:baseline;text-anchor:middle;display:inline;overflow:visible;visibility:visible;opacity:0.85500004;fill:#ffffff;fill-opacity:1;fill-rule:nonzero;stroke:#ffffff;filter:url(#filter5546);enable-background:accumulate"
       x="1242.353"
       y="3350.7795"
       id="text4246-42-4"><tspan
         sodipodi:role="line"
         style="color:#000000;font-style:normal;font-variant:normal;font-weight:normal;font-stretch:normal;font-size:27.5px;line-height:125%;font-family:Lavi;-inkscape-font-specification:Lavi;text-indent:0;text-align:center;text-decoration:none;text-decoration-line:none;letter-spacing:0px;word-spacing:0px;text-transform:none;writing-mode:lr-tb;direction:ltr;baseline-shift:baseline;text-anchor:middle;display:inline;overflow:visible;visibility:visible;fill:#ffffff;fill-opacity:1;fill-rule:nonzero;stroke:#ffffff;enable-background:accumulate"
         x="1242.353"
         y="3350.7795"
         id="tspan4252-9-9">Bazira na vesolju Hereva od Davida Revoya s prispevki Craiga Maloneya. Popravki: Willem Sonke, Moini, Hali, CGand in Alex Gryson.</tspan></text>
    <text
       xml:space="preserve"
       style="font-style:normal;font-variant:normal;font-weight:normal;font-stretch:normal;line-height:0%;font-family:Lavi;-inkscape-font-specification:Lavi;text-align:center;letter-spacing:0px;word-spacing:0px;text-anchor:middle;opacity:1;fill:#ffffff;fill-opacity:1;stroke:#ffffff;stroke-width:3.82200003;stroke-miterlimit:4;stroke-dasharray:none;stroke-opacity:1;filter:url(#filter5534)"
       x="2028.7821"
       y="2443.6147"
       id="text4213"
       transform="matrix(0.75304346,0,-0.11971288,1.3279446,0,27.158278)"><tspan
         sodipodi:role="line"
         id="tspan4215"
         x="2028.7821"
         y="2443.6147"
         style="font-size:63.55184174px;line-height:1.25;fill:#ffffff;stroke:#ffffff;stroke-width:3.82200003;stroke-miterlimit:4;stroke-dasharray:none">- KONEC -</tspan></text>
    <text
       xml:space="preserve"
       style="font-style:normal;font-variant:normal;font-weight:normal;font-stretch:normal;line-height:0%;font-family:Lavi;-inkscape-font-specification:Lavi;text-align:center;letter-spacing:0px;word-spacing:0px;text-anchor:middle;fill:#ffffff;fill-opacity:1;stroke:#ffffff;filter:url(#filter5522)"
       x="1240.0964"
       y="3314.6868"
       id="text4246-42"><tspan
         sodipodi:role="line"
         style="font-size:36.73472214px;line-height:1.25;fill:#ffffff;stroke:#ffffff"
         x="1240.0964"
         y="3314.6868"
         id="tspan4252-9">06/2016 - www.peppercarrot.com - Grafika in Scenarij : David Revoy - Slovenski prevod : Andrej Ficko</tspan></text>
  </g>
  <g
     inkscape:groupmode="layer"
     id="layer1"
     inkscape:label="txt">
    <text
       xml:space="preserve"
       style="font-style:normal;font-variant:normal;font-weight:normal;font-stretch:normal;line-height:0%;font-family:Lavi;-inkscape-font-specification:Lavi;text-align:center;letter-spacing:0px;word-spacing:0px;text-anchor:middle;fill:#000000;fill-opacity:1;stroke:none"
       x="1278.9379"
       y="469.31189"
       id="text4246-0-2"><tspan
         sodipodi:role="line"
         style="font-size:45px;line-height:1.25"
         x="1278.9379"
         y="469.31189"
         id="tspan3506">...torej, prepotovala si</tspan><tspan
         sodipodi:role="line"
         style="font-size:45px;line-height:1.25"
         x="1278.9379"
         y="525.56195"
         id="tspan78">vso to pot, da mi poveš da</tspan><tspan
         sodipodi:role="line"
         style="font-size:45px;line-height:1.25"
         x="1278.9379"
         y="581.81195"
         id="tspan3496">te niso <tspan
   style="font-style:italic;font-variant:normal;font-weight:normal;font-stretch:normal;font-family:Lavi;-inkscape-font-specification:'Lavi Italic'"
   id="tspan4183">ničesar</tspan> naučile?</tspan></text>
    <path
       style="color:#000000;display:inline;overflow:visible;visibility:visible;fill:#ffffff;fill-opacity:1;fill-rule:nonzero;stroke:none;stroke-width:1.17213738px;marker:none;enable-background:accumulate"
       d="m 428.77796,177.48414 c -2.23251,-16.30728 37.60355,-96.595569 174.13564,-91.3205 169.46619,6.547515 162.97321,72.83893 161.85692,94.58197 -1.11631,21.74294 -34.60383,55.44459 -54.69649,60.88034 -20.09253,5.43577 -72.55649,18.48146 -106.04423,14.133 -33.4875,-4.34868 -129.52633,-8.79561 -149.619,-28.36436 -20.09254,-19.56863 -23.40036,-45.56189 -25.63284,-49.91045 z"
       id="path3365"
       inkscape:connector-curvature="0"
       sodipodi:nodetypes="csssssc" />
    <text
       xml:space="preserve"
       style="font-style:normal;font-variant:normal;font-weight:normal;font-stretch:normal;line-height:0%;font-family:Lavi;-inkscape-font-specification:Lavi;text-align:center;letter-spacing:0px;word-spacing:0px;text-anchor:middle;fill:#000000;fill-opacity:1;stroke:none"
       x="594.54352"
       y="155.10068"
       id="text4246-0-7"><tspan
         sodipodi:role="line"
         style="font-size:45px;line-height:1.25"
         x="594.54352"
         y="155.10068"
         id="tspan90">...in tako sva</tspan><tspan
         sodipodi:role="line"
         style="font-size:45px;line-height:1.25"
         x="594.54352"
         y="211.35068"
         id="tspan94">zdaj tukaj.</tspan></text>
    <text
       xml:space="preserve"
       style="font-style:normal;font-variant:normal;font-weight:normal;font-stretch:normal;line-height:0%;font-family:Lavi;-inkscape-font-specification:Lavi;text-align:center;letter-spacing:0px;word-spacing:0px;text-anchor:middle;fill:#000000;fill-opacity:1;stroke:none"
       x="865.44482"
       y="219.39445"
       id="text4246-0"><tspan
         sodipodi:role="line"
         style="font-size:45px;line-height:1.25"
         x="865.44482"
         y="219.39445"
         id="tspan62">To je vsa</tspan><tspan
         sodipodi:role="line"
         style="font-size:45px;line-height:1.25"
         x="865.44482"
         y="275.64447"
         id="tspan98">zgodba.</tspan></text>
  </g>
</svg>
