<?xml version="1.0" encoding="UTF-8" standalone="no"?>
<svg
   xmlns:dc="http://purl.org/dc/elements/1.1/"
   xmlns:cc="http://creativecommons.org/ns#"
   xmlns:rdf="http://www.w3.org/1999/02/22-rdf-syntax-ns#"
   xmlns:svg="http://www.w3.org/2000/svg"
   xmlns="http://www.w3.org/2000/svg"
   xmlns:xlink="http://www.w3.org/1999/xlink"
   xmlns:sodipodi="http://sodipodi.sourceforge.net/DTD/sodipodi-0.dtd"
   xmlns:inkscape="http://www.inkscape.org/namespaces/inkscape"
   id="svg2"
   version="1.1"
   inkscape:version="0.92.2 (5c3e80d, 2017-08-06)"
   width="2481"
   height="3503"
   sodipodi:docname="E34P08.svg">
  <metadata
     id="metadata8">
    <rdf:RDF>
      <cc:Work
         rdf:about="">
        <dc:format>image/svg+xml</dc:format>
        <dc:type
           rdf:resource="http://purl.org/dc/dcmitype/StillImage" />
        <dc:title />
      </cc:Work>
    </rdf:RDF>
  </metadata>
  <defs
     id="defs6" />
  <sodipodi:namedview
     pagecolor="#ffffff"
     bordercolor="#666666"
     borderopacity="1"
     objecttolerance="10"
     gridtolerance="10"
     guidetolerance="10"
     inkscape:pageopacity="0"
     inkscape:pageshadow="2"
     inkscape:window-width="1382"
     inkscape:window-height="1050"
     id="namedview4"
     showgrid="false"
     inkscape:zoom="0.49190039"
     inkscape:cx="1228.3989"
     inkscape:cy="1187.0169"
     inkscape:window-x="475"
     inkscape:window-y="-2"
     inkscape:window-maximized="0"
     inkscape:current-layer="layer1"
     inkscape:document-rotation="0"
     inkscape:snap-global="false"
     borderlayer="true" />
  <g
     inkscape:groupmode="layer"
     id="layer2"
     inkscape:label="artwork"
     sodipodi:insensitive="true">
    <image
       sodipodi:absref="C:\Users\Kari\Documents\Pepper and Carrot\Episode 34\fi\../lang/en/./../gfx_Pepper-and-Carrot_by-David-Revoy_E34P08.png"
       xlink:href="../gfx_Pepper-and-Carrot_by-David-Revoy_E34P08.png"
       width="2481"
       height="3503"
       id="image10"
       x="0"
       y="0" />
  </g>
  <g
     inkscape:groupmode="layer"
     id="layer3"
     inkscape:label="speechbubbles"
     style="display:inline">
    <path
       style="color:#000000;display:inline;overflow:visible;visibility:visible;fill:#ffffff;fill-opacity:1;fill-rule:nonzero;stroke:none;stroke-width:0.770224px;marker:none;enable-background:accumulate"
       d="m 1858.8745,2602.7661 c 24.645,-31.5484 88.5186,-58.8546 134.0691,-29.1667 47.5832,1.2392 31.3766,-27.3129 31.3766,-27.3129 -2.2798,-13.3723 -128.0086,-31.4485 -165.4457,56.4796 z"
       id="path3984-7"
       inkscape:connector-curvature="0"
       sodipodi:nodetypes="cccc" />
    <path
       style="display:inline;fill:#ffffff;stroke:none;stroke-width:1.36190403"
       d="m 2139.5807,2621.5145 c -39.732,1.4532 -80.0519,12.9869 -112.5385,38.4014 -52.0268,42.2831 -77.6571,118.972 -62.1474,187.3076 7.5004,37.1826 29.3504,71.3295 60.4817,89.7803 30.274,18.3396 64.9382,25.7848 99.0946,29.9497 50.4803,5.6122 102.0181,-1.0018 150.1128,-18.3405 27.1188,-10.4156 49.3649,-34.0792 59.8113,-62.979 10.3673,-27.6843 12.2721,-57.9869 12.3085,-87.5401 -0.8573,-45.3097 -15.4633,-90.2476 -41.0767,-126.1636 -12.0666,-16.9212 -29.4552,-29.2574 -48.6879,-34.3279 -22.5825,-5.9232 -45.6993,-8.9162 -68.6603,-12.5597 -16.1452,-2.2308 -32.4067,-3.7851 -48.6981,-3.5282 z"
       id="path3280-8-3"
       inkscape:connector-curvature="0"
       sodipodi:nodetypes="csssc" />
    <path
       style="color:#000000;display:inline;overflow:visible;visibility:visible;fill:#ffffff;fill-opacity:1;fill-rule:nonzero;stroke:none;stroke-width:0.80134344px;marker:none;enable-background:accumulate"
       d="m 2153.4087,2472.571 c -50.5248,-0.9701 -101.729,3.662 -149.1236,17.4105 -17.8043,5.29 -35.3611,12.7608 -46.994,24.7234 -14.5573,15.1252 -21.6604,34.0355 -22.2749,52.7878 -0.1266,18.5638 8.6771,37.6624 26.465,50.5903 14.2001,10.1785 32.6161,15.6751 50.5197,20.7364 32.8185,9.1294 67.2194,14.2904 101.7391,17.5432 22.9615,2.1752 46.0165,3.74 69.0922,4.8757 20.4306,0.6093 40.7961,-1.6169 60.635,-5.1354 28.7419,-4.5131 57.776,-10.3879 82.8427,-22.4672 17.8298,-8.7345 32.8989,-21.7633 38.7643,-37.6643 7.9565,-20.4107 1.9192,-43.6413 -15.2619,-60.4231 -14.33,-15.4162 -31.3576,-29.9854 -53.1554,-39.2111 -18.3882,-7.5829 -38.837,-11.3046 -58.9259,-15.0934 -27.6896,-4.9277 -55.9621,-7.7894 -84.3223,-8.6728 z"
       id="path3970-3"
       inkscape:connector-curvature="0"
       sodipodi:nodetypes="cccscsc" />
    <path
       style="display:inline;fill:#ffffff;fill-rule:evenodd;stroke:none;stroke-width:1.19769px;stroke-linecap:butt;stroke-linejoin:miter;stroke-opacity:1"
       d="m 149.97784,2639.0252 c 39.86193,27.8955 32.52231,40.0735 -23.67073,35.9837 89.58912,42.8351 52.60569,49.2464 -4.1167,49.9774 38.07751,15.6456 80.20982,30.956 -7.20414,56.9743 50.65722,4.2183 94.79578,10.1746 8.23329,50.977 44.91072,-1.6758 74.04332,-18.7567 19.8773,36.7827 73.51489,-24.9458 140.64956,-17.0906 102.59359,45.1802 36.95129,-18.3388 97.70046,-64.815 76.15825,-13.9936 16.9296,-16.2306 38.47559,-22.3733 77.18751,8.9959 -7.54878,-22.6233 -30.29283,-58.4779 38.07913,-14.9932 -20.6692,-34.0251 -0.84903,-68.3859 68.1897,-17.9249 -10.28467,-25.6552 -78.5565,-35.3843 5.91036,-61.0395 -58.18262,-2.5587 -40.13526,-19.9247 -3.08744,-40.9814 -69.28068,-11.6374 -35.0024,-25.7279 6.17499,-39.982 -42.91247,-5.4331 -76.01888,-14.5828 -8.2334,-61.972 -74.61274,19.6735 -53.02033,-13.6004 -49.40008,-36.9833 -34.43236,18.5673 -73.37075,47.7106 -76.15836,-7.9964 -46.18982,69.1143 -63.67863,16.2752 -89.5375,-0.9995 -26.8957,82.2398 -87.8655,6.4455 -104.97483,0.9995 34.89138,33.6606 40.98338,48.9014 -36.02094,10.9951 z"
       id="path1096"
       inkscape:connector-curvature="0"
       sodipodi:nodetypes="cccccccccccccccccccc" />
    <path
       style="fill:#ffffff;fill-rule:evenodd;stroke:none;stroke-width:1px;stroke-linecap:butt;stroke-linejoin:miter;stroke-opacity:1"
       d="m 276.69249,2637.35 c 22.24357,147.5922 76.16994,294.7462 66.72409,442.7767 39.32721,-7.5351 57.02691,-43.538 110.60404,61.3044 36.13567,-50.5432 43.46402,-9.9468 54.08883,20.3938 25.92501,-21.2619 53.62712,-17.4156 81.20022,-15.3921 -24.07084,-2.6294 -42.56765,-23.176 -74.42406,-0.7793 -0.99204,-50.5675 -24.7242,-64.2967 -53.19608,-40.6932 -22.25284,-65.4923 -46.37098,-77.5206 -92.38131,-54.9383 1.82968,-175.1557 -47.49605,-279.4592 -67.44658,-422.2765 z"
       id="path1313"
       sodipodi:nodetypes="cccccccccc" />
    <path
       style="color:#000000;display:inline;overflow:visible;visibility:visible;fill:#ffffff;fill-opacity:1;fill-rule:nonzero;stroke:none;stroke-width:1.31433px;marker:none;enable-background:accumulate"
       d="m 137.94543,2952.2227 c 2.57481,-42.4765 8.37968,-76.1738 40.31649,-94.8593 31.93682,-18.6853 90.00534,-22.3584 163.67617,-15.008 39.46208,3.9372 95.53388,9.6703 126.98199,27.4197 31.4482,17.7488 38.27248,47.5133 34.95875,109.7344 -3.31371,62.2209 -14.9026,95.3659 -51.27921,110.7925 -36.37663,15.4267 -97.54109,13.1348 -110.85534,14.7045 -34.81312,-4.9421 -101.93998,2.0672 -144.61363,-11.013 -42.67375,-13.0801 -60.89408,-46.2498 -59.18522,-141.7708 z"
       id="path4546-6-0"
       inkscape:connector-curvature="0"
       sodipodi:nodetypes="cssssscsc" />
    <path
       style="fill:#ffffff;fill-rule:evenodd;stroke:none;stroke-width:1.49986px;stroke-linecap:butt;stroke-linejoin:miter;stroke-opacity:1"
       d="m 217.08242,2649.8057 c 36.90709,-50.2257 39.2881,-5.139 58.31878,36.2923 18.49928,-30.6102 5.37016,-37.0801 47.77595,2.3088 8.80076,-60.6152 28.70148,-43.015 52.77387,-10.9502 -8.33465,-42.6242 -8.81213,-62.5771 28.15389,-25.9228 9.37569,-48.4233 28.08772,-13.1777 54.29681,10.3696 -6.36522,-54.7029 -9.43727,-54.5433 44.24189,-44.9322 -37.30857,-48.1984 12.34553,-26.491 50.27471,-20.7394 -56.92936,-37.391 -36.38571,-30.7833 20.1101,-27.6509 -70.09485,-30.9514 -74.25014,-26.6667 -8.04407,-63.9433 -98.70585,11.1753 -89.4022,9.8366 -24.13193,-55.302 -39.18092,5.5174 -140.98295,82.943 -78.42873,13.8262 -53.48141,18.2513 -77.40978,39.2565 -49.37466,-20.9763 l -19.66776,-1.0234 c -20.37926,21.8995 -44.11621,56.4771 -47.59527,11.6299 -29.76644,33.519 -28.07601,39.1189 -42.23077,-3.4564 -19.66696,57.8645 -22.71029,13.0651 -34.18713,-24.1945 -25.83448,34.7634 -26.07555,74.5428 -42.23077,19.0097 -11.24706,56.5135 -34.0037,16.4098 -66.36284,-10.3684 10.09255,61.5083 12.97253,60.8806 -36.19797,22.4662 18.43992,56.1578 -0.12592,44.3678 -52.285671,41.4758 62.451481,49.6039 42.560661,48.1051 -20.110112,82.9544 35.01382,5.5208 97.345683,-28.793 64.351853,17.2813 77.3397,-28.1852 15.08709,45.1113 -4.02196,82.953 69.10198,-57.7667 97.75391,-104.5155 104.57179,-31.1074 z"
       id="path1309"
       inkscape:connector-curvature="0"
       sodipodi:nodetypes="ccccccccccccccccccccccccc" />
    <path
       style="display:inline;fill:#ffffff;stroke:none;stroke-width:0.98061049"
       d="m 2005.3142,1872.7034 c -35.2643,2.8526 -70.0803,11.8499 -100.9462,26.458 -20.7561,9.8625 -39.7509,22.3744 -54.8376,37.5519 -39.3207,38.4408 -59.7513,88.2206 -58.3543,136.9145 -0.2214,40.4859 13.1146,81.3177 42.4284,113.9116 28.0819,31.9351 67.7718,58.1497 115.017,69.9668 27.6276,7.0642 56.1571,11.9386 84.875,15.6889 39.8159,3.4287 80.062,-3.4311 118.544,-12.5202 34.3331,-8.0878 68.6229,-19.7567 95.1871,-39.8197 29.3604,-22.166 48.1348,-51.5029 62.4034,-81.1121 14.4748,-29.6646 22.2724,-61.9307 16.8009,-93.2421 -4.7815,-31.9927 -14.3089,-64.2254 -35.829,-91.4404 -21.0344,-26.4003 -52.5045,-46.8321 -88.2115,-59.577 -46.818,-17.2868 -99.166,-23.5821 -150.9915,-24.2155 -15.356,-0.042 -30.7428,0.2922 -46.0857,1.4353 z"
       id="path3280-5"
       inkscape:connector-curvature="0"
       sodipodi:nodetypes="csssc" />
    <path
       style="color:#000000;display:inline;overflow:visible;visibility:visible;fill:#ffffff;fill-opacity:1;fill-rule:nonzero;stroke:none;stroke-width:0.869755px;marker:none;enable-background:accumulate"
       d="m 631.52816,1840.5303 c 47.24511,-27.3875 115.83444,-55.1086 154.24551,3.9472 23.5574,-4.8627 69.71482,-40.1263 115.42935,17.7336 -47.53609,-35.9834 -78.50267,-15.4767 -118.07887,4.9225 -18.59072,-41.5285 -83.01307,-49.4207 -140.96132,7.1368 -57.94866,56.5566 -38.62415,45.003 -38.62415,45.003 l 10.52452,-62.5977 z"
       id="path5074-8"
       inkscape:connector-curvature="0"
       sodipodi:nodetypes="ccccsccc" />
    <path
       style="display:inline;fill:#ffffff;stroke:none;stroke-width:1.05887"
       d="m 477.36637,1809.6055 c -32.80637,0.6202 -66.328,2.8871 -97.11745,14.1083 -40.54457,15.3776 -71.32362,50.1228 -80.02284,89.4906 -6.24132,26.0118 -5.66181,53.7456 3.90074,79.025 9.16633,23.3857 28.90561,42.7535 53.09835,53.7349 12.16827,5.7353 25.44736,9.0777 38.82569,11.4444 22.16101,4.2459 44.55104,7.586 67.07839,9.6772 50.34236,4.2645 102.65827,0.3106 149.25074,-18.7444 15.77561,-6.5084 31.1843,-14.7612 42.80076,-26.7076 15.97953,-17.5909 23.04019,-40.2604 27.29006,-62.4104 5.17567,-28.9396 1.79863,-60.0042 -14.24865,-85.7743 -16.52663,-26.0108 -45.44898,-44.2053 -76.82984,-52.0684 -31.51828,-8.5105 -64.5361,-10.583 -97.19962,-11.8245 -5.6086,-0.084 -11.21841,-0.064 -16.82633,0.049 z"
       id="path3280-5-9"
       inkscape:connector-curvature="0"
       sodipodi:nodetypes="csssc" />
    <path
       style="color:#000000;display:inline;overflow:visible;visibility:visible;fill:#ffffff;fill-opacity:1;fill-rule:nonzero;stroke:none;stroke-width:1.27514637px;marker:none;enable-background:accumulate"
       d="m 1535.2838,284.94746 c 6.4986,-105.76337 76.1465,-182.47388 315.9237,-163.46234 128.4378,10.18345 274.2307,16.63628 266.1997,171.56664 -8.0312,154.93009 -217.5255,151.7186 -260.732,155.49977 -43.2061,3.78143 -246.8446,-12.62073 -286.7311,-65.16602 -24.9681,-32.89174 -35.0547,-65.68853 -34.6603,-98.43805 z"
       id="path4546-7"
       inkscape:connector-curvature="0"
       sodipodi:nodetypes="cssssc" />
    <path
       style="fill:#ffffff;fill-rule:evenodd;stroke:none;stroke-width:1px;stroke-linecap:butt;stroke-linejoin:miter;stroke-opacity:1"
       d="m 1583.1971,228.38894 -0.065,25.78758 C 1064.4433,130.64867 897.1794,416.85146 793.5913,670.33743 810.89342,604.71047 848.83107,539.01086 867.11504,495.25305 921.33848,365.48369 1120.9039,126.81475 1583.1971,228.38894 Z"
       id="path1237"
       sodipodi:nodetypes="cccsc" />
    <path
       style="fill:#ffffff;fill-rule:evenodd;stroke:none;stroke-width:1.04570735px;stroke-linecap:butt;stroke-linejoin:miter;stroke-opacity:1"
       d="m 792.00008,198.00588 c 33.7121,12.22153 64.18552,19.81998 53.82517,-30.87077 59.67262,68.82024 51.11263,21.6877 60.55332,5.1451 35.47754,48.61437 66.00304,41.68647 92.51203,-10.2902 14.9859,74.97388 46.3453,38.64854 74.0097,27.44068 -0.067,21.08383 -36.304,55.34435 63.962,15.85199 -23.3402,19.04233 -61.89,50.92306 8.0172,31.83291 -11.3289,5.04844 9.1441,9.0466 0.9908,12.01863 -36.4893,13.30099 -43.292,43.28075 12.0303,53.89771 -39.0932,11.83134 -47.9639,41.43228 -1.9312,75.48146 -58.4566,-23.49478 -49.6253,7.56768 -38.8085,22.55449 -57.4032,-30.81283 -65.4347,-18.47652 -60.5532,5.1451 -18.3198,-21.55149 -39.2236,-30.57541 -79.58358,6.17387 9.02795,-22.07372 -34.88368,-21.44974 -75.40616,13.48352 21.33941,-33.6103 -8.79121,-38.13008 -42.33642,-16.91362 -8.84776,-35.71624 -42.07125,-17.58193 -77.37369,5.14521 28.81487,-34.85983 30.90291,-63.98238 -25.23053,-80.60725 54.398,-19.94236 44.4926,-36.02798 23.54851,-51.45138 20.69208,-14.50346 34.18357,-30.30239 -20.18444,-58.31166 31.78763,4.35443 65.63406,9.96841 31.95869,-25.72579 z"
       id="path4582"
       inkscape:connector-curvature="0"
       sodipodi:nodetypes="cccccccscccccccccccc" />
    <path
       style="fill:#ffffff;fill-rule:evenodd;stroke:none;stroke-width:1.14149px;stroke-linecap:butt;stroke-linejoin:miter;stroke-opacity:1"
       d="m 186.64099,269.10219 c 14.16793,-17.9695 21.6656,-57.67395 -26.96962,-49.84375 39.28832,-24.22773 26.02054,-46.39487 -3.9116,-60.30611 73.97307,21.84758 73.30597,-3.1264 61.65626,-34.98976 47.54155,45.23929 40.41961,-2.73478 35.84699,-20.87523 10.75548,16.73933 13.0223,42.92164 49.60085,2.10678 -0.32028,30.13252 -6.17118,65.92523 62.1714,25.78584 -22.50387,36.76194 -23.29348,63.59943 42.00483,60.23151 -28.38205,11.84018 -67.58994,23.8538 -13.96314,34.38016 -34.61657,-0.92979 -57.61576,1.55757 -42.76886,15.17701 -14.37392,-2.5435 -33.83306,-9.95842 -3.30801,30.50934 -20.80242,-14.97453 -46.52652,-38.26005 -39.11492,-5.59088 -18.23798,-14.68676 -19.40407,6.8976 -15.2404,39.80566 -12.94537,-38.21825 -26.75878,-42.54053 -41.59034,-7.10557 6.55708,-27.98121 3.27152,-63.65454 -44.38626,-25.35425 -12.90735,-2.90399 -11.03497,-2.74842 -20.02718,-3.93075 z"
       id="path1213"
       sodipodi:nodetypes="cccccccccccccccc" />
    <path
       style="fill:#ffffff;fill-rule:evenodd;stroke:none;stroke-width:1.28731px;stroke-linecap:butt;stroke-linejoin:miter;stroke-opacity:1"
       d="M 223.92681,451.40352 C 191.03014,380.78428 162.95416,309.9462 234.75229,234.57441 l -10.34265,-15.32374 c -90.31546,91.35161 -49.21656,162.34365 -0.48283,232.15285 z"
       id="path1217"
       sodipodi:nodetypes="cccc" />
    <path
       style="fill:#ffffff;fill-rule:evenodd;stroke:none;stroke-width:1.08499px;stroke-linecap:butt;stroke-linejoin:miter;stroke-opacity:1"
       d="m 1643.7985,1929.1739 c 96.8015,-46.6867 120.9988,-40.2821 80.5755,28.3512 65.4725,-1.176 123.2483,3.9962 149.8904,34.8462 l 15.5883,-26.0596 c -31.2138,-18.9598 -72.3678,-35.221 -134.1445,-30.1606 20.9177,-34.9284 13.3859,-99.1339 -111.9097,-6.9772 z"
       id="path1284"
       sodipodi:nodetypes="cccccc" />
  </g>
  <g
     inkscape:groupmode="layer"
     id="layer1"
     inkscape:label="txt">
    <text
       xml:space="preserve"
       style="font-style:normal;font-variant:normal;font-weight:normal;font-stretch:normal;font-size:81.3623px;line-height:1.25;font-family:Lavi;-inkscape-font-specification:Lavi;text-align:center;letter-spacing:0px;word-spacing:0px;text-anchor:middle;fill:#000000;fill-opacity:1;stroke:none;stroke-width:1.408;stroke-miterlimit:4;stroke-dasharray:none"
       x="316.34204"
       y="221.56798"
       id="text4246-3-2-2-6-3-7-9-3-3-56-9-3-20"
       transform="matrix(0.93887237,0,-0.13753791,1.0651075,0,0)"><tspan
         style="font-style:normal;font-variant:normal;font-weight:normal;font-stretch:normal;font-size:81.3623px;font-family:Lavi;-inkscape-font-specification:Lavi;stroke:#000000;stroke-width:1.408;stroke-miterlimit:4;stroke-dasharray:none;stroke-opacity:1"
         sodipodi:role="line"
         x="316.34204"
         y="221.56798"
         id="tspan334">?!!</tspan></text>
    <text
       xml:space="preserve"
       style="font-style:normal;font-variant:normal;font-weight:normal;font-stretch:normal;font-size:55.08750153px;line-height:1.25;font-family:Lavi;-inkscape-font-specification:Lavi;text-align:center;letter-spacing:0px;word-spacing:0px;text-anchor:middle;fill:#000000;fill-opacity:1;stroke:none;stroke-width:1.22416997"
       x="980.52393"
       y="277.9678"
       id="text4246-3-2-2-6-3-7-9-3-3-56-9-3-20-3"
       transform="scale(0.97385247,1.0268496)"><tspan
         style="font-style:normal;font-variant:normal;font-weight:bold;font-stretch:normal;font-size:55.08750153px;font-family:Lavi;-inkscape-font-specification:'Lavi Bold';stroke-width:1.22416997"
         sodipodi:role="line"
         x="980.52393"
         y="277.9678"
         id="tspan880">Kohteena</tspan><tspan
         style="font-size:55.08750153px;stroke-width:1.22416997"
         sodipodi:role="line"
         x="980.52393"
         y="346.82718"
         id="tspan888"><tspan
   style="font-style:normal;font-variant:normal;font-weight:bold;font-stretch:normal;font-family:Lavi;-inkscape-font-specification:'Lavi Bold';stroke-width:1.22416997"
   id="tspan67">oli hän</tspan>!</tspan></text>
    <text
       xml:space="preserve"
       style="font-style:normal;font-variant:normal;font-weight:normal;font-stretch:normal;font-size:48.80149841px;line-height:1.25;font-family:Lavi;-inkscape-font-specification:Lavi;text-align:center;letter-spacing:0px;word-spacing:0px;text-anchor:middle;fill:#000000;fill-opacity:1;stroke:none;stroke-width:1.08448005"
       x="1829.2006"
       y="208.50026"
       id="text4246-3-2-2-6-3-7-9-3-3-56-9-3-20-3-7"><tspan
         style="font-size:48.80149841px;stroke-width:1.08448005"
         sodipodi:role="line"
         x="1829.2006"
         y="208.50026"
         id="tspan880-3">Peruutin juuri</tspan><tspan
         style="font-size:48.80149841px;stroke-width:1.08448005"
         sodipodi:role="line"
         x="1829.2006"
         y="269.50214"
         id="tspan900">hänen <tspan
   style="font-style:italic;font-variant:normal;font-weight:normal;font-stretch:normal;font-family:Lavi;-inkscape-font-specification:'Lavi Italic'"
   id="tspan902">Lumousloitsunsa,</tspan></tspan><tspan
         style="font-size:48.80149841px;stroke-width:1.08448005"
         sodipodi:role="line"
         x="1829.2006"
         y="330.504"
         id="tspan916">joka on pitänyt hänet</tspan><tspan
         style="font-size:48.80149841px;stroke-width:1.08448005"
         sodipodi:role="line"
         x="1829.2006"
         y="391.50589"
         id="tspan914">nuoren näköisenä.</tspan></text>
    <text
       xml:space="preserve"
       style="font-style:normal;font-variant:normal;font-weight:normal;font-stretch:normal;font-size:45px;line-height:1.25;font-family:Lavi;-inkscape-font-specification:Lavi;text-align:center;letter-spacing:0px;word-spacing:0px;text-anchor:middle;fill:#000000;fill-opacity:1;stroke:none"
       x="487.57349"
       y="1903.157"
       id="text4246-3-2-2-6-3-7-9-3-3-56-9-3-20-5"><tspan
         style="font-size:45px"
         sodipodi:role="line"
         x="487.57349"
         y="1903.157"
         id="tspan943">Huomasin tuon</tspan><tspan
         style="font-size:45px"
         sodipodi:role="line"
         x="487.57349"
         y="1959.407"
         id="tspan81">loitsun heti</tspan><tspan
         style="font-size:45px"
         sodipodi:role="line"
         x="487.57349"
         y="2015.657"
         id="tspan924">kun tulin tänne.</tspan></text>
    <text
       xml:space="preserve"
       style="font-style:normal;font-variant:normal;font-weight:normal;font-stretch:normal;font-size:45px;line-height:1.25;font-family:Lavi;-inkscape-font-specification:Lavi;text-align:center;letter-spacing:0px;word-spacing:0px;text-anchor:middle;fill:#000000;fill-opacity:1;stroke:none"
       x="2057.9653"
       y="1952.1581"
       id="text4246-3-2-2-6-3-7-9-3-3-56-9-3-20-5-9"><tspan
         style="font-size:45px"
         sodipodi:role="line"
         x="2057.9653"
         y="1952.1581"
         id="tspan921">Joten siinä</tspan><tspan
         style="font-size:45px"
         sodipodi:role="line"
         x="2057.9653"
         y="2008.4081"
         id="tspan92">on ansaitsemaasi</tspan><tspan
         style="font-size:45px"
         sodipodi:role="line"
         x="2057.9653"
         y="2064.6582"
         id="tspan127">palautetta siitä, että</tspan><tspan
         style="font-size:45px"
         sodipodi:role="line"
         x="2057.9653"
         y="2120.9082"
         id="tspan74">pakotit Shichimin</tspan><tspan
         style="font-size:45px"
         sodipodi:role="line"
         x="2057.9653"
         y="2177.1582"
         id="tspan103">taistelemaan minua</tspan><tspan
         style="font-size:45px"
         sodipodi:role="line"
         x="2057.9653"
         y="2233.4082"
         id="tspan99">vastaan!</tspan></text>
    <text
       xml:space="preserve"
       style="font-style:normal;font-variant:normal;font-weight:normal;font-stretch:normal;font-size:60px;line-height:1.25;font-family:Lavi;-inkscape-font-specification:Lavi;text-align:center;letter-spacing:2px;word-spacing:0px;text-anchor:middle;fill:#000000;fill-opacity:1;stroke:none;stroke-width:1.32287002"
       x="371.23419"
       y="2215.2615"
       id="text4246-3-2-2-6-3-7-9-3-3-56-9-3-20-5-9-0"
       transform="scale(0.860916,1.1615535)"><tspan
         style="font-style:normal;font-variant:normal;font-weight:bold;font-stretch:normal;font-size:60px;font-family:Lavi;-inkscape-font-specification:'Lavi Bold';stroke-width:1.32287002"
         sodipodi:role="line"
         x="372.23419"
         y="2215.2615"
         id="tspan992-6">RÖYHKEÄÄ!</tspan></text>
    <text
       xml:space="preserve"
       style="font-style:normal;font-variant:normal;font-weight:normal;font-stretch:normal;font-size:58px;line-height:1.25;font-family:Lavi;-inkscape-font-specification:Lavi;text-align:center;letter-spacing:0px;word-spacing:0px;text-anchor:middle;fill:#000000;fill-opacity:1;stroke:none;stroke-width:1.30552995"
       x="330.97919"
       y="2751.8735"
       id="text4246-3-2-2-6-3-7-9-3-3-56-9-3-20-5-2"><tspan
         style="font-size:58px;stroke-width:1.30552995"
         sodipodi:role="line"
         x="330.97919"
         y="2751.8735"
         id="tspan1085">Kuinka</tspan><tspan
         style="font-size:58px;stroke-width:1.30552995"
         sodipodi:role="line"
         x="330.97919"
         y="2824.3735"
         id="tspan132">uskallat,</tspan></text>
    <text
       xml:space="preserve"
       style="font-style:normal;font-variant:normal;font-weight:normal;font-stretch:normal;font-size:50px;line-height:1.25;font-family:Lavi;-inkscape-font-specification:Lavi;text-align:center;letter-spacing:0px;word-spacing:0px;text-anchor:middle;fill:#000000;fill-opacity:1;stroke:none;stroke-width:1.30552995"
       x="320.56845"
       y="2934.1201"
       id="text4246-3-2-2-6-3-7-9-3-3-56-9-3-20-5-2-7"><tspan
         style="font-size:50px;stroke-width:1.30552995"
         sodipodi:role="line"
         x="320.56845"
         y="2934.1201"
         id="tspan959">ja vielä koko</tspan><tspan
         style="font-size:50px;stroke-width:1.30552995"
         sodipodi:role="line"
         x="320.56845"
         y="2996.6201"
         id="tspan139">koulukuntani</tspan><tspan
         style="font-size:50px;stroke-width:1.30552995"
         sodipodi:role="line"
         x="320.56845"
         y="3059.1201"
         id="tspan141">edessä!</tspan></text>
    <text
       xml:space="preserve"
       style="font-style:normal;font-variant:normal;font-weight:normal;font-stretch:normal;font-size:45px;line-height:1.25;font-family:Lavi;-inkscape-font-specification:Lavi;text-align:center;letter-spacing:0px;word-spacing:0px;text-anchor:middle;fill:#000000;fill-opacity:1;stroke:none"
       x="2149.2981"
       y="2544.0259"
       id="text4246-3-2-2-6-3-7-9-3-3-56-9-3-20-5-9-02"><tspan
         style="font-size:45px"
         sodipodi:role="line"
         x="2149.2981"
         y="2544.0259"
         id="tspan1175">Voit pitää</tspan><tspan
         style="font-size:45px"
         sodipodi:role="line"
         x="2149.2981"
         y="2600.2759"
         id="tspan145">itseäsi onnekkaana!</tspan></text>
    <text
       xml:space="preserve"
       style="font-style:normal;font-variant:normal;font-weight:normal;font-stretch:normal;font-size:45px;line-height:1.25;font-family:Lavi;-inkscape-font-specification:Lavi;text-align:center;letter-spacing:0px;word-spacing:0px;text-anchor:middle;fill:#000000;fill-opacity:1;stroke:none"
       x="2160.4646"
       y="2697.5908"
       id="text4246-3-2-2-6-3-7-9-3-3-56-9-3-20-5-9-02-2"><tspan
         style="font-size:45px"
         sodipodi:role="line"
         x="2160.4646"
         y="2697.5908"
         id="tspan970">Jos minulla</tspan><tspan
         style="font-size:45px"
         sodipodi:role="line"
         x="2160.4646"
         y="2753.8408"
         id="tspan147">olisi nyt ollut</tspan><tspan
         style="font-size:45px"
         sodipodi:role="line"
         x="2160.4646"
         y="2810.0908"
         id="tspan149">täydet voimani,</tspan><tspan
         style="font-size:45px"
         sodipodi:role="line"
         x="2160.4646"
         y="2866.3408"
         id="tspan982">olisin mennyt</tspan><tspan
         style="font-size:45px"
         sodipodi:role="line"
         x="2160.4646"
         y="2922.5908"
         id="tspan162">pitemmälle.</tspan></text>
  </g>
</svg>
