<?xml version="1.0" encoding="UTF-8" standalone="no"?>
<svg
   xmlns:dc="http://purl.org/dc/elements/1.1/"
   xmlns:cc="http://creativecommons.org/ns#"
   xmlns:rdf="http://www.w3.org/1999/02/22-rdf-syntax-ns#"
   xmlns:svg="http://www.w3.org/2000/svg"
   xmlns="http://www.w3.org/2000/svg"
   xmlns:xlink="http://www.w3.org/1999/xlink"
   xmlns:sodipodi="http://sodipodi.sourceforge.net/DTD/sodipodi-0.dtd"
   xmlns:inkscape="http://www.inkscape.org/namespaces/inkscape"
   id="svg2"
   version="1.1"
   inkscape:version="1.0.2-2 (e86c870879, 2021-01-15)"
   width="2481"
   height="663"
   sodipodi:docname="E34P00.svg">
  <metadata
     id="metadata8">
    <rdf:RDF>
      <cc:Work
         rdf:about="">
        <dc:format>image/svg+xml</dc:format>
        <dc:type
           rdf:resource="http://purl.org/dc/dcmitype/StillImage" />
        <dc:title />
      </cc:Work>
    </rdf:RDF>
  </metadata>
  <defs
     id="defs6" />
  <sodipodi:namedview
     pagecolor="#ffffff"
     bordercolor="#666666"
     borderopacity="1"
     objecttolerance="10"
     gridtolerance="10"
     guidetolerance="10"
     inkscape:pageopacity="0"
     inkscape:pageshadow="2"
     inkscape:window-width="1181"
     inkscape:window-height="905"
     id="namedview4"
     showgrid="false"
     inkscape:zoom="0.3484508"
     inkscape:cx="1077.046"
     inkscape:cy="188.43492"
     inkscape:window-x="-2"
     inkscape:window-y="26"
     inkscape:window-maximized="0"
     inkscape:current-layer="layer1"
     inkscape:document-rotation="0" />
  <g
     inkscape:groupmode="layer"
     id="layer2"
     inkscape:label="artwork"
     sodipodi:insensitive="true">
    <image
       sodipodi:absref="/home/peppercarrot/webcomics/"
       xlink:href="../gfx_Pepper-and-Carrot_by-David-Revoy_E34P00.png"
       y="0"
       x="0"
       id="image10"
       height="663"
       width="2481" />
  </g>
  <g
     inkscape:groupmode="layer"
     id="layer1"
     inkscape:label="txt"
     style="display:inline">
    <g
       transform="translate(-9.3359506,-6.6007728)"
       style="display:inline;vector-effect:none;fill:#3c0000;fill-opacity:1;stroke:none;stroke-width:2.5;stroke-linecap:butt;stroke-linejoin:miter;stroke-miterlimit:4;stroke-dasharray:none;stroke-dashoffset:0;stroke-opacity:1"
       id="g131">
      <path
         inkscape:connector-curvature="0"
         id="path232483"
         d="m 1370.5351,345.15564 c -4.4355,-0.10425 -6.0971,3.05522 -9.0235,7.41995 -2.7388,4.08435 -10.5596,21.299 -20.4388,38.43151 1.9536,3.90048 -2.4013,7.77084 -6.4144,10.57274 -4.9731,7.75359 -10.2626,14.87947 -15.5465,20.03113 -4.7497,4.63048 -12.761,8.53852 -12.2851,3.64203 0.7506,-7.72447 1.4744,-19.12884 1.7667,-39.6274 -5.2367,1.33185 -3.2077,-2.1388 0.054,-5.84355 0.044,-4.58172 0.082,-9.4383 0.082,-14.89424 0,-7.48276 -1.6866,-17.31321 -6.6046,-17.31321 -11.4013,0 -17.9453,1.14377 -37.0453,9.94762 -5.2024,2.39778 -1.7915,3.05172 2.2559,2.01127 8.0003,-2.05678 15.7793,-1.2496 15.7912,2.50049 0.1405,45.51158 -5.898,73.89298 -5.898,88.79472 0,10.26132 8.4527,14.57871 14.5409,14.56811 10.1082,-0.0199 21.6063,-9.39986 30.4137,-18.5091 -0.016,-2.97013 0.094,-5.91537 0.3805,-8.77891 2.6578,1.413 3.4362,2.31168 4.2943,3.75075 25.9297,-29.33072 36.1014,-56.1352 37.5075,-57.91907 3.4147,-4.33277 3.5374,-1.97565 3.805,5.68047 0.7311,20.91499 -0.434,36.47948 -2.8266,58.43547 -1.275,11.70034 -4.7569,24.2915 -7.1754,28.83722 -1.253,2.35482 2.8911,2.17901 7.719,-4.97381 2.5595,-0.0957 4.2046,-4.12383 7.3656,-4.40305 1.7327,-0.15306 4.1112,-1.94616 5.9794,-6.03379 3.6203,0.40522 6.2565,-8.10345 7.4199,-14.86707 0.6885,-4.00202 1.2795,-8.35044 1.7938,-12.88298 -5.7775,1.05839 -5.9175,-3.64455 0.7883,-7.69174 2.7028,-29.61309 2.4733,-63.46694 2.4733,-63.98004 0,-9.58614 -14.8504,-16.75687 -21.1726,-16.90552 z"
         style="color:#000000;display:inline;overflow:visible;visibility:visible;vector-effect:none;fill:#3c0000;fill-opacity:1;fill-rule:nonzero;stroke:none;stroke-width:2.5;stroke-linecap:butt;stroke-linejoin:miter;stroke-miterlimit:4;stroke-dasharray:none;stroke-dashoffset:0;stroke-opacity:1;marker:none;enable-background:accumulate" />
      <path
         inkscape:connector-curvature="0"
         id="path4067"
         d="m 225.87891,221.19141 c -26.2539,-0.0865 -57.42373,7.47037 -78.27539,14.13281 -5.8787,1.87832 -9.77274,6.36206 -9.4043,10.49023 2.08783,23.39312 2.16182,46.44412 1.22266,67.51367 2.63158,5.47781 2.91858,8.79735 -0.81446,14.37891 -1.86974,27.62239 -5.21331,50.76852 -7.41992,65.03906 -0.81527,5.27236 -6.11091,5.10809 -11.49805,4.94727 -5.14922,-0.15261 -14.69078,2.01214 -15.11133,8.85937 -0.47364,7.71168 5.37356,22.04297 19.51563,22.04297 2.70045,0 5.57532,-0.51564 8.47852,-1.43945 -2.71081,-11.24829 3.89062,-9.20465 12.44921,-6.49609 8.64391,-6.37275 15.58764,-15.91562 16.36133,-26.20118 0.33279,-4.42401 0.63836,-8.86544 0.92383,-13.31836 -4.56418,-1.25454 -7.43325,-2.82056 -6.30469,-4.86523 0.87276,-1.58123 2.23997,-2.21152 6.68555,-1.25 2.39877,-40.50559 2.81876,-80.46962 1.06055,-103.22656 -0.27708,-3.5862 0.30364,-6.40889 3.88672,-8.04492 7.53953,-3.44255 15.42557,-7.01598 23.29296,-9.97461 3.7e-4,-3.60405 0.92467,-5.50522 3.125,-8.07227 1.81109,2.0617 2.45575,3.92354 2.88086,5.92383 13.01166,-4.2935 25.7209,-6.28899 36.47461,-2.41797 3.17042,1.14124 3.07677,4.35226 3.3711,8.37109 0.70026,9.56184 1.12432,20.46461 1.30273,32.15235 7.30475,0.7747 3.67236,9.6527 1.84961,13.7539 -0.66448,-0.47664 -1.25259,-0.97893 -1.76758,-1.46875 0.0256,30.73592 -1.47222,65.36321 -4.1582,95.34571 -1.84945,0.71223 -6.68195,3.28203 -7.39258,6.35937 -2.65956,11.5171 -0.6117,17.23109 4.24024,19.65039 7.19952,0.59297 23.80387,1.42855 28.21093,-4.89062 6.46916,-1.97787 20.37977,-2.80128 18.83594,-8.18164 8.96927,-3.5125 16.39853,-5.34411 19.73242,-7.09375 5.41434,-2.84148 -1.86326,-2.45701 -4.89258,-2.41992 -10.36338,0.12678 -27.06253,1.73217 -35.57812,-2.88086 0.52986,-6.20646 1.19727,-14.71121 1.90234,-24.05274 -3.8742,-4.57065 -6.97985,-9.0343 0.73438,-9.78515 2.85794,-39.87788 5.96797,-95.75342 4.18555,-129.40039 -0.39905,-7.00764 -12.76469,-10.36831 -17.5293,-11.44336 -0.37756,-0.0852 -0.75976,-0.16477 -1.14258,-0.24414 -3.97684,2.47802 -8.02498,2.94931 -11.14258,-1.49415 -2.69324,-0.19334 -5.46701,-0.28952 -8.29101,-0.29882 z m 1455.01559,3.07031 c -17.024,-0.15117 -32.8937,2.51964 -41.9648,8.37109 -0.7987,5.90591 -2.466,8.39415 -7.9629,10.13867 -16.7929,39.7325 -29.2624,85.73603 -45.1992,111.08204 0,0 -12.6278,-61.14563 -30.2774,-97.84571 -2.239,0.90843 -4.4074,0.84457 -7.0937,-1.57617 0.6219,-2.79959 1.7384,-4.30629 3.207,-5.95312 -0.8055,-1.43847 -1.6232,-2.81792 -2.4453,-4.13086 -7.0777,-11.30039 -16.7381,-17.36565 -21.5,-17.04102 -13.302,0.90681 -29.1524,2.84969 -42.1816,8.83203 -4.4636,2.0494 -7.9545,6.31506 -2.9629,5.30078 14.9675,-3.04129 19.3855,6.93967 21.498,9.4043 4.4598,21.3429 2.2584,71.15043 -0.6523,110.51172 3.8918,4.47567 3.9163,6.3911 4.2129,8.04492 0.2858,1.5901 -2.2084,0.94747 -4.7559,-0.59961 -1.2504,15.87952 -2.5702,29.54975 -3.5059,37.9707 -9.1457,-0.36649 -13.8614,6.24621 -13.8613,9.6211 0,5.70529 8.2443,13.72461 11.9863,13.72461 7.931,0 18.7426,-1.72997 28.0489,-4.18555 1.4803,-3.83494 5.2539,-7.33385 11.0351,-3.58594 3.7353,-1.52446 6.5582,-3.11095 7.7461,-4.64843 8.8353,-0.80471 10.8386,-6.81352 15.0567,-7.85547 4.4219,-1.09216 5.7619,-5.41569 -0.9785,-4.04883 -8.8148,1.78758 -18.8027,2.87878 -25.9024,1.71289 1.8914,-28.84103 2.8368,-110.1329 0,-135.19141 11.4418,16.88532 19.4391,36.08164 25.3047,55.03907 6.1423,0.0104 8.7782,1.69786 3.9961,7.96289 -0.4431,0.58068 -0.836,1.08548 -1.2246,1.52148 8.8079,31.91507 12.0935,61.87391 16.2539,77.32617 1.3368,5.01482 4.397,2.19467 5.7344,0.18946 10.7512,-17.16993 19.7246,-33.54294 27.207,-48.51368 -0.1248,-0.0124 -0.2255,-0.0136 -0.3535,-0.0273 -3.5685,-10.70519 -0.8625,-12.79475 4.8926,-9.21484 20.2507,-42.43368 27.5859,-71.50782 27.5859,-71.50782 4.6811,33.86163 1.7712,91.52194 -0.2168,120.83789 -23.0051,-3.04161 -18.0714,7.81055 -17.2852,11.60547 1.2936,6.23751 7.8133,12.04102 11.0079,12.04102 6.2886,0 24.9389,-0.19778 26.5527,-6.27734 5.0684,-1.94712 13.273,-6.13006 13.0742,-8.45313 3.5827,-1.99626 8.774,-2.62476 11.7148,-4.91992 6.3262,-4.93786 3.0685,-4.99368 1.4122,-4.75586 -12.2677,1.76059 -15.4424,1.26594 -21.8516,0.625 0.8992,-5.78267 2.1586,-16.54522 3.3965,-29.97852 -2.0199,-2.28652 -3.6058,-4.35644 -3.3418,-6.33398 0.3281,-2.45538 3.0642,-4.85222 4.5644,-8.23438 1.5899,-19.94316 2.9814,-43.33185 3.3711,-65.12109 -2.7237,-2.97691 -4.6419,-6.07561 0.1094,-13.75391 0,-0.009 3e-4,-0.0182 0,-0.0273 -0.051,-14.39638 -0.6687,-27.50877 -2.0937,-37.64258 2.4248,-2.40159 3.7723,-2.49508 7.3378,-2.14648 8.0477,0.78687 12.7358,13.79051 6.7696,17.01367 -2.8279,1.52739 0.6751,1.74276 2.0918,1.14062 4.3536,-1.85036 8.3412,-2.06303 8.7246,-9.1582 4.6449,-1.7752 2.0957,-6.08282 0.789,-11.93164 4.7797,-3.21893 -9.765,-15.29255 -17.0703,-15.35742 z m -1250.76364,79.7168 c -10.07986,0.23775 -26.71015,8.19789 -32.42383,12.15039 -1.36224,0.94232 -2.6752,2.3683 -0.38086,2.66211 7.67825,0.98329 15.95734,-4.46195 17.09571,8.53515 2.07607,23.70361 2.31169,51.57358 1.92968,75.28711 -9.37472,1.68957 -20.35742,5.08079 -20.35742,9.29492 0,8.82291 10.13412,12.7604 19.75977,13.99805 -0.59794,17.66567 -1.33203,29.65234 -1.33203,29.65234 -12.14221,1.56245 -13.29603,5.91801 -13.91602,9.94727 -0.66334,4.31089 1.65441,14.57974 7.12109,14.70312 8.83854,0.19949 34.28901,-0.40016 38.62305,-5.97851 7.29516,-2.1246 18.15524,-5.18355 19.16016,-10.2207 4.84417,-0.98783 8.17555,-1.898 10.70898,-2.85352 4.6984,-1.77207 2.31633,-3.70453 10.27344,-6.57617 2.63286,-0.95018 5.72303,-5.77142 -1.11328,-3.61524 -6.65204,2.0981 -15.15255,2.71901 -24.05469,2.93555 -4.27585,4.60622 -9.68243,5.9323 -14.75781,0.18945 -3.96068,0.046 -7.85914,0.10942 -11.55078,0.32618 0,-3.37546 1.03775,-14.90638 2.22851,-29.89649 33.9443,-8.17856 74.38867,-42.09067 74.38867,-74.17187 0,-21.10205 -12.48194,-38.59789 -41.14843,-41.28516 -7.58498,4.54105 -13.86764,4.11519 -13.94336,-0.19141 -5.39671,0.32186 -11.22638,1.06256 -17.50391,2.28321 -0.75939,-5.53467 -3.93014,-7.29078 -8.80664,-7.17578 z m 463.38086,0 c -8.78739,-0.11759 -23.59206,3.82998 -30.06055,7.96484 5.46752,1.21501 13.69798,3.17079 13.67188,8.83203 -0.0184,4.07337 -0.0335,8.08007 -0.0547,12.0957 2.67218,1.08487 4.82082,2.15944 5.43555,3.56055 0.70545,1.6086 -0.61906,3.67038 -5.51758,6.79492 -0.0287,2.84634 -0.0612,5.70451 -0.10938,8.61524 -14.30358,0.96256 -28.1755,1.05235 -42.66992,2.03906 0.72147,-8.03517 1.16718,-15.88543 1.08594,-22.69531 -0.18383,-15.4118 -3.79906,-22.88069 -10.57227,-25.27735 -6.98573,-2.47185 -27.28427,4.22976 -35.79492,10.46485 10.29144,-0.6218 17.85032,-1.65186 18.31836,3.50586 0.42621,4.69666 0.68152,9.98306 0.81641,15.65625 1.7586,-1.08138 3.4017,-1.48371 4.59179,-0.78907 3.86022,2.25319 -0.40295,9.25043 -4.51172,14.4043 -0.0924,11.43792 -0.55608,23.78113 -1.22265,35.95899 1.74052,3.07943 3.12526,6.21781 2.66406,9.59374 -0.38766,2.83761 -2.09655,5.21893 -3.75,7.58399 -0.32387,4.63817 -0.65454,9.20754 -1.00586,13.5625 -0.51912,6.43513 -1.40094,14.51195 -3.04492,20.51953 -2.51706,9.198 1.57154,6.13236 4.72852,1.19531 2.26444,-3.54124 1.20969,-10.80773 2.58203,-11.63281 3.69864,-2.22373 7.08233,-1.74337 8.72461,-9.45703 5.29019,-2.1726 9.61084,-7.89242 10.16601,-12.58399 0.65132,-5.50411 1.90326,-14.06955 3.20703,-23.83593 2.72969,-0.11454 5.67802,-0.26911 8.64258,-0.43555 0.40283,-5.28384 1.69747,-10.28771 4.18555,-10.4375 3.01185,-0.18131 2.61309,5.8581 2.17383,10.0293 3.84301,-0.28698 7.44417,-0.62538 10.24804,-1.06055 6.78289,-1.05267 5.94936,-2.56367 6.65821,-4.81055 5.02626,-0.98841 9.27008,-2.46363 13.31836,-3.72265 -0.47009,13.39311 -1.28315,28.12518 -2.77344,45.82422 -0.44687,5.30874 -0.94174,9.49077 -1.4668,15.19336 -0.7185,7.80016 3.82537,9.19312 6.0332,-3.64258 0.36808,-2.13956 1.41422,-7.94853 5.70899,-10.00196 5.4369,-2.59955 4.79761,-6.94359 5.67969,-9.1582 3.85198,-0.0536 9.16794,-2.63021 10.4375,-14.02539 0.16612,-1.49135 0.34541,-3.20431 0.51562,-4.7832 -1.90882,0.005 -3.84747,-0.3412 -5.87109,-1.27735 1.21894,-2.19505 4.18487,-6.6501 7.0664,-10.41015 2.79524,-29.19729 4.7917,-64.86681 -1.98242,-71.75391 -1.06517,-1.08288 -3.32285,-1.56431 -6.25195,-1.60351 z m 926.05278,0 c -10.08,0.23775 -26.7121,8.19789 -32.4258,12.15039 -1.3623,0.94232 -1.0724,3.10797 1.1972,2.66211 5.5956,-1.09924 14.3813,-4.46195 15.5196,8.53515 0.9941,11.35091 1.536,23.66404 1.8203,36.01172 2.6329,3.27779 4.4356,6.0704 2.3633,12.33984 -0.6659,2.01448 -1.3774,3.28049 -2.1192,3.9961 0.035,7.87423 -0.02,15.61318 -0.1367,22.93945 -9.3714,1.69044 -20.3301,5.08296 -20.3301,9.29492 0,8.83102 10.1262,12.76425 19.7598,13.99805 -0.5979,17.66585 -1.3574,29.65234 -1.3574,29.65234 -12.1423,1.56245 -13.296,5.91801 -13.916,9.94727 -0.6634,4.31089 3.614,9.32961 13.916,14.70312 3.91,-0.32585 9.9548,-0.68369 16.416,-1.29101 -0.7601,0.34595 -1.5214,0.69205 -2.3496,1.03515 10.3114,2.29143 23.8165,-0.42429 33.9375,-5.55273 -1.1562,-0.77076 -2.224,-1.42031 -3.2344,-1.98047 1.2917,-0.99238 2.0315,-2.1191 2.0059,-3.4082 4.8202,-1.99267 12.958,-3.67351 14.1328,-6.93164 3.865,-2.24172 4.4935,-4.74188 11.0625,-7.5 2.5807,-1.08357 10.5314,-6.55993 3.5058,-5.13672 -20.6304,4.17924 -33.7891,2.47798 -50.3632,3.45117 0,-3.35619 0.53,-14.64752 1.0859,-29.29883 7.193,-2.06962 14.606,-5.22141 21.7988,-9.21484 -1.0046,-3.28597 -2.1232,-7.49749 -2.4746,-9.07813 3.5767,1.50028 4.8789,3.73209 6.5508,6.6875 24.276,-14.72107 45.0644,-38.64206 45.0644,-61.64257 0,-16.11863 -7.2956,-30.14918 -23.5117,-37.07422 -12.2134,2.30954 -9.0915,0.93974 -10.4082,-3.17969 -10.3019,-2.08377 -23.1189,-1.97014 -38.7051,1.06055 -0.7594,-5.53445 -3.9282,-7.29078 -8.8046,-7.17578 z m -1066.43364,1.0332 c -4.43513,-0.10426 -6.06951,3.05519 -8.99609,7.41992 -2.63274,3.92652 -8.23524,19.41841 -16.11719,35.38672 4.19836,4.75757 -2.14543,9.632 -6.84961,12.74805 -4.30316,7.34537 -9.05987,14.13622 -14.21485,19.16211 -4.74945,4.63046 -12.76089,8.50977 -12.28515,3.61328 0.75047,-7.72175 1.47322,-19.12208 1.76562,-39.59961 -5.23702,1.33195 -3.20769,-2.16606 0.0547,-5.8711 0.0433,-4.57497 0.082,-9.41934 0.082,-14.86718 0,-7.48274 -1.68746,-17.3125 -6.60547,-17.3125 -11.40129,0 -17.94473,1.1434 -37.04492,9.94726 -5.20217,2.39778 -1.79146,3.05217 2.25586,2.01172 8.00036,-2.05677 15.77936,-1.25008 15.79102,2.5 0.0911,29.45342 -2.3848,51.61722 -4.15821,67.70313 5.29549,3.47622 4.12316,9.15533 -1.27734,12.44921 -0.27801,3.2409 -0.46094,6.13609 -0.46094,8.61524 0,10.26132 8.45269,14.60632 14.54102,14.5957 10.10449,-0.0199 21.6072,-9.40467 30.41211,-18.50976 -0.0161,-2.97927 0.0936,-5.90719 0.38086,-8.7793 2.63819,1.40257 3.41714,2.30429 4.26758,3.72461 25.87391,-29.32922 30.9105,-56.13613 32.3164,-57.91992 3.41475,-4.33277 3.53708,-1.94715 3.80469,5.70898 0.73111,20.91498 -0.43361,36.47956 -2.82617,58.43555 -1.27503,11.70034 -2.80027,20.59489 -5.21875,25.14062 -1.25303,2.35481 -2.32717,6.28312 3.58789,1.95703 3.83457,-2.80449 4.61674,-10.10025 7.31054,-15.57421 3.0016,1.78227 6.26022,-6.69945 8.31641,-10.46485 3.08367,-0.0485 7.23663,-4.86155 8.18164,-10.35547 5.40968,-31.44965 4.18555,-76.05963 4.18555,-76.69922 0,-9.58614 -14.87683,-15.01736 -21.19922,-15.16601 z m 1468.31444,0 c -4.4355,-0.10426 -6.0695,3.05519 -8.9961,7.41992 -0.724,1.07976 -1.6928,3.10994 -2.8535,5.70703 1.2358,8.78779 -2.4256,16.16869 -7.582,17.42188 -6.6903,15.05684 -15.838,33.53479 -26.7442,44.16797 -4.7495,4.63046 -12.7608,8.50977 -12.2851,3.61328 0.9736,-10.0174 1.9023,-26.04327 1.9023,-60.33789 0,-7.48274 -1.6875,-17.3125 -6.6055,-17.3125 -11.4013,0 -17.9448,1.1434 -37.0449,9.94726 -5.2022,2.39778 -1.7916,3.05217 2.2559,2.01172 8.0001,-2.05677 15.7793,-1.25008 15.791,2.5 0.029,9.44954 -0.2308,18.11575 -0.625,26.11914 3.3706,3.59266 5.3989,7.83454 5.4082,9.45899 0.023,3.91446 -2.8461,3.32969 -6.0332,1.38671 -1.7321,24.5836 -4.6484,41.44929 -4.6484,51.80274 0,10.26132 8.4527,14.60632 14.541,14.5957 9.0195,-0.0178 19.1676,-7.49137 27.5058,-15.57422 -0.8739,-3.12824 -1.4357,-6.2345 -0.9238,-9.59375 0.295,-1.93662 3.0557,1.86176 5.2461,5.19141 0.988,-1.05184 1.9515,-2.11204 2.8535,-3.12695 26.2243,-29.5061 31.2824,-56.58787 32.6953,-58.38086 3.4149,-4.33277 3.5392,-1.94715 3.8067,5.70898 0.7311,20.91498 -0.4354,36.47956 -2.8282,58.43555 -1.2745,11.70034 -2.7982,20.59489 -5.2167,25.14062 -1.253,2.35481 -2.329,6.28312 3.5859,1.95703 3.8346,-2.80449 4.6188,-10.10025 7.3125,-15.57421 3.0017,1.78227 6.2603,-6.69945 8.3164,-10.46485 3.0837,-0.0485 7.2367,-4.86155 8.1816,-10.35547 0.7224,-4.19865 1.3158,-8.6498 1.8203,-13.18164 -4.4746,-3.29338 -2.1883,-7.94779 1.1954,-13.15429 1.8311,-25.42951 1.1696,-49.89085 1.1699,-50.36329 0,-9.58614 -14.8791,-15.01736 -21.2012,-15.16601 z m -1610.08202,0.65234 c -2.86938,0.05 -4.82386,1.03945 -4.7832,3.28906 0.17899,9.90547 0.0244,20.46625 -0.32617,30.90235 1.35046,0.2996 2.35833,0.76443 3.5332,2.71875 -0.98526,2.21681 -1.9333,5.72453 -3.99609,8.50586 -0.0883,1.9307 -0.1746,3.89351 -0.27149,5.78906 -15.54707,7.15179 -38.56774,18.84945 -47.3457,2.20313 -2.84463,-5.39445 4.01334,-18.97703 4.34765,-36.82813 0.32012,-17.09269 -4.18431,-18.14058 -18.61718,-13.83398 -4.5978,1.37198 -19.01022,4.8948 -22.23242,6.46679 -4.49082,2.19093 -3.64771,3.12675 -0.73438,2.93555 3.73389,-0.24506 8.59343,-0.75194 10.87109,0.082 4.36578,1.59857 4.32227,5.65377 4.32227,8.48047 0,4.84084 -0.0852,8.61385 -0.24414,11.66016 4.40176,4.60657 9.40984,11.64221 0.16211,13.69726 -0.54038,-1.24996 -0.97791,-2.36768 -1.33203,-3.42383 -0.77252,3.79723 -1.67642,5.91885 -2.20118,11.9043 -1.3681,15.60551 10.75488,24.92383 17.64063,24.92383 1.88227,0 4.1701,-0.0515 6.6582,-0.16406 1.41972,-1.79917 3.89338,-4.04125 7.25782,-5.43555 0.18092,2.17122 2.54431,2.66585 0.89648,4.86523 13.8783,-1.28159 29.98454,-4.50909 31.82617,-11.63281 2.12307,-1.12984 6.33435,-2.19781 6.46875,-6.35937 0.59605,-0.31182 1.20011,-0.62206 1.79492,-0.97852 -1.47124,24.99041 -3.42578,44.54688 -3.42578,44.54688 -2.6954,12.86336 1.82083,17.79122 13.12696,15.00195 5.78899,-1.42817 22.17909,-5.12724 23.89062,-12.20313 2.93499,-0.28753 6.90293,-3.69306 8.72461,-7.14843 0.59759,-1.13352 8.04764,-4.98525 9.48633,-6.35938 1.30155,-1.24313 1.11376,-4.11822 -6.92969,-1.27734 -10.23819,3.61602 -25.10682,7.83975 -24.24414,1.60351 0.60338,-4.36174 2.54112,-10.53919 4.21289,-21.44531 -4.39227,-3.66399 -5.16462,-8.41953 -5.76367,-11.11523 2.81312,1.0586 4.77639,2.55411 6.66016,4.45703 1.41985,-12.07046 2.34122,-28.87068 1.35937,-53 -0.28249,-6.94238 -13.46011,-12.9559 -20.79297,-12.82813 z m 334.98438,0.082 c -10.32865,-0.0501 -19.38474,3.19699 -28.89063,8.72461 -4.25153,2.47253 -1.68927,4.11454 2.63672,3.64063 5.93283,-0.64992 11.97336,-1.20383 12.31055,7.44726 0.61934,15.89821 0.94987,35.64907 0.16406,61.7793 3.6549,7.75546 9.59043,22.41869 -0.51758,13.7793 -0.23482,5.63365 -0.50252,11.4694 -0.8418,17.66797 -0.38843,7.08948 -1.1558,12.23687 -1.63086,17.55664 -0.38652,4.3226 5.90268,-0.0926 5.95313,-2.85352 0.0521,-2.8313 4.56161,-3.86321 5.49023,-10.8164 3.4893,4.39866 6.23961,-3.4741 7.9629,-11.60743 0.89391,-4.21726 3.73537,-7.6233 4.02343,-9.91992 0.86851,-6.91487 1.61361,-13.29903 2.22852,-19.32422 4.10916,6.02335 8.92926,13.75055 14.13281,20.95508 2.65661,1.32477 5.90995,2.75654 9.45898,4.97461 1.00933,1.92362 1.12516,5.02595 1.00391,7.71875 5.19486,5.22635 10.55006,8.75195 15.79102,8.75195 6.99645,0 24.96435,-7.87254 22.64065,-12.96484 4.3636,-4.10358 7.3414,-9.88713 5.0019,-11.14453 2.5255,-2.55149 4.9306,-6.35592 7.4199,-11.93164 1.7008,-3.81031 0.8192,-6.51951 -0.3261,-4.70117 -3.449,5.47544 -21.91,20.24804 -28.5391,20.24804 -5.59973,0 -18.69298,-20.20091 -26.06444,-33.24023 3.28108,-3.04667 6.58127,-7.06856 9.86523,-11.44141 -1.66642,-9.70494 1.27483,-9.79527 4.97461,-6.84961 9.8011,-13.92626 19.1119,-28.63537 26.3633,-28.29297 2.586,4.03569 -1.0915,15.15041 -7.2285,15.4375 -3.387,0.15843 -3.675,3.12446 0.053,2.82618 2.9767,-0.23815 5.7401,-1.08053 8.1816,-2.39258 2.2393,2.06499 5.4789,-2.24051 6.0606,-3.47852 0.5072,-1.07977 1.9236,-1.41142 2.7461,-3.07031 2.5933,-5.2318 3.65,-8.9569 3.5879,-10.6543 -0.3081,-8.27179 -7.288,-13.50781 -15.791,-13.50781 -18.23798,0 -17.98259,1.82024 -39.98051,25.19336 -3.55079,3.7724 -14.80688,19.87221 -17.15039,20.11328 0.20038,-3.51647 0.35939,-6.9253 0.48828,-10.27344 -0.0265,0.0365 -0.0551,0.0732 -0.082,0.10938 -2.06136,-11.33568 -9.8013,-17.32036 0.54492,-20.76563 0.0241,-3.08227 0.0273,-6.16381 0.0273,-9.29492 -1.3087,-6.135 -7.51503,-8.37636 -12.06836,-8.39844 z m 991.50004,0 c -10.3288,0 -19.3848,3.19699 -28.8907,8.72461 -4.2517,2.47253 -1.6893,4.11454 2.6368,3.64063 5.9328,-0.64992 12.3125,-1.21039 12.3124,7.44726 0,10.52676 -0.5152,36.98492 -2.2031,64.17188 1.8919,4.24123 3.9074,9.39094 3.9961,12.12109 0.073,2.23422 -1.1732,2.81863 -4.8105,-0.082 -1.2959,17.0829 -3.1072,33.58657 -5.5996,45.66211 -0.9887,4.79032 5.5537,-0.16435 7.9902,-10.76367 1.4417,-0.37176 5.623,1.9782 8.8066,-6.74024 2.3983,5.8e-4 5.6921,-0.83701 6.3868,-3.3164 1.0699,-3.81879 5.0204,-2.06107 5.4375,-4.29297 1.9041,-10.19222 2.9821,-24.31552 3.5859,-39.35547 3.9319,5.83593 8.4679,13.05965 13.3457,19.8125 2.6601,1.32748 5.9284,2.75095 9.4863,4.97461 1.0091,1.92362 1.1271,5.02595 1.0059,7.71875 5.1965,5.22523 10.5485,8.75195 15.791,8.75195 5.161,0 13.371,-3.2788 17.9922,-7.01367 1.7738,-1.43362 1.6573,-3.12901 2.4453,-4.5918 1.103,-2.04739 2.7299,-3.80509 2.7734,-5.43554 6.2668,-5.32109 6.2826,-7.46928 5.0547,-8.94336 0.873,-1.74735 3.2137,-3.22973 4.0235,-4.83789 1.8766,-3.727 -1.5628,-3.45936 -3.0723,-1.92969 -5.1882,5.258 -15.5215,13.12891 -22.1504,13.12891 -5.2358,0 -18.468,-21.30728 -26.2285,-34.81836 3.0427,-2.94791 6.1176,-6.68621 9.1601,-10.73438 -1.6638,-9.69039 1.2535,-9.78164 4.9454,-6.84961 9.8136,-13.92919 19.1356,-28.63562 26.3925,-28.29297 2.5859,4.03569 -1.0933,15.15041 -7.2304,15.4375 -3.3871,0.15843 -3.6734,3.12446 0.055,2.82618 11.0076,-0.88061 19.0253,-10.06322 19.0253,-20.51954 0,-10.73179 -5.7392,-12.58398 -14.2421,-12.58398 -18.2379,0 -26.6797,13.99793 -48.6778,37.37109 -3.9526,4.19928 -6.6852,8.59593 -9.2422,7.88086 0.049,-5.00946 0.077,-9.83285 0.082,-14.51367 -2.5473,-7.92406 -6.6122,-12.66932 -0.027,-15.68164 -0.01,-3.39754 -0.025,-7.18988 -0.025,-9.97461 0,-5.97253 -4.3938,-8.39844 -10.3281,-8.39844 z m -1581.80668,0.10743 c -0.64727,-0.008 -1.29266,-0.004 -1.95704,0.0273 -5.79926,0.27626 -11.11244,1.21497 -15.95312,2.74609 -1.79297,3.29047 -3.98103,6.28945 -6.2793,7.01172 -1.87282,0.58856 -3.8397,-0.356 -6.00586,-1.27734 -18.49713,11.93255 -27.07075,35.17545 -27.20703,62.32226 -0.0584,11.63606 5.17069,21.97729 13.3711,29.81641 1.80088,-0.78799 4.25983,-1.19727 7.50195,-1.19727 0.33827,2.53512 0.31502,4.95134 0.43555,7.44727 17.41365,11.16526 42.19115,13.19247 61.3164,-0.8418 3.64879,-2.67763 4.20088,-3.53727 4.48438,-10.08398 9.72746,-4.11421 5.57022,-7.86426 13.31836,-12.09375 2.48284,-1.35535 5.15658,-7.87922 2.36328,-6.14258 -17.87108,11.11122 -33.75535,19.00893 -49.60157,17.80078 -14.08055,-1.0734 -27.26911,-15.1592 -26.33593,-24.73242 l 26.28125,-7.47461 c 1.78148,-5.36414 5.98141,-5.35748 12.0957,-3.45117 l 15.27344,-4.34961 c 7.33956,-2.09106 9.37251,-11.81539 9.21484,-18.04688 -0.45991,-18.17458 -12.25114,-37.2272 -32.3164,-37.48046 z m 1931.66798,0 c -8.9235,0.63207 -17.0097,3.71535 -25.4395,8.61718 -4.2517,2.47253 -1.6891,4.11454 2.6367,3.64063 5.933,-0.64992 11.9754,-1.20383 12.3126,7.44726 0.4755,12.21024 0.7571,26.77638 0.5156,44.65625 2.2032,1.78489 3.9816,4.4365 3.75,8.9961 -0.1807,3.5621 -1.0393,12.33416 -4.4844,18.72656 -0.2582,6.60025 -0.5735,13.44816 -0.9785,20.84766 -0.3885,7.08948 -1.1559,12.23687 -1.6309,17.55664 -0.3863,4.3226 5.9027,-0.0926 5.9532,-2.85352 0.052,-2.8313 4.5616,-3.86321 5.4902,-10.8164 3.4893,4.39866 6.2394,-3.4741 7.9629,-11.60743 0.8937,-4.21726 3.7353,-7.6233 4.0234,-9.91992 0.8697,-6.92496 1.6131,-13.31872 2.2285,-19.35156 4.1619,6.10302 9.0676,13.93691 14.3496,21.22656 4.2369,-1.82645 6.6387,-1.99616 7.7461,-0.95117 1.4762,1.393 0.6894,4.95781 -0.9238,9.70312 6.2449,7.20195 12.8169,12.44922 19.2168,12.44922 6.996,0 24.9643,-7.87254 22.6406,-12.96484 4.3636,-4.10358 7.3395,-9.88713 5,-11.14453 2.5254,-2.55149 4.9309,-6.35592 7.4199,-11.93164 1.7009,-3.81031 0.8191,-6.51951 -0.3261,-4.70117 -3.4491,5.47544 -20.1701,20.24804 -26.7989,20.24804 -5.156,0 -19.5519,-20.02165 -27.6132,-33.42968 3.854,-3.62111 7.7636,-8.5269 11.6054,-13.80665 -3.4985,-3.1227 -3.8112,-7.33767 0.8692,-8.58984 1.4899,0.39391 2.8117,0.98438 3.9961,1.68555 9.1309,-13.09424 17.7408,-26.00477 24.5429,-25.6836 2.586,4.03569 -1.0934,15.15041 -7.2304,15.4375 -3.387,0.15843 -3.6734,3.12446 0.055,2.82618 2.9768,-0.23815 5.7384,-1.08053 8.1796,-2.39258 2.2396,2.06499 5.4809,-2.24051 6.0625,-3.47852 0.5072,-1.07977 1.9216,-1.41142 2.7442,-3.07031 2.5934,-5.2318 3.6503,-8.9569 3.5879,-10.6543 -0.3075,-8.27179 -7.2881,-13.50781 -15.791,-13.50781 -18.238,0 -26.6796,13.99793 -48.6778,37.37109 -3.5506,3.77236 -6.116,7.69197 -8.4531,7.93555 0.8144,-14.29096 0.9785,-26.89467 0.9785,-40.22461 0,-3.11222 -1.6685,-5.26075 -4.1035,-6.60547 -1.1904,1.33997 -2.5637,2.31969 -4.5938,2.09375 -2.6576,-0.29579 -5.0156,-1.9127 -6.8222,-3.77929 z m -1153.4707,0.67968 c -1.352,-0.0167 -2.5441,0.45993 -3.4785,1.52344 -1.642,-0.73848 -4.6215,-1.14567 -9.5938,-0.81641 -48.2351,3.19421 -72.9076,39.97806 -77.3262,70.17774 3.6431,3.10196 2.9901,7.47843 -0.707,10.57226 0.5467,24.66767 19.9284,38.20922 36.8281,37.23633 4.9258,-0.28358 11.9485,-0.75422 20.1953,-6.14258 -1.4747,-4.99945 2.9209,-7.79828 8.3438,-6.90429 3.2351,-3.27483 6.587,-7.39894 10.0293,-12.58399 -0.134,1.28651 -0.2733,2.63472 -0.4082,3.88672 -1.3209,12.24914 1.8799,26.14818 17.9375,26.33594 7.5624,0.0884 25.7754,-14.41999 22.4238,-15.16602 2.6494,-2.72336 2.7939,-5.96944 4.9473,-8.64257 3.2578,-4.04513 0.082,-3.10929 3.3418,-7.85547 1.177,-1.71365 3.6211,-5.17781 4.7305,-6.92969 1.705,-2.69281 -0.794,-3.35754 -2.6094,-1.22266 -10.3505,12.17238 -23.5814,20.79893 -23.8633,12.20313 -0.2048,-6.244 0.1072,-17.36291 0.7324,-29.92383 -4.3851,3.09579 -8.1393,4.92935 -5.5703,-0.89844 1.133,-2.57042 3.7708,-5.14161 6.0059,-7.25586 0.7474,-12.85919 1.7699,-26.47873 2.9355,-37.83398 0.1883,-1.82856 -0.046,-3.74058 -0.5976,-5.59961 -0.5337,-3.05115 -2.0866,-5.84516 -4.5118,-8.125 v -0.0273 c -0.032,-0.0304 -0.077,-0.0518 -0.1093,-0.082 -2.9692,-3.47453 -6.6786,-5.88877 -9.6758,-5.92578 z m 944.5156,0.49024 c -9.6442,0 -18.5005,2.46303 -26.2266,6.84961 -1.0055,7.63378 -4.5633,7.66981 -13.3183,10.65429 -10.5708,11.52218 -16.9797,27.84688 -17.2578,46.36719 -0.5328,35.46443 28.9302,51.50391 46.5293,51.50391 7.9365,0 14.7078,-1.32596 20.3847,-3.58789 -0.1984,-8.90384 3.8164,-7.14961 7.6641,-4.02149 9.7847,-6.66922 14.5941,-16.88207 14.7871,-27.17968 0.1104,-5.90382 0.9973,-18.11374 -7.0137,-17.61133 -2.1955,-2.91672 -3.5338,-7.89987 -7.7734,-9.21485 11.4026,-7.73917 13.6787,-17.63975 13.8359,-26.58008 -4.1616,-3.00535 -6.3901,-7.00565 -1.8769,-11.00781 -3.3404,-8.04335 -11.736,-16.17187 -29.7344,-16.17187 z m -339.2598,3.77734 c -2.5438,0 -4.9932,0.17841 -7.3379,0.49024 -4.2334,3.61139 -8.0631,6.35927 -13.9433,3.96679 -24.1312,11.10302 -33.7554,40.37527 -33.9473,58.62696 -0.2715,25.79527 10.3799,51.26686 36.2305,51.77539 27.5754,0.54257 65.1209,-21.52627 65.1211,-57.48438 0,-2.80813 -0.1079,-5.61966 -0.3535,-8.37109 -3.9297,-4.72028 -8.0989,-11.1374 -3.5332,-17.44922 -6.0578,-18.15324 -19.4935,-31.55469 -42.2364,-31.55469 z m -612.2949,3.66992 c -0.3914,1.81471 -0.104,4.25266 0.053,8.42578 -0.5689,3.65707 -1.1014,7.32657 -1.6036,11.00782 -2.9224,11.64342 -6.3259,21.4215 -9.9199,29.65234 0.06,1.86151 0.2012,3.56754 0.1094,4.7832 -0.5325,7.05035 -4.6374,9.32602 -8.7793,11.82227 -9.7364,15.4656 -19.3571,21.68303 -24,23.42969 -8.3191,3.12964 -15.8335,-8.99369 -15.084,-23.07618 0.8208,-15.43637 10.0279,-30.81405 22.0977,-42.9707 0.067,-6.22779 3.0126,-10.73609 10.5722,-9.29492 8.7853,-6.70857 18.1693,-11.6244 26.5547,-13.7793 z m -769.60936,6.60352 c 4.31369,-0.0189 10.92037,1.03769 8.64258,18.86328 -0.42587,3.33279 -3.96679,4.64648 -3.9668,4.64648 l -37.53515,11.36133 c 1.27005,-14.87444 19.32466,-34.84375 31.17383,-34.84375 0.48946,0 1.06929,-0.0246 1.68554,-0.0273 z m 1722.06246,0.87109 c 12.1677,0 11.9449,9.47711 11.7676,13.69727 -0.497,11.82697 -16.0916,14.31741 -44.6543,23.42969 1.6359,-16.35893 16.2354,-37.12696 32.8867,-37.12696 z m -1612.23042,6.06055 c 11.90498,0 24.73242,2.34287 24.73242,18.67187 0,6.23878 -3.03798,13.13305 -8.20703,19.89454 -0.32029,4.21191 -1.71129,7.93829 -2.77344,10.32812 -2.64571,0.0684 -3.87868,-0.7236 -4.94531,-1.79297 -9.70987,9.23539 -22.95891,17.49458 -37.12696,22.44922 1.27589,-20.34028 2.19957,-42.98857 1.60352,-62.64844 6.5705,-3.24162 21.21007,-6.90234 26.7168,-6.90234 z m 1389.43162,0 c 11.9051,0 24.7344,2.34287 24.7344,18.67187 0,17.28869 -23.2999,39.68463 -50.6895,50.03711 0.4571,-20.07294 0.5667,-42.42941 -0.4629,-61.9414 6.7066,-3.20502 20.9932,-6.76758 26.418,-6.76758 z m -111.6523,2.66406 c 15.4737,-0.30771 13.9832,20.32094 13.8886,24.65039 -0.7776,29.39355 -24.1406,45.19922 -35.8222,45.19922 -14.992,0 -15.2513,-13.17691 -13.7246,-29.29883 0.1759,-1.85715 0.4965,-3.78168 0.9511,-5.73437 -4.8038,-4.71773 -6.7101,-10.37897 -5.4902,-10.79102 4.0912,-1.38181 6.652,0.62093 8.1797,2.5 5.6399,-13.5663 17.1753,-26.23023 32.0176,-26.52539 z m 334.6679,37.94141 c 5.2421,0.0878 11.3067,3.21362 11.3067,10.84375 0,14.85707 -12.4746,25.19531 -23.1563,25.19531 -14.963,0 -20.637,-12.5853 -20.1679,-27.42383 6.1291,-2.7241 20.5521,-5.9729 28.6211,-8.20703 1.0369,-0.28705 2.1867,-0.42846 3.3964,-0.4082 z"
         style="color:#000000;display:inline;overflow:visible;visibility:visible;vector-effect:none;fill:#3c0000;fill-opacity:1;fill-rule:nonzero;stroke:none;stroke-width:2.5;stroke-linecap:butt;stroke-linejoin:miter;stroke-miterlimit:4;stroke-dasharray:none;stroke-dashoffset:0;stroke-opacity:1;marker:none;enable-background:accumulate" />
    </g>
    <text
       xml:space="preserve"
       style="font-style:normal;font-variant:normal;font-weight:normal;font-stretch:normal;font-size:72.5px;line-height:1.25;font-family:Lavi;-inkscape-font-specification:'Lavi, Normal';font-variant-ligatures:normal;font-variant-caps:normal;font-variant-numeric:normal;text-align:center;letter-spacing:0px;word-spacing:0px;writing-mode:lr-tb;text-anchor:middle;display:inline;fill:#2b1100;fill-opacity:1;stroke:none;font-variant-east-asian:normal;"
       x="1239.4911"
       y="582.47577"
       id="episode-title"><tspan
         sodipodi:role="line"
         id="tspan45">Эпизод 34: Посвящение Ситими</tspan></text>
  </g>
</svg>
