<?xml version="1.0" encoding="UTF-8" standalone="no"?>
<svg
   xmlns:dc="http://purl.org/dc/elements/1.1/"
   xmlns:cc="http://creativecommons.org/ns#"
   xmlns:rdf="http://www.w3.org/1999/02/22-rdf-syntax-ns#"
   xmlns:svg="http://www.w3.org/2000/svg"
   xmlns="http://www.w3.org/2000/svg"
   xmlns:xlink="http://www.w3.org/1999/xlink"
   xmlns:sodipodi="http://sodipodi.sourceforge.net/DTD/sodipodi-0.dtd"
   xmlns:inkscape="http://www.inkscape.org/namespaces/inkscape"
   sodipodi:docname="E35P08.svg"
   height="3503"
   width="2481"
   inkscape:version="1.0 (4035a4fb49, 2020-05-01)"
   version="1.1"
   id="svg2">
  <metadata
     id="metadata8">
    <rdf:RDF>
      <cc:Work
         rdf:about="">
        <dc:format>image/svg+xml</dc:format>
        <dc:type
           rdf:resource="http://purl.org/dc/dcmitype/StillImage" />
        <dc:title />
      </cc:Work>
    </rdf:RDF>
  </metadata>
  <defs
     id="defs6" />
  <sodipodi:namedview
     inkscape:pagecheckerboard="0"
     inkscape:snap-global="false"
     inkscape:document-rotation="0"
     inkscape:current-layer="layer3"
     inkscape:window-maximized="1"
     inkscape:window-y="-8"
     inkscape:window-x="1912"
     inkscape:cy="2687.1455"
     inkscape:cx="1331.758"
     inkscape:zoom="0.52900001"
     showgrid="false"
     id="namedview4"
     inkscape:window-height="1057"
     inkscape:window-width="1920"
     inkscape:pageshadow="2"
     inkscape:pageopacity="0"
     guidetolerance="10"
     gridtolerance="10"
     objecttolerance="10"
     borderopacity="1"
     bordercolor="#666666"
     pagecolor="#ffffff" />
  <g
     sodipodi:insensitive="true"
     inkscape:label="artwork"
     id="layer2"
     inkscape:groupmode="layer">
    <image
       sodipodi:absref="C:\Users\nicol\Documents\Git\Pepper_et_Carrot\webcomics\new-ep35_The-Reflection\lang\gfx_Pepper-and-Carrot_by-David-Revoy_E35P08.png"
       xlink:href="../gfx_Pepper-and-Carrot_by-David-Revoy_E35P08.png"
       width="2481"
       height="3503"
       id="image10"
       x="0"
       y="0" />
  </g>
  <g
     inkscape:label="speechbubbles"
     id="layer3"
     inkscape:groupmode="layer">
    <path
       inkscape:connector-curvature="0"
       id="path3525-27"
       d="m 889.27852,236.32309 c -33.33264,0.48599 -65.6739,16.27616 -88.56344,41.06988 -18.2802,18.97342 -29.50646,44.42911 -33.44717,70.73837 -7.09572,36.27891 -6.26337,74.88038 6.40694,109.77508 10.73217,26.86587 32.8094,47.97662 58.58528,59.08949 36.35107,15.94615 77.53175,21.82271 116.28551,12.63693 20.85154,-5.03939 39.85632,-17.32177 53.75796,-34.10661 19.1602,-22.36203 29.7789,-51.4776 33.0179,-80.92222 4.0348,-31.94533 2.1752,-65.24908 -9.0911,-95.51327 -8.5302,-21.99248 -23.5257,-41.3752 -42.93308,-54.11179 -27.5104,-19.21426 -60.84521,-29.2272 -94.0188,-28.65586 z"
       style="color:#000000;display:inline;overflow:visible;visibility:visible;fill:#ffffff;fill-opacity:1;fill-rule:nonzero;stroke:none;stroke-width:1.01748px;marker:none;enable-background:accumulate" />
    <path
       sodipodi:nodetypes="zssssz"
       inkscape:connector-curvature="0"
       id="path4040-4-5-3-4"
       d="m 1581.1798,338.06836 c -47.8312,0.677 -95.526,11.37569 -128.5815,30.47271 -38.9535,21.7159 -61.3538,51.70087 -63.1236,82.01557 -2.7302,30.60725 9.3064,62.16163 39.938,88.11317 16.2465,13.84462 39.1313,25.49035 66.5276,32.45778 36.839,9.7403 79.4049,11.96831 119.4581,8.02625 30.7204,-2.46756 62.6125,-5.09853 89.4799,-14.19201 45.8516,-15.97955 75.7073,-44.99646 75.9423,-74.77429 0.3762,-11.69295 -1.2226,-23.37227 -2.36,-35.04105 -2.5809,-18.68432 -6.6673,-37.55476 -18.2095,-55.29856 -13.8857,-20.74795 -40.5257,-39.42842 -76.811,-49.6645 -31.3044,-8.92511 -67.1557,-12.49353 -102.2603,-12.11507 z"
       style="color:#000000;display:inline;overflow:visible;visibility:visible;fill:#ffffff;fill-opacity:1;fill-rule:nonzero;stroke:none;stroke-width:1.09653px;marker:none;enable-background:accumulate" />
    <path
       sodipodi:nodetypes="ccccc"
       inkscape:connector-curvature="0"
       id="path1085"
       d="m 1570.0144,465.67649 c 3.0987,30.83741 11.5856,59.47611 3.7889,66.37874 -5.2069,29.42714 10.8845,84.76829 -27.9726,97.2687 63.0766,-0.64746 49.4439,-89.40053 58.0802,-122.83664 -1.084,-48.93169 -33.8965,-40.8108 -33.8965,-40.8108 z"
       style="fill:#ffffff;fill-rule:evenodd;stroke:none;stroke-width:1.14277px;stroke-linecap:butt;stroke-linejoin:miter;stroke-opacity:1" />
    <path
       inkscape:connector-curvature="0"
       id="path1299"
       d="m 1540.6815,1344.4833 c -47.51,1.8069 -93.4316,22.3731 -119.086,53.7713 -10.1824,17.3661 -6.9092,36.9437 -10.3108,55.3743 -4.5176,45.952 -3.8867,93.0297 12.4644,137.6342 5.5415,12.3277 18.1784,21.8105 32.428,28.1602 32.3811,16.5176 72.8979,21.0951 110.6623,16.4596 38.9613,-3.1076 78.8211,-12.1404 108.8098,-32.688 20.173,-13.5661 30.0507,-35.0643 27.9667,-55.6222 -0.3036,-26.7261 -4.6189,-53.3202 -4.6976,-80.0534 -1.3995,-27.0139 -7.3034,-55.4817 -28.8731,-77.4738 -20.117,-20.1151 -50.5701,-31.825 -81.0055,-39.5374 -15.6134,-3.8106 -31.938,-6.4079 -48.3582,-6.0248 z"
       style="fill:#ffffff;fill-rule:evenodd;stroke:none;stroke-width:1.14153px;stroke-linecap:butt;stroke-linejoin:miter;stroke-opacity:1" />
    <path
       sodipodi:nodetypes="cscsssscccsccscccc"
       inkscape:connector-curvature="0"
       id="path5058-2"
       d="m 1531.0092,1596.1183 c -0.6222,20.1649 6.6736,27.0756 10.0721,30.442 3.3984,3.3662 14.9068,8.9022 18.2764,13.791 2.7667,4.0585 10.3483,14.2867 6.9395,16.8185 -3.4088,2.5318 -39.8279,13.4508 -39.569,27.0665 0.2595,13.6163 7.8094,22.062 17.8671,25.0419 10.0575,2.9799 23.1527,7.0659 24.2613,17.1932 1.1078,10.1267 -6.514,17.5302 -11.286,19.742 -27.1053,5.2092 -47.6616,41.4987 -47.6616,41.4987 45.0114,-39.4077 48.8502,-21.7092 63.1997,-38.3236 5.2367,-6.2965 13.2746,-11.5246 11.2311,-22.2221 -2.0434,-10.6976 -1.7938,-21.9409 -17.0229,-26.5544 -9.8097,-4.0323 -14.2999,-6.9835 -14.1441,-10.1193 0.1565,-3.135 5.2164,-10.9397 15.2416,-10.5769 10.0258,0.3634 16.1869,-6.8408 20.9047,-21.0372 5.8565,-14.2808 -11.3944,-28.3269 -12.3251,-34.3003 -5.9525,-9.4188 -20.1936,-48.378 -11.3283,-51.0106 z"
       style="color:#000000;display:inline;overflow:visible;visibility:visible;fill:#ffffff;fill-opacity:1;fill-rule:nonzero;stroke:none;stroke-width:0.926478px;marker:none;enable-background:accumulate" />
    <path
       inkscape:connector-curvature="0"
       id="path4667-2"
       d="m 877.968,2870.1388 -20.1414,-103.137 -20.06484,17.4342 -15.86649,-70.2389 -20.49195,11.5133 26.36659,82.3695 23.57881,-19.15 z"
       style="display:inline;fill:#ffffff;fill-rule:evenodd;stroke:none;stroke-width:0.7824px;stroke-linecap:butt;stroke-linejoin:miter;stroke-opacity:1" />
    <path
       sodipodi:nodetypes="cccccccccccc"
       inkscape:connector-curvature="0"
       id="path4584-9"
       d="m 682.33117,2721.47 c 17.58658,-9.7562 33.39725,-42.5286 -3.6892,-77.162 42.20071,11.8434 59.77352,-10.1068 73.68241,-92.6185 34.06991,72.3546 48.80253,51.3106 58.048,24.8341 -2.5869,49.2768 33.04814,42.2858 48.31129,16.0446 -4.9577,76.3831 20.63384,79.0172 43.5994,87.989 -39.26404,11.119 -16.2116,33.6361 -11.28843,52.8383 -46.88903,-15.0176 -61.9634,9.436 -59.2279,55.9848 -18.13836,-12.0405 -41.31769,-48.333 -39.71646,34.5863 -16.29453,-59.6942 -27.92724,-42.7914 -37.92314,1.0069 -5.63912,-20.2619 2.06382,-64.0489 -33.29199,-31.9099 14.15398,-34.8193 6.97849,-60.982 -38.50398,-71.5936 z"
       style="display:inline;fill:#ffffff;fill-rule:evenodd;stroke:none;stroke-width:0.800756px;stroke-linecap:butt;stroke-linejoin:miter;stroke-opacity:1" />
    <path
       sodipodi:nodetypes="ccscc"
       inkscape:connector-curvature="0"
       id="path4440-3"
       d="m 915.25633,477.71228 c -4.04952,48.32505 20.65484,106.85492 115.89287,109.89183 -80.33867,-15.35995 -92.0301,-64.16762 -83.52693,-109.83472 7.34037,-39.42391 8.64622,-57.69856 8.64622,-57.69856 z"
       style="color:#000000;display:inline;overflow:visible;visibility:visible;fill:#ffffff;fill-opacity:1;fill-rule:nonzero;stroke:none;stroke-width:1.01599px;marker:none;enable-background:accumulate" />
  </g>
  <g
     inkscape:label="txt"
     id="layer1"
     inkscape:groupmode="layer">
    <text
       id="text4246-3-2-2-3"
       y="313.07599"
       x="903.05707"
       style="font-style:normal;font-variant:normal;font-weight:normal;font-stretch:normal;font-size:45px;line-height:1.25;font-family:Lavi;-inkscape-font-specification:Lavi;text-align:center;letter-spacing:0px;word-spacing:0px;text-anchor:middle;fill:#000000;fill-opacity:1;stroke:none"
       xml:space="preserve"><tspan
         id="tspan863"
         y="313.07599"
         x="903.05707"
         sodipodi:role="line"
         style="font-size:45px">Mais ! </tspan><tspan
         id="tspan861"
         y="369.32599"
         x="903.05707"
         sodipodi:role="line"
         style="font-size:45px">Qu'est-ce </tspan><tspan
         id="tspan864"
         y="425.57599"
         x="903.05707"
         sodipodi:role="line"
         style="font-size:45px">que je suis </tspan><tspan
         id="tspan866"
         y="481.82599"
         x="903.05707"
         sodipodi:role="line"
         style="font-size:45px">devenue ?</tspan></text>
    <text
       id="text4246-3-2-2-3-3"
       y="435.04697"
       x="1592.5607"
       style="font-style:normal;font-variant:normal;font-weight:normal;font-stretch:normal;font-size:56px;line-height:1.25;font-family:Lavi;-inkscape-font-specification:Lavi;text-align:center;letter-spacing:0px;word-spacing:0px;text-anchor:middle;fill:#000000;fill-opacity:1;stroke:none"
       xml:space="preserve"><tspan
         style="font-style:normal;font-variant:normal;font-weight:bold;font-stretch:normal;font-size:56px;font-family:Lavi;-inkscape-font-specification:'Lavi Bold'"
         id="tspan957"
         y="435.04697"
         x="1592.5607"
         sodipodi:role="line">Une </tspan><tspan
         id="tspan870"
         style="font-style:normal;font-variant:normal;font-weight:bold;font-stretch:normal;font-size:56px;font-family:Lavi;-inkscape-font-specification:'Lavi Bold'"
         y="505.04697"
         x="1592.5607"
         sodipodi:role="line">meurtrière ?</tspan></text>
    <text
       id="text4246-3-2-2-3-9"
       y="1439.3575"
       x="1562.5575"
       style="font-style:normal;font-variant:normal;font-weight:normal;font-stretch:normal;font-size:53.3405px;line-height:1.25;font-family:Lavi;-inkscape-font-specification:Lavi;text-align:center;letter-spacing:0px;word-spacing:0px;text-anchor:middle;fill:#000000;fill-opacity:1;stroke:none;stroke-width:1.18534"
       xml:space="preserve"><tspan
         id="tspan998"
         y="1439.3575"
         x="1562.5575"
         sodipodi:role="line"
         style="font-size:53.3405px;stroke-width:1.18534">Une </tspan><tspan
         id="tspan877"
         y="1506.0332"
         x="1562.5575"
         sodipodi:role="line"
         style="font-size:53.3405px;stroke-width:1.18534"><tspan
   id="tspan881"
   style="font-style:normal;font-variant:normal;font-weight:bold;font-stretch:normal;font-family:Lavi;-inkscape-font-specification:'Lavi Bold'">méchante</tspan> </tspan><tspan
         id="tspan879"
         y="1572.7087"
         x="1562.5575"
         sodipodi:role="line"
         style="font-size:53.3405px;stroke-width:1.18534">sorcière ?</tspan></text>
    <text
       transform="matrix(0.90421598,-0.22651773,-0.12390474,1.1369702,0,0)"
       id="text4246-3-2-2-3-9-0"
       y="2652.8953"
       x="1226.4388"
       style="font-style:normal;font-variant:normal;font-weight:normal;font-stretch:normal;font-size:104.682px;line-height:1.25;font-family:Lavi;-inkscape-font-specification:Lavi;text-align:center;letter-spacing:0px;word-spacing:0px;text-anchor:middle;fill:#000000;fill-opacity:1;stroke:none;stroke-width:1.18634"
       xml:space="preserve"><tspan
         id="tspan998-6"
         y="2652.8953"
         x="1226.4388"
         sodipodi:role="line"
         style="font-style:normal;font-variant:normal;font-weight:bold;font-stretch:normal;font-size:104.682px;font-family:Lavi;-inkscape-font-specification:'Lavi Bold';stroke-width:1.18634"><tspan
   id="tspan1037"
   style="font-size:79.44px;stroke-width:1.18634">!</tspan><tspan
   style="font-size:91.8525px;stroke-width:1.18634"
   id="tspan1045">!</tspan>!</tspan></text>
  </g>
</svg>
