<?xml version="1.0" encoding="UTF-8" standalone="no"?>
<svg
   sodipodi:docname="E35P03.svg"
   height="3503"
   width="2481"
   inkscape:version="1.1 (1:1.1+202105261517+ce6663b3b7)"
   version="1.1"
   id="svg2"
   xmlns:inkscape="http://www.inkscape.org/namespaces/inkscape"
   xmlns:sodipodi="http://sodipodi.sourceforge.net/DTD/sodipodi-0.dtd"
   xmlns:xlink="http://www.w3.org/1999/xlink"
   xmlns="http://www.w3.org/2000/svg"
   xmlns:svg="http://www.w3.org/2000/svg"
   xmlns:rdf="http://www.w3.org/1999/02/22-rdf-syntax-ns#"
   xmlns:cc="http://creativecommons.org/ns#"
   xmlns:dc="http://purl.org/dc/elements/1.1/">
  <metadata
     id="metadata8">
    <rdf:RDF>
      <cc:Work
         rdf:about="">
        <dc:format>image/svg+xml</dc:format>
        <dc:type
           rdf:resource="http://purl.org/dc/dcmitype/StillImage" />
        <dc:title />
      </cc:Work>
    </rdf:RDF>
  </metadata>
  <defs
     id="defs6">
    <filter
       x="-0.015227396"
       width="1.030456"
       y="-0.024240738"
       height="1.0484816"
       inkscape:menu-tooltip="Something like a water noise"
       inkscape:menu="Distort"
       inkscape:label="Lapping"
       id="filter3018-7-5"
       style="color-interpolation-filters:sRGB">
      <feTurbulence
         result="result1"
         baseFrequency="0.1"
         type="fractalNoise"
         seed="0"
         numOctaves="5"
         id="feTurbulence3020-0-6" />
      <feGaussianBlur
         result="result2"
         stdDeviation="2"
         id="feGaussianBlur3022-9-9" />
      <feDisplacementMap
         in="SourceGraphic"
         xChannelSelector="R"
         yChannelSelector="B"
         scale="50"
         in2="result2"
         id="feDisplacementMap3024-3-3" />
    </filter>
    <filter
       x="-0.014835256"
       width="1.0296723"
       y="-0.019186902"
       height="1.0383743"
       inkscape:menu-tooltip="Something like a water noise"
       inkscape:menu="Distort"
       inkscape:label="Lapping"
       id="filter3018-7-5-3"
       style="color-interpolation-filters:sRGB">
      <feTurbulence
         result="result1"
         baseFrequency="0.1"
         type="fractalNoise"
         seed="0"
         numOctaves="5"
         id="feTurbulence3020-0-6-6" />
      <feGaussianBlur
         result="result2"
         stdDeviation="2"
         id="feGaussianBlur3022-9-9-4" />
      <feDisplacementMap
         in="SourceGraphic"
         xChannelSelector="R"
         yChannelSelector="B"
         scale="50"
         in2="result2"
         id="feDisplacementMap3024-3-3-0" />
    </filter>
  </defs>
  <sodipodi:namedview
     inkscape:pagecheckerboard="0"
     inkscape:snap-global="false"
     inkscape:document-rotation="0"
     inkscape:current-layer="layer1"
     inkscape:window-maximized="1"
     inkscape:window-y="-8"
     inkscape:window-x="1912"
     inkscape:cy="1378.9586"
     inkscape:cx="344.73965"
     inkscape:zoom="0.32343248"
     showgrid="false"
     id="namedview4"
     inkscape:window-height="1057"
     inkscape:window-width="1920"
     inkscape:pageshadow="2"
     inkscape:pageopacity="0"
     guidetolerance="10"
     gridtolerance="10"
     objecttolerance="10"
     borderopacity="1"
     bordercolor="#666666"
     pagecolor="#ffffff" />
  <g
     sodipodi:insensitive="true"
     inkscape:label="artwork"
     id="layer2"
     inkscape:groupmode="layer">
    <image
       xlink:href="../gfx_Pepper-and-Carrot_by-David-Revoy_E35P03.png"
       width="2481"
       height="3503"
       id="image10"
       x="0"
       y="0" />
  </g>
  <g
     inkscape:label="speechbubbles"
     id="layer3"
     inkscape:groupmode="layer">
    <path
       transform="matrix(1.1556691,0.01930914,-0.02419114,1.4478611,686.24607,-761.71537)"
       sodipodi:nodetypes="zsssssz"
       inkscape:connector-curvature="0"
       id="path3330-0-3"
       d="M 952.97852 1586.5918 C 904.76685 1587.152 855.69315 1588.8822 809.39412 1603.6561 C 792.64586 1611.331 782.54633 1628.8961 779.53641 1646.5302 C 771.02859 1679.702 765.11808 1714.3946 770.02887 1748.6217 C 775.49866 1779.9922 792.20239 1808.4156 813.13314 1831.9964 C 821.50414 1841.3971 831.02078 1850.1621 842.75151 1855.1355 C 858.64886 1862.4142 876.48248 1864.2704 893.77693 1863.0369 C 937.29174 1862.0562 980.83065 1861.1688 1024.277 1858.418 C 1045.1412 1856.8853 1066.0983 1855.0712 1086.5444 1850.4823 C 1097.5379 1847.8134 1109.1662 1842.6685 1114.5283 1832.0478 C 1122.0456 1818.4165 1123.205 1802.5467 1125.2029 1787.4114 C 1128.9989 1747.5328 1121.7837 1707.8077 1120.1119 1668.0325 C 1120.0644 1649.7191 1124.0789 1631.4224 1121.9745 1613.136 C 1118.6753 1601.9 1106.9527 1595.3461 1095.809 1594.5807 C 1079.2143 1591.9986 1062.4391 1590.8289 1045.7305 1589.248 C 1014.8711 1586.976 983.9115 1586.4713 952.97852 1586.5918 z "
       style="color:#000000;font-variation-settings:normal;display:inline;overflow:visible;visibility:visible;vector-effect:none;fill:#000000;fill-opacity:1;fill-rule:nonzero;stroke:#000000;stroke-width:1.02241px;stroke-linecap:butt;stroke-linejoin:miter;stroke-miterlimit:4;stroke-dasharray:none;stroke-dashoffset:0;stroke-opacity:1;marker:none;filter:url(#filter3018-7-5-3);enable-background:accumulate;stop-color:#000000" />
    <path
       sodipodi:nodetypes="cssssc"
       inkscape:connector-curvature="0"
       id="path4546-6"
       d="m 414.33878,1686.3584 c 3.54061,-57.4107 43.17834,-99.2597 145.58715,-88.03 54.8557,6.0151 121.30384,10.0699 116.75391,94.1751 -4.54998,84.1054 -74.17388,81.2619 -116.76996,83.4604 -18.53849,0.9568 -114.77649,-7.3317 -131.45655,-36.0172 -10.44133,-17.9564 -14.51892,-35.8049 -14.11455,-53.5883 z"
       style="color:#000000;display:inline;overflow:visible;visibility:visible;fill:#ffffff;fill-opacity:1;fill-rule:nonzero;stroke:none;stroke-width:0.786419px;marker:none;enable-background:accumulate" />
    <path
       sodipodi:nodetypes="ccccccccccccccccc"
       inkscape:connector-curvature="0"
       id="path4496-2"
       d="m 634.54114,1906.0014 c 14.59712,-5.8706 26.29817,-25.6919 33.0509,-42.7644 1.81732,-4.8941 3.35817,-10.0845 3.44931,-15.3063 -1.11457,-5.4519 -6.12943,-9.0626 -11.35413,-10.1074 -7.44055,-2.0376 -16.10468,-1.0872 -22.43244,-6.159 6.62373,-30.7926 18.74668,-68.4402 -17.81815,-100.3755 -3.70155,-5.0208 -8.27562,-9.7554 -14.29935,-11.8512 -15.20805,-6.077 -34.1273,-3.517 -46.17318,7.9291 -6.99168,8.0303 -6.68349,22.0171 2.0681,28.6598 4.56751,3.5756 10.81069,3.4906 16.09434,1.8177 10.2879,-1.26 21.19532,-1.962 32.10285,4.7937 26.90502,21.3542 0.1543,60.804 6.34164,79.1456 4.62252,6.1074 12.88912,6.7863 19.94966,6.5539 7.28747,-0.052 15.73398,-0.9368 21.57373,4.3653 4.54779,3.1337 1.70824,8.9838 1.26798,13.3961 -3.27148,14.0224 -10.88009,26.8444 -20.66145,37.2985 -1.00695,0.926 -2.08089,1.7656 -3.15981,2.6041 z"
       style="color:#000000;display:inline;overflow:visible;visibility:visible;fill:#ffffff;fill-opacity:1;fill-rule:nonzero;stroke:none;stroke-width:1px;marker:none;enable-background:accumulate" />
    <path
       transform="matrix(1.1519453,0,0,1.2076542,-128.87486,-335.27777)"
       sodipodi:nodetypes="zsssssz"
       inkscape:connector-curvature="0"
       id="path3330-0"
       d="m 777.77605,1578.7499 c 31.97542,-17.3022 195.30977,-20.2429 269.47485,7.666 43.8378,16.4965 52.9774,46.4663 54.9826,88.3442 0.6193,12.9351 -9.7092,80.202 -31.7663,91.7496 -22.057,11.5468 -145.30106,18.1636 -167.35816,18.1636 -22.05703,0 -119.11217,1.0198 -136.93014,-15.8797 -17.04406,-16.1655 -20.37826,-172.7416 11.59715,-190.0437 z"
       style="color:#000000;font-variation-settings:normal;display:inline;overflow:visible;visibility:visible;opacity:1;vector-effect:none;fill:#000000;fill-opacity:1;fill-rule:nonzero;stroke:#000000;stroke-width:1.02241px;stroke-linecap:butt;stroke-linejoin:miter;stroke-miterlimit:4;stroke-dasharray:none;stroke-dashoffset:0;stroke-opacity:1;marker:none;filter:url(#filter3018-7-5);enable-background:accumulate;stop-color:#000000;stop-opacity:1" />
    <path
       sodipodi:nodetypes="zsssssz"
       inkscape:connector-curvature="0"
       id="path4530-1"
       d="m 1986.6722,1585.8733 c 12.1093,-41.4739 69.411,-29.0405 187.5787,-21.3589 75.7732,4.9257 131.7131,-15.9641 165.9368,6.9796 16.1651,10.8375 31.2593,105.7029 14.0352,148.931 -17.2241,43.2279 -70.1755,64.8473 -186.425,64.6824 -103.3254,-0.1467 -132.0863,-16.3051 -148.2584,-27.3722 -52.0972,-35.6522 -44.9765,-130.3878 -32.8673,-171.8619 z"
       style="color:#000000;display:inline;overflow:visible;visibility:visible;fill:#ffffff;fill-opacity:1;fill-rule:nonzero;stroke:none;stroke-width:0.84091px;marker:none;enable-background:accumulate" />
    <path
       sodipodi:nodetypes="cscccc"
       inkscape:connector-curvature="0"
       id="path1367"
       d="m 2285.7814,1723.3499 c 0,0 1.1455,15.2829 18.5599,18.5871 25.0022,4.7439 49.3554,67.4676 36.9796,95.7568 20.9615,-42.7867 12.7402,-70.9857 7.3083,-83.7931 -5.4319,-12.8092 -39.1198,-60.7121 -39.1198,-60.7121 z"
       style="fill:#ffffff;fill-rule:evenodd;stroke:none;stroke-width:1.66048px;stroke-linecap:butt;stroke-linejoin:miter;stroke-opacity:1" />
    <rect
       y="1533.1331"
       x="1475.4626"
       height="45.576038"
       width="498.66214"
       id="rect955"
       style="color:#000000;overflow:visible;opacity:1;vector-effect:none;fill:#ffffff;fill-opacity:1;stroke:none;stroke-width:1.11214px;stroke-linecap:butt;stroke-linejoin:miter;stroke-miterlimit:4;stroke-dasharray:none;stroke-dashoffset:0;stroke-opacity:1;marker:none;paint-order:stroke fill markers;stop-color:#000000;stop-opacity:1" />
    <rect
       transform="rotate(90)"
       y="-1959.2345"
       x="1550.2794"
       height="32.770958"
       width="487.76147"
       id="rect955-1"
       style="color:#000000;overflow:visible;vector-effect:none;fill:#ffffff;fill-opacity:1;stroke:none;stroke-width:1.25424px;stroke-linecap:butt;stroke-linejoin:miter;stroke-miterlimit:4;stroke-dasharray:none;stroke-dashoffset:0;stroke-opacity:1;marker:none;paint-order:stroke fill markers;stop-color:#000000" />
    <rect
       transform="rotate(90)"
       y="-782.47455"
       x="1556.7144"
       height="32.770958"
       width="215.94513"
       id="rect955-1-9-5"
       style="color:#000000;overflow:visible;vector-effect:none;fill:#000000;fill-opacity:1;stroke:none;stroke-width:1.02241px;stroke-linecap:butt;stroke-linejoin:miter;stroke-miterlimit:4;stroke-dasharray:none;stroke-dashoffset:0;stroke-opacity:1;marker:none;paint-order:stroke fill markers;stop-color:#000000" />
    <rect
       y="1533.1924"
       x="724.89355"
       height="45.576038"
       width="421.44244"
       id="rect955-7"
       style="color:#000000;overflow:visible;vector-effect:none;fill:#ffffff;fill-opacity:1;stroke:none;stroke-width:1.02241px;stroke-linecap:butt;stroke-linejoin:miter;stroke-miterlimit:4;stroke-dasharray:none;stroke-dashoffset:0;stroke-opacity:1;marker:none;paint-order:stroke fill markers;stop-color:#000000" />
    <rect
       transform="rotate(90)"
       y="-757.57123"
       x="1571.7268"
       height="32.770958"
       width="324.11044"
       id="rect955-1-9"
       style="color:#000000;overflow:visible;vector-effect:none;fill:#ffffff;fill-opacity:1;stroke:none;stroke-width:1.02241px;stroke-linecap:butt;stroke-linejoin:miter;stroke-miterlimit:4;stroke-dasharray:none;stroke-dashoffset:0;stroke-opacity:1;marker:none;paint-order:stroke fill markers;stop-color:#000000" />
    <path
       sodipodi:nodetypes="ccsc"
       inkscape:connector-curvature="0"
       id="path5010-4"
       d="m 946.35011,1789.3312 c -9.44632,59.2056 7.29021,104.3022 43.61043,121.8505 -60.22225,-14.9162 -79.45997,-96.9634 -74.02289,-121.8959 5.32366,-24.4119 30.41246,0.045 30.41246,0.045 z"
       style="color:#000000;display:inline;overflow:visible;visibility:visible;fill:#000000;fill-opacity:1;fill-rule:nonzero;stroke:none;stroke-width:0.900695px;marker:none;enable-background:accumulate" />
    <path
       sodipodi:nodetypes="ccsc"
       inkscape:connector-curvature="0"
       id="path5010-4-3"
       d="m 1816.3991,1922.8614 c 28.985,43.0588 27.74,84.9496 -1.7932,112.5764 53.706,-34.6349 45.0442,-106.5896 31.4163,-124.1679 -13.3434,-17.2115 -29.6231,11.5915 -29.6231,11.5915 z"
       style="color:#000000;display:inline;overflow:visible;visibility:visible;fill:#000000;fill-opacity:1;fill-rule:nonzero;stroke:none;stroke-width:0.925107px;marker:none;enable-background:accumulate" />
  </g>
  <g
     inkscape:label="txt"
     id="layer1"
     inkscape:groupmode="layer">
    <text
       id="text4246-3-2-2"
       y="1671.2283"
       x="545.69452"
       style="font-style:normal;font-variant:normal;font-weight:normal;font-stretch:normal;font-size:45px;line-height:1.25;font-family:Lavi;-inkscape-font-specification:Lavi;text-align:center;letter-spacing:0px;word-spacing:0px;text-anchor:middle;fill:#000000;fill-opacity:1;stroke:none"
       xml:space="preserve"><tspan
         id="tspan858"
         y="1671.2283"
         x="545.69452"
         sodipodi:role="line"
         style="font-size:45px">T'as vu </tspan><tspan
         id="tspan873"
         y="1727.4783"
         x="545.69452"
         sodipodi:role="line"
         style="font-size:45px">ça ?</tspan></text>
    <text
       id="text4246-3-2-2-3"
       y="1639.9242"
       x="946.04449"
       style="font-style:normal;font-variant:normal;font-weight:normal;font-stretch:normal;font-size:51px;line-height:1.25;font-family:Lavi;-inkscape-font-specification:Lavi;text-align:center;letter-spacing:0px;word-spacing:0px;text-anchor:middle;fill:#000000;fill-opacity:1;stroke:none;stroke-width:0.900695"
       xml:space="preserve"><tspan
         id="tspan872"
         y="1639.9242"
         x="946.04449"
         sodipodi:role="line"
         style="font-style:normal;font-variant:normal;font-weight:normal;font-stretch:normal;font-family:Drukah;-inkscape-font-specification:Drukah;fill:#ffffff;stroke-width:0.900695;font-size:51px">Oui. Cette </tspan><tspan
         id="tspan880"
         y="1703.7963"
         x="946.04449"
         sodipodi:role="line"
         style="font-style:normal;font-variant:normal;font-weight:normal;font-stretch:normal;font-family:Drukah;-inkscape-font-specification:Drukah;fill:#ffffff;stroke-width:0.900695;font-size:51px">poursuite sera </tspan><tspan
         id="tspan882"
         y="1767.6685"
         x="946.04449"
         sodipodi:role="line"
         style="font-style:normal;font-variant:normal;font-weight:normal;font-stretch:normal;font-family:Drukah;-inkscape-font-specification:Drukah;fill:#ffffff;stroke-width:0.900695;font-size:51px">bientôt terminée.</tspan></text>
    <text
       id="text4246-3-2-2-3-3"
       y="1642.578"
       x="1753.6272"
       style="font-style:normal;font-variant:normal;font-weight:normal;font-stretch:normal;font-size:51px;line-height:1.25;font-family:Lavi;-inkscape-font-specification:Lavi;text-align:center;letter-spacing:0px;word-spacing:0px;text-anchor:middle;fill:#000000;fill-opacity:1;stroke:none;stroke-width:0.907609"
       xml:space="preserve"><tspan
         id="tspan929"
         y="1642.578"
         x="1753.6272"
         sodipodi:role="line"
         style="font-style:normal;font-variant:normal;font-weight:normal;font-stretch:normal;font-size:51px;font-family:Drukah;-inkscape-font-specification:Drukah;fill:#ffffff;stroke-width:0.907609">Il n'y en a plus </tspan><tspan
         id="tspan893"
         y="1707.1606"
         x="1753.6272"
         sodipodi:role="line"
         style="font-style:normal;font-variant:normal;font-weight:normal;font-stretch:normal;font-size:51px;font-family:Drukah;-inkscape-font-specification:Drukah;fill:#ffffff;stroke-width:0.907609">pour longtemps </tspan><tspan
         id="tspan895"
         y="1771.7433"
         x="1753.6272"
         sodipodi:role="line"
         style="font-style:normal;font-variant:normal;font-weight:normal;font-stretch:normal;font-size:51px;font-family:Drukah;-inkscape-font-specification:Drukah;fill:#ffffff;stroke-width:0.907609">avant que ses </tspan><tspan
         id="tspan897"
         y="1836.3259"
         x="1753.6272"
         sodipodi:role="line"
         style="font-style:normal;font-variant:normal;font-weight:normal;font-stretch:normal;font-size:51px;font-family:Drukah;-inkscape-font-specification:Drukah;fill:#ffffff;stroke-width:0.907609">pouvoirs ne </tspan><tspan
         id="tspan899"
         y="1900.9086"
         x="1753.6272"
         sodipodi:role="line"
         style="font-style:normal;font-variant:normal;font-weight:normal;font-stretch:normal;font-size:51px;font-family:Drukah;-inkscape-font-specification:Drukah;fill:#ffffff;stroke-width:0.907609">soient épuisés.</tspan></text>
    <text
       id="text4246-3-2-2-3-5"
       y="1628.567"
       x="2172.0164"
       style="font-style:normal;font-variant:normal;font-weight:normal;font-stretch:normal;font-size:45px;line-height:1.25;font-family:Lavi;-inkscape-font-specification:Lavi;text-align:center;letter-spacing:0px;word-spacing:0px;text-anchor:middle;fill:#000000;fill-opacity:1;stroke:none"
       xml:space="preserve"><tspan
         id="tspan1044"
         y="1628.567"
         x="2172.0164"
         sodipodi:role="line"
         style="font-size:45px">Nous </tspan><tspan
         id="tspan906"
         y="1684.817"
         x="2172.0164"
         sodipodi:role="line"
         style="font-size:45px">l'attaquerons à </tspan><tspan
         id="tspan912"
         y="1741.067"
         x="2172.0164"
         sodipodi:role="line"
         style="font-size:45px">ce moment-là.</tspan></text>
  </g>
</svg>
