<?xml version="1.0" encoding="UTF-8" standalone="no"?>
<!-- Created with Inkscape (http://www.inkscape.org/) -->

<svg
   id="svg2"
   version="1.1"
   inkscape:version="1.2.1 (9c6d41e410, 2022-07-14)"
   width="2481"
   height="3503"
   sodipodi:docname="E37P04.svg"
   xmlns:inkscape="http://www.inkscape.org/namespaces/inkscape"
   xmlns:sodipodi="http://sodipodi.sourceforge.net/DTD/sodipodi-0.dtd"
   xmlns:xlink="http://www.w3.org/1999/xlink"
   xmlns="http://www.w3.org/2000/svg"
   xmlns:svg="http://www.w3.org/2000/svg"
   xmlns:rdf="http://www.w3.org/1999/02/22-rdf-syntax-ns#"
   xmlns:cc="http://creativecommons.org/ns#"
   xmlns:dc="http://purl.org/dc/elements/1.1/">
  <metadata
     id="metadata8">
    <rdf:RDF>
      <cc:Work
         rdf:about="">
        <dc:format>image/svg+xml</dc:format>
        <dc:type
           rdf:resource="http://purl.org/dc/dcmitype/StillImage" />
        <dc:title />
      </cc:Work>
    </rdf:RDF>
  </metadata>
  <defs
     id="defs6">
    <filter
       inkscape:label="Ripple"
       inkscape:menu="Distort"
       inkscape:menu-tooltip="Horizontal rippling of edges"
       style="color-interpolation-filters:sRGB"
       id="filter4265-7-37"
       y="0"
       x="0"
       width="1"
       height="1">
      <feTurbulence
         numOctaves="1"
         baseFrequency="0.002 0.107"
         id="feTurbulence4267-7-7" />
      <feColorMatrix
         values="5 0 0 0 0 0 0 0 0 0 0 0 0 0 0 0 0 0 4 0 "
         result="result91"
         id="feColorMatrix4269-1-2" />
      <feDisplacementMap
         yChannelSelector="A"
         xChannelSelector="R"
         scale="14.3"
         in="SourceGraphic"
         in2="result91"
         id="feDisplacementMap4271-2-64" />
    </filter>
    <filter
       inkscape:label="Magmah-FX"
       inkscape:menu="Distort"
       inkscape:menu-tooltip="Horizontal rippling of edges"
       style="color-interpolation-filters:sRGB"
       id="filter4265-7"
       y="0"
       x="0"
       width="1"
       height="1">
      <feTurbulence
         numOctaves="1"
         baseFrequency="0.002 0.107"
         id="feTurbulence4267-7" />
      <feColorMatrix
         values="5 0 0 0 0 0 0 0 0 0 0 0 0 0 0 0 0 0 4 0 "
         result="result91"
         id="feColorMatrix4269-1" />
      <feDisplacementMap
         yChannelSelector="A"
         xChannelSelector="R"
         scale="14.3"
         in="SourceGraphic"
         in2="result91"
         id="feDisplacementMap4271-2" />
    </filter>
    <filter
       style="color-interpolation-filters:sRGB"
       inkscape:label="Magmah-spell-glow"
       id="filter4751"
       x="-0.035967053"
       y="-0.17833759"
       width="1.0719341"
       height="1.3566752">
      <feFlood
         flood-opacity="1"
         flood-color="rgb(255,255,255)"
         result="flood"
         id="feFlood4753" />
      <feComposite
         in="flood"
         in2="SourceGraphic"
         operator="in"
         result="composite1"
         id="feComposite4755" />
      <feGaussianBlur
         in="composite1"
         stdDeviation="5.4"
         result="blur"
         id="feGaussianBlur4757" />
      <feOffset
         dx="0"
         dy="0"
         result="offset"
         id="feOffset4759" />
      <feComposite
         in="SourceGraphic"
         in2="offset"
         operator="over"
         result="composite2"
         id="feComposite4761" />
    </filter>
  </defs>
  <sodipodi:namedview
     pagecolor="#ffffff"
     bordercolor="#666666"
     borderopacity="1"
     objecttolerance="10"
     gridtolerance="10"
     guidetolerance="10"
     inkscape:pageopacity="0"
     inkscape:pageshadow="2"
     inkscape:window-width="1920"
     inkscape:window-height="1056"
     id="namedview4"
     showgrid="false"
     inkscape:zoom="0.52487078"
     inkscape:cx="813.53358"
     inkscape:cy="2016.6869"
     inkscape:window-x="1920"
     inkscape:window-y="0"
     inkscape:window-maximized="1"
     inkscape:current-layer="layer3"
     inkscape:pagecheckerboard="0"
     inkscape:showpageshadow="0"
     inkscape:deskcolor="#d1d1d1" />
  <g
     inkscape:groupmode="layer"
     id="layer2"
     inkscape:label="artwork"
     sodipodi:insensitive="true">
    <image
       xlink:href="../gfx_Pepper-and-Carrot_by-David-Revoy_E37P04.png"
       y="0"
       x="0"
       id="image10"
       height="3503"
       width="2481" />
  </g>
  <g
     inkscape:groupmode="layer"
     id="layer3"
     inkscape:label="speechbubbles">
    <path
       style="color:#000000;display:inline;overflow:visible;visibility:visible;fill:#ffffff;fill-opacity:1;fill-rule:nonzero;stroke:none;stroke-width:1.07509px;marker:none;enable-background:accumulate"
       d="m 342.68218,1471.0032 c -58.66275,0.4343 -117.90193,2.0879 -175.31906,18.2206 -24.71644,8.3404 -46.29837,32.3554 -52.75934,63.0227 -3.32166,19.3199 2.01285,38.8555 8.47869,56.3252 8.43711,22.6451 25.89607,38.8103 44.99144,46.4747 41.16324,19.6786 85.78616,22.8023 129.37223,27.3389 21.24378,2.3398 42.50798,4.8415 63.85987,4.8755 41.87379,0.5683 83.72639,-2.5954 125.60047,-1.4334 26.39827,-0.084 52.94002,-3.6091 78.27645,-12.9252 17.98812,-5.9746 36.10801,-12.7217 52.21342,-24.4263 18.75567,-14.7644 33.88251,-38.2461 37.44644,-65.5636 3.70091,-30.4429 -10.67089,-62.1522 -33.15871,-75.714 -16.54547,-10.4634 -35.05784,-15.0095 -53.30787,-18.6245 -20.67672,-3.7423 -41.49716,-6.1393 -62.26337,-8.9954 -54.28953,-6.5817 -108.88362,-9.158 -163.43066,-8.5752 z"
       id="path4040-4-4"
       inkscape:connector-curvature="0"
       sodipodi:nodetypes="zssssz" />
    <path
       style="color:#000000;display:inline;overflow:visible;visibility:visible;fill:#ffffff;fill-opacity:1;fill-rule:nonzero;stroke:none;stroke-width:1.10661px;marker:none;enable-background:accumulate"
       d="m 232.88521,1829.6545 c -15.49911,-4.3258 -30.36527,-25.9083 -39.85487,-45.1151 -2.6023,-5.5279 -4.9768,-11.4623 -5.91137,-17.7034 0.23014,-6.7406 4.6456,-11.9989 9.68489,-14.2208 7.08756,-3.8231 15.87763,-4.2925 21.36573,-11.5454 3.88883,-5.3975 2.44347,-12.8787 1.69304,-19.2745 -2.17932,-16.2588 -6.20379,-32.2732 -6.21379,-48.8483 -1.02235,-18.6687 -0.97071,-38.3918 6.06435,-55.4786 2.87848,-6.7043 6.67303,-13.2274 12.33892,-16.8574 14.17763,-10.1059 33.45012,-10.5499 47.30692,0.9314 8.26682,8.3259 10.21944,25.1454 2.569,34.7308 -3.97524,5.1331 -10.21215,6.1902 -15.7493,5.1661 -10.4586,0.3997 -20.04905,8.0914 -25.18673,18.8336 -4.36159,8.7814 -6.37218,19.1354 -6.13892,29.3576 -2.73879,13.9759 2.82926,27.469 5.69121,40.7504 1.23215,6.0908 2.19987,12.6668 0.87478,18.791 -3.62099,8.1775 -11.75152,10.5256 -18.8271,11.5577 -7.27261,1.2901 -15.83507,1.7981 -20.79951,9.2364 -4.02698,4.5998 -0.25135,11.0835 0.90045,16.2897 5.52666,16.1978 15.18264,30.1517 26.62182,40.8647 1.15331,0.9227 2.35952,1.7296 3.57048,2.5341 z"
       id="path4496-8"
       inkscape:connector-curvature="0"
       sodipodi:nodetypes="ccccccccccccccccccccc" />
    <path
       style="fill:#ffffff;stroke:none;stroke-width:1.10858"
       d="m 2027.0093,3158.3653 c -64.1164,0.1771 -129.1529,2.283 -191.0243,15.9065 -29.5105,6.7425 -58.629,17.6326 -78.3968,35.7889 -20.573,19.6738 -28.4164,45.4846 -26.099,70.0665 2.4809,23.7159 13.7516,47.5609 35.6594,65.2182 17.208,13.7498 40.2443,22.5334 63.933,28.4081 53.9349,13.5939 111.6287,13.4853 167.9062,13.3171 54.6318,-0.4948 109.3175,0.8746 163.9034,-1.3552 30.68,-1.4523 61.5711,-3.5012 91.3098,-9.5982 26.5087,-5.5051 52.8262,-14.9675 70.2197,-31.3619 12.3994,-11.2822 20.0684,-25.0572 24.0629,-39.2472 5.9024,-20.1693 5.8049,-41.2181 0.9434,-61.4983 -4.9552,-18.2116 -17.5383,-35.685 -37.5923,-47.0762 -25.7783,-15.3591 -57.897,-23.1818 -89.7418,-28.3437 -44.9907,-7.0137 -91.0936,-8.362 -136.8878,-9.7132 -19.3934,-0.4042 -38.7956,-0.5323 -58.1958,-0.5114 z"
       id="path3280-10"
       inkscape:connector-curvature="0"
       sodipodi:nodetypes="csssc" />
    <path
       style="color:#000000;display:inline;overflow:visible;visibility:visible;fill:#ffffff;fill-opacity:1;fill-rule:nonzero;stroke:none;stroke-width:0.999999px;marker:none;enable-background:accumulate"
       d="m 2277.3144,3069.2866 c 21.1533,40.5816 26.0863,56.0003 -12.7047,94.096 -38.791,38.0948 -21.8429,50.5398 -21.8429,50.5398 l 38.5724,-9.167 c 0,0 76.0812,-86.3431 -4.0248,-135.4688 z"
       id="path3072-56"
       inkscape:connector-curvature="0" />
    <path
       style="display:inline;fill:#ffffff;stroke:none;stroke-width:0.902163"
       d="m 844.1158,1505.4267 c -30.54096,0.8361 -61.50109,5.7752 -89.42951,19.2114 -21.96879,11.0008 -39.25833,32.2521 -44.90163,57.1003 -4.54393,19.3801 -3.99869,39.506 -3.54795,59.2984 0.69482,17.8218 3.76077,36.1373 12.88733,51.5232 11.62726,19.8534 31.37081,33.6111 52.67838,39.7495 29.34754,9.4652 60.34548,10.6968 90.84232,10.8864 35.93986,0.017 72.21678,0.3925 107.63785,-6.8615 20.21452,-5.0323 39.71371,-15.8747 52.66971,-33.1429 11.1899,-15.4917 15.8608,-34.9063 17.7151,-53.9068 2.1859,-25.7832 -1.7406,-51.9403 -10.1154,-76.2352 -8.4422,-21.5706 -25.8158,-38.74 -46.31506,-47.704 -18.21591,-8.3306 -37.92042,-12.2449 -57.48131,-15.3585 -27.3591,-4.0145 -55.05092,-4.6523 -82.63983,-4.5603 z"
       id="path3280-8-1"
       inkscape:connector-curvature="0"
       sodipodi:nodetypes="csssc" />
    <path
       style="display:inline;fill:#ffffff;stroke:none;stroke-width:0.87079"
       d="M 1371.418 1555.3086 C 1313.566 1556.0872 1255.4752 1553.2283 1197.8614 1559.883 C 1170.5155 1563.6947 1142.9262 1572.5444 1121.5928 1590.665 C 1102.3716 1607.2655 1091.7522 1632.8693 1092.5786 1658.1573 C 1092.6995 1692.6275 1106.5316 1727.6538 1132.653 1750.6456 C 1149.8528 1765.3452 1171.3217 1773.7696 1192.6765 1780.426 C 1228.2325 1790.9177 1265.3867 1793.6499 1302.0635 1797.6745 C 1336.71 1801.0081 1371.6496 1801.3317 1406.3304 1798.2881 C 1433.9584 1796.0149 1461.6018 1792.6914 1488.6016 1786.2754 C 1514.6426 1779.2239 1540.1494 1766.5647 1557.7224 1745.5773 C 1584.115 1714.2957 1590.5095 1667.4039 1572.693 1630.4324 C 1562.0653 1607.4087 1542.2998 1588.891 1518.7424 1579.5557 C 1492.1357 1567.7561 1463.3509 1561.8337 1434.626 1558.022 C 1413.647 1555.6706 1392.5108 1555.2185 1371.418 1555.3086 z "
       id="path3280-8-1-0"
       inkscape:connector-curvature="0"
       sodipodi:nodetypes="csssc" />
    <path
       style="display:inline;fill:#ffffff;stroke:none;stroke-width:0.87079"
       d="M 2033.1992 1626.543 C 1961.1068 1628.1109 1889.0332 1630.6946 1817.0038 1634.0577 C 1775.1489 1636.5032 1732.7953 1639.9986 1692.6034 1652.638 C 1655.5061 1666.4474 1630.8931 1705.3692 1630.9134 1744.4838 C 1628.1632 1784.2762 1633.6355 1825.0867 1649.3711 1861.8711 C 1662.6933 1887.5797 1688.8294 1904.8477 1716.7528 1910.8727 C 1755.2956 1921.2511 1795.361 1923.5413 1834.9683 1926.796 C 1937.6248 1933.2863 2040.5653 1930.7727 2143.3055 1928.0271 C 2201.1401 1925.5727 2260.338 1919.5781 2313.6902 1895.5652 C 2345.1573 1878.407 2361.6317 1842.4032 2364.392 1807.8307 C 2367.6793 1767.4707 2361.4529 1724.7084 2338.6939 1690.4356 C 2325.5903 1670.0491 2305.1499 1655.1457 2282.3517 1647.32 C 2253.8384 1636.7587 2223.1058 1636.7777 2193.2525 1633.5729 C 2140.0493 1628.9781 2086.6258 1625.5377 2033.1992 1626.543 z "
       id="path3280-8-1-0-6"
       inkscape:connector-curvature="0"
       sodipodi:nodetypes="csssc" />
    <path
       style="color:#000000;display:inline;overflow:visible;visibility:visible;fill:#ffffff;fill-opacity:1;fill-rule:nonzero;stroke:none;stroke-width:0.999999px;marker:none;enable-background:accumulate"
       d="m 1778.817,1868.4621 c -12.833,-0.6526 -23.8662,8.7491 -27.831,19.5381 -19.6036,19.4059 -1.839,-8.6641 -6.4214,4.8364 -13.5019,11.0957 -15.4266,35.2523 -15.8537,65.4931 -5.2817,5.1994 -14.9376,-8.1861 -19.6475,-2.164 -4.937,10.3078 -6.0593,21.8252 -6.4897,33.0281 -0.3179,32.1806 14.1211,63.8185 37.0812,87.8622 7.5298,8.5773 15.2692,16.9924 22.966,25.4398 -17.5595,-23.2829 -32.5888,-49.3497 -36.2923,-77.8541 -1.1276,-8.6692 1.6106,-30.4788 3.0954,-39.0712 10.4198,2.2428 18.5432,14.1601 29.054,13.5885 -3.9254,-39.033 12.0854,-78.9568 32.5429,-100.807 3.2112,-8.5188 -4.1806,-18.0085 -1.2971,-26.6329 -3.0138,-2.4158 -7.0942,-3.0258 -10.9068,-3.257 z"
       id="path4456-8"
       inkscape:connector-curvature="0"
       inkscape:transform-center-x="-13.453102"
       inkscape:transform-center-y="80.02882"
       sodipodi:nodetypes="cccccccccccccc" />
    <path
       style="color:#000000;display:inline;overflow:visible;visibility:visible;fill:#ffffff;fill-opacity:1;fill-rule:nonzero;stroke:none;stroke-width:1px;marker:none;enable-background:accumulate"
       d="m 820.0369,1693.3353 c -3.48578,39.7252 -1.62886,86.2092 5.54134,93.7569 -12.06557,-4.746 -23.61413,-7.3843 -32.58824,-9.1289 -2.74679,19.0391 9.33544,52.9316 19.75971,79.3624 -34.85384,-28.0115 -46.11754,-83.8349 -45.91311,-113.8427 11.20297,7.5747 21.79689,11.4361 28.26889,11.3872 1.30177,-15.339 -8.85591,-66.1714 -9.7642,-66.4676 z"
       id="path5066-6"
       inkscape:connector-curvature="0"
       sodipodi:nodetypes="cccccccc" />
    <path
       style="display:inline;fill:#ffffff;stroke:none;stroke-width:1"
       d="m 1204.2177,1950.0192 c -44.4885,-30.4335 -65.5015,-120.9246 -25.0786,-163.4599 23.8495,-25.0955 36.2779,-40.3926 36.2779,-40.3926 l -33.7128,-17.199 c -98.5183,93.7979 -30.177,190.842 22.5135,221.0515 z"
       id="path3063-1-0"
       inkscape:connector-curvature="0"
       sodipodi:nodetypes="csccc" />
  </g>
  <g
     inkscape:groupmode="layer"
     id="layer1"
     inkscape:label="txt">
    <text
       xml:space="preserve"
       style="font-style:normal;font-variant:normal;font-weight:normal;font-stretch:normal;font-size:48.2957px;line-height:125%;font-family:Lavi;-inkscape-font-specification:Lavi;text-align:center;letter-spacing:0px;word-spacing:0px;text-anchor:middle;fill:#000000;fill-opacity:1;stroke:none;stroke-width:0.999999"
       x="384.86877"
       y="1533.4731"
       id="text4246-70-2-2-2-7-4"><tspan
         sodipodi:role="line"
         style="font-size:48.2957px;stroke-width:0.999999"
         x="384.86877"
         y="1533.4731"
         id="tspan1004">Prag yth esos</tspan><tspan
         sodipodi:role="line"
         style="font-size:48.2957px;stroke-width:0.999999"
         x="384.86877"
         y="1593.8428"
         id="tspan1217">orth ow ankombra,</tspan><tspan
         sodipodi:role="line"
         style="font-size:48.2957px;stroke-width:0.999999"
         x="384.86877"
         y="1654.2124"
         id="tspan1223">A vowes?</tspan></text>
    <text
       xml:space="preserve"
       style="font-style:normal;font-variant:normal;font-weight:normal;font-stretch:normal;font-size:49.0523px;line-height:125%;font-family:Lavi;-inkscape-font-specification:Lavi;text-align:center;letter-spacing:0px;word-spacing:0px;text-anchor:middle;fill:#000000;fill-opacity:1;stroke:none;stroke-width:1"
       x="880.40576"
       y="1586.8677"
       id="text4246-70-2-2-2-7-4-3"><tspan
         sodipodi:role="line"
         style="font-style:normal;font-variant:normal;font-weight:bold;font-stretch:normal;font-size:49.0523px;font-family:Lavi;-inkscape-font-specification:'Lavi Bold';stroke-width:1"
         x="880.40576"
         y="1586.8677"
         id="tspan1123">Dynarghow,</tspan><tspan
         sodipodi:role="line"
         style="font-style:normal;font-variant:normal;font-weight:bold;font-stretch:normal;font-size:49.0523px;font-family:Lavi;-inkscape-font-specification:'Lavi Bold';stroke-width:1"
         x="880.40576"
         y="1648.1831"
         id="tspan1230">A Feniks</tspan><tspan
         sodipodi:role="line"
         style="font-style:normal;font-variant:normal;font-weight:bold;font-stretch:normal;font-size:49.0523px;font-family:Lavi;-inkscape-font-specification:'Lavi Bold';stroke-width:1"
         x="880.40576"
         y="1709.4984"
         id="tspan1232">meur!</tspan></text>
    <text
       xml:space="preserve"
       style="font-style:normal;font-variant:normal;font-weight:normal;font-stretch:normal;font-size:45.3333px;line-height:125%;font-family:Lavi;-inkscape-font-specification:Lavi;text-align:center;letter-spacing:0px;word-spacing:0px;text-anchor:middle;fill:#000000;fill-opacity:1;stroke:none"
       x="1334.6749"
       y="1626.9146"
       id="text4246-70-2-2-2-7-4-3-5"><tspan
         sodipodi:role="line"
         style="font-size:45.3333px"
         x="1334.6749"
         y="1626.9146"
         id="tspan1193">Pepper yw ow</tspan><tspan
         sodipodi:role="line"
         style="font-size:45.3333px"
         x="1334.6749"
         y="1683.5812"
         id="tspan1239">hanow, ha gwragh a</tspan><tspan
         sodipodi:role="line"
         style="font-size:45.3333px"
         x="1334.6749"
         y="1740.2478"
         id="tspan1245">Chaosah ov vy.</tspan></text>
    <text
       xml:space="preserve"
       style="font-style:normal;font-variant:normal;font-weight:normal;font-stretch:normal;font-size:45.3333px;line-height:125%;font-family:Lavi;-inkscape-font-specification:Lavi;text-align:center;letter-spacing:0px;word-spacing:0px;text-anchor:middle;fill:#000000;fill-opacity:1;stroke:none"
       x="1988.7637"
       y="1709.2914"
       id="text4246-70-2-2-2-7-4-3-5-6"><tspan
         sodipodi:role="line"
         style="font-size:45.3333px"
         x="1988.7637"
         y="1709.2914"
         id="tspan1229">A-gynsow y tegemeris</tspan><tspan
         sodipodi:role="line"
         style="font-size:45.3333px"
         x="1988.7637"
         y="1765.958"
         id="tspan1258">dogen kowrek Rea Dragon ha</tspan><tspan
         sodipodi:role="line"
         style="font-size:45.3333px"
         x="1988.7637"
         y="1822.6246"
         id="tspan1262">wosa henna, hemma re dheuth</tspan><tspan
         sodipodi:role="line"
         style="font-size:45.3333px"
         x="1988.7637"
         y="1879.2913"
         id="tspan1264">ha pesya tevi pub dydh...</tspan></text>
    <text
       xml:space="preserve"
       style="font-style:normal;font-variant:normal;font-weight:normal;font-stretch:normal;font-size:45.3333px;line-height:125%;font-family:Lavi;-inkscape-font-specification:Lavi;text-align:center;letter-spacing:0px;word-spacing:0px;text-anchor:middle;fill:#000000;fill-opacity:1;stroke:none"
       x="2048.2424"
       y="3229.6404"
       id="text4246-70-2-2-2-7-4-3-5-6-2"><tspan
         sodipodi:role="line"
         style="font-size:45.3333px"
         x="2048.2424"
         y="3229.6404"
         id="tspan1294">Ev a wra dinertha</tspan><tspan
         sodipodi:role="line"
         style="font-size:45.3333px"
         x="2048.2424"
         y="3286.3071"
         id="tspan1273">oll ow nerthow hag y halsa</tspan><tspan
         sodipodi:role="line"
         style="font-size:45.3333px"
         x="2048.2424"
         y="3342.9736"
         id="tspan1277">ow ladha wortiwedh.</tspan></text>
  </g>
</svg>
