<?xml version="1.0" encoding="UTF-8" standalone="no"?>
<svg
   xmlns:dc="http://purl.org/dc/elements/1.1/"
   xmlns:cc="http://creativecommons.org/ns#"
   xmlns:rdf="http://www.w3.org/1999/02/22-rdf-syntax-ns#"
   xmlns:svg="http://www.w3.org/2000/svg"
   xmlns="http://www.w3.org/2000/svg"
   xmlns:xlink="http://www.w3.org/1999/xlink"
   xmlns:sodipodi="http://sodipodi.sourceforge.net/DTD/sodipodi-0.dtd"
   xmlns:inkscape="http://www.inkscape.org/namespaces/inkscape"
   id="svg2"
   version="1.1"
   inkscape:version="1.0 (4035a4fb49, 2020-05-01)"
   width="2481"
   height="3503"
   sodipodi:docname="E35P07.svg">
  <metadata
     id="metadata8">
    <rdf:RDF>
      <cc:Work
         rdf:about="">
        <dc:format>image/svg+xml</dc:format>
        <dc:type
           rdf:resource="http://purl.org/dc/dcmitype/StillImage" />
        <dc:title />
      </cc:Work>
    </rdf:RDF>
  </metadata>
  <defs
     id="defs6">
    <filter
       style="color-interpolation-filters:sRGB"
       id="filter4375-4-1-1-1-9-5-8-8-5-5-3-8"
       inkscape:label="soundFX1"
       x="-0.044353127"
       y="-0.0023842071"
       width="1.0467294"
       height="1.0447156">
      <feFlood
         id="feFlood4377-7-9-0-8-1-7-3-1-2-7-6-7"
         flood-opacity="1"
         flood-color="rgb(255,255,255)"
         result="flood" />
      <feComposite
         id="feComposite4379-3-8-8-2-77-4-1-0-6-4-7-9"
         in2="SourceGraphic"
         in="flood"
         operator="in"
         result="composite1"
         baseFrequency="0.053999999999999999 0.053999999999999999" />
      <feMorphology
         id="feMorphology4393-1-0-49-8-9-3-0-1-9-9-5-2"
         operator="dilate"
         radius="2.9756367599225957"
         result="result3" />
      <feComposite
         id="feComposite4385-9-5-7-0-8-8-7-5-4-9-3-0"
         in2="result3"
         in="SourceGraphic"
         operator="over"
         result="fbSourceGraphic" />
      <feColorMatrix
         result="fbSourceGraphicAlpha"
         in="fbSourceGraphic"
         values="0 0 0 -1 0 0 0 0 -1 0 0 0 0 -1 0 0 0 0 1 0"
         id="feColorMatrix4544-9-4-4-5-2" />
      <feTurbulence
         id="feTurbulence4546-3-6-5-6-3"
         type="fractalNoise"
         numOctaves="5"
         seed="174"
         baseFrequency="0.053999999999999999 0.054054054054054057"
         result="turbulence" />
      <feDisplacementMap
         id="feDisplacementMap4548-8-0-9-2-7"
         in2="turbulence"
         in="fbSourceGraphic"
         scale="6.6"
         yChannelSelector="G"
         xChannelSelector="R"
         result="fbSourceGraphic" />
      <feColorMatrix
         result="fbSourceGraphicAlpha"
         in="fbSourceGraphic"
         values="0 0 0 -1 0 0 0 0 -1 0 0 0 0 -1 0 0 0 0 1 0"
         id="feColorMatrix4670-7-7-3-9-5" />
      <feFlood
         id="feFlood4672-4-4-5-1-9"
         flood-opacity="1"
         flood-color="rgb(255,255,255)"
         result="flood"
         in="fbSourceGraphic" />
      <feComposite
         id="feComposite4674-8-3-7-2-22"
         in2="fbSourceGraphic"
         in="flood"
         operator="in"
         result="composite1" />
      <feGaussianBlur
         id="feGaussianBlur4676-3-7-08-7-8"
         in="composite1"
         stdDeviation="0"
         result="blur" />
      <feOffset
         id="feOffset4678-6-9-1-0-9"
         dx="-6.3258232761971414"
         dy="6"
         result="offset" />
      <feComposite
         id="feComposite4680-4-0-9-9-7"
         in2="offset"
         in="fbSourceGraphic"
         operator="over"
         result="composite2" />
    </filter>
  </defs>
  <sodipodi:namedview
     pagecolor="#ffffff"
     bordercolor="#666666"
     borderopacity="1"
     objecttolerance="10"
     gridtolerance="10"
     guidetolerance="10"
     inkscape:pageopacity="0"
     inkscape:pageshadow="2"
     inkscape:window-width="1366"
     inkscape:window-height="715"
     id="namedview4"
     showgrid="false"
     inkscape:zoom="0.45"
     inkscape:cx="1276.4505"
     inkscape:cy="2798.5542"
     inkscape:window-x="-8"
     inkscape:window-y="-8"
     inkscape:window-maximized="1"
     inkscape:current-layer="layer1"
     inkscape:document-rotation="0"
     inkscape:snap-global="false"
     inkscape:pagecheckerboard="0" />
  <g
     inkscape:groupmode="layer"
     id="layer2"
     inkscape:label="artwork"
     sodipodi:insensitive="true">
    <image
       sodipodi:absref="D:\Pepper&amp;Carrot translation\ep35_The-Reflection_lang-pack\lang\gfx_Pepper-and-Carrot_by-David-Revoy_E35P07.png"
       xlink:href="../gfx_Pepper-and-Carrot_by-David-Revoy_E35P07.png"
       width="2481"
       height="3503"
       id="image10"
       x="0"
       y="0" />
  </g>
  <g
     inkscape:groupmode="layer"
     id="layer3"
     inkscape:label="speechbubbles">
    <path
       style="fill:#ffffff;stroke:none;stroke-width:0.953318"
       d="m 2014.9522,326.71646 c -35.4298,0.46493 -71.3405,8.26332 -97.4708,23.81849 -25.1073,15.14885 -40.6411,35.72067 -48.8038,56.90329 -5.5258,14.00115 -8.4993,29.02006 -1.9655,43.10306 7.8641,16.37457 27.3589,29.64367 50.2154,38.20631 33.8491,12.93948 74.0876,17.71969 113.203,16.92042 40.9762,-0.63096 82.2924,-2.8468 121.81,-10.13606 20.3262,-4.2101 40.0366,-11.72933 51.4085,-23.58164 10.6437,-11.01946 13.3013,-24.37359 11.9291,-37.07835 -1.1913,-21.39356 -11.2524,-42.49854 -28.615,-60.81428 -12.5226,-13.50063 -28.1003,-26.48905 -49.5312,-34.6516 -18.4776,-7.19166 -40.2788,-9.48281 -61.4717,-10.91745 -20.1438,-1.47302 -40.4469,-1.80915 -60.708,-1.77219 z"
       id="path3280-8"
       inkscape:connector-curvature="0"
       sodipodi:nodetypes="csssc" />
    <path
       style="fill:#ffffff;fill-rule:evenodd;stroke:none;stroke-width:0.934796px;stroke-linecap:butt;stroke-linejoin:miter;stroke-opacity:1"
       d="m 1937.2471,432.07438 c -6.2176,11.12141 -85.6078,33.31577 -108.1931,83.17757 30.1276,-36.25015 118.0705,-48.01797 132.9745,-62.07815 51.3058,-16.19189 -3.5494,-23.72277 -24.7814,-21.09942 z"
       id="path4186"
       inkscape:connector-curvature="0"
       sodipodi:nodetypes="cccc" />
    <path
       style="fill:#ffffff;fill-rule:evenodd;stroke:none;stroke-width:1px;stroke-linecap:butt;stroke-linejoin:miter;stroke-opacity:1"
       d="m 1557.7613,1692.8906 134.1326,-31.6108 -24.0947,-23.8017 91.2177,-24.1969 -16.3502,-24.7111 -106.501,38.013 26.5589,28.0558 z"
       id="path4667"
       inkscape:connector-curvature="0" />
    <path
       style="color:#000000;display:inline;overflow:visible;visibility:visible;fill:#ffffff;fill-opacity:1;fill-rule:nonzero;stroke:none;stroke-width:1.35174px;marker:none;enable-background:accumulate"
       d="m 439.49806,3078.9429 c -10.38652,18.6619 -74.70187,10.3174 -96.26745,6.0688 43.47116,21.9362 41.95563,35.0172 -17.06593,35.9167 95.6574,33.4978 24.05632,34.0668 -6.27843,28.9926 49.04615,17.7527 51.95813,33.9683 2.07321,42.1393 89.32905,2.2759 67.70377,15.2452 33.88391,33.8563 39.55121,-11.85 100.56294,-19.7446 102.7277,13.2682 57.30656,-27.7008 86.87398,-26.571 107.59706,6.3976 17.31025,-27.7524 76.25261,-32.0237 98.7909,-1.3015 19.41532,-40.6183 88.69136,-33.5147 129.9289,-12.8552 -23.14884,-14.4659 -7.36347,-37.249 71.55915,-31.0622 -6.35255,-12.9748 3.63744,-29.0046 43.49249,-26.096 -45.90808,-8.6461 -54.36867,-16.8174 30.87218,-23.7957 -64.86332,-2.0802 -125.34884,-4.9518 -49.25007,-32.8773 -23.87424,-1.1704 -84.1916,30.7099 -57.78189,-40.548 -69.92258,19.8167 -139.72446,20.7746 -136.10953,-23.6066 -25.99532,23.5432 -71.0836,34.5732 -90.69935,4.1646 -16.19279,27.7421 -65.37644,15.049 -90.92649,-4.5901 -16.8822,18.6771 -27.98338,52.7905 -76.54636,25.9285 z"
       id="path3549-3-7-8"
       inkscape:connector-curvature="0"
       sodipodi:nodetypes="ccccccccccccccccccc" />
    <path
       style="color:#000000;display:inline;overflow:visible;visibility:visible;fill:#ffffff;fill-opacity:1;fill-rule:nonzero;stroke:none;stroke-width:1.03374px;marker:none;enable-background:accumulate"
       d="m 343.55364,2975.8469 c 65.11655,29.5491 -65.56565,19.2715 -90.63198,15.1975 65.51533,10.3997 50.82637,27.7287 -17.08446,33.1648 117.24937,28.4597 25.29209,37.9372 2.14315,38.3534 77.8021,11.9913 60.76597,21.1817 46.91448,36.0379 152.12685,-16.994 46.01465,29.2376 46.15662,49.0235 7.58114,-8.8998 124.03578,-92.7025 45.76416,-5.8264 59.14996,-28.7823 130.39457,-47.3741 136.05161,2.995 23.83251,-25.3395 47.5935,-36.0487 45.76414,-5.8264 59.0495,-39.308 144.69535,-28.9539 198.07399,-17.844 -69.30611,-29.8475 -27.06913,-27.6243 49.92857,-19.3196 -89.58517,-20.4673 -81.97857,-29.8125 22.03935,-27.348 -45.9578,-7.1035 -54.42771,-14.4307 30.90566,-22.3158 -65.57868,-1.2856 -137.60389,-12.1516 -49.30345,-29.216 -33.25635,1.4971 -157.58599,-2.0739 -54.16747,-43.8782 -81.16726,15.7317 -164.72323,22.0918 -139.93418,-11.4112 -69.19112,20.3468 -76.4468,32.6832 -90.79757,5.4066 -24.47229,23.6723 -56.25767,9.01 -91.02501,-2.5997 25.2991,18.5085 -31.2112,29.4214 -90.79761,5.4066 z"
       id="path3549-3-7"
       inkscape:connector-curvature="0"
       sodipodi:nodetypes="ccccccccccccccccccc" />
    <path
       style="fill:#ffffff;fill-rule:evenodd;stroke:none;stroke-width:1.61403px;stroke-linecap:butt;stroke-linejoin:miter;stroke-opacity:1"
       d="m 501.87365,2904.2277 c 7.81388,-49.8207 8.23157,-62.9667 6.02019,-75.0728 -2.2114,-12.106 -16.03862,-8.1385 -26.02653,-3.643 -6.53887,2.9161 -28.34548,24.9309 -13.34891,-11.2886 14.99673,-36.2194 33.04009,-86.6247 37.65555,-102.5126 -15.5946,27.8024 -42.45502,71.0937 -50.25242,84.9947 -7.79723,13.9012 -19.54665,39.459 -22.39666,47.151 -3.46707,9.3577 -1.1372,19.0591 14.63013,17.8664 24.66487,-3.6362 41.86312,-37.8298 13.23772,21.5203 -28.62567,59.3501 4.95095,150.5651 4.95095,150.5651 z"
       id="path1089"
       inkscape:connector-curvature="0"
       sodipodi:nodetypes="csccccscccc" />
    <path
       style="color:#000000;display:inline;overflow:visible;visibility:visible;fill:#ffffff;fill-opacity:1;fill-rule:nonzero;stroke:none;stroke-width:1.19851px;marker:none;enable-background:accumulate"
       d="m 1768.8359,1475.8847 c -2.7134,41.1502 -54.1235,14.5169 -78.5367,4.0415 29.0978,23.1861 51.186,54.1372 -12.9371,52.1926 72.0073,41.0933 23.8686,39.0828 12.2623,49.5021 56.539,14.1619 40.29,32.2972 3.9992,42.1635 64.986,0.6027 49.2539,15.0664 24.6502,35.8801 28.7733,-13.6267 73.1586,-23.4255 74.7336,12.2022 41.6899,-31.1238 63.2,-30.5176 78.2759,4.6769 12.593,-30.3484 55.473,-36.1891 71.8694,-3.4597 14.1246,-44.2947 64.5222,-38.0585 94.5221,-16.5914 -16.8405,-15.1506 -5.3568,-40.0975 52.0588,-35.0524 -4.6215,-13.8884 2.6462,-31.4175 31.6403,-29.1028 -33.3977,-8.3887 -39.5527,-17.0425 22.4592,-26.3547 -47.1874,-0.8998 -91.1902,-2.7457 -35.8289,-34.503 -17.3683,-0.7685 -58.5766,25.7308 -39.3637,-51.8179 -50.8681,22.8666 -104.3204,34.5563 -101.6906,-13.4763 -18.9114,25.9806 -51.7127,38.8363 -65.9829,6.3853 -11.7803,30.314 -47.561,17.6203 -66.1484,-3.0701 -12.2815,20.5329 -30.6536,34.4011 -65.9827,6.3841 z"
       id="path3549-3-7-8-6"
       inkscape:connector-curvature="0"
       sodipodi:nodetypes="ccccccccccccccccccc" />
  </g>
  <g
     inkscape:groupmode="layer"
     id="layer1"
     inkscape:label="txt">
    <text
       xml:space="preserve"
       style="font-style:normal;font-variant:normal;font-weight:normal;font-stretch:normal;font-size:45px;line-height:1.25;font-family:'Xiaolai SC';-inkscape-font-specification:'Xiaolai SC';text-align:center;letter-spacing:0px;word-spacing:0px;text-anchor:middle;fill:#000000;fill-opacity:1;stroke:none"
       x="2044.8229"
       y="397.69656"
       id="text4246-3-2-2"><tspan
         style="font-style:normal;font-variant:normal;font-weight:normal;font-stretch:normal;font-size:45px;font-family:'Xiaolai SC';-inkscape-font-specification:'Xiaolai SC'"
         sodipodi:role="line"
         x="2044.8229"
         y="397.69656"
         id="tspan885">很好，</tspan><tspan
         id="tspan51"
         style="font-style:normal;font-variant:normal;font-weight:normal;font-stretch:normal;font-size:45px;font-family:'Xiaolai SC';-inkscape-font-specification:'Xiaolai SC'"
         sodipodi:role="line"
         x="2044.8229"
         y="453.94656">他们跟进来了！</tspan></text>
    <text
       xml:space="preserve"
       style="font-style:normal;font-variant:normal;font-weight:normal;font-stretch:normal;font-size:45px;line-height:1.25;font-family:'Xiaolai SC';-inkscape-font-specification:'Xiaolai SC';text-align:center;letter-spacing:0px;word-spacing:0px;text-anchor:middle;fill:#000000;fill-opacity:1;stroke:none"
       x="1896.6975"
       y="1555.9448"
       id="text4246-3-2-2-3"><tspan
         style="font-style:normal;font-variant:normal;font-weight:normal;font-stretch:normal;font-size:45px;font-family:'Xiaolai SC';-inkscape-font-specification:'Xiaolai SC'"
         sodipodi:role="line"
         x="1896.6975"
         y="1555.9448"
         id="tspan895">咱们马上就可以</tspan><tspan
         id="tspan57"
         style="font-style:normal;font-variant:normal;font-weight:normal;font-stretch:normal;font-size:45px;font-family:'Xiaolai SC';-inkscape-font-specification:'Xiaolai SC'"
         sodipodi:role="line"
         x="1896.6975"
         y="1612.1948">甩掉他们了！</tspan></text>
    <text
       xml:space="preserve"
       style="font-style:normal;font-variant:normal;font-weight:normal;font-stretch:normal;font-size:50.2786px;line-height:1.25;font-family:'Xiaolai SC';-inkscape-font-specification:'Xiaolai SC';text-align:center;letter-spacing:0px;word-spacing:0px;text-anchor:middle;fill:#000000;fill-opacity:1;stroke:none;stroke-width:1.1173"
       x="531.13611"
       y="3067.8477"
       id="text4246-3-2-2-3-3"><tspan
         style="font-style:normal;font-variant:normal;font-weight:normal;font-stretch:normal;font-size:50.2786px;font-family:'Xiaolai SC';-inkscape-font-specification:'Xiaolai SC';stroke-width:1.1173"
         sodipodi:role="line"
         x="531.13611"
         y="3067.8477"
         id="tspan899">我已经迫不及待了！</tspan></text>
    <text
       xml:space="preserve"
       style="font-style:normal;font-variant:normal;font-weight:normal;font-stretch:normal;font-size:57.3248px;line-height:1.25;font-family:'Xiaolai SC';-inkscape-font-specification:'Xiaolai SC';text-align:center;letter-spacing:0px;word-spacing:0px;text-anchor:middle;fill:#000000;fill-opacity:1;stroke:none;stroke-width:1.27388"
       x="627.04156"
       y="3176.0342"
       id="text4246-3-2-2-3-3-3"><tspan
         style="font-style:normal;font-variant:normal;font-weight:normal;font-stretch:normal;font-size:57.3248px;font-family:'Xiaolai SC';-inkscape-font-specification:'Xiaolai SC';stroke-width:1.27388"
         sodipodi:role="line"
         x="627.04156"
         y="3176.0342"
         id="tspan1015">哇哈哈哈哈哈哈哈！</tspan></text>
    <text
       xml:space="preserve"
       style="font-style:normal;font-variant:normal;font-weight:normal;font-stretch:normal;font-size:105.817px;line-height:1.25;font-family:'Xiaolai SC';-inkscape-font-specification:'Xiaolai SC';letter-spacing:0px;word-spacing:0px;fill:#000000;fill-opacity:1;stroke:#030303;stroke-width:0.716208;stroke-miterlimit:4;stroke-dasharray:none;stroke-opacity:1;filter:url(#filter4375-4-1-1-1-9-5-8-8-5-5-3-8);"
       x="787.65729"
       y="1584.5073"
       id="text4580-6-0-0-0-9-3-36"
       transform="matrix(1.0545214,-0.26714456,-0.41513081,1.2309466,1890.7199,857.1408)"><tspan
         style="font-size:195.17px;fill:#000000;fill-opacity:1;stroke:#030303;stroke-width:0.716208;stroke-miterlimit:4;stroke-dasharray:none;stroke-opacity:1;-inkscape-font-specification:'Xiaolai SC';font-family:'Xiaolai SC';font-weight:normal;font-style:normal;font-stretch:normal;font-variant:normal;"
         sodipodi:role="line"
         id="tspan876-6-1"
         x="787.65729"
         y="1584.5073">!<tspan
   style="font-size:173.821px;fill:#000000;stroke:#030303;stroke-opacity:1;-inkscape-font-specification:'Xiaolai SC';font-family:'Xiaolai SC';font-weight:normal;font-style:normal;font-stretch:normal;font-variant:normal;"
   id="tspan1317">!</tspan><tspan
   id="tspan1322"
   style="font-size:152.472px;fill:#000000;stroke:#030303;stroke-opacity:1;-inkscape-font-specification:'Xiaolai SC';font-family:'Xiaolai SC';font-weight:normal;font-style:normal;font-stretch:normal;font-variant:normal;">!</tspan></tspan></text>
  </g>
</svg>
