<?xml version="1.0" encoding="UTF-8" standalone="no"?>
<svg
   xmlns:dc="http://purl.org/dc/elements/1.1/"
   xmlns:cc="http://creativecommons.org/ns#"
   xmlns:rdf="http://www.w3.org/1999/02/22-rdf-syntax-ns#"
   xmlns:svg="http://www.w3.org/2000/svg"
   xmlns="http://www.w3.org/2000/svg"
   xmlns:xlink="http://www.w3.org/1999/xlink"
   xmlns:sodipodi="http://sodipodi.sourceforge.net/DTD/sodipodi-0.dtd"
   xmlns:inkscape="http://www.inkscape.org/namespaces/inkscape"
   id="svg2"
   version="1.1"
   inkscape:version="1.0 (4035a4fb49, 2020-05-01)"
   width="2481"
   height="3503"
   sodipodi:docname="E35P11.svg">
  <metadata
     id="metadata8">
    <rdf:RDF>
      <cc:Work
         rdf:about="">
        <dc:format>image/svg+xml</dc:format>
        <dc:type
           rdf:resource="http://purl.org/dc/dcmitype/StillImage" />
        <dc:title />
      </cc:Work>
    </rdf:RDF>
  </metadata>
  <defs
     id="defs6">
    <filter
       style="color-interpolation-filters:sRGB"
       id="filter4375-4-1-1-1-9-3-2-3-8-7-6-4-9"
       inkscape:label="deevad outline effect"
       x="-0.0022207188"
       y="-0.0071745174"
       width="1.0044414"
       height="1.014349">
      <feFlood
         id="feFlood4377-7-9-0-8-1-6-9-6-7-5-32-7-4"
         flood-opacity="1"
         flood-color="rgb(95,141,211)"
         result="flood" />
      <feComposite
         id="feComposite4379-3-8-8-2-77-7-1-0-9-9-0-6-8"
         in2="SourceGraphic"
         in="flood"
         operator="in"
         result="composite1" />
      <feMorphology
         id="feMorphology4393-1-0-49-8-9-5-2-6-2-2-6-5-1"
         operator="dilate"
         radius="4"
         result="result3" />
      <feComposite
         id="feComposite4385-9-5-7-0-8-3-7-2-0-2-1-6-2"
         in2="result3"
         in="SourceGraphic"
         operator="over"
         result="composite2" />
    </filter>
  </defs>
  <sodipodi:namedview
     pagecolor="#ffffff"
     bordercolor="#666666"
     borderopacity="1"
     objecttolerance="10"
     gridtolerance="10"
     guidetolerance="10"
     inkscape:pageopacity="0"
     inkscape:pageshadow="2"
     inkscape:window-width="1366"
     inkscape:window-height="715"
     id="namedview4"
     showgrid="false"
     inkscape:zoom="0.45"
     inkscape:cx="1251.4941"
     inkscape:cy="2973.2863"
     inkscape:window-x="-8"
     inkscape:window-y="-8"
     inkscape:window-maximized="1"
     inkscape:current-layer="layer3"
     inkscape:document-rotation="0"
     inkscape:snap-global="false"
     inkscape:pagecheckerboard="0" />
  <g
     inkscape:groupmode="layer"
     id="layer2"
     inkscape:label="artwork"
     sodipodi:insensitive="true">
    <image
       sodipodi:absref="D:\Pepper&amp;Carrot translation\ep35_The-Reflection_lang-pack\lang\gfx_Pepper-and-Carrot_by-David-Revoy_E35P11.png"
       xlink:href="../gfx_Pepper-and-Carrot_by-David-Revoy_E35P11.png"
       width="2481"
       height="3503"
       id="image10"
       x="0"
       y="0" />
  </g>
  <g
     inkscape:groupmode="layer"
     id="layer3"
     inkscape:label="speechbubbles">
    <path
       style="color:#000000;display:inline;overflow:visible;visibility:visible;fill:#ffffff;fill-opacity:1;fill-rule:nonzero;stroke:none;stroke-width:0.868288px;marker:none;enable-background:accumulate"
       d="m 656.36944,1518.2493 c 30.94859,-15.2638 298.88553,-21.7864 369.85536,4.6207 59.2369,22.0417 36.1248,75.0816 -16.5576,86.7845 -52.68187,11.7028 -227.93537,8.3759 -304.745,1.977 -73.13343,-6.092 -85.41375,-22.2188 -89.01113,-54.4596 -1.46822,-13.1593 9.50957,-23.6591 40.45837,-38.9226 z"
       id="path4040-4-9-2"
       inkscape:connector-curvature="0"
       sodipodi:nodetypes="zssssz" />
    <path
       style="color:#000000;display:inline;overflow:visible;visibility:visible;fill:#ffffff;fill-opacity:1;fill-rule:nonzero;stroke:none;stroke-width:1.36564px;marker:none;enable-background:accumulate"
       d="m 631.29154,267.59001 c 33.46845,54.26318 16.77932,109.75225 -42.25383,148.97796 101.91057,-50.70471 112.5118,-145.0271 95.84592,-167.01491 -16.31806,-21.52888 -53.59209,18.03695 -53.59209,18.03695 z"
       id="path5010-4"
       inkscape:connector-curvature="0"
       sodipodi:nodetypes="ccsc" />
    <path
       style="display:inline;fill:#ffffff;stroke:none;stroke-width:0.424687"
       d="M 1234.5215 90.296875 C 1201.5221 92.143638 1168.5287 97.205789 1137.0511 107.47053 C 1126.3735 111.45494 1116.6567 119.16714 1112.2059 129.88319 C 1103.5393 147.8034 1103.3571 169.04392 1109.4277 187.78516 C 1115.6775 204.5467 1130.371 217.05916 1146.7394 223.50916 C 1164.0451 230.36581 1182.811 231.81812 1201.1692 233.52861 C 1222.6895 235.26199 1244.334 236.13967 1265.9056 234.9405 C 1292.9588 232.69587 1320.0551 225.33622 1343.0351 210.55925 C 1357.8553 199.31639 1364.8034 179.71546 1362.8195 161.50562 C 1361.789 145.95206 1356.6368 129.91665 1345.2036 118.86182 C 1334.457 108.85422 1319.9551 104.69185 1306.1553 100.8118 C 1282.8327 94.440103 1258.78 89.991741 1234.5215 90.296875 z "
       id="path3280-8-1"
       inkscape:connector-curvature="0"
       sodipodi:nodetypes="csssc" />
    <path
       style="color:#000000;display:inline;overflow:visible;visibility:visible;fill:#ffffff;fill-opacity:1;fill-rule:nonzero;stroke:none;stroke-width:0.861367px;marker:none;enable-background:accumulate"
       d="m 1949.7656,80.042241 c -40.2353,0.406432 -81.5925,6.568789 -114.7505,22.208449 -27.6371,13.16571 -50.7801,31.61855 -60.1026,53.53875 -5.1827,13.03951 -6.8965,26.75881 -4.5496,40.16175 3.9941,21.10953 20.0487,40.74776 42.1756,56.00596 18.4476,12.70148 42.1159,22.1213 67.9961,26.47524 62.8215,12.34459 128.2916,17.93543 193.6429,19.84518 62.1133,1.52074 125.1373,-1.50162 184.8613,-13.43241 39.1778,-8.85512 76.1538,-24.40452 99.7391,-47.26665 19.2225,-19.38443 24.8262,-43.2101 23.6719,-65.9967 -0.7573,-21.44646 -9.6764,-43.71351 -31.6836,-60.02958 -20.8357,-15.127089 -51.5078,-22.876397 -81.883,-24.641498 -75.0146,-7.607729 -151.1208,-5.079663 -226.7051,-6.383948 -30.8026,-0.270672 -61.6063,-0.607176 -92.4125,-0.484543 z"
       id="path4546-6-7"
       inkscape:connector-curvature="0"
       sodipodi:nodetypes="cscssssc" />
    <path
       style="color:#000000;display:inline;overflow:visible;visibility:visible;fill:#ffffff;fill-opacity:1;fill-rule:nonzero;stroke:none;stroke-width:0.778056px;marker:none;enable-background:accumulate"
       d="m 616.96759,1388.2962 c 19.89446,-25.3329 192.13059,-39.6345 237.75143,2.4936 38.07903,35.164 23.22188,122.0411 -10.64344,141.8593 -33.86516,19.818 -146.52215,16.7802 -195.89717,7.3854 -47.01182,-8.9443 -54.90592,-35.0958 -57.21839,-87.6639 -0.9438,-21.4561 6.11297,-38.7418 26.00757,-64.0744 z"
       id="path4040-4-9"
       inkscape:connector-curvature="0"
       sodipodi:nodetypes="zssssz" />
    <path
       style="fill:#ffffff;fill-rule:evenodd;stroke:none;stroke-width:0.821856px;stroke-linecap:butt;stroke-linejoin:miter;stroke-opacity:1"
       d="m 1052.2038,1575.3659 c -32.6473,0.4871 -65.26502,1.7519 -97.85525,3.2248 -20.28572,1.114 -40.82438,2.4156 -60.26466,7.1498 -25.04193,6.7304 -44.98163,22.1125 -55.27648,40.2174 -4.74036,8.4434 -8.05994,17.3068 -10.52461,26.2608 -2.24972,9.0274 -1.93192,18.625 2.91317,27.1773 5.58687,10.494 14.97774,19.57 25.00781,27.917 18.95909,15.0528 44.59063,25.691 72.18823,28.4843 23.81155,2.9212 47.87446,4.495 71.90789,6.0007 40.0487,1.9892 80.2301,2.401 120.3475,1.5595 33.7443,-0.7765 67.4841,-2.4824 100.9505,-5.8462 17.7876,-2.1229 35.9287,-5.4833 50.8591,-13.3237 14.5097,-7.8049 24.3449,-19.9085 28.0963,-32.8642 3.7802,-9.8692 7.0019,-20.3863 3.8797,-30.6112 -3.8902,-12.2458 -12.5381,-23.2116 -20.6433,-34.118 -8.4423,-10.6606 -19.4086,-20.7063 -34.253,-26.6682 -17.9657,-7.6391 -38.2961,-11.1691 -58.0208,-15.351 -31.1924,-6.0601 -63.5126,-7.9539 -95.6415,-8.5374 -14.5502,-0.4059 -29.1079,-0.7664 -43.6706,-0.6717 z"
       id="path1079"
       inkscape:connector-curvature="0" />
    <path
       style="color:#000000;display:inline;overflow:visible;visibility:visible;fill:#ffffff;fill-opacity:1;fill-rule:nonzero;stroke:none;stroke-width:0.939237px;marker:none;enable-background:accumulate"
       d="m 1388.9442,1716.0375 c -45.9909,-29.4273 -78.0349,-27.5278 -104.8526,-18.0354 -25.7868,9.1275 -19.8278,10.3608 -19.8278,10.3608 l 10.5667,-48.0852 c -3.1179,-4.3789 71.5596,-1.8389 114.1137,55.7598 z"
       id="path3072-12"
       inkscape:connector-curvature="0"
       sodipodi:nodetypes="csccc" />
    <path
       style="display:inline;fill:#ffffff;stroke:none;stroke-width:0.722409"
       d="m 1329.8287,197.25747 c -49.8394,0.42553 -100.283,3.92725 -146.7557,13.86679 -38.0973,9.31648 -68.9741,27.4378 -79.6529,49.0935 -6.9462,14.96791 -6.2856,30.50776 -5.8984,45.80479 1.7574,17.39335 18.4522,33.61305 41.476,45.74436 13.6059,7.31582 30.361,12.77588 48.0763,16.84544 39.9284,9.4648 83.7441,13.67964 127.3041,14.37377 32.7352,0.39383 65.472,-0.22517 98.1984,-0.56738 40.6268,-0.7052 81.539,-1.81945 121.2797,-6.65754 22.0897,-2.81661 44.3951,-6.91744 61.9476,-14.81662 23.047,-10.37589 37.9178,-25.09967 45.5392,-40.44436 7.8171,-16.11828 5.9045,-33.18855 -1.7468,-49.21572 -6.5965,-15.31966 -19.1435,-30.43068 -40.8635,-41.43799 -22.4687,-11.53037 -51.7733,-18.56153 -81.6927,-22.81706 -46.046,-6.84295 -94.064,-8.59618 -141.6464,-9.53644 -15.1839,-0.23649 -30.3758,-0.25504 -45.5649,-0.23554 z"
       id="path3280-8-1-3"
       inkscape:connector-curvature="0"
       sodipodi:nodetypes="csssc" />
    <path
       style="display:inline;fill:#ffffff;stroke:none;stroke-width:0.904424"
       d="m 2010.5328,209.41713 c -58.6326,0.43359 -118.305,7.78238 -172.3093,30.67102 -29.5523,13.4553 -54.0141,39.31138 -60.4424,70.49851 -6.1912,30.70981 -3.9211,62.83728 5.4451,92.73347 11.1921,28.05337 36.1031,49.35536 64.0439,61.99088 41.1293,19.88849 87.3709,27.20219 132.9198,30.40503 61.7613,4.8628 123.9116,9.61515 185.8508,4.89013 47.4089,-3.77359 94.9236,-15.65714 135.4279,-40.11725 23.185,-14.26325 44.8735,-32.47629 57.3415,-56.40072 10.5194,-19.48671 12.9704,-42.2628 9.5771,-63.75923 -4.1435,-25.76492 -18.2146,-49.84293 -38.9192,-66.79883 -24.7873,-21.13354 -56.5275,-32.54131 -87.8916,-41.52612 -42.6734,-11.85943 -87.0143,-17.0838 -131.2265,-20.16993 -33.2233,-2.09518 -66.5316,-2.4852 -99.8171,-2.41696 z"
       id="path3280-8-1-1"
       inkscape:connector-curvature="0"
       sodipodi:nodetypes="csssc" />
    <path
       style="display:inline;fill:#ffffff;stroke:none;stroke-width:0.676839"
       d="m 2031.2776,446.09959 c -45.7776,0.39849 -91.9136,7.99895 -132.6968,24.71528 -22.5327,9.69478 -39.6072,26.22855 -49.4766,44.75002 -9.5125,18.12611 -12.4922,38.30987 -9.0233,57.71108 2.901,15.80144 10.8717,31.30188 24.7192,43.12317 19.1126,16.5896 46.0213,26.90497 73.8868,30.49168 22.6603,3.18098 45.723,3.71304 68.6797,4.09839 14.9799,0.50437 29.9361,1.38483 44.9257,1.72735 45.3499,1.34978 90.9776,1.10411 135.9633,-4.09838 28.6781,-2.76192 58.0815,-2.77684 85.8664,-9.69261 22.0857,-5.67208 38.8162,-21.11138 45.0696,-38.50533 5.98,-17.61862 6.455,-36.07612 5.0441,-54.17922 -1.675,-15.88498 -9.8266,-31.30997 -23.2034,-43.28289 -16.0606,-14.42452 -37.3782,-24.55315 -59.6126,-31.97822 -28.703,-9.5235 -59.0171,-15.86646 -89.7926,-19.49318 -39.8007,-4.75978 -80.1624,-5.51088 -120.3495,-5.38714 z"
       id="path3280-8-1-1-8"
       inkscape:connector-curvature="0"
       sodipodi:nodetypes="csssc" />
    <path
       style="fill:#ffffff;fill-rule:evenodd;stroke:none;stroke-width:1px;stroke-linecap:butt;stroke-linejoin:miter;stroke-opacity:1"
       d="m 1952.7065,569.81581 c -35.1448,34.55495 -40.918,43.76621 -48.2945,59.20991 -7.3765,15.44359 -1.4166,45.82505 15.3336,59.77726 16.7502,13.95231 20.6476,39.75145 6.4656,51.09426 -14.1819,11.34295 -70.6572,56.04997 -12.3413,98.68519 -52.1304,-50.93005 4.6214,-80.3316 15.046,-87.77901 10.4245,-7.44749 30.9525,-25.50425 13.4446,-59.50485 -17.5082,-34.00062 -21.7713,-50.818 31.7495,-83.72489 53.5207,-32.90685 -21.4035,-37.75787 -21.4035,-37.75787 z"
       id="path1081"
       inkscape:connector-curvature="0"
       sodipodi:nodetypes="ccccccssc" />
    <path
       style="color:#000000;display:inline;overflow:visible;visibility:visible;fill:#ffffff;fill-opacity:1;fill-rule:nonzero;stroke:none;stroke-width:1.4638px;marker:none;enable-background:accumulate"
       d="m 1355.8746,348.91914 c 38.5518,83.9689 2.5856,139.06018 -54.1917,168.09629 98.918,-30.2652 116.1188,-134.92733 86.7076,-167.77583 -23.1309,-25.83416 -32.5159,-0.32046 -32.5159,-0.32046 z"
       id="path5010-4-3"
       inkscape:connector-curvature="0"
       sodipodi:nodetypes="ccsc" />
    <path
       style="color:#000000;display:inline;overflow:visible;visibility:visible;fill:#ffffff;fill-opacity:1;fill-rule:nonzero;stroke:none;stroke-width:0.749922px;marker:none;enable-background:accumulate"
       d="m 1708.9341,2324.5708 c 0.1396,-80.0526 -1.9817,-61.5439 156.3841,-60.0099 68.739,0.6658 150.308,8.0488 143.7753,119.2635 -5.1637,87.9092 -130.901,83.5879 -154.2725,86.075 -23.2236,2.4714 -117.9728,-12.6347 -138.5725,-47.2616 -12.895,-21.6758 -8.0693,-76.8212 -7.3144,-98.067 z"
       id="path4546-6-59"
       inkscape:connector-curvature="0"
       sodipodi:nodetypes="cssssc" />
    <path
       style="fill:#ffffff;stroke:none;stroke-width:1.16099"
       d="m 719.68745,64.489097 c -50.55152,2.108431 -100.03953,10.527033 -149.93195,16.32633 -31.45318,4.262582 -62.81602,11.816136 -88.87367,25.908323 -16.49827,9.01786 -29.33925,21.83537 -35.29672,36.42509 -9.54535,20.56744 -9.93681,42.92615 -5.11563,64.21473 3.84814,15.70065 12.27848,31.28502 27.54972,42.82371 15.19086,11.6891 34.15817,20.53827 54.65516,26.17617 17.69799,5.35995 36.26553,9.0564 55.14052,11.2703 42.14937,5.37291 85.03779,6.75217 127.74302,6.45411 43.67122,-0.53123 87.28472,-4.21147 129.93481,-11.21335 21.26672,-3.26538 42.71551,-7.9414 60.62503,-17.36317 19.75792,-10.2607 35.44362,-24.81439 44.53157,-41.37461 3.97062,-7.33315 5.91123,-15.19329 6.27639,-23.07339 0.74213,-10.12727 0.81776,-20.27395 1.10115,-30.41153 0.10717,-30.60976 -3.44038,-61.27671 -11.72081,-91.284781 -3.09725,-2.359084 -7.93984,-1.283867 -11.78697,-2.220184 C 856.66656,69.965328 788.32266,64.299344 719.68745,64.489097 Z"
       id="path3100-2"
       inkscape:connector-curvature="0"
       sodipodi:nodetypes="cccccccccccccc" />
    <path
       style="display:inline;fill:#ffffff;fill-rule:evenodd;stroke:none;stroke-width:1.14884px;stroke-linecap:butt;stroke-linejoin:miter;stroke-opacity:1"
       d="m 1896.2442,2424.143 c 29.6781,34.3855 -48.3918,61.0872 -32.7914,98.1006 6.1219,14.5249 50.1858,21.814 59.4409,88.3499 -23.107,-54.5774 -70.7535,-56.808 -83.5614,-79.4341 -24.3256,-42.971 15.5983,-74.4437 22.7675,-83.4264 9.5884,-12.0136 34.1444,-23.59 34.1444,-23.59 z"
       id="path4186-80"
       inkscape:connector-curvature="0"
       sodipodi:nodetypes="cscssc" />
    <path
       style="color:#000000;display:inline;overflow:visible;visibility:visible;fill:#ffffff;fill-opacity:1;fill-rule:nonzero;stroke:none;stroke-width:0.472467px;marker:none;enable-background:accumulate"
       d="m 266.97992,2086.542 c 13.37453,-13.964 129.16447,-22.406 159.83419,0.5429 25.59955,19.1552 15.61147,66.8586 -7.1553,77.8463 -22.76671,10.9877 -98.5031,9.7123 -131.69666,4.7305 -31.60485,-4.7428 -36.91183,-19.0595 -38.46644,-47.8849 -0.63452,-11.7653 4.10957,-21.2709 17.48421,-35.2348 z"
       id="path4040-4-9-3"
       inkscape:connector-curvature="0"
       sodipodi:nodetypes="zssssz" />
    <path
       style="color:#000000;display:inline;overflow:visible;visibility:visible;fill:#ffffff;fill-opacity:1;fill-rule:nonzero;stroke:none;stroke-width:0.816531px;marker:none;enable-background:accumulate"
       d="m 354.58902,2078.2586 c 35.58146,-4.2267 52.48817,-58.2989 28.13393,-95.1145 44.43236,49.6051 29.57055,64.2564 4.74971,120.5184 -6.58837,14.934 -32.88364,-25.4039 -32.88364,-25.4039 z"
       id="path5010-4-5"
       inkscape:connector-curvature="0"
       sodipodi:nodetypes="ccsc" />
  </g>
  <g
     inkscape:groupmode="layer"
     id="layer1"
     inkscape:label="txt">
    <text
       xml:space="preserve"
       style="font-style:normal;font-variant:normal;font-weight:normal;font-stretch:normal;font-size:45px;line-height:1.25;font-family:'Xiaolai SC';-inkscape-font-specification:'Xiaolai SC';text-align:center;letter-spacing:0px;word-spacing:0px;text-anchor:middle;fill:#000000;fill-opacity:1;stroke:none"
       x="694.90973"
       y="185.30602"
       id="text4246-3-2-2"><tspan
         style="font-style:normal;font-variant:normal;font-weight:normal;font-stretch:normal;font-size:45px;font-family:'Xiaolai SC';-inkscape-font-specification:'Xiaolai SC'"
         sodipodi:role="line"
         x="694.90973"
         y="185.30602"
         id="tspan915">谢谢你允许萝卜头</tspan><tspan
         id="tspan80"
         style="font-style:normal;font-variant:normal;font-weight:normal;font-stretch:normal;font-size:45px;font-family:'Xiaolai SC';-inkscape-font-specification:'Xiaolai SC'"
         sodipodi:role="line"
         x="694.90973"
         y="241.55602">去取我换洗的衣服。</tspan></text>
    <text
       xml:space="preserve"
       style="font-style:normal;font-variant:normal;font-weight:normal;font-stretch:normal;font-size:45px;line-height:1.25;font-family:'Xiaolai SC';-inkscape-font-specification:'Xiaolai SC';text-align:center;letter-spacing:0px;word-spacing:0px;text-anchor:middle;fill:#000000;fill-opacity:1;stroke:none"
       x="1235.6431"
       y="179.79465"
       id="text4246-3-2-2-3-3-3"><tspan
         style="font-style:normal;font-variant:normal;font-weight:normal;font-stretch:normal;font-size:45px;font-family:'Xiaolai SC';-inkscape-font-specification:'Xiaolai SC'"
         sodipodi:role="line"
         x="1235.6431"
         y="179.79465"
         id="tspan876-3">不客气。</tspan></text>
    <text
       xml:space="preserve"
       style="font-style:normal;font-variant:normal;font-weight:normal;font-stretch:normal;font-size:45px;line-height:1.25;font-family:'Xiaolai SC';-inkscape-font-specification:'Xiaolai SC';text-align:center;letter-spacing:0px;word-spacing:0px;text-anchor:middle;fill:#000000;fill-opacity:1;stroke:none"
       x="1403.865"
       y="292.4176"
       id="text4246-3-2-2-3-3"><tspan
         style="font-style:normal;font-variant:normal;font-weight:normal;font-stretch:normal;font-size:45px;font-family:'Xiaolai SC';-inkscape-font-specification:'Xiaolai SC'"
         sodipodi:role="line"
         x="1403.865"
         y="292.4176"
         id="tspan934">你让我顺利完成了任务，</tspan><tspan
         id="tspan88"
         style="font-style:normal;font-variant:normal;font-weight:normal;font-stretch:normal;font-size:45px;font-family:'Xiaolai SC';-inkscape-font-specification:'Xiaolai SC'"
         sodipodi:role="line"
         x="1403.865"
         y="348.6676">这是应该的。</tspan></text>
    <text
       xml:space="preserve"
       style="font-style:normal;font-variant:normal;font-weight:normal;font-stretch:normal;font-size:45px;line-height:1.25;font-family:'Xiaolai SC';-inkscape-font-specification:'Xiaolai SC';text-align:center;letter-spacing:0px;word-spacing:0px;text-anchor:middle;fill:#000000;fill-opacity:1;stroke:none"
       x="2088.6965"
       y="166.92047"
       id="text4246-3-2-2-3-3-67"><tspan
         style="font-style:normal;font-variant:normal;font-weight:normal;font-stretch:normal;font-size:45px;font-family:'Xiaolai SC';-inkscape-font-specification:'Xiaolai SC'"
         sodipodi:role="line"
         x="2088.6965"
         y="166.92047"
         id="tspan938">可你知道么？</tspan><tspan
         id="tspan92"
         style="font-style:normal;font-variant:normal;font-weight:normal;font-stretch:normal;font-size:45px;font-family:'Xiaolai SC';-inkscape-font-specification:'Xiaolai SC'"
         sodipodi:role="line"
         x="2088.6965"
         y="223.17047">你真的让绿芥末导师很生气。</tspan></text>
    <text
       xml:space="preserve"
       style="font-style:normal;font-variant:normal;font-weight:normal;font-stretch:normal;font-size:45px;line-height:1.25;font-family:'Xiaolai SC';-inkscape-font-specification:'Xiaolai SC';text-align:center;letter-spacing:0px;word-spacing:0px;text-anchor:middle;fill:#000000;fill-opacity:1;stroke:none"
       x="2078.9941"
       y="336.26599"
       id="text4246-3-2-2-3-3-67-2"><tspan
         style="font-style:normal;font-variant:normal;font-weight:normal;font-stretch:normal;font-size:45px;font-family:'Xiaolai SC';-inkscape-font-specification:'Xiaolai SC'"
         sodipodi:role="line"
         x="2078.9941"
         y="336.26599"
         id="tspan959">她是追求完美的人。</tspan><tspan
         id="tspan100"
         style="font-style:normal;font-variant:normal;font-weight:normal;font-stretch:normal;font-size:45px;font-family:'Xiaolai SC';-inkscape-font-specification:'Xiaolai SC'"
         sodipodi:role="line"
         x="2078.9941"
         y="392.51599">但你的混搭，装束和迟到</tspan><tspan
         id="tspan102"
         style="font-style:normal;font-variant:normal;font-weight:normal;font-stretch:normal;font-size:45px;font-family:'Xiaolai SC';-inkscape-font-specification:'Xiaolai SC'"
         sodipodi:role="line"
         x="2078.9941"
         y="448.76599">毁了这一切。</tspan></text>
    <text
       xml:space="preserve"
       style="font-style:normal;font-variant:normal;font-weight:normal;font-stretch:normal;font-size:45px;line-height:1.25;font-family:'Xiaolai SC';-inkscape-font-specification:'Xiaolai SC';text-align:center;letter-spacing:0px;word-spacing:0px;text-anchor:middle;fill:#000000;fill-opacity:1;stroke:none"
       x="2089.9663"
       y="549.58289"
       id="text4246-3-2-2-3-3-67-2-3"><tspan
         style="font-style:normal;font-variant:normal;font-weight:normal;font-stretch:normal;font-size:45px;font-family:'Xiaolai SC';-inkscape-font-specification:'Xiaolai SC'"
         sodipodi:role="line"
         x="2089.9663"
         y="549.58289"
         id="tspan968">而且你还袭击了她！</tspan><tspan
         id="tspan108"
         style="font-style:normal;font-variant:normal;font-weight:normal;font-stretch:normal;font-size:45px;font-family:'Xiaolai SC';-inkscape-font-specification:'Xiaolai SC'"
         sodipodi:role="line"
         x="2089.9663"
         y="605.83289">她可不会手软的。</tspan></text>
    <text
       xml:space="preserve"
       style="font-style:normal;font-variant:normal;font-weight:normal;font-stretch:normal;font-size:45px;line-height:1.25;font-family:'Xiaolai SC';-inkscape-font-specification:'Xiaolai SC';text-align:center;letter-spacing:0px;word-spacing:0px;text-anchor:middle;fill:#000000;fill-opacity:1;stroke:none"
       x="349.56961"
       y="2138.6455"
       id="text4246-3-2-2-3-3-6-67"><tspan
         style="font-style:normal;font-variant:normal;font-weight:normal;font-stretch:normal;font-size:45px;font-family:'Xiaolai SC';-inkscape-font-specification:'Xiaolai SC'"
         sodipodi:role="line"
         x="349.56961"
         y="2138.6455"
         id="tspan1191-3">我知道。</tspan></text>
    <text
       xml:space="preserve"
       style="font-style:normal;font-variant:normal;font-weight:normal;font-stretch:normal;font-size:45px;line-height:1.25;font-family:'Xiaolai SC';-inkscape-font-specification:'Xiaolai SC';text-align:center;letter-spacing:0px;word-spacing:0px;text-anchor:middle;fill:#000000;fill-opacity:1;stroke:none"
       x="743.62054"
       y="1438.3682"
       id="text4246-3-2-2-3-3-6"><tspan
         style="font-style:normal;font-variant:normal;font-weight:normal;font-stretch:normal;font-size:45px;font-family:'Xiaolai SC';-inkscape-font-specification:'Xiaolai SC'"
         sodipodi:role="line"
         x="743.62054"
         y="1438.3682"
         id="tspan980">好吧。</tspan><tspan
         id="tspan112"
         style="font-style:normal;font-variant:normal;font-weight:normal;font-stretch:normal;font-size:45px;font-family:'Xiaolai SC';-inkscape-font-specification:'Xiaolai SC'"
         sodipodi:role="line"
         x="743.62054"
         y="1494.6182">我要打个盹</tspan></text>
    <text
       xml:space="preserve"
       style="font-style:normal;font-variant:normal;font-weight:normal;font-stretch:normal;font-size:45px;line-height:1.25;font-family:'Xiaolai SC';-inkscape-font-specification:'Xiaolai SC';text-align:center;letter-spacing:0px;word-spacing:0px;text-anchor:middle;fill:#000000;fill-opacity:1;stroke:none"
       x="863.08191"
       y="1579.2286"
       id="text4246-3-2-2-3-3-6-6"><tspan
         style="font-style:normal;font-variant:normal;font-weight:normal;font-stretch:normal;font-size:45px;font-family:'Xiaolai SC';-inkscape-font-specification:'Xiaolai SC'"
         sodipodi:role="line"
         x="863.08191"
         y="1579.2286"
         id="tspan984">等我醒了咱们就走。</tspan></text>
    <text
       xml:space="preserve"
       style="font-style:normal;font-variant:normal;font-weight:normal;font-stretch:normal;font-size:45px;line-height:1.25;font-family:'Xiaolai SC';-inkscape-font-specification:'Xiaolai SC';text-align:center;letter-spacing:0px;word-spacing:0px;text-anchor:middle;fill:#000000;fill-opacity:1;stroke:none"
       x="1077.2921"
       y="1649.4165"
       id="text4246-3-2-2-3-3-6-2"><tspan
         style="font-style:normal;font-variant:normal;font-weight:normal;font-stretch:normal;font-size:45px;font-family:'Xiaolai SC';-inkscape-font-specification:'Xiaolai SC'"
         sodipodi:role="line"
         x="1077.2921"
         y="1649.4165"
         id="tspan998">你想干嘛就干嘛吧，</tspan><tspan
         id="tspan120"
         style="font-style:normal;font-variant:normal;font-weight:normal;font-stretch:normal;font-size:45px;font-family:'Xiaolai SC';-inkscape-font-specification:'Xiaolai SC'"
         sodipodi:role="line"
         x="1077.2921"
         y="1705.6665">别跑太远就行…</tspan></text>
    <text
       xml:space="preserve"
       style="font-style:normal;font-variant:normal;font-weight:normal;font-stretch:normal;line-height:0%;font-family:'Xiaolai SC';-inkscape-font-specification:'Xiaolai SC';letter-spacing:0px;word-spacing:0px;display:inline;fill:#ffffff;fill-opacity:1;stroke:#5f8dd3;stroke-width:0.992362;stroke-miterlimit:4;stroke-dasharray:none;stroke-opacity:1;filter:url(#filter4375-4-1-1-1-9-3-2-3-8-7-6-4-9)"
       x="787.65729"
       y="1584.5073"
       id="text4580-5-0-6-2-8-5-9-9"
       transform="matrix(0.71138619,-0.38856964,0.42362052,1.0933045,-1095.3818,1936.127)"><tspan
         sodipodi:role="line"
         id="tspan4582-6-9-1-3-9-5-3-3"
         x="787.65729"
         y="1584.5073"
         style="font-style:normal;font-variant:normal;font-weight:normal;font-stretch:normal;font-size:70px;line-height:1.25;font-family:'Xiaolai SC';-inkscape-font-specification:'Xiaolai SC';fill:#ffffff;stroke:#5f8dd3">哗啦</tspan></text>
    <text
       xml:space="preserve"
       style="font-style:normal;font-variant:normal;font-weight:normal;font-stretch:normal;font-size:45px;line-height:1.25;font-family:'Xiaolai SC';-inkscape-font-specification:'Xiaolai SC';text-align:center;letter-spacing:0px;word-spacing:0px;text-anchor:middle;fill:#000000;fill-opacity:1;stroke:none"
       x="1865.2649"
       y="2353.9121"
       id="text4246-3-2-2-3-3-6-2-9"><tspan
         style="font-style:normal;font-variant:normal;font-weight:normal;font-stretch:normal;font-size:45px;font-family:'Xiaolai SC';-inkscape-font-specification:'Xiaolai SC'"
         sodipodi:role="line"
         x="1865.2649"
         y="2353.9121"
         id="tspan1007">真是个</tspan><tspan
         id="tspan126"
         style="font-style:normal;font-variant:normal;font-weight:normal;font-stretch:normal;font-size:45px;font-family:'Xiaolai SC';-inkscape-font-specification:'Xiaolai SC'"
         sodipodi:role="line"
         x="1865.2649"
         y="2410.1621">奇怪的女巫。</tspan></text>
  </g>
</svg>
