<?xml version="1.0" encoding="UTF-8" standalone="no"?>
<svg
   xmlns:dc="http://purl.org/dc/elements/1.1/"
   xmlns:cc="http://creativecommons.org/ns#"
   xmlns:rdf="http://www.w3.org/1999/02/22-rdf-syntax-ns#"
   xmlns:svg="http://www.w3.org/2000/svg"
   xmlns="http://www.w3.org/2000/svg"
   xmlns:xlink="http://www.w3.org/1999/xlink"
   xmlns:sodipodi="http://sodipodi.sourceforge.net/DTD/sodipodi-0.dtd"
   xmlns:inkscape="http://www.inkscape.org/namespaces/inkscape"
   sodipodi:docname="E09P02.svg"
   height="3503"
   width="2481"
   inkscape:version="1.0 (4035a4f, 2020-05-01)"
   version="1.1"
   id="svg2">
  <sodipodi:namedview
     inkscape:window-maximized="0"
     inkscape:window-y="23"
     inkscape:window-x="0"
     inkscape:document-rotation="0"
     inkscape:current-layer="layer1"
     inkscape:cy="2906.2616"
     inkscape:cx="1504.6889"
     inkscape:zoom="0.38589744"
     showgrid="false"
     id="namedview70"
     inkscape:window-height="790"
     inkscape:window-width="1440"
     inkscape:pageshadow="2"
     inkscape:pageopacity="0"
     bordercolor="#666666"
     pagecolor="#ffffff" />
  <metadata
     id="metadata8">
    <rdf:RDF>
      <cc:Work
         rdf:about="">
        <dc:format>image/svg+xml</dc:format>
        <dc:type
           rdf:resource="http://purl.org/dc/dcmitype/StillImage" />
        <dc:title />
      </cc:Work>
    </rdf:RDF>
  </metadata>
  <defs
     id="defs6" />
  <sodipodi:namedview
     showguides="false"
     inkscape:current-layer="layer1"
     inkscape:window-maximized="1"
     inkscape:window-y="26"
     inkscape:window-x="0"
     inkscape:cy="1450.5638"
     inkscape:cx="844.4201"
     inkscape:zoom="0.34782609"
     showgrid="false"
     id="namedview4"
     inkscape:window-height="1025"
     inkscape:window-width="1920"
     inkscape:pageshadow="2"
     inkscape:pageopacity="0"
     guidetolerance="10"
     gridtolerance="10"
     objecttolerance="10"
     borderopacity="1"
     bordercolor="#666666"
     pagecolor="#ffffff" />
  <g
     sodipodi:insensitive="true"
     inkscape:label="artwork"
     id="layer2"
     inkscape:groupmode="layer">
    <image
       sodipodi:absref="/Users/julienj-mauduit/Downloads/lang-2/gfx_Pepper-and-Carrot_by-David-Revoy_E09P02.png"
       xlink:href="../gfx_Pepper-and-Carrot_by-David-Revoy_E09P02.png"
       width="2481"
       height="3503"
       id="image10"
       x="0"
       y="0" />
  </g>
  <g
     inkscape:label="speechbubbles"
     id="layer3"
     inkscape:groupmode="layer" />
  <g
     inkscape:label="txt"
     id="layer1"
     inkscape:groupmode="layer">
    <path
       sodipodi:nodetypes="csssc"
       inkscape:connector-curvature="0"
       id="path3274"
       d="m 541.58396,2761.7479 c 0.71738,-90.8272 10.67639,-177.8197 349.30136,-173.6899 240.90268,2.9379 333.92648,66.3125 330.03608,180.7675 -3.8905,114.455 -132.7615,161.6951 -334.88798,159.5354 -202.12646,-2.1597 -340.26706,-48.123 -344.44946,-166.613 z"
       style="fill:#ffffff;stroke:none;stroke-width:1.01362" />
    <path
       sodipodi:nodetypes="zssssz"
       inkscape:connector-curvature="0"
       id="path4040"
       d="m 822.79075,2611.9266 c -36.37211,30.3038 -337.93883,57.6773 -442.11735,-8.5451 -104.1785,-66.2225 -38.22716,-141.6678 23.00799,-164.8254 61.23504,-23.1576 240.36288,-46.1608 321.30888,-23.5013 80.94614,22.6594 143.63998,55.3032 146.25057,119.4954 1.06551,26.1994 -12.07785,47.0723 -48.45009,77.3764 z"
       style="color:#000000;display:inline;overflow:visible;visibility:visible;fill:#ffffff;fill-opacity:1;fill-rule:nonzero;stroke:none;stroke-width:1.00089px;marker:none;enable-background:accumulate" />
    <path
       sodipodi:nodetypes="cssssc"
       inkscape:connector-curvature="0"
       id="path4546-0-3"
       d="m 114.34931,1490.6154 c 8.46121,-83.3382 108.09638,-143.6636 366.4912,-126.1851 138.41022,9.3624 295.59314,15.9627 284.80434,138.0582 -10.78899,122.0954 -236.73329,117.391 -283.39316,119.9248 -46.65992,2.5341 -289.55763,-11.959 -331.8637,-53.8099 -26.48263,-26.1974 -36.91328,-52.1657 -36.03868,-77.988 z"
       style="color:#000000;display:inline;overflow:visible;visibility:visible;fill:#ffffff;fill-opacity:1;fill-rule:nonzero;stroke:none;stroke-width:1px;marker:none;enable-background:accumulate" />
    <path
       sodipodi:nodetypes="csscc"
       inkscape:connector-curvature="0"
       id="path5018"
       d="m 181.85704,237.97293 c -1.10047,-57.32649 87.35998,-69.41682 165.2991,-69.58715 77.93926,-0.17032 210.13605,1.8189 208.43531,81.92893 -1.97733,93.13843 -259.67907,70.4535 -267.31144,71.81988 -7.63238,1.36625 -119.13197,-14.77599 -106.42297,-84.16166 z"
       style="color:#000000;display:inline;overflow:visible;visibility:visible;fill:#ffffff;fill-opacity:1;fill-rule:nonzero;stroke:none;stroke-width:1px;marker:none;enable-background:accumulate" />
    <path
       inkscape:connector-curvature="0"
       id="path4201"
       d="m 842.8376,505.67472 c 22.75894,31.36316 36.92168,58.48731 -3.76855,108.91199 46.07559,-30.50609 66.18145,-76.69578 53.29121,-112.23489 -12.89024,-35.53909 -49.52266,3.3229 -49.52266,3.3229 z"
       style="fill:#ffffff;fill-rule:evenodd;stroke:none;stroke-width:1px;stroke-linecap:butt;stroke-linejoin:miter;stroke-opacity:1" />
    <path
       sodipodi:nodetypes="cscsscc"
       inkscape:connector-curvature="0"
       id="path3276"
       d="m 599.66457,1809.031 c 51.60054,6.5328 69.89222,45.7908 69.53557,69.1473 -0.35672,23.3565 51.26695,38.0903 71.5221,24.124 -42.11057,37.4152 -95.95231,11.4531 -119.94631,-33.3419 -7.04419,-13.1509 -32.45984,-13.1413 -49.73119,5.435 -15.96302,17.1691 -43.85075,15.3917 -43.85075,15.3917 z"
       style="fill:#ffffff;stroke:none" />
    <path
       sodipodi:nodetypes="cssssc"
       inkscape:connector-curvature="0"
       id="path4546-0-6"
       d="m 767.15761,1782.5103 c -4.9508,67.5084 -78.92218,118.0221 -273.71999,108.4454 -104.34421,-5.1299 -222.77213,-7.6966 -216.72881,-106.5724 6.04345,-98.8756 176.19753,-99.0522 211.27651,-101.922 35.07896,-2.8698 218.16091,4.5668 250.71796,37.6483 20.37993,20.7083 28.67324,41.514 28.45433,62.4007 z"
       style="color:#000000;display:inline;overflow:visible;visibility:visible;fill:#ffffff;fill-opacity:1;fill-rule:nonzero;stroke:none;stroke-width:1px;marker:none;enable-background:accumulate" />
    <path
       sodipodi:nodetypes="cssssc"
       inkscape:connector-curvature="0"
       id="path4546-0"
       d="m 150.55051,1668.1054 c -2.21908,-109.446 85.24908,-126.3281 330.1611,-118.2726 131.18809,4.315 280.05297,5.851 273.37232,107.9964 -6.68082,102.1452 -217.83575,97.7759 -262.02132,98.5204 -47.91574,0.8073 -216.40725,-11.3635 -255.06136,-24.0838 -32.04509,-10.5454 -86.53267,-42.5929 -86.45074,-64.1604 z"
       style="color:#000000;display:inline;overflow:visible;visibility:visible;fill:#ffffff;fill-opacity:1;fill-rule:nonzero;stroke:none;stroke-width:1px;marker:none;enable-background:accumulate" />
    <path
       sodipodi:nodetypes="cssssc"
       inkscape:connector-curvature="0"
       id="path3238"
       d="m 426.64653,376.66033 c -7.57434,-111.5499 89.61051,-160.181 300.17674,-155.11055 210.5662,5.07037 268.23717,75.6538 283.38583,114.94974 15.1487,39.29601 3.3269,132.45064 -126.95148,175.54949 -130.27836,43.09868 -330.42061,16.99772 -391.04743,-31.63117 -52.44654,-42.06747 -64.04882,-74.6025 -65.56366,-103.75751 z"
       style="fill:#ffffff;fill-opacity:1;stroke:none" />
    <flowRoot
       transform="translate(318.33762,6.6910875)"
       style="font-style:normal;font-variant:normal;font-weight:normal;font-stretch:normal;line-height:0.01%;font-family:Lavi;-inkscape-font-specification:Lavi;text-align:center;letter-spacing:0px;word-spacing:0px;text-anchor:middle;fill:#000000;fill-opacity:1;stroke:none"
       id="flowRoot2987-4-9-3-7"
       xml:space="preserve"><flowRegion
         id="flowRegion2989-5-4-5-9"><rect
           style="font-style:normal;font-variant:normal;font-weight:normal;font-stretch:normal;font-family:Lavi;-inkscape-font-specification:Lavi;text-align:center;text-anchor:middle"
           y="265.53046"
           x="120.55251"
           height="312.3837"
           width="577.74487"
           id="rect2991-7-9-6-4" /></flowRegion><flowPara
         id="flowPara4177"
         style="font-size:48px;line-height:1.25;text-align:center;text-anchor:middle">J'i adetoubllié </flowPara><flowPara
         id="flowPara319"
         style="font-size:48px;line-height:1.25;text-align:center;text-anchor:middle">d'enlevaer</flowPara><flowPara
         id="flowPara4179"
         style="font-size:48px;line-height:1.25;text-align:center;text-anchor:middle">mén &quot;système dé</flowPara><flowPara
         id="flowPara4181"
         style="font-size:48px;line-height:1.25;text-align:center;text-anchor:middle">sécurité&quot;...</flowPara></flowRoot>
    <flowRoot
       transform="translate(126.82446,1474.1242)"
       style="font-style:normal;font-variant:normal;font-weight:normal;font-stretch:normal;line-height:0.01%;font-family:Lavi;-inkscape-font-specification:Lavi;text-align:center;letter-spacing:0px;word-spacing:0px;text-anchor:middle;fill:#000000;fill-opacity:1;stroke:none"
       id="flowRoot2987-4-9-3-7-3-7"
       xml:space="preserve"><flowRegion
         id="flowRegion2989-5-4-5-9-3-2"><rect
           style="font-style:normal;font-variant:normal;font-weight:normal;font-stretch:normal;font-family:Lavi;-inkscape-font-specification:Lavi;text-align:center;text-anchor:middle"
           y="265.53046"
           x="120.55251"
           height="312.3837"
           width="577.74487"
           id="rect2991-7-9-6-4-4-0" /></flowRegion><flowPara
         id="flowPara4255-9"
         style="font-size:48px;line-height:1.25;text-align:center;text-anchor:middle">Un brinn iâosouse</flowPara><flowPara
         id="flowPara4292"
         style="font-size:48px;line-height:1.25;text-align:center;text-anchor:middle">i me semblee, nin ?...</flowPara></flowRoot>
    <flowRoot
       transform="translate(49.194963,1330.0413)"
       style="font-style:normal;font-variant:normal;font-weight:normal;font-stretch:normal;line-height:0.01%;font-family:Lavi;-inkscape-font-specification:Lavi;text-align:center;letter-spacing:0px;word-spacing:0px;text-anchor:middle;fill:#000000;fill-opacity:1;stroke:none"
       id="flowRoot2987-4-9-3-7-3-4"
       xml:space="preserve"><flowRegion
         id="flowRegion2989-5-4-5-9-3-0"><rect
           style="font-style:normal;font-variant:normal;font-weight:normal;font-stretch:normal;font-family:Lavi;-inkscape-font-specification:Lavi;text-align:center;text-anchor:middle"
           y="265.53046"
           x="120.55251"
           height="312.3837"
           width="577.74487"
           id="rect2991-7-9-6-4-4-2" /></flowRegion><flowPara
         id="flowPara4298-3"
         style="font-size:48px;line-height:1.25;text-align:center;text-anchor:middle">Et sinoun, coument </flowPara><flowPara
         id="flowPara321"
         style="font-size:48px;line-height:1.25;text-align:center;text-anchor:middle">a étaé la nyit ?</flowPara></flowRoot>
    <flowRoot
       transform="translate(187.00435,2175.4217)"
       style="font-style:normal;font-variant:normal;font-weight:normal;font-stretch:normal;line-height:0.01%;font-family:Lavi;-inkscape-font-specification:Lavi;text-align:center;letter-spacing:0px;word-spacing:0px;text-anchor:middle;fill:#000000;fill-opacity:1;stroke:none"
       id="flowRoot2987-4-9-3-7-3-7-8"
       xml:space="preserve"><flowRegion
         id="flowRegion2989-5-4-5-9-3-2-0"><rect
           style="font-style:normal;font-variant:normal;font-weight:normal;font-stretch:normal;font-family:Lavi;-inkscape-font-specification:Lavi;text-align:center;text-anchor:middle"
           y="265.53046"
           x="120.55251"
           height="312.3837"
           width="577.74487"
           id="rect2991-7-9-6-4-4-0-8" /></flowRegion><flowPara
         id="flowPara4406"
         style="font-size:48px;line-height:1.25;text-align:center;text-anchor:middle">...Ej sis si débâochi,</flowPara><flowPara
         id="flowPara4410"
         style="font-size:48px;line-height:1.25;text-align:center;text-anchor:middle">més sauns raunqueune,</flowPara><flowPara
         id="flowPara4412"
         style="font-size:48px;line-height:1.25;text-align:center;text-anchor:middle"> hein ?</flowPara></flowRoot>
    <flowRoot
       transform="translate(471.17392,2384.631)"
       style="font-style:normal;font-variant:normal;font-weight:normal;font-stretch:normal;line-height:0.01%;font-family:Lavi;-inkscape-font-specification:Lavi;text-align:center;letter-spacing:0px;word-spacing:0px;text-anchor:middle;fill:#000000;fill-opacity:1;stroke:none"
       id="flowRoot2987-4-9-3-7-3-7-8-5"
       xml:space="preserve"><flowRegion
         id="flowRegion2989-5-4-5-9-3-2-0-4"><rect
           style="font-style:normal;font-variant:normal;font-weight:normal;font-stretch:normal;font-family:Lavi;-inkscape-font-specification:Lavi;text-align:center;text-anchor:middle"
           y="265.53046"
           x="120.55251"
           height="312.3837"
           width="577.74487"
           id="rect2991-7-9-6-4-4-0-8-5" /></flowRegion><flowPara
         id="flowPara4412-8"
         style="font-size:48px;line-height:1.25;text-align:center;text-anchor:middle">J'i fais du thé pouor qu'no reprenne touotes dés écrêits aumprès ch't p'tiote mésaventure.</flowPara></flowRoot>
    <flowRoot
       xml:space="preserve"
       id="flowRoot4212-3-7-8-6"
       style="font-style:normal;font-variant:normal;font-weight:normal;font-stretch:normal;line-height:0.01%;font-family:Lavi;-inkscape-font-specification:Lavi;text-align:center;letter-spacing:0px;word-spacing:0px;text-anchor:middle;fill:#000000;fill-opacity:1;stroke:#000000;stroke-width:1.97815;stroke-miterlimit:4;stroke-dasharray:none;stroke-opacity:1"
       transform="matrix(1.0893046,0,0.05787519,1.1966756,-208.64545,-108.66519)"><flowRegion
         id="flowRegion4214-6-7-8-3"><rect
           id="rect4216-4-0-26-5"
           width="798.1947"
           height="355.03918"
           x="120.55251"
           y="265.53046"
           style="font-style:normal;font-variant:normal;font-weight:normal;font-stretch:normal;font-family:Lavi;-inkscape-font-specification:Lavi;text-align:center;text-anchor:middle;stroke:#000000;stroke-width:1.97814989;stroke-miterlimit:4;stroke-dasharray:none;stroke-opacity:1" /></flowRegion><flowPara
         id="flowPara4358-7-1"
         style="font-size:48px;line-height:1.25;text-align:center;letter-spacing:5.20896px;text-anchor:middle;stroke:#000000;stroke-width:1.97815;stroke-miterlimit:4;stroke-dasharray:none;stroke-opacity:1">Débâochi...</flowPara></flowRoot>
    <flowRoot
       transform="translate(30.294829,1140.1741)"
       style="font-style:normal;font-variant:normal;font-weight:normal;font-stretch:normal;line-height:0.01%;font-family:Lavi;-inkscape-font-specification:Lavi;text-align:center;letter-spacing:0px;word-spacing:0px;text-anchor:middle;fill:#000000;fill-opacity:1;stroke:none"
       id="flowRoot2987-4-9-3-7-3-4-6"
       xml:space="preserve"><flowRegion
         id="flowRegion2989-5-4-5-9-3-0-1"><rect
           style="font-style:normal;font-variant:normal;font-weight:normal;font-stretch:normal;font-family:Lavi;-inkscape-font-specification:Lavi;text-align:center;text-anchor:middle"
           y="265.53046"
           x="120.55251"
           height="312.3837"
           width="577.74487"
           id="rect2991-7-9-6-4-4-2-6" /></flowRegion><flowPara
         id="flowPara4298-3-5"
         style="font-size:48px;line-height:1.25;text-align:center;text-anchor:middle">... mais ej sis byin héreus que vos êtes toutes venunes ! ...</flowPara></flowRoot>
    <flowRoot
       style="font-style:normal;font-variant:normal;font-weight:normal;font-stretch:normal;line-height:0.01%;font-family:Arial;-inkscape-font-specification:Arial;letter-spacing:0px;word-spacing:0px;fill:#000000;fill-opacity:1;stroke:none;stroke-width:1px;stroke-linecap:butt;stroke-linejoin:miter;stroke-opacity:1"
       id="flowRoot4519"
       xml:space="preserve"><flowRegion
         id="flowRegion4521"><rect
           y="1792.375"
           x="2866.375"
           height="17.25"
           width="103.5"
           id="rect4523" /></flowRegion><flowPara
         style="font-size:12px;line-height:1.25"
         id="flowPara4525"> </flowPara></flowRoot>
    <path
       inkscape:connector-curvature="0"
       id="path3072"
       d="m 1216.7346,2918.2863 c -43.3715,1.0822 -59.0619,-1.0925 -84.8726,-48.9239 -25.8107,-47.8314 -41.7698,-38.7869 -41.7698,-38.7869 l -1.2183,35.8616 c 0,0 61.508,98.5494 127.8607,51.8492 z"
       style="color:#000000;display:inline;overflow:visible;visibility:visible;fill:#ffffff;fill-opacity:1;fill-rule:nonzero;stroke:none;stroke-width:1px;marker:none;enable-background:accumulate" />
  </g>
</svg>
