<?xml version="1.0" encoding="UTF-8" standalone="no"?>
<!-- Created with Inkscape (http://www.inkscape.org/) -->

<svg
   id="svg2"
   version="1.1"
   inkscape:version="1.1.1 (1:1.1+202109281949+c3084ef5ed)"
   width="2481"
   height="3503"
   sodipodi:docname="E36P15.svg"
   xmlns:inkscape="http://www.inkscape.org/namespaces/inkscape"
   xmlns:sodipodi="http://sodipodi.sourceforge.net/DTD/sodipodi-0.dtd"
   xmlns:xlink="http://www.w3.org/1999/xlink"
   xmlns="http://www.w3.org/2000/svg"
   xmlns:svg="http://www.w3.org/2000/svg"
   xmlns:rdf="http://www.w3.org/1999/02/22-rdf-syntax-ns#"
   xmlns:cc="http://creativecommons.org/ns#"
   xmlns:dc="http://purl.org/dc/elements/1.1/">
  <metadata
     id="metadata8">
    <rdf:RDF>
      <cc:Work
         rdf:about="">
        <dc:format>image/svg+xml</dc:format>
        <dc:type
           rdf:resource="http://purl.org/dc/dcmitype/StillImage" />
      </cc:Work>
    </rdf:RDF>
  </metadata>
  <defs
     id="defs6" />
  <sodipodi:namedview
     pagecolor="#1e1e1e"
     bordercolor="#111111"
     borderopacity="1"
     objecttolerance="10"
     gridtolerance="10"
     guidetolerance="10"
     inkscape:pageopacity="0"
     inkscape:pageshadow="2"
     inkscape:window-width="1920"
     inkscape:window-height="1056"
     id="namedview4"
     showgrid="false"
     inkscape:zoom="1.4071506"
     inkscape:cx="1352.3784"
     inkscape:cy="2203.0336"
     inkscape:window-x="1920"
     inkscape:window-y="0"
     inkscape:window-maximized="1"
     inkscape:current-layer="layer1"
     inkscape:pagecheckerboard="0"
     inkscape:snap-global="false" />
  <g
     inkscape:groupmode="layer"
     id="layer2"
     inkscape:label="artwork"
     sodipodi:insensitive="true">
    <image
       xlink:href="../gfx_Pepper-and-Carrot_by-David-Revoy_E36P15.png"
       y="0"
       x="0"
       id="image10"
       height="3503"
       width="2481" />
  </g>
  <g
     inkscape:groupmode="layer"
     id="layer3"
     inkscape:label="speechbubbles"
     style="display:inline">
    <path
       sodipodi:nodetypes="zssssz"
       inkscape:connector-curvature="0"
       id="path4040-4-9-3"
       d="m 297.97213,1085.1722 c -41.09662,0.5348 -82.59316,8.0202 -119.16887,25.0742 -18.43522,9.4558 -34.49227,23.6891 -42.14696,41.5884 -7.07423,20.6995 -7.794,43.5798 0.7732,64.0208 9.79236,21.7078 32.08258,38.2707 57.52435,43.8668 23.40399,5.5807 47.81687,3.0217 71.67969,2.3157 19.59506,-0.778 39.2538,-1.0893 58.82355,0.3023 39.79681,1.2994 79.64918,-0.7615 119.22495,-4.4534 17.97863,-2.1415 36.23894,-7.2943 49.93118,-18.2764 15.75683,-12.5577 23.66093,-31.3912 24.7828,-49.8809 1.35578,-16.7528 -1.60856,-34.4346 -12.2609,-48.6358 -9.69447,-12.7166 -24.59394,-21.0817 -38.77327,-29.3667 -20.87516,-11.8426 -44.48257,-20.4327 -69.272,-22.5947 -31.88951,-3.6306 -64.10176,-3.7182 -96.19812,-3.9666 -1.63987,0 -3.27973,0 -4.9196,0.01 z"
       style="color:#000000;display:inline;overflow:visible;visibility:visible;fill:#ffffff;fill-opacity:1;fill-rule:nonzero;stroke:none;stroke-width:1.05676px;marker:none;enable-background:accumulate" />
    <path
       sodipodi:nodetypes="zssssz"
       inkscape:connector-curvature="0"
       id="path4040-4-9-3-0"
       d="m 1029.5218,1104.2748 c -65.50025,0.6452 -132.22321,5.7225 -193.87528,27.2362 -20.41057,7.1074 -39.58238,21.0634 -45.71528,40.8274 -7.46156,23.5475 4.07024,49.2855 23.83673,64.9858 17.54079,14.2208 40.57116,20.8677 62.89651,26.1281 40.8424,8.7248 82.99638,10.0899 124.75052,11.6213 89.8209,2.5795 179.6271,-2.5414 269.158,-8.6252 37.3167,-2.8393 75.8614,-9.1366 107.6498,-28.2133 28.6447,-19.2428 38.9065,-59.0686 19.7091,-86.9357 -13.0779,-19.0725 -36.4182,-30.425 -60.236,-34.4716 -38.0701,-7.0561 -77.0858,-7.8082 -115.7783,-9.3 -46.6716,-1.5299 -93.3742,-2.1286 -140.0658,-2.9692 -17.442,-0.2288 -34.886,-0.3939 -52.33,-0.2838 z"
       style="color:#000000;display:inline;overflow:visible;visibility:visible;fill:#ffffff;fill-opacity:1;fill-rule:nonzero;stroke:none;stroke-width:1.35486px;marker:none;enable-background:accumulate" />
    <path
       sodipodi:nodetypes="zssssz"
       inkscape:connector-curvature="0"
       id="path4040-4-9-3-0-9"
       d="m 1492.7227,1148.7539 c -35.8427,0.9418 -72.3764,7.9091 -103.691,26.0636 -18.5701,11.5176 -28.6184,33.6874 -28.5329,55.1371 -0.923,26.0096 8.9491,53.1573 29.2563,70.0462 18.16,14.7179 41.3962,20.9775 64.0439,24.7412 30.9385,4.8585 62.3246,5.9478 93.5943,6.2378 40.4962,-0.042 81.1522,-2.7642 120.9022,-10.773 23.1135,-5.8343 45.6879,-17.7587 59.9199,-37.3826 15.4703,-21.7956 20.0404,-51.9144 8.7045,-76.5307 -9.7509,-21.8065 -30.8471,-37.7553 -54.2267,-42.1196 -34.0982,-8.8531 -69.4864,-9.7386 -104.4356,-12.1933 -28.4639,-1.9835 -56.9947,-3.3854 -85.5349,-3.2267 z"
       style="color:#000000;display:inline;overflow:visible;visibility:visible;fill:#ffffff;fill-opacity:1;fill-rule:nonzero;stroke:none;stroke-width:1.09777px;marker:none;enable-background:accumulate" />
    <path
       style="fill:#ffffff;fill-rule:evenodd;stroke:none;stroke-width:1.12273px;stroke-linecap:butt;stroke-linejoin:miter;stroke-opacity:1"
       d="M 314.46875 1250.875 C 272.98525 1251.9772 231.26919 1250.5385 190.05233 1256.2501 C 176.92544 1258.3007 164.30404 1263.4711 153.67492 1271.4699 C 132.925 1286.6048 119.13486 1310.6917 116.24014 1336.1816 C 112.99162 1357.7311 113.30684 1380.0876 119.16624 1401.1698 C 124.68541 1418.7321 137.02146 1434.2758 153.55286 1442.6258 C 172.02518 1452.6579 192.93764 1456.6389 213.3984 1460.4143 C 252.91492 1467.1061 293.15815 1467.7867 333.13528 1466.8396 C 361.61953 1465.9419 389.95763 1462.6949 418.40681 1461.1912 C 444.60401 1459.4999 471.09854 1456.6686 495.8961 1447.5511 C 507.83423 1443.4118 520.44944 1438.5735 528.61708 1428.4345 C 537.83545 1416.5711 540.40194 1401.1828 541.61781 1386.5967 C 543.48164 1361.4976 541.05213 1335.959 533.59243 1311.8846 C 530.49395 1302.3898 526.70258 1292.913 520.7399 1284.8323 C 512.45978 1275.0277 500.12978 1269.9728 488.01197 1266.7768 C 458.31475 1256.9635 426.75936 1256.0202 395.79842 1254.5339 C 368.70109 1253.0948 341.63045 1250.5419 314.46875 1250.875 z "
       id="path4430-0"
       inkscape:connector-curvature="0"
       sodipodi:nodetypes="cccc" />
    <path
       style="fill:#ffffff;fill-rule:evenodd;stroke:none;stroke-width:0.994835px;stroke-linecap:butt;stroke-linejoin:miter;stroke-opacity:1"
       d="m 492.73176,1624.6635 c 35.8435,-75.0596 29.27963,-94.5713 28.30936,-110.3154 -16.52174,13.049 -24.86604,17.1296 -24.65914,16.0987 3.00972,-14.9956 -37.0191,-160.0643 -46.02432,-155.6225 l 25.72144,3.5806 c 0,0 17.88665,28.959 23.68535,50.3037 5.37124,19.7714 9.79616,68.3744 9.79616,68.3744 0,0 11.77629,-10.107 19.5645,-13.9247 2.56416,14.0835 32.14557,54.8133 -36.39335,141.5052 z"
       id="path891"
       inkscape:connector-curvature="0"
       sodipodi:nodetypes="ccsccsccc" />
    <path
       id="path889"
       style="fill:#ffffff;fill-rule:evenodd;stroke:none;stroke-width:1.24994px;stroke-linecap:butt;stroke-linejoin:miter;stroke-opacity:1"
       d="m 1991.1735,1087.207 c -7.0232,7.1006 -12.9809,15.3334 -17.8055,23.8555 -16.5189,29.3584 -27.2834,61.6835 -33.4416,94.6309 -6.4942,36.848 -4.3448,74.567 0.4779,111.4726 5.9276,42.5712 17.6374,85.3983 41.9845,121.5488 15.6051,19.7527 40.293,30.0526 64.68,34.584 31.6288,6.7098 63.7191,12.0772 96.1049,13.1582 36.5154,0.3123 72.887,-5.4405 108.1398,-14.5234 30.4847,-8.8832 60.3426,-24.1174 80.4034,-49.0352 14.3515,-18.542 20.3165,-41.5774 25.4521,-63.9179 15.9829,-64.8069 19.9846,-133.4847 3.8688,-198.6739 -3.6915,-14.3174 -7.6798,-28.8357 -15.0372,-41.8046 -7.3543,-12.3882 -17.3712,-22.8685 -28.9898,-31.295 z" />
    <path
       style="display:inline;fill:#ffffff;stroke:none;stroke-width:0.912419"
       d="m 2024.0972,1656.5295 c -36.2076,-29.4781 -50.7799,-119.2023 -15.5488,-162.3147 20.7862,-25.4361 31.6921,-40.9014 31.6921,-40.9014 l -27.6324,-16.4993 c -85.537,95.2453 -31.5876,190.6132 11.4891,219.7154 z"
       id="path3063-1-0"
       inkscape:connector-curvature="0"
       sodipodi:nodetypes="csccc" />
    <path
       style="fill:#ffffff;fill-rule:evenodd;stroke:none;stroke-width:0.983173px;stroke-linecap:butt;stroke-linejoin:miter;stroke-opacity:1"
       d="m 1434.282,2281.4559 c -40.2792,0.7026 -81.097,4.8115 -119.1504,18.7637 -18.1024,6.8429 -35.417,17.8775 -46.0488,34.418 -10.2583,21.8242 -9.4933,48.9944 3.5166,69.5221 7.1656,11.4098 17.9569,20.106 29.8547,26.2099 16.2675,8.5056 34.1854,13.2898 52.1055,16.8475 29.8501,5.4982 60.306,6.629 90.595,6.5874 39.7438,-0.3752 79.5003,-3.6878 118.6612,-10.529 24.9582,-5.3052 50.2611,-12.4171 71.4106,-27.2299 10.5121,-10.5331 14.823,-25.4002 17.4725,-39.6487 4.344,-23.2257 -4.641,-49.0226 -23.983,-63.0629 -13.687,-9.5068 -30.0912,-13.7746 -46.0136,-17.8978 -26.4076,-6.1271 -53.4695,-8.5654 -80.3781,-11.3709 -22.6239,-1.9326 -45.3386,-2.7215 -68.0422,-2.6094 z"
       id="path4430-0-7"
       inkscape:connector-curvature="0"
       sodipodi:nodetypes="cccc" />
    <path
       style="display:inline;fill:#ffffff;fill-rule:evenodd;stroke:none;stroke-width:0.693785px;stroke-linecap:butt;stroke-linejoin:miter;stroke-opacity:1"
       d="m 1102.6016,2911.2658 c -26.8278,0.5523 -54.4026,5.9365 -77.157,20.6199 -17.117,11.9646 -25.44562,33.6236 -23.78,53.9178 0.6616,20.3498 10.4888,40.9412 28.0281,52.2325 16.6196,10.8907 36.2599,16.1547 55.7106,19.5 28.614,4.6057 58.0865,6.9564 86.7842,1.6718 17.6021,-3.395 35.2827,-9.2041 49.5198,-20.3056 8.9874,-6.9276 15.8817,-16.492 19.0911,-27.3378 6.2362,-18.9661 6.1541,-40.3619 -2.0957,-58.7248 -6.9018,-14.1411 -20.6531,-24.3914 -35.9432,-28.2086 -22.262,-7.0573 -45.6183,-9.6786 -68.7544,-12.2527 -10.4414,-0.8724 -20.9254,-1.2574 -31.4035,-1.1125 z"
       id="path4430-0-7-3"
       inkscape:connector-curvature="0"
       sodipodi:nodetypes="cccc" />
    <path
       style="color:#000000;display:inline;overflow:visible;visibility:visible;fill:#ffffff;fill-opacity:1;fill-rule:nonzero;stroke:none;stroke-width:0.933879px;marker:none;enable-background:accumulate"
       d="m 1510.6073,2424.7097 c 95.8683,30.7313 27.8183,159.8015 -2.9543,189.2123 50.4373,-43.5579 100.0481,-123.5802 33.0541,-217.2104 -31.2156,-43.6267 -19.8493,18.5629 -19.8493,18.5629 z"
       id="path4035-4"
       inkscape:connector-curvature="0"
       sodipodi:nodetypes="ccscc" />
    <path
       style="color:#000000;display:inline;overflow:visible;visibility:visible;fill:#ffffff;fill-opacity:1;fill-rule:nonzero;stroke:none;stroke-width:1.4586px;marker:none;enable-background:accumulate"
       d="m 1034.1812,2110.8934 c -70.46714,1.232 -141.10506,1.6283 -211.02123,6.0753 -41.29368,3.1071 -82.995,9.2089 -118.3563,29.5022 -25.01164,14.8793 -46.84006,38.0047 -55.02902,69.7993 -5.08365,20.391 -1.77571,44.4164 8.89749,64.9956 12.59099,25.292 35.1865,45.4704 59.46081,51.8479 31.7951,10.5651 63.89712,12.8678 95.82768,19.0703 101.38538,14.8809 201.12717,10.6038 300.06677,5.6001 38.4606,-2.1953 77.3254,-4.8703 112.9686,-17.359 24.6813,-9.2597 47.9769,-25.4838 59.2771,-52.1299 15.4091,-37.9796 2.6929,-92.8506 -31.0828,-123.5797 -25.698,-23.2021 -57.0312,-32.8207 -86.8834,-40.2408 -44.9145,-10.5145 -89.8951,-13.867 -134.1257,-13.5813 z"
       id="path4546-6-5-5"
       inkscape:connector-curvature="0"
       sodipodi:nodetypes="cssssc" />
    <path
       style="color:#000000;display:inline;overflow:visible;visibility:visible;fill:#ffffff;fill-opacity:1;fill-rule:nonzero;stroke:none;stroke-width:0.511885px;marker:none;enable-background:accumulate"
       d="m 1198.7358,2292.3553 c -58.4517,90.8359 85.6046,288.3485 132.7428,310.3129 -51.7175,-3.6213 -215.024,-222.6528 -167.3541,-289.5926 16.3894,-23.014 93.063,-111.5562 34.6113,-20.7203 z"
       id="path4480-6"
       inkscape:connector-curvature="0"
       sodipodi:nodetypes="zcsz" />
    <path
       style="fill:#ffffff;stroke:none;stroke-width:1.22863"
       d="m 1132.3337,2836.1319 c 6.9881,13.1882 16.9513,18.3851 13.6567,35.0595 -18.6808,32.3624 -3.398,71.476 20.2436,84.4218 3.4934,10.3144 -10.2432,41.0229 -10.2432,41.0229 -31.6711,-50.3948 -47.4892,-83.1315 -25.5958,-126.3842 3.8504,-6.927 -8.3872,-14.7062 -12.2361,-26.3855 -3.8491,-11.6793 -4.7084,-20.1125 -0.097,-40.9935 3.9527,-17.898 39.9891,-41.3608 39.9891,-41.3608 -27.433,31.2471 -35.5926,52.7621 -25.7173,74.6198 z"
       id="path3023-4"
       inkscape:connector-curvature="0"
       sodipodi:nodetypes="cccccsscc" />
    <path
       style="display:inline;color:#000000;overflow:visible;visibility:visible;fill:#ffffff;fill-opacity:1;fill-rule:nonzero;stroke:none;stroke-width:1.24837px;marker:none;enable-background:accumulate"
       d="m 1376.3349,1458.4408 c 65.8497,-28.0462 73.8682,-93.2932 85.6163,-133.8532 16.6063,-57.3342 4.4593,-31.0509 4.4593,-31.0509 l 17.674,-21.5326 c 11.5377,-2.8141 18.9907,153.1862 -107.7496,186.4367 z"
       id="path3072-1-3"
       inkscape:connector-curvature="0"
       sodipodi:nodetypes="csccc" />
  </g>
  <g
     inkscape:groupmode="layer"
     id="layer1"
     inkscape:label="txt"
     style="display:inline">
    <text
       id="text4246-4-2-7"
       y="1159.6787"
       x="326.35803"
       style="font-style:normal;font-variant:normal;font-weight:normal;font-stretch:normal;line-height:0%;font-family:Lavi;-inkscape-font-specification:Lavi;text-align:center;letter-spacing:0px;word-spacing:0px;text-anchor:middle;fill:#000000;fill-opacity:1;stroke:none"
       xml:space="preserve"><tspan
         y="1159.6787"
         x="326.35803"
         style="font-size:45px;line-height:1.25"
         sodipodi:role="line"
         id="tspan907">Mais qu'est-ce</tspan><tspan
         y="1215.9287"
         x="326.35803"
         style="font-size:45px;line-height:1.25"
         sodipodi:role="line"
         id="tspan1999">qu'il se passe ?</tspan></text>
    <text
       id="text4246-4-2-7-3"
       y="1307.0507"
       x="330.63736"
       style="font-style:normal;font-variant:normal;font-weight:normal;font-stretch:normal;line-height:0%;font-family:Lavi;-inkscape-font-specification:Lavi;text-align:center;letter-spacing:0px;word-spacing:0px;text-anchor:middle;fill:#000000;fill-opacity:1;stroke:none"
       xml:space="preserve"><tspan
         y="1307.0507"
         x="330.63736"
         style="font-size:45px;line-height:1.25"
         sodipodi:role="line"
         id="tspan1999-7">Certains</tspan><tspan
         y="1363.3007"
         x="330.63736"
         style="font-size:45px;line-height:1.25"
         sodipodi:role="line"
         id="tspan14801">commencent à </tspan><tspan
         y="1419.5507"
         x="330.63736"
         style="font-size:45px;line-height:1.25"
         sodipodi:role="line"
         id="tspan48107"><tspan
           style="font-style:normal;font-variant:normal;font-weight:bold;font-stretch:normal;font-family:Lavi;-inkscape-font-specification:'Lavi Bold'"
           id="tspan59033">s'embrasser... ?!</tspan></tspan></text>
    <text
       id="text4246-4-2-7-3-6"
       y="1179.7714"
       x="1098.0321"
       style="font-style:normal;font-variant:normal;font-weight:normal;font-stretch:normal;line-height:0%;font-family:Lavi;-inkscape-font-specification:Lavi;text-align:center;letter-spacing:0px;word-spacing:0px;text-anchor:middle;fill:#000000;fill-opacity:1;stroke:none"
       xml:space="preserve"><tspan
         y="1179.7714"
         x="1098.0321"
         style="font-size:45px;line-height:1.25"
         sodipodi:role="line"
         id="tspan48107-1">Heu... ça fait un paquet</tspan><tspan
         y="1236.0214"
         x="1098.0321"
         style="font-size:45px;line-height:1.25"
         sodipodi:role="line"
         id="tspan67460">de nouveaux couples ça !</tspan></text>
    <text
       id="text4246-4-2-7-3-6-3"
       y="1227.8654"
       x="1555.7726"
       style="font-style:normal;font-variant:normal;font-weight:normal;font-stretch:normal;line-height:0%;font-family:Lavi;-inkscape-font-specification:Lavi;text-align:center;letter-spacing:0px;word-spacing:0px;text-anchor:middle;fill:#000000;fill-opacity:1;stroke:none"
       xml:space="preserve"><tspan
         y="1227.8654"
         x="1555.7726"
         style="font-size:45px;line-height:1.25"
         sodipodi:role="line"
         id="tspan67460-0">C'était prévu,</tspan><tspan
         y="1284.1154"
         x="1555.7726"
         style="font-size:45px;line-height:1.25"
         sodipodi:role="line"
         id="tspan72570">Pepper ?</tspan></text>
    <text
       id="text4246-4-2-7-3-6-3-6"
       y="1156.1056"
       x="2157.8196"
       style="font-style:normal;font-variant:normal;font-weight:normal;font-stretch:normal;line-height:0%;font-family:Lavi;-inkscape-font-specification:Lavi;text-align:center;letter-spacing:0px;word-spacing:0px;text-anchor:middle;fill:#000000;fill-opacity:1;stroke:none"
       xml:space="preserve"><tspan
         y="1156.1056"
         x="2157.8196"
         style="font-size:45px;line-height:1.25"
         sodipodi:role="line"
         id="tspan74667">Oh non ! Je crois</tspan><tspan
         y="1212.3556"
         x="2157.8196"
         style="font-size:45px;line-height:1.25"
         sodipodi:role="line"
         id="tspan77907">que c'est le Réa</tspan><tspan
         y="1268.6056"
         x="2157.8196"
         style="font-size:45px;line-height:1.25"
         sodipodi:role="line"
         id="tspan77909">du dragon qui a</tspan><tspan
         y="1324.8556"
         x="2157.8196"
         style="font-size:45px;line-height:1.25"
         sodipodi:role="line"
         id="tspan77911">surdosé l'amour</tspan><tspan
         y="1381.1056"
         x="2157.8196"
         style="font-size:45px;line-height:1.25"
         sodipodi:role="line"
         id="tspan77913">dans mon</tspan><tspan
         y="1437.3556"
         x="2157.8196"
         style="font-size:45px;line-height:1.25"
         sodipodi:role="line"
         id="tspan77915">sortilège.</tspan></text>
    <text
       id="text4246-4-2-7-3-6-3-6-1"
       y="2196.5691"
       x="965.97968"
       style="font-style:normal;font-variant:normal;font-weight:normal;font-stretch:normal;line-height:0%;font-family:Lavi;-inkscape-font-specification:Lavi;text-align:center;letter-spacing:0px;word-spacing:0px;text-anchor:middle;fill:#000000;fill-opacity:1;stroke:none"
       xml:space="preserve"><tspan
         y="2196.5691"
         x="965.97968"
         style="font-size:45px;line-height:1.25"
         sodipodi:role="line"
         id="tspan11309">Haha, cette bataille va</tspan><tspan
         y="2252.8191"
         x="965.97968"
         style="font-size:45px;line-height:1.25"
         sodipodi:role="line"
         id="tspan83228">entrer directement dans</tspan><tspan
         y="2309.0691"
         x="965.97968"
         style="font-size:45px;line-height:1.25"
         sodipodi:role="line"
         id="tspan11317"> les manuels d'histoire !</tspan></text>
    <text
       id="text4246-4-2-7-3-6-3-6-1-3"
       y="2350.5242"
       x="1456"
       style="font-style:normal;font-variant:normal;font-weight:normal;font-stretch:normal;line-height:0%;font-family:Lavi;-inkscape-font-specification:Lavi;text-align:center;letter-spacing:0px;word-spacing:0px;text-anchor:middle;fill:#000000;fill-opacity:1;stroke:none"
       xml:space="preserve"><tspan
         y="2350.5242"
         x="1456"
         style="font-size:45px;line-height:1.25"
         sodipodi:role="line"
         id="tspan83228-9">Hi, hi !</tspan></text>
    <text
       id="text4246-4-2-7-3-6-3-6-1-3-2"
       y="2400.8943"
       x="1464.8267"
       style="font-style:normal;font-variant:normal;font-weight:normal;font-stretch:normal;line-height:0%;font-family:Lavi;-inkscape-font-specification:Lavi;text-align:center;letter-spacing:0px;word-spacing:0px;text-anchor:middle;fill:#000000;fill-opacity:1;stroke:none"
       xml:space="preserve"><tspan
         y="2400.8943"
         x="1464.8267"
         style="font-size:45px;line-height:1.25"
         sodipodi:role="line"
         id="tspan83228-9-2">Certainement !</tspan></text>
    <text
       id="text4246-4-2-7-3-6-3-6-1-3-2-8"
       y="2970.5569"
       x="1129.4034"
       style="font-style:normal;font-variant:normal;font-weight:normal;font-stretch:normal;font-size:42px;line-height:0%;font-family:Lavi;-inkscape-font-specification:Lavi;text-align:center;letter-spacing:0px;word-spacing:0px;text-anchor:middle;fill:#000000;fill-opacity:1;stroke:none"
       xml:space="preserve"><tspan
         y="2970.5569"
         x="1129.4034"
         style="font-size:42px;line-height:1.25"
         sodipodi:role="line"
         id="tspan21813">Rhôo,</tspan><tspan
         y="3023.0569"
         x="1129.4034"
         style="font-size:42px;line-height:1.25"
         sodipodi:role="line"
         id="tspan92338">la honte !</tspan></text>
    <text
       transform="matrix(0.85852879,0,-0.29243083,1.1647833,0,0)"
       id="text4213-7"
       y="2982.4719"
       x="2454.0139"
       style="display:inline;font-style:normal;font-variant:normal;font-weight:normal;font-stretch:normal;font-size:10.7631px;line-height:0%;font-family:Lavi;-inkscape-font-specification:Lavi;text-align:center;letter-spacing:0px;word-spacing:0px;text-anchor:middle;fill:#d97041;fill-opacity:1;stroke:#000000;stroke-width:0;stroke-miterlimit:4;stroke-dasharray:none;stroke-opacity:1"
       xml:space="preserve"><tspan
         style="font-style:normal;font-variant:normal;font-weight:bold;font-stretch:normal;font-size:64.7408px;line-height:1.25;font-family:Lavi;-inkscape-font-specification:'Lavi Bold';fill:#d97041;fill-opacity:1;stroke:none;stroke-width:0;stroke-miterlimit:4;stroke-dasharray:none"
         y="2982.4719"
         x="2454.0139"
         id="tspan3562-5"
         sodipodi:role="line">- FIN -</tspan></text>
  </g>
</svg>
