<?xml version="1.0" encoding="UTF-8" standalone="no"?>
<!-- Created with Inkscape (http://www.inkscape.org/) -->

<svg
   xmlns:dc="http://purl.org/dc/elements/1.1/"
   xmlns:cc="http://creativecommons.org/ns#"
   xmlns:rdf="http://www.w3.org/1999/02/22-rdf-syntax-ns#"
   xmlns:svg="http://www.w3.org/2000/svg"
   xmlns="http://www.w3.org/2000/svg"
   xmlns:xlink="http://www.w3.org/1999/xlink"
   xmlns:sodipodi="http://sodipodi.sourceforge.net/DTD/sodipodi-0.dtd"
   xmlns:inkscape="http://www.inkscape.org/namespaces/inkscape"
   id="svg2"
   version="1.1"
   inkscape:version="0.92.2 5c3e80d, 2017-08-06"
   width="2481"
   height="3503"
   sodipodi:docname="E21P06.svg">
  <metadata
     id="metadata8">
    <rdf:RDF>
      <cc:Work
         rdf:about="">
        <dc:format>image/svg+xml</dc:format>
        <dc:type
           rdf:resource="http://purl.org/dc/dcmitype/StillImage" />
        <dc:title />
      </cc:Work>
    </rdf:RDF>
  </metadata>
  <defs
     id="defs6">
    <filter
       inkscape:label="underwater"
       inkscape:menu="Distort"
       inkscape:menu-tooltip="Something like a water noise"
       height="1.3"
       y="-0.15"
       width="1.3"
       x="-0.15"
       style="color-interpolation-filters:sRGB;"
       id="filter4172">
      <feTurbulence
         numOctaves="1"
         seed="196"
         type="fractalNoise"
         baseFrequency="0.017000000000000001"
         result="result1"
         id="feTurbulence4174" />
      <feGaussianBlur
         stdDeviation="2"
         result="result2"
         id="feGaussianBlur4176" />
      <feDisplacementMap
         scale="50"
         yChannelSelector="B"
         xChannelSelector="R"
         in="SourceGraphic"
         in2="result2"
         id="feDisplacementMap4178" />
    </filter>
    <filter
       inkscape:label="txt-underwater"
       inkscape:menu="Distort"
       inkscape:menu-tooltip="Something like a water noise"
       height="1.3"
       y="-0.15"
       width="1.3"
       x="-0.15"
       style="color-interpolation-filters:sRGB;"
       id="filter4186">
      <feTurbulence
         numOctaves="5"
         seed="95"
         type="fractalNoise"
         baseFrequency="0.0080000000000000002"
         result="result1"
         id="feTurbulence4188" />
      <feGaussianBlur
         stdDeviation="2"
         result="result2"
         id="feGaussianBlur4190" />
      <feDisplacementMap
         scale="50"
         yChannelSelector="B"
         xChannelSelector="R"
         in="SourceGraphic"
         in2="result2"
         id="feDisplacementMap4192" />
    </filter>
    <filter
       style="color-interpolation-filters:sRGB"
       id="filter4375-4-1-1-1-9"
       inkscape:label="deevad outline effect">
      <feFlood
         id="feFlood4377-7-9-0-8-1"
         flood-opacity="1"
         flood-color="rgb(0,0,0)"
         result="flood" />
      <feComposite
         id="feComposite4379-3-8-8-2-77"
         in2="SourceGraphic"
         in="flood"
         operator="in"
         result="composite1" />
      <feMorphology
         id="feMorphology4393-1-0-49-8-9"
         operator="dilate"
         radius="4"
         result="result3" />
      <feComposite
         id="feComposite4385-9-5-7-0-8"
         in2="result3"
         in="SourceGraphic"
         operator="over"
         result="composite2" />
    </filter>
    <filter
       style="color-interpolation-filters:sRGB"
       id="filter4375-4-1-1-1-9-3"
       inkscape:label="deevad outline effect">
      <feFlood
         id="feFlood4377-7-9-0-8-1-6"
         flood-opacity="1"
         flood-color="rgb(0,0,0)"
         result="flood" />
      <feComposite
         id="feComposite4379-3-8-8-2-77-7"
         in2="SourceGraphic"
         in="flood"
         operator="in"
         result="composite1" />
      <feMorphology
         id="feMorphology4393-1-0-49-8-9-5"
         operator="dilate"
         radius="4"
         result="result3" />
      <feComposite
         id="feComposite4385-9-5-7-0-8-3"
         in2="result3"
         in="SourceGraphic"
         operator="over"
         result="composite2" />
    </filter>
    <filter
       style="color-interpolation-filters:sRGB"
       id="filter4375-4-1-1-1-9-3-2"
       inkscape:label="deevad outline effect">
      <feFlood
         id="feFlood4377-7-9-0-8-1-6-9"
         flood-opacity="1"
         flood-color="rgb(0,0,0)"
         result="flood" />
      <feComposite
         id="feComposite4379-3-8-8-2-77-7-1"
         in2="SourceGraphic"
         in="flood"
         operator="in"
         result="composite1" />
      <feMorphology
         id="feMorphology4393-1-0-49-8-9-5-2"
         operator="dilate"
         radius="4"
         result="result3" />
      <feComposite
         id="feComposite4385-9-5-7-0-8-3-7"
         in2="result3"
         in="SourceGraphic"
         operator="over"
         result="composite2" />
    </filter>
    <filter
       style="color-interpolation-filters:sRGB"
       id="filter4375-4-1-1-1-9-3-2-3"
       inkscape:label="deevad outline effect">
      <feFlood
         id="feFlood4377-7-9-0-8-1-6-9-6"
         flood-opacity="1"
         flood-color="rgb(0,0,0)"
         result="flood" />
      <feComposite
         id="feComposite4379-3-8-8-2-77-7-1-0"
         in2="SourceGraphic"
         in="flood"
         operator="in"
         result="composite1" />
      <feMorphology
         id="feMorphology4393-1-0-49-8-9-5-2-6"
         operator="dilate"
         radius="4"
         result="result3" />
      <feComposite
         id="feComposite4385-9-5-7-0-8-3-7-2"
         in2="result3"
         in="SourceGraphic"
         operator="over"
         result="composite2" />
    </filter>
    <filter
       style="color-interpolation-filters:sRGB"
       id="filter4375-4-1-1-1-9-3-2-3-8"
       inkscape:label="deevad outline effect">
      <feFlood
         id="feFlood4377-7-9-0-8-1-6-9-6-7"
         flood-opacity="1"
         flood-color="rgb(0,0,0)"
         result="flood" />
      <feComposite
         id="feComposite4379-3-8-8-2-77-7-1-0-9"
         in2="SourceGraphic"
         in="flood"
         operator="in"
         result="composite1" />
      <feMorphology
         id="feMorphology4393-1-0-49-8-9-5-2-6-2"
         operator="dilate"
         radius="4"
         result="result3" />
      <feComposite
         id="feComposite4385-9-5-7-0-8-3-7-2-0"
         in2="result3"
         in="SourceGraphic"
         operator="over"
         result="composite2" />
    </filter>
    <filter
       style="color-interpolation-filters:sRGB"
       id="filter4375-4-1-1-1-9-3-2-3-8-7"
       inkscape:label="deevad outline effect">
      <feFlood
         id="feFlood4377-7-9-0-8-1-6-9-6-7-5"
         flood-opacity="1"
         flood-color="rgb(0,0,0)"
         result="flood" />
      <feComposite
         id="feComposite4379-3-8-8-2-77-7-1-0-9-9"
         in2="SourceGraphic"
         in="flood"
         operator="in"
         result="composite1" />
      <feMorphology
         id="feMorphology4393-1-0-49-8-9-5-2-6-2-2"
         operator="dilate"
         radius="4"
         result="result3" />
      <feComposite
         id="feComposite4385-9-5-7-0-8-3-7-2-0-2"
         in2="result3"
         in="SourceGraphic"
         operator="over"
         result="composite2" />
    </filter>
    <filter
       style="color-interpolation-filters:sRGB"
       id="filter4375-4-1-1-1-9-3-2-3-8-7-7"
       inkscape:label="deevad outline effect">
      <feFlood
         id="feFlood4377-7-9-0-8-1-6-9-6-7-5-3"
         flood-opacity="1"
         flood-color="rgb(0,0,0)"
         result="flood" />
      <feComposite
         id="feComposite4379-3-8-8-2-77-7-1-0-9-9-6"
         in2="SourceGraphic"
         in="flood"
         operator="in"
         result="composite1" />
      <feMorphology
         id="feMorphology4393-1-0-49-8-9-5-2-6-2-2-1"
         operator="dilate"
         radius="4"
         result="result3" />
      <feComposite
         id="feComposite4385-9-5-7-0-8-3-7-2-0-2-2"
         in2="result3"
         in="SourceGraphic"
         operator="over"
         result="composite2" />
    </filter>
    <filter
       style="color-interpolation-filters:sRGB"
       id="filter4375-4-1-1-1-9-3-2-3-8-7-7-1"
       inkscape:label="deevad outline effect">
      <feFlood
         id="feFlood4377-7-9-0-8-1-6-9-6-7-5-3-9"
         flood-opacity="1"
         flood-color="rgb(0,0,0)"
         result="flood" />
      <feComposite
         id="feComposite4379-3-8-8-2-77-7-1-0-9-9-6-4"
         in2="SourceGraphic"
         in="flood"
         operator="in"
         result="composite1" />
      <feMorphology
         id="feMorphology4393-1-0-49-8-9-5-2-6-2-2-1-7"
         operator="dilate"
         radius="4"
         result="result3" />
      <feComposite
         id="feComposite4385-9-5-7-0-8-3-7-2-0-2-2-8"
         in2="result3"
         in="SourceGraphic"
         operator="over"
         result="composite2" />
    </filter>
    <filter
       style="color-interpolation-filters:sRGB"
       id="filter4375-4-1-1-1-9-3-2-3-8-7-6"
       inkscape:label="deevad outline effect">
      <feFlood
         id="feFlood4377-7-9-0-8-1-6-9-6-7-5-32"
         flood-opacity="1"
         flood-color="rgb(95,141,211)"
         result="flood" />
      <feComposite
         id="feComposite4379-3-8-8-2-77-7-1-0-9-9-0"
         in2="SourceGraphic"
         in="flood"
         operator="in"
         result="composite1" />
      <feMorphology
         id="feMorphology4393-1-0-49-8-9-5-2-6-2-2-6"
         operator="dilate"
         radius="4"
         result="result3" />
      <feComposite
         id="feComposite4385-9-5-7-0-8-3-7-2-0-2-1"
         in2="result3"
         in="SourceGraphic"
         operator="over"
         result="composite2" />
    </filter>
    <filter
       style="color-interpolation-filters:sRGB"
       id="filter4375-4-1-1-1-9-3-2-3-8-7-6-4"
       inkscape:label="deevad outline effect">
      <feFlood
         id="feFlood4377-7-9-0-8-1-6-9-6-7-5-32-7"
         flood-opacity="1"
         flood-color="rgb(95,141,211)"
         result="flood" />
      <feComposite
         id="feComposite4379-3-8-8-2-77-7-1-0-9-9-0-6"
         in2="SourceGraphic"
         in="flood"
         operator="in"
         result="composite1" />
      <feMorphology
         id="feMorphology4393-1-0-49-8-9-5-2-6-2-2-6-5"
         operator="dilate"
         radius="4"
         result="result3" />
      <feComposite
         id="feComposite4385-9-5-7-0-8-3-7-2-0-2-1-6"
         in2="result3"
         in="SourceGraphic"
         operator="over"
         result="composite2" />
    </filter>
    <filter
       style="color-interpolation-filters:sRGB"
       id="filter4375-4-1-1-1-9-3-2-3-7"
       inkscape:label="deevad outline effect">
      <feFlood
         id="feFlood4377-7-9-0-8-1-6-9-6-4"
         flood-opacity="1"
         flood-color="rgb(0,0,0)"
         result="flood" />
      <feComposite
         id="feComposite4379-3-8-8-2-77-7-1-0-5"
         in2="SourceGraphic"
         in="flood"
         operator="in"
         result="composite1" />
      <feMorphology
         id="feMorphology4393-1-0-49-8-9-5-2-6-25"
         operator="dilate"
         radius="4"
         result="result3" />
      <feComposite
         id="feComposite4385-9-5-7-0-8-3-7-2-4"
         in2="result3"
         in="SourceGraphic"
         operator="over"
         result="composite2" />
    </filter>
    <filter
       style="color-interpolation-filters:sRGB"
       id="filter4375-4-1-1-1-9-3-2-7"
       inkscape:label="deevad outline effect">
      <feFlood
         id="feFlood4377-7-9-0-8-1-6-9-4"
         flood-opacity="1"
         flood-color="rgb(0,0,0)"
         result="flood" />
      <feComposite
         id="feComposite4379-3-8-8-2-77-7-1-4"
         in2="SourceGraphic"
         in="flood"
         operator="in"
         result="composite1" />
      <feMorphology
         id="feMorphology4393-1-0-49-8-9-5-2-3"
         operator="dilate"
         radius="4"
         result="result3" />
      <feComposite
         id="feComposite4385-9-5-7-0-8-3-7-0"
         in2="result3"
         in="SourceGraphic"
         operator="over"
         result="composite2" />
    </filter>
    <filter
       style="color-interpolation-filters:sRGB"
       id="filter4375-4-1-1-1-9-3-7"
       inkscape:label="deevad outline effect">
      <feFlood
         id="feFlood4377-7-9-0-8-1-6-8"
         flood-opacity="1"
         flood-color="rgb(0,0,0)"
         result="flood" />
      <feComposite
         id="feComposite4379-3-8-8-2-77-7-6"
         in2="SourceGraphic"
         in="flood"
         operator="in"
         result="composite1" />
      <feMorphology
         id="feMorphology4393-1-0-49-8-9-5-8"
         operator="dilate"
         radius="4"
         result="result3" />
      <feComposite
         id="feComposite4385-9-5-7-0-8-3-8"
         in2="result3"
         in="SourceGraphic"
         operator="over"
         result="composite2" />
    </filter>
    <filter
       style="color-interpolation-filters:sRGB"
       id="filter4375-4-1-1-1-9-3-2-3-7-0"
       inkscape:label="deevad outline effect">
      <feFlood
         id="feFlood4377-7-9-0-8-1-6-9-6-4-6"
         flood-opacity="1"
         flood-color="rgb(0,0,0)"
         result="flood" />
      <feComposite
         id="feComposite4379-3-8-8-2-77-7-1-0-5-8"
         in2="SourceGraphic"
         in="flood"
         operator="in"
         result="composite1" />
      <feMorphology
         id="feMorphology4393-1-0-49-8-9-5-2-6-25-9"
         operator="dilate"
         radius="4"
         result="result3" />
      <feComposite
         id="feComposite4385-9-5-7-0-8-3-7-2-4-2"
         in2="result3"
         in="SourceGraphic"
         operator="over"
         result="composite2" />
    </filter>
    <filter
       style="color-interpolation-filters:sRGB"
       id="filter4375-4-1-1-1-9-3-2-3-7-4"
       inkscape:label="deevad outline effect">
      <feFlood
         id="feFlood4377-7-9-0-8-1-6-9-6-4-9"
         flood-opacity="1"
         flood-color="rgb(0,0,0)"
         result="flood" />
      <feComposite
         id="feComposite4379-3-8-8-2-77-7-1-0-5-5"
         in2="SourceGraphic"
         in="flood"
         operator="in"
         result="composite1" />
      <feMorphology
         id="feMorphology4393-1-0-49-8-9-5-2-6-25-0"
         operator="dilate"
         radius="4"
         result="result3" />
      <feComposite
         id="feComposite4385-9-5-7-0-8-3-7-2-4-4"
         in2="result3"
         in="SourceGraphic"
         operator="over"
         result="composite2" />
    </filter>
    <filter
       style="color-interpolation-filters:sRGB"
       id="filter4375-4-1-1-1-9-3-2-3-7-4-1"
       inkscape:label="deevad outline effect">
      <feFlood
         id="feFlood4377-7-9-0-8-1-6-9-6-4-9-7"
         flood-opacity="1"
         flood-color="rgb(0,0,0)"
         result="flood" />
      <feComposite
         id="feComposite4379-3-8-8-2-77-7-1-0-5-5-2"
         in2="SourceGraphic"
         in="flood"
         operator="in"
         result="composite1" />
      <feMorphology
         id="feMorphology4393-1-0-49-8-9-5-2-6-25-0-7"
         operator="dilate"
         radius="4"
         result="result3" />
      <feComposite
         id="feComposite4385-9-5-7-0-8-3-7-2-4-4-2"
         in2="result3"
         in="SourceGraphic"
         operator="over"
         result="composite2" />
    </filter>
    <filter
       style="color-interpolation-filters:sRGB"
       id="filter4375-4-1-1-1-9-3-2-3-7-4-10"
       inkscape:label="deevad outline effect">
      <feFlood
         id="feFlood4377-7-9-0-8-1-6-9-6-4-9-6"
         flood-opacity="1"
         flood-color="rgb(0,0,0)"
         result="flood" />
      <feComposite
         id="feComposite4379-3-8-8-2-77-7-1-0-5-5-1"
         in2="SourceGraphic"
         in="flood"
         operator="in"
         result="composite1" />
      <feMorphology
         id="feMorphology4393-1-0-49-8-9-5-2-6-25-0-5"
         operator="dilate"
         radius="4"
         result="result3" />
      <feComposite
         id="feComposite4385-9-5-7-0-8-3-7-2-4-4-9"
         in2="result3"
         in="SourceGraphic"
         operator="over"
         result="composite2" />
    </filter>
    <filter
       style="color-interpolation-filters:sRGB"
       id="filter4375-4-1-1-1-9-3-2-3-7-4-0"
       inkscape:label="deevad outline effect">
      <feFlood
         id="feFlood4377-7-9-0-8-1-6-9-6-4-9-9"
         flood-opacity="1"
         flood-color="rgb(0,0,0)"
         result="flood" />
      <feComposite
         id="feComposite4379-3-8-8-2-77-7-1-0-5-5-17"
         in2="SourceGraphic"
         in="flood"
         operator="in"
         result="composite1" />
      <feMorphology
         id="feMorphology4393-1-0-49-8-9-5-2-6-25-0-71"
         operator="dilate"
         radius="4"
         result="result3" />
      <feComposite
         id="feComposite4385-9-5-7-0-8-3-7-2-4-4-1"
         in2="result3"
         in="SourceGraphic"
         operator="over"
         result="composite2" />
    </filter>
    <filter
       style="color-interpolation-filters:sRGB"
       id="filter4375-4-1-1-1-9-3-2-3-7-4-7"
       inkscape:label="deevad outline effect">
      <feFlood
         id="feFlood4377-7-9-0-8-1-6-9-6-4-9-67"
         flood-opacity="1"
         flood-color="rgb(0,0,0)"
         result="flood" />
      <feComposite
         id="feComposite4379-3-8-8-2-77-7-1-0-5-5-3"
         in2="SourceGraphic"
         in="flood"
         operator="in"
         result="composite1" />
      <feMorphology
         id="feMorphology4393-1-0-49-8-9-5-2-6-25-0-6"
         operator="dilate"
         radius="4"
         result="result3" />
      <feComposite
         id="feComposite4385-9-5-7-0-8-3-7-2-4-4-5"
         in2="result3"
         in="SourceGraphic"
         operator="over"
         result="composite2" />
    </filter>
    <filter
       style="color-interpolation-filters:sRGB"
       id="filter4375-4-1-1-1-9-3-2-3-8-7-6-4-9"
       inkscape:label="deevad outline effect">
      <feFlood
         id="feFlood4377-7-9-0-8-1-6-9-6-7-5-32-7-4"
         flood-opacity="1"
         flood-color="rgb(95,141,211)"
         result="flood" />
      <feComposite
         id="feComposite4379-3-8-8-2-77-7-1-0-9-9-0-6-8"
         in2="SourceGraphic"
         in="flood"
         operator="in"
         result="composite1" />
      <feMorphology
         id="feMorphology4393-1-0-49-8-9-5-2-6-2-2-6-5-1"
         operator="dilate"
         radius="4"
         result="result3" />
      <feComposite
         id="feComposite4385-9-5-7-0-8-3-7-2-0-2-1-6-2"
         in2="result3"
         in="SourceGraphic"
         operator="over"
         result="composite2" />
    </filter>
    <filter
       style="color-interpolation-filters:sRGB"
       id="filter4375-4-1-1-1-9-5"
       inkscape:label="deevad outline effect">
      <feFlood
         id="feFlood4377-7-9-0-8-1-9"
         flood-opacity="1"
         flood-color="rgb(0,0,0)"
         result="flood" />
      <feComposite
         id="feComposite4379-3-8-8-2-77-8"
         in2="SourceGraphic"
         in="flood"
         operator="in"
         result="composite1" />
      <feMorphology
         id="feMorphology4393-1-0-49-8-9-4"
         operator="dilate"
         radius="4"
         result="result3" />
      <feComposite
         id="feComposite4385-9-5-7-0-8-8"
         in2="result3"
         in="SourceGraphic"
         operator="over"
         result="composite2" />
    </filter>
    <filter
       style="color-interpolation-filters:sRGB"
       id="filter4375-4-1-1-1-9-6-9-2-1"
       inkscape:label="deevad outline effect">
      <feFlood
         id="feFlood4377-7-9-0-8-1-0-2-2-06"
         flood-opacity="1"
         flood-color="rgb(0,0,0)"
         result="flood" />
      <feComposite
         id="feComposite4379-3-8-8-2-77-6-0-8-3"
         in2="SourceGraphic"
         in="flood"
         operator="in"
         result="composite1" />
      <feMorphology
         id="feMorphology4393-1-0-49-8-9-2-2-9-2"
         operator="dilate"
         radius="4"
         result="result3" />
      <feComposite
         id="feComposite4385-9-5-7-0-8-6-3-7-0"
         in2="result3"
         in="SourceGraphic"
         operator="over"
         result="composite2" />
    </filter>
  </defs>
  <sodipodi:namedview
     pagecolor="#ffffff"
     bordercolor="#666666"
     borderopacity="1"
     objecttolerance="10"
     gridtolerance="10"
     guidetolerance="10"
     inkscape:pageopacity="0"
     inkscape:pageshadow="2"
     inkscape:window-width="1280"
     inkscape:window-height="971"
     id="namedview4"
     showgrid="false"
     inkscape:zoom="0.48"
     inkscape:cx="1233.6323"
     inkscape:cy="22.650975"
     inkscape:window-x="0"
     inkscape:window-y="0"
     inkscape:window-maximized="1"
     inkscape:current-layer="layer3" />
  <g
     inkscape:groupmode="layer"
     id="layer2"
     inkscape:label="artwork"
     sodipodi:insensitive="true">
    <image
       sodipodi:absref="/run/media/zveryok/Media/Work/Not Done/Translation/ep21/uk/../gfx_Pepper-and-Carrot_by-David-Revoy_E21P06.png"
       xlink:href="../gfx_Pepper-and-Carrot_by-David-Revoy_E21P06.png"
       width="2481"
       height="3503"
       id="image10"
       x="0"
       y="0" />
  </g>
  <g
     inkscape:groupmode="layer"
     id="layer4"
     inkscape:label="transla-notes">
    <path
       style="color:#000000;clip-rule:nonzero;display:inline;overflow:visible;visibility:visible;opacity:0.481;isolation:auto;mix-blend-mode:normal;color-interpolation:sRGB;color-interpolation-filters:linearRGB;solid-color:#000000;solid-opacity:1;fill:#ffe680;fill-opacity:1;fill-rule:nonzero;stroke:#565656;stroke-width:1.20000005;stroke-linecap:butt;stroke-linejoin:miter;stroke-miterlimit:4;stroke-dasharray:none;stroke-dashoffset:0;stroke-opacity:1;marker:none;color-rendering:auto;image-rendering:auto;shape-rendering:auto;text-rendering:auto;enable-background:accumulate"
       d="m 2525.3675,940.52355 0,189.03515 203.83,0 0,-90.9805 10,0 0,15.6308 30.9825,-26.9824 -30.9825,-26.9804 0,16.6171 -10,0 0,-76.33975 -203.83,0 z"
       id="rect4191-6"
       inkscape:connector-curvature="0" />
    <flowRoot
       xml:space="preserve"
       id="flowRoot4212-7"
       style="font-style:normal;font-variant:normal;font-weight:normal;font-stretch:normal;line-height:0.01%;font-family:Neucha;-inkscape-font-specification:'Neucha, Normal';text-align:center;letter-spacing:0px;word-spacing:0px;writing-mode:lr-tb;text-anchor:middle;display:inline;opacity:0.481;fill:#000000;fill-opacity:1;stroke:none;stroke-width:1px;stroke-linecap:butt;stroke-linejoin:miter;stroke-opacity:1"
       transform="translate(2755.0579,-67.720047)"><flowRegion
         id="flowRegion4214-5"><rect
           id="rect4216-3"
           width="291.95547"
           height="247.52747"
           x="-275.14545"
           y="1061.6674" /></flowRegion><flowPara
         id="flowPara4218-5"
         style="font-size:25.3241539px;line-height:1.25">Edit this one,</flowPara><flowPara
         id="flowPara4562"
         style="font-size:25.3241539px;line-height:1.25">all other one</flowPara><flowPara
         id="flowPara4564"
         style="font-size:25.3241539px;line-height:1.25">are linked</flowPara></flowRoot>    <text
       xml:space="preserve"
       style="font-style:normal;font-variant:normal;font-weight:normal;font-stretch:normal;line-height:0%;font-family:Neucha;-inkscape-font-specification:Neucha;letter-spacing:0px;word-spacing:0px;display:inline;fill:#000000;fill-opacity:1;stroke:#000000;stroke-width:0.99236238;stroke-miterlimit:4;stroke-dasharray:none;stroke-opacity:1;filter:url(#filter4375-4-1-1-1-9-6-9-2-1)"
       x="787.65729"
       y="1584.5073"
       id="text4580-1-7-3-6"
       transform="matrix(0.96380061,-0.56217228,-0.1779318,1.4896521,2309.5418,-827.07204)"><tspan
         sodipodi:role="line"
         id="tspan4582-8-5-6-1"
         x="787.65729"
         y="1584.5073"
         style="font-size:70px;line-height:1.25;fill:#ffffff">ха!</tspan></text>
  </g>
  <g
     inkscape:groupmode="layer"
     id="layer3"
     inkscape:label="speechbubbles"
     style="display:inline">
    <path
       style="color:#000000;display:inline;overflow:visible;visibility:visible;opacity:1;fill:#ffffff;fill-opacity:1;fill-rule:nonzero;stroke:none;stroke-width:1px;marker:none;filter:url(#filter4172);enable-background:accumulate"
       d="m 1415.1024,1375.9062 c 156.9856,4.8731 166.0897,54.8697 165.8002,104.4211 -0.2653,45.4145 -29.6572,65.2583 -57.3504,69.5726 -20.9315,3.2609 -84.9703,9.9954 -125.0354,7.8116 -37.8813,-2.0648 -135.892,10.3543 -142.4123,-88.5252 -6.5203,-98.8795 150.3088,-97.1142 158.9979,-93.2801 z"
       id="path3365"
       inkscape:connector-curvature="0"
       sodipodi:nodetypes="cssszc"
       transform="matrix(0.75134114,0,0,0.71930812,395.71396,414.97949)" />
    <path
       style="opacity:1;fill:#ffffff;fill-opacity:1;fill-rule:evenodd;stroke:none;stroke-width:1px;stroke-linecap:butt;stroke-linejoin:miter;stroke-opacity:1"
       d="m 1508.3976,1496.244 c -1.4297,8.4586 7.6905,12.502 13.3057,16.5881 7.0937,5.072 5.0374,15.9265 -2.8535,18.9215 -6.6614,2.4379 -9.0687,9.339 -9.5278,15.8253 0.6979,7.7572 3.662,13.4596 2.8543,19.9979 0.7758,9.9593 11.0423,12.4663 10.1091,22.9407 -0.9566,6.9514 -5.9088,9.7388 -12.2778,13.7519 -4.8361,2.4692 -10.4851,21.6092 -10.135,27.6361 4.6158,-7.0224 10.6735,-19.2453 20.3869,-23.747 11.1041,-8.0649 17.4379,-22.0339 11.0059,-31.8227 -7.4268,-8.2075 -10.2366,-22.2947 -1.8919,-30.8614 6.0058,-4.6262 13.7043,-10.0858 12.902,-18.7376 -2.3975,-11.7311 -3.0261,-25.6089 -12.9899,-33.8296 -5.6468,-3.8843 -8.5965,-13.2236 -16.3596,-12.9962 -6.7189,2.4421 -5.6829,10.7869 -4.5284,16.333 z"
       id="path4396"
       inkscape:connector-curvature="0"
       sodipodi:nodetypes="ccccccccccccccc" />
    <rect
       style="color:#000000;clip-rule:nonzero;display:inline;overflow:visible;visibility:visible;opacity:1;isolation:auto;mix-blend-mode:normal;color-interpolation:sRGB;color-interpolation-filters:linearRGB;solid-color:#000000;solid-opacity:1;fill:#fff6d5;fill-opacity:1;fill-rule:nonzero;stroke:none;stroke-width:2.5999999;stroke-linecap:butt;stroke-linejoin:miter;stroke-miterlimit:4;stroke-dasharray:none;stroke-dashoffset:0;stroke-opacity:1;marker:none;color-rendering:auto;image-rendering:auto;shape-rendering:auto;text-rendering:auto;enable-background:accumulate"
       id="rect4632-8-0"
       width="519.49579"
       height="147.88669"
       x="750.81329"
       y="1254.1617"
       ry="47.893379"
       rx="47.893379" />
    <rect
       style="color:#000000;clip-rule:nonzero;display:inline;overflow:visible;visibility:visible;opacity:1;isolation:auto;mix-blend-mode:normal;color-interpolation:sRGB;color-interpolation-filters:linearRGB;solid-color:#000000;solid-opacity:1;fill:#fff6d5;fill-opacity:1;fill-rule:nonzero;stroke:none;stroke-width:2.5999999;stroke-linecap:butt;stroke-linejoin:miter;stroke-miterlimit:4;stroke-dasharray:none;stroke-dashoffset:0;stroke-opacity:1;marker:none;color-rendering:auto;image-rendering:auto;shape-rendering:auto;text-rendering:auto;enable-background:accumulate"
       id="rect4632-8"
       width="415.50082"
       height="206.07513"
       x="1929.3253"
       y="139.28477"
       ry="82.758553"
       rx="82.758553" />
    <path
       style="color:#000000;display:inline;overflow:visible;visibility:visible;fill:#fff6d5;fill-opacity:1;fill-rule:nonzero;stroke:none;stroke-width:0.96061456px;marker:none;enable-background:accumulate"
       d="m 1522.097,207.69606 c -6.2252,15.87455 -41.3367,17.20569 -54.2621,13.97892 26.0548,17.7586 25.1464,28.7923 -10.2286,30.50549 59.3245,32.00565 10.8453,27.16244 1.283,35.27817 46.5809,11.02984 25.7402,24.75677 17.4472,38.42168 53.5399,0.46937 36.0187,22.37377 38.2754,39.81923 4.5388,-8.18619 26.1019,-33.10855 27.3995,-5.35917 35.4134,-26.4744 78.0682,-43.57554 81.4552,2.75476 14.2686,-23.30751 28.4946,-33.15821 27.3992,-5.35916 35.3536,-36.15617 67.1235,-23.14165 99.0818,-12.92256 8.3937,-10.91279 9.3716,-27.67798 36.5272,-23.74915 -3.8075,-10.81653 5.3613,-18.25177 26.0676,-22.66712 -27.5155,-6.53396 -32.5863,-13.27358 18.5034,-20.52645 -38.8764,-0.70155 -75.1288,-2.13889 -29.5184,-26.87331 -14.3092,-0.5985 -48.2594,20.04057 -32.4305,-40.36012 -24.6057,19.33637 -50.8575,30.00868 -83.7798,-10.49609 -15.5805,20.23538 -42.6045,30.24865 -54.3614,4.97306 -4.2255,10.77543 -21.7473,14.8279 -36.6219,15.31935 -5.752,-4.28022 -11.6846,-10.09382 -17.8754,-17.71058 -10.1186,15.99317 -25.2548,26.79426 -54.3614,4.97305 z"
       id="path3549-3-7"
       inkscape:connector-curvature="0"
       sodipodi:nodetypes="cccccccccccccccccccc" />
    <rect
       style="color:#000000;clip-rule:nonzero;display:inline;overflow:visible;visibility:visible;opacity:1;isolation:auto;mix-blend-mode:normal;color-interpolation:sRGB;color-interpolation-filters:linearRGB;solid-color:#000000;solid-opacity:1;fill:#fff6d5;fill-opacity:1;fill-rule:nonzero;stroke:none;stroke-width:2.439219;stroke-linecap:butt;stroke-linejoin:miter;stroke-miterlimit:4;stroke-dasharray:none;stroke-dashoffset:0;stroke-opacity:1;marker:none;color-rendering:auto;image-rendering:auto;shape-rendering:auto;text-rendering:auto;enable-background:accumulate"
       id="rect4632-8-9-0"
       width="328.92789"
       height="239.72107"
       x="811.32581"
       y="130.16792"
       ry="50.159966"
       rx="44.148109" />
    <rect
       style="color:#000000;clip-rule:nonzero;display:inline;overflow:visible;visibility:visible;opacity:1;isolation:auto;mix-blend-mode:normal;color-interpolation:sRGB;color-interpolation-filters:linearRGB;solid-color:#000000;solid-opacity:1;fill:#fff6d5;fill-opacity:1;fill-rule:nonzero;stroke:none;stroke-width:2.5999999;stroke-linecap:butt;stroke-linejoin:miter;stroke-miterlimit:4;stroke-dasharray:none;stroke-dashoffset:0;stroke-opacity:1;marker:none;color-rendering:auto;image-rendering:auto;shape-rendering:auto;text-rendering:auto;enable-background:accumulate"
       id="rect4632-8-9"
       width="561.10291"
       height="330.01962"
       x="118.4944"
       y="155.8629"
       ry="88.786133"
       rx="88.786133" />
    <path
       style="color:#000000;display:inline;overflow:visible;visibility:visible;fill:#fff6d5;fill-opacity:1;fill-rule:nonzero;stroke:none;stroke-width:1px;marker:none;enable-background:accumulate"
       d="m 669.3591,121.84935 c -31.03215,3.59849 -37.34899,10.27241 -47.71363,15.44292 4.38257,1.50319 20.28503,9.66584 20.28503,9.66584 0,0 -40.05019,18.20075 -43.97492,23.84107 -3.92473,5.64033 13.20013,7.55501 13.20013,7.55501 0,0 37.45398,-22.38767 54.14789,-27.88772 -3.33236,-3.12088 -13.45244,-9.06752 -20.57119,-12.96744 0,0 4.23123,-12.86409 24.62669,-15.64968 z"
       id="path4456"
       inkscape:connector-curvature="0"
       sodipodi:nodetypes="cccscccc" />
    <path
       style="color:#000000;display:inline;overflow:visible;visibility:visible;fill:#fff6d5;fill-opacity:1;fill-rule:nonzero;stroke:none;stroke-width:1px;marker:none;enable-background:accumulate"
       d="m 1187.9674,114.725 c -31.0322,3.59849 -37.349,10.27241 -47.7137,15.44292 4.3826,1.50319 20.2851,9.66584 20.2851,9.66584 0,0 -40.0502,18.20075 -43.975,23.84107 -3.9247,5.64033 13.2002,7.55501 13.2002,7.55501 0,0 37.4539,-22.38767 54.1479,-27.88772 -3.3324,-3.12088 -13.4525,-9.06752 -20.5712,-12.96744 0,0 4.2312,-12.86409 24.6267,-15.64968 z"
       id="path4456-3"
       inkscape:connector-curvature="0"
       sodipodi:nodetypes="cccscccc" />
    <path
       style="color:#000000;display:inline;overflow:visible;visibility:visible;fill:#fff6d5;fill-opacity:1;fill-rule:nonzero;stroke:none;stroke-width:1px;marker:none;enable-background:accumulate"
       d="m 1624.127,159.80505 c 26.7246,11.16011 30.3313,21.55232 38.0327,30.70393 -4.3947,1.17301 -21.1774,9.13074 -21.1774,9.13074 0,0 30.3078,32.9318 32.0878,41.43019 1.78,8.49841 -14.1712,7.6708 -14.1712,7.6708 0,0 -26.6872,-38.13209 -39.9641,-49.00718 3.952,-3.59522 14.8643,-9.68728 22.4529,-13.58569 0,0 0.1739,-18.43319 -17.2607,-26.34279 z"
       id="path4456-3-6"
       inkscape:connector-curvature="0"
       sodipodi:nodetypes="cccscccc" />
    <path
       style="color:#000000;display:inline;overflow:visible;visibility:visible;fill:#fff6d5;fill-opacity:1;fill-rule:nonzero;stroke:none;stroke-width:1px;marker:none;enable-background:accumulate"
       d="m 1923.9034,123.56909 c 26.597,3.59849 32.011,10.27241 40.8943,15.44292 -3.7562,1.50319 -17.3859,9.66584 -17.3859,9.66584 0,0 34.3262,18.20075 37.69,23.84107 3.3638,5.64033 -11.3136,7.55501 -11.3136,7.55501 0,0 -32.1009,-22.38767 -46.4089,-27.88772 2.8561,-3.12088 11.5298,-9.06752 17.6311,-12.96744 0,0 -3.6265,-12.86409 -21.107,-15.64968 z"
       id="path4456-3-7"
       inkscape:connector-curvature="0"
       sodipodi:nodetypes="cccscccc" />
    <path
       style="color:#000000;display:inline;overflow:visible;visibility:visible;fill:#fff6d5;fill-opacity:1;fill-rule:nonzero;stroke:none;stroke-width:1px;marker:none;enable-background:accumulate"
       d="m 1297.722,1241.3321 c -22.891,1.3914 -27.9826,7.0022 -35.9167,11.0255 3.0864,1.6071 14.0893,9.867 14.0893,9.867 0,0 -30.5292,13.9517 -33.8013,18.7772 -3.2723,4.8255 9.0763,7.5552 9.0763,7.5552 0,0 28.9403,-17.8595 41.5138,-21.8041 -2.203,-2.9955 -9.1504,-8.9263 -14.0579,-12.8444 0,0 4.0212,-11.2849 19.0965,-12.5764 z"
       id="path4456-3-7-5"
       inkscape:connector-curvature="0"
       sodipodi:nodetypes="cccscccc" />
  </g>
  <g
     inkscape:groupmode="layer"
     id="layer1"
     inkscape:label="txt"
     style="display:inline">
    <text
       xml:space="preserve"
       style="font-style:normal;font-variant:normal;font-weight:normal;font-stretch:normal;line-height:0%;font-family:Neucha;-inkscape-font-specification:'Neucha, Normal';text-align:center;letter-spacing:0px;word-spacing:0px;writing-mode:lr-tb;text-anchor:middle;fill:#000000;fill-opacity:1;stroke:none;stroke-width:2.4000001;stroke-miterlimit:4;stroke-dasharray:none"
       x="398.19211"
       y="227.38835"
       id="text4246-2-3-1-3-9-3-7-08"><tspan
         sodipodi:role="line"
         id="tspan3544"
         x="398.19211"
         y="227.38835"
         style="font-size:45px;line-height:1.25">А тепер настала черга для</tspan><tspan
         sodipodi:role="line"
         x="398.19211"
         y="283.63837"
         id="tspan3535"
         style="font-size:45px;line-height:1.25">таємничого учасника,</tspan><tspan
         sodipodi:role="line"
         x="398.19211"
         y="339.88837"
         id="tspan3541"
         style="font-size:45px;line-height:1.25">який подав заявку анонімно,</tspan><tspan
         sodipodi:role="line"
         x="398.19211"
         y="396.13837"
         id="tspan5220"
         style="font-size:45px;line-height:1.25"> представити</tspan><tspan
         sodipodi:role="line"
         id="tspan3556"
         x="398.19211"
         y="452.38837"
         style="font-size:45px;line-height:1.25">полум'янну магію Магми...</tspan></text>
    <text
       xml:space="preserve"
       style="font-style:normal;font-variant:normal;font-weight:normal;font-stretch:normal;line-height:0%;font-family:Neucha;-inkscape-font-specification:Neucha;text-align:center;letter-spacing:0px;word-spacing:0px;text-anchor:middle;fill:#000000;fill-opacity:1;stroke:none;stroke-width:2.5;stroke-miterlimit:4;stroke-dasharray:none"
       x="972.84607"
       y="180.07935"
       id="text4246-2-3-1-3-9-3-7-08-9"><tspan
         sodipodi:role="line"
         style="font-size:45px;line-height:1.25;stroke-width:2.5;stroke-miterlimit:4;stroke-dasharray:none"
         x="972.84607"
         y="180.07935"
         id="tspan5019"><tspan
   style="font-style:normal;font-variant:normal;font-weight:bold;font-stretch:normal;font-family:Neucha;-inkscape-font-specification:'Neucha Bold';stroke:#000000;stroke-width:2.5;stroke-miterlimit:4;stroke-dasharray:none;stroke-opacity:1"
   id="tspan5060">О !</tspan> Яка</tspan><tspan
         sodipodi:role="line"
         style="font-size:45px;line-height:1.25;stroke-width:2.5;stroke-miterlimit:4;stroke-dasharray:none"
         x="972.84607"
         y="236.32935"
         id="tspan5239">несподіванка!</tspan><tspan
         sodipodi:role="line"
         style="font-size:45px;line-height:1.25;stroke-width:2.5;stroke-miterlimit:4;stroke-dasharray:none"
         x="972.84607"
         y="292.57935"
         id="tspan5243">Так, це вона!</tspan><tspan
         sodipodi:role="line"
         style="font-size:45px;line-height:1.25;stroke-width:2.5;stroke-miterlimit:4;stroke-dasharray:none"
         x="972.84607"
         y="348.82935"
         id="tspan4930-1">Ніхто інша, як...</tspan></text>
    <text
       xml:space="preserve"
       style="font-style:normal;font-variant:normal;font-weight:normal;font-stretch:normal;line-height:0%;font-family:Neucha;-inkscape-font-specification:Neucha;text-align:center;letter-spacing:0px;word-spacing:0px;text-anchor:middle;fill:#000000;fill-opacity:1;stroke:#000000;stroke-width:3.4601748;stroke-miterlimit:4;stroke-dasharray:none;stroke-opacity:1"
       x="1778.4998"
       y="287.32108"
       id="text4246-2-3-1-3-9-3-7-9"
       transform="matrix(0.93992861,0,-0.12354786,1.0639106,0,0)"><tspan
         sodipodi:role="line"
         style="font-size:59.88764954px;line-height:1.25;stroke:#000000;stroke-width:3.4601748;stroke-miterlimit:4;stroke-dasharray:none;stroke-opacity:1"
         x="1778.4998"
         y="287.32108"
         id="tspan4814-3">ШАФРАН !</tspan></text>
    <text
       xml:space="preserve"
       style="font-style:normal;font-variant:normal;font-weight:normal;font-stretch:normal;line-height:0%;font-family:Neucha;-inkscape-font-specification:Neucha;letter-spacing:0px;word-spacing:0px;fill:#000000;fill-opacity:1;stroke:#000000;stroke-width:0.99236238;stroke-miterlimit:4;stroke-dasharray:none;stroke-opacity:1;filter:url(#filter4375-4-1-1-1-9-5)"
       x="787.65729"
       y="1584.5073"
       id="text4580-1"
       transform="matrix(0.49158128,-0.52358677,0.17682199,0.89870561,1064.3926,-361.37244)"><tspan
         sodipodi:role="line"
         id="tspan4582-0"
         x="787.65729"
         y="1584.5073"
         style="font-size:70px;line-height:1.25;fill:#ffffff">Ш-шух!</tspan></text>
    <text
       xml:space="preserve"
       style="font-style:normal;font-variant:normal;font-weight:normal;font-stretch:normal;line-height:0%;font-family:Neucha;-inkscape-font-specification:Neucha;text-align:center;letter-spacing:0px;word-spacing:0px;text-anchor:middle;fill:#000000;fill-opacity:1;stroke:none;stroke-width:2.4000001;stroke-miterlimit:4;stroke-dasharray:none"
       x="2135.0791"
       y="199.78659"
       id="text4246-2-3-1-3-9-3-7"><tspan
         sodipodi:role="line"
         style="font-size:45px;line-height:1.25;stroke-width:2.4000001;stroke-miterlimit:4;stroke-dasharray:none"
         x="2135.0791"
         y="199.78659"
         id="tspan3568">О, здається, у однієї</tspan><tspan
         sodipodi:role="line"
         style="font-size:45px;line-height:1.25;stroke-width:2.4000001;stroke-miterlimit:4;stroke-dasharray:none"
         x="2135.0791"
         y="256.03659"
         id="tspan5256">з учасниць</tspan><tspan
         sodipodi:role="line"
         style="font-size:45px;line-height:1.25;stroke-width:2.4000001;stroke-miterlimit:4;stroke-dasharray:none"
         x="2135.0791"
         y="312.28659"
         id="tspan5254">з'явилася проблема!</tspan></text>
    <text
       xml:space="preserve"
       style="font-style:normal;font-variant:normal;font-weight:normal;font-stretch:normal;line-height:0%;font-family:Neucha;-inkscape-font-specification:Neucha;letter-spacing:0px;word-spacing:0px;fill:#ffffff;fill-opacity:1;stroke:#5f8dd3;stroke-width:0.99236238;stroke-miterlimit:4;stroke-dasharray:none;stroke-opacity:1;filter:url(#filter4375-4-1-1-1-9-3-2-3-8-7-6-4-9)"
       x="787.65729"
       y="1584.5073"
       id="text4580-5-0-6-2-8-5-9-9"
       transform="matrix(0.98486074,-0.43584499,0.54903014,1.8357446,579.568,-1908.8405)"><tspan
         sodipodi:role="line"
         id="tspan4582-6-9-1-3-9-5-3-3"
         x="787.65729"
         y="1584.5073"
         style="font-size:70px;line-height:1.25;fill:#ffffff;stroke:#5f8dd3">Плюх!</tspan></text>
    <use
       x="0"
       y="0"
       xlink:href="#text4580-1-7-3-6"
       id="use4364"
       transform="translate(-869.29834,-9.1507681)"
       width="100%"
       height="100%" />
    <use
       x="0"
       y="0"
       xlink:href="#use4364"
       id="use4366"
       transform="matrix(0.65105583,0,0,0.61852692,677.14164,475.34492)"
       width="100%"
       height="100%" />
    <use
       x="0"
       y="0"
       xlink:href="#use4366"
       id="use4368"
       transform="matrix(1.5166066,-0.08957508,0.0810144,1.3716646,-1021.3263,-300.75542)"
       width="100%"
       height="100%" />
    <use
       x="0"
       y="0"
       xlink:href="#use4368"
       id="use4370"
       transform="matrix(0.90725689,0,0,0.94346389,287.53718,33.797656)"
       width="100%"
       height="100%" />
    <use
       x="0"
       y="0"
       xlink:href="#use4370"
       id="use4374"
       transform="translate(113.85354,-19.630791)"
       width="100%"
       height="100%" />
    <use
       x="0"
       y="0"
       xlink:href="#use4378"
       id="use4380"
       transform="translate(19.692727,-107.05623)"
       width="100%"
       height="100%" />
    <use
       x="0"
       y="0"
       xlink:href="#use4370"
       id="use4372"
       transform="matrix(0.91435466,0,0,0.92767327,202.49601,143.49883)"
       width="100%"
       height="100%" />
    <use
       x="0"
       y="0"
       xlink:href="#use4374"
       id="use4376"
       transform="translate(-15.637647,95.65213)"
       width="100%"
       height="100%" />
    <use
       x="0"
       y="0"
       xlink:href="#use4376"
       id="use4378"
       transform="translate(80.542557,-50.727616)"
       width="100%"
       height="100%" />
    <text
       xml:space="preserve"
       style="font-style:normal;font-variant:normal;font-weight:normal;font-stretch:normal;line-height:0%;font-family:Neucha;-inkscape-font-specification:Neucha;text-align:center;letter-spacing:0px;word-spacing:0px;text-anchor:middle;fill:#000000;fill-opacity:1;stroke:none;stroke-width:2.4000001;stroke-miterlimit:4;stroke-dasharray:none"
       x="1012.3223"
       y="1310.233"
       id="text4246-2-3-1-3-9-3-7-3"><tspan
         sodipodi:role="line"
         style="font-size:45px;line-height:1.25;stroke-width:2.4000001;stroke-miterlimit:4;stroke-dasharray:none"
         x="1012.3223"
         y="1310.233"
         id="tspan4464-1">Міс !! Будь ласка,</tspan><tspan
         sodipodi:role="line"
         style="font-size:45px;line-height:1.25;stroke-width:2.4000001;stroke-miterlimit:4;stroke-dasharray:none"
         x="1012.3223"
         y="1366.483"
         id="tspan4489">повернися на своє місце !!</tspan></text>
    <text
       xml:space="preserve"
       style="font-style:normal;font-variant:normal;font-weight:normal;font-stretch:normal;line-height:0%;font-family:Neucha;-inkscape-font-specification:Neucha;text-align:center;letter-spacing:0px;word-spacing:0px;text-anchor:middle;opacity:1;fill:#000000;fill-opacity:1;stroke:#000000;stroke-width:0.5;stroke-miterlimit:4;stroke-dasharray:none;stroke-opacity:1;filter:url(#filter4186)"
       x="1456.5757"
       y="1457.7218"
       id="text4246-2-3-1-3-9"><tspan
         sodipodi:role="line"
         style="font-size:45px;line-height:1.25;stroke:#000000;stroke-width:0.5;stroke-miterlimit:4;stroke-dasharray:none;stroke-opacity:1"
         x="1456.5757"
         y="1457.7218"
         id="tspan3445">Морквику !</tspan><tspan
         sodipodi:role="line"
         style="font-size:45px;line-height:1.25;stroke:#000000;stroke-width:0.5;stroke-miterlimit:4;stroke-dasharray:none;stroke-opacity:1"
         x="1456.5757"
         y="1513.9718"
         id="tspan4170">  Ні !</tspan></text>
    <use
       x="0"
       y="0"
       xlink:href="#use4392"
       id="use4398"
       transform="matrix(1.2725035,0,0,1.0916251,-625.02973,-183.07866)"
       width="100%"
       height="100%" />
    <use
       x="0"
       y="0"
       xlink:href="#use4394"
       id="use4396"
       width="100%"
       height="100%"
       transform="translate(-338.28513,-20.239284)" />
    <use
       x="0"
       y="0"
       xlink:href="#use4382"
       id="use4392"
       transform="matrix(0.87223681,0,0,0.97738737,135.98493,102.9859)"
       width="100%"
       height="100%" />
    <use
       x="0"
       y="0"
       xlink:href="#use4380"
       id="use4382"
       transform="matrix(0.74662583,0,0,0.74456881,111.80378,1278.4328)"
       width="100%"
       height="100%" />
    <use
       x="0"
       y="0"
       xlink:href="#use4382"
       id="use4384"
       transform="translate(103.02893,-28.183571)"
       width="100%"
       height="100%" />
    <use
       x="0"
       y="0"
       xlink:href="#use4384"
       id="use4386"
       transform="matrix(1.2603421,-0.04042916,0.03477094,1.0839525,-464.44145,-145.09767)"
       width="100%"
       height="100%" />
    <use
       x="0"
       y="0"
       xlink:href="#use4392"
       id="use4394"
       transform="matrix(1.1721233,0,0,0.9882004,-6.8613838,-16.016594)"
       width="100%"
       height="100%" />
    <use
       x="0"
       y="0"
       xlink:href="#use4386"
       id="use4388"
       transform="matrix(0.99565889,-0.09307727,0.09307727,0.99565889,-60.436129,190.11068)"
       width="100%"
       height="100%" />
    <use
       x="0"
       y="0"
       xlink:href="#use4388"
       id="use4390"
       transform="matrix(0.72562239,0,0,0.87371277,687.9672,182.09916)"
       width="100%"
       height="100%" />
    <text
       xml:space="preserve"
       style="font-style:normal;font-variant:normal;font-weight:normal;font-stretch:normal;line-height:0%;font-family:Neucha;-inkscape-font-specification:Neucha;letter-spacing:0px;word-spacing:0px;fill:#ffffff;fill-opacity:1;stroke:#5f8dd3;stroke-width:0.99236238;stroke-miterlimit:4;stroke-dasharray:none;stroke-opacity:1;filter:url(#filter4375-4-1-1-1-9-3-2-3-8-7-6)"
       x="787.65729"
       y="1584.5073"
       id="text4580-5-0-6-2-8-5"
       transform="matrix(1.468343,-0.21774209,-0.49576182,1.6675635,-207.81811,865.83646)"><tspan
         sodipodi:role="line"
         id="tspan4582-6-9-1-3-9-5"
         x="787.65729"
         y="1584.5073"
         style="font-size:70px;line-height:1.25;fill:#ffffff;stroke:#5f8dd3">Дзинь!</tspan></text>
    <text
       xml:space="preserve"
       style="font-style:normal;font-variant:normal;font-weight:normal;font-stretch:normal;line-height:0%;font-family:Neucha;-inkscape-font-specification:Neucha;text-align:center;letter-spacing:0px;word-spacing:0px;text-anchor:middle;fill:#000000;fill-opacity:1;stroke:none;stroke-width:2.4000001;stroke-miterlimit:4;stroke-dasharray:none"
       x="579.51263"
       y="3867.0769"
       id="text4246-2-3-1-3-9-3-7-0"
       transform="matrix(1.0361164,-0.34421501,0.39450167,0.83408254,0,0)"><tspan
         sodipodi:role="line"
         style="font-size:56.69885254px;line-height:1.25;stroke-width:2.4000001;stroke-miterlimit:4;stroke-dasharray:none"
         x="579.51263"
         y="3867.0769"
         id="tspan4418-43">?!</tspan></text>
    <text
       xml:space="preserve"
       style="font-style:normal;font-variant:normal;font-weight:normal;font-stretch:normal;line-height:0%;font-family:Neucha;-inkscape-font-specification:Neucha;letter-spacing:0px;word-spacing:0px;fill:#ffffff;fill-opacity:1;stroke:#5f8dd3;stroke-width:0.99236238;stroke-miterlimit:4;stroke-dasharray:none;stroke-opacity:1;filter:url(#filter4375-4-1-1-1-9-3-2-3-8-7-6-4)"
       x="787.65729"
       y="1584.5073"
       id="text4580-5-0-6-2-8-5-9"
       transform="matrix(0.87357258,-0.19928876,0.10075537,1.5644241,924.56795,997.44377)"><tspan
         sodipodi:role="line"
         id="tspan4582-6-9-1-3-9-5-3"
         x="787.65729"
         y="1584.5073"
         style="font-size:70px;line-height:1.25;fill:#ffffff;stroke:#5f8dd3">шльоп!</tspan></text>
  </g>
</svg>
