<?xml version="1.0" encoding="UTF-8" standalone="no"?>
<svg
   xmlns:dc="http://purl.org/dc/elements/1.1/"
   xmlns:cc="http://creativecommons.org/ns#"
   xmlns:rdf="http://www.w3.org/1999/02/22-rdf-syntax-ns#"
   xmlns:svg="http://www.w3.org/2000/svg"
   xmlns="http://www.w3.org/2000/svg"
   xmlns:xlink="http://www.w3.org/1999/xlink"
   xmlns:sodipodi="http://sodipodi.sourceforge.net/DTD/sodipodi-0.dtd"
   xmlns:inkscape="http://www.inkscape.org/namespaces/inkscape"
   id="svg2"
   version="1.1"
   inkscape:version="0.92.4 (5da689c313, 2019-01-14)"
   width="2481"
   height="3503"
   sodipodi:docname="E34P08.svg">
  <metadata
     id="metadata8">
    <rdf:RDF>
      <cc:Work
         rdf:about="">
        <dc:format>image/svg+xml</dc:format>
        <dc:type
           rdf:resource="http://purl.org/dc/dcmitype/StillImage" />
        <dc:title />
      </cc:Work>
    </rdf:RDF>
  </metadata>
  <defs
     id="defs6" />
  <sodipodi:namedview
     pagecolor="#ffffff"
     bordercolor="#666666"
     borderopacity="1"
     objecttolerance="10"
     gridtolerance="10"
     guidetolerance="10"
     inkscape:pageopacity="0"
     inkscape:pageshadow="2"
     inkscape:window-width="1600"
     inkscape:window-height="847"
     id="namedview4"
     showgrid="false"
     inkscape:zoom="0.3478261"
     inkscape:cx="1142.342"
     inkscape:cy="759.02747"
     inkscape:window-x="-8"
     inkscape:window-y="-8"
     inkscape:window-maximized="1"
     inkscape:current-layer="layer1"
     inkscape:document-rotation="0"
     inkscape:snap-global="false"
     borderlayer="true" />
  <g
     inkscape:groupmode="layer"
     id="layer2"
     inkscape:label="artwork"
     sodipodi:insensitive="true">
    <image
       sodipodi:absref="D:\Pepper&amp;Carrot\code\ep34_The-Knighting-of-Shichimi\lang\ro\../gfx_Pepper-and-Carrot_by-David-Revoy_E34P08.png"
       xlink:href="../gfx_Pepper-and-Carrot_by-David-Revoy_E34P08.png"
       width="2481"
       height="3503"
       id="image10"
       x="0"
       y="0" />
  </g>
  <g
     inkscape:groupmode="layer"
     id="layer3"
     inkscape:label="speechbubbles"
     style="display:inline">
    <path
       style="color:#000000;display:inline;overflow:visible;visibility:visible;fill:#ffffff;fill-opacity:1;fill-rule:nonzero;stroke:none;stroke-width:0.770224px;marker:none;enable-background:accumulate"
       d="m 1858.8745,2602.7661 c 24.645,-31.5484 88.5186,-58.8546 134.0691,-29.1667 47.5832,1.2392 31.3766,-27.3129 31.3766,-27.3129 -2.2798,-13.3723 -128.0086,-31.4485 -165.4457,56.4796 z"
       id="path3984-7"
       inkscape:connector-curvature="0"
       sodipodi:nodetypes="cccc" />
    <path
       style="display:inline;fill:#ffffff;stroke:none;stroke-width:1.24441731"
       d="m 2139.5807,2633.01 c -39.732,1.2132 -80.0519,10.8428 -112.5385,32.0615 -52.0268,35.3027 -77.6571,99.3309 -62.1474,156.3849 7.5004,31.0441 29.3504,59.5536 60.4817,74.9583 30.274,15.3119 64.9382,21.528 99.0946,25.0054 50.4803,4.6856 102.0181,-0.8365 150.1128,-15.3127 27.1188,-8.6961 49.3649,-28.4531 59.8113,-52.5817 10.3673,-23.1139 12.2721,-48.4138 12.3085,-73.088 -0.8573,-37.8295 -15.4633,-75.3486 -41.0767,-105.3352 -12.0666,-14.1276 -29.4552,-24.4272 -48.6879,-28.6606 -22.5825,-4.9454 -45.6993,-7.4443 -68.6603,-10.4863 -16.1452,-1.8625 -32.4067,-3.1601 -48.6981,-2.9456 z"
       id="path3280-8-3"
       inkscape:connector-curvature="0"
       sodipodi:nodetypes="csssc" />
    <path
       style="color:#000000;display:inline;overflow:visible;visibility:visible;fill:#ffffff;fill-opacity:1;fill-rule:nonzero;stroke:none;stroke-width:0.728515px;marker:none;enable-background:accumulate"
       d="m 2152.1088,2472.571 c -41.7584,-0.9701 -84.0784,3.662 -123.2497,17.4105 -14.7151,5.29 -29.2257,12.7608 -38.8403,24.7234 -12.0315,15.1252 -17.9022,34.0355 -18.41,52.7878 -0.1046,18.5638 7.1715,37.6624 21.8731,50.5903 11.7363,10.1785 26.957,15.6751 41.7542,20.7364 27.1244,9.1294 55.5564,14.2904 84.0868,17.5432 18.9775,2.1752 38.0323,3.74 57.1042,4.8757 16.8858,0.6093 33.7178,-1.6169 50.1146,-5.1354 23.7549,-4.5131 47.7514,-10.3879 68.4689,-22.4672 14.7362,-8.7345 27.1907,-21.7633 32.0384,-37.6643 6.5761,-20.4107 1.5862,-43.6413 -12.6138,-60.4231 -11.8436,-15.4162 -25.9168,-29.9854 -43.9326,-39.2111 -15.1977,-7.5829 -32.0986,-11.3046 -48.7019,-15.0934 -22.8853,-4.9277 -46.2523,-7.7894 -69.6919,-8.6728 z"
       id="path3970-3"
       inkscape:connector-curvature="0"
       sodipodi:nodetypes="cccscsc" />
    <path
       style="display:inline;fill:#ffffff;fill-rule:evenodd;stroke:none;stroke-width:1.24595046px;stroke-linecap:butt;stroke-linejoin:miter;stroke-opacity:1"
       d="m 117.89342,2655.5564 c 45.88889,26.224 37.43955,37.6722 -27.249644,33.8275 103.134614,40.2683 60.559444,46.2954 -4.739128,46.9826 43.834672,14.7081 92.337202,29.101 -8.293376,53.5602 58.316378,3.9656 109.128498,9.565 9.478129,47.9224 51.701029,-1.5754 85.238359,-17.6328 22.882659,34.5785 84.63004,-23.4509 161.91519,-16.0665 118.10531,42.4729 42.53817,-17.2399 112.47236,-60.9311 87.67306,-13.1551 19.48928,-15.258 44.29294,-21.0326 88.85794,8.4569 -8.69013,-21.2677 -34.87298,-54.9738 43.83653,-14.0948 -23.7943,-31.9862 -0.9774,-64.288 78.49969,-16.8508 -11.83966,-24.1178 -90.43391,-33.2639 6.80399,-57.3818 -66.97959,-2.4054 -46.20355,-18.7308 -3.55425,-38.5257 -79.75563,-10.94 -40.29462,-24.1862 7.10862,-37.5861 -49.40065,-5.1076 -87.51261,-13.709 -9.47826,-58.2585 -85.89387,18.4946 -61.03678,-12.7854 -56.86916,-34.7672 -39.63839,17.4547 -84.4641,44.8517 -87.67318,-7.5172 -53.17353,64.9728 -73.30657,15.2999 -103.07519,-0.9396 -30.96222,77.3118 -101.1504,6.0593 -120.84659,0.9396 40.16681,31.6436 47.1799,45.9711 -41.46715,10.3362 z"
       id="path1096"
       inkscape:connector-curvature="0"
       sodipodi:nodetypes="cccccccccccccccccccc" />
    <path
       style="fill:#ffffff;fill-rule:evenodd;stroke:none;stroke-width:1px;stroke-linecap:butt;stroke-linejoin:miter;stroke-opacity:1"
       d="m 276.69249,2637.35 c 22.24357,147.5922 76.16994,294.7462 66.72409,442.7767 39.32721,-7.5351 57.02691,-43.538 110.60404,61.3044 36.13567,-50.5432 43.46402,-9.9468 54.08883,20.3938 25.92501,-21.2619 53.62712,-17.4156 81.20022,-15.3921 -24.07084,-2.6294 -42.56765,-23.176 -74.42406,-0.7793 -0.99204,-50.5675 -24.7242,-64.2967 -53.19608,-40.6932 -22.25284,-65.4923 -46.37098,-77.5206 -92.38131,-54.9383 1.82968,-175.1557 -47.49605,-279.4592 -67.44658,-422.2765 z"
       id="path1313"
       sodipodi:nodetypes="cccccccccc" />
    <path
       style="color:#000000;display:inline;overflow:visible;visibility:visible;fill:#ffffff;fill-opacity:1;fill-rule:nonzero;stroke:none;stroke-width:1.17173851px;marker:none;enable-background:accumulate"
       d="m 149.44543,2943.3254 c 2.57481,-33.7599 8.37968,-60.5422 40.31649,-75.3932 31.93682,-14.8509 90.00534,-17.7703 163.67617,-11.9283 39.46208,3.1293 95.53388,7.6859 126.98199,21.793 31.4482,14.1066 38.27248,37.7631 34.95875,87.2158 -3.31371,49.4526 -14.9026,75.7959 -51.27921,88.0568 -36.37663,12.261 -97.54109,10.4394 -110.85534,11.687 -34.81312,-3.9279 -101.93998,1.643 -144.61363,-8.753 -42.67375,-10.396 -60.89408,-36.759 -59.18522,-112.6781 z"
       id="path4546-6-0"
       inkscape:connector-curvature="0"
       sodipodi:nodetypes="cssssscsc" />
    <path
       style="fill:#ffffff;fill-rule:evenodd;stroke:none;stroke-width:1.49986px;stroke-linecap:butt;stroke-linejoin:miter;stroke-opacity:1"
       d="m 217.08242,2649.8057 c 36.90709,-50.2257 39.2881,-5.139 58.31878,36.2923 18.49928,-30.6102 5.37016,-37.0801 47.77595,2.3088 8.80076,-60.6152 28.70148,-43.015 52.77387,-10.9502 -8.33465,-42.6242 -8.81213,-62.5771 28.15389,-25.9228 9.37569,-48.4233 28.08772,-13.1777 54.29681,10.3696 -6.36522,-54.7029 -9.43727,-54.5433 44.24189,-44.9322 -37.30857,-48.1984 12.34553,-26.491 50.27471,-20.7394 -56.92936,-37.391 -36.38571,-30.7833 20.1101,-27.6509 -70.09485,-30.9514 -74.25014,-26.6667 -8.04407,-63.9433 -98.70585,11.1753 -89.4022,9.8366 -24.13193,-55.302 -39.18092,5.5174 -140.98295,82.943 -78.42873,13.8262 -53.48141,18.2513 -77.40978,39.2565 -49.37466,-20.9763 l -19.66776,-1.0234 c -20.37926,21.8995 -44.11621,56.4771 -47.59527,11.6299 -29.76644,33.519 -28.07601,39.1189 -42.23077,-3.4564 -19.66696,57.8645 -22.71029,13.0651 -34.18713,-24.1945 -25.83448,34.7634 -26.07555,74.5428 -42.23077,19.0097 -11.24706,56.5135 -34.0037,16.4098 -66.36284,-10.3684 10.09255,61.5083 12.97253,60.8806 -36.19797,22.4662 18.43992,56.1578 -0.12592,44.3678 -52.285671,41.4758 62.451481,49.6039 42.560661,48.1051 -20.110112,82.9544 35.01382,5.5208 97.345683,-28.793 64.351853,17.2813 77.3397,-28.1852 15.08709,45.1113 -4.02196,82.953 69.10198,-57.7667 97.75391,-104.5155 104.57179,-31.1074 z"
       id="path1309"
       inkscape:connector-curvature="0"
       sodipodi:nodetypes="ccccccccccccccccccccccccc" />
    <path
       style="display:inline;fill:#ffffff;stroke:none;stroke-width:0.93832928"
       d="m 2013.3407,1882.5546 c -36.5857,2.5175 -72.7063,10.4582 -104.7287,23.3507 -21.5339,8.704 -41.2405,19.7465 -56.8925,33.1414 -40.7941,33.9262 -61.9902,77.8596 -60.5409,120.8345 -0.2297,35.7311 13.606,71.7674 44.0183,100.5332 29.1341,28.1845 70.3113,51.3204 119.3268,61.7496 28.6628,6.2345 58.2614,10.5364 88.0554,13.8462 41.3078,3.0261 83.062,-3.0281 122.986,-11.0497 35.6196,-7.138 71.1943,-17.4364 98.7539,-35.1431 30.4605,-19.5626 49.9384,-45.4541 64.7417,-71.5858 15.0172,-26.1806 23.107,-54.6572 17.4304,-82.2912 -4.9606,-28.2353 -14.845,-56.6825 -37.1715,-80.7011 -21.8226,-23.2997 -54.4719,-41.3318 -91.5169,-52.5799 -48.5723,-15.2565 -102.8819,-20.8125 -156.6494,-21.3715 -15.9314,-0.036 -31.8947,0.2578 -47.8126,1.2667 z"
       id="path3280-5"
       inkscape:connector-curvature="0"
       sodipodi:nodetypes="csssc" />
    <path
       style="color:#000000;display:inline;overflow:visible;visibility:visible;fill:#ffffff;fill-opacity:1;fill-rule:nonzero;stroke:none;stroke-width:0.869755px;marker:none;enable-background:accumulate"
       d="m 631.52816,1840.5303 c 47.24511,-27.3875 115.83444,-55.1086 154.24551,3.9472 23.5574,-4.8627 69.71482,-40.1263 115.42935,17.7336 -47.53609,-35.9834 -78.50267,-15.4767 -118.07887,4.9225 -18.59072,-41.5285 -83.01307,-49.4207 -140.96132,7.1368 -57.94866,56.5566 -38.62415,45.003 -38.62415,45.003 l 10.52452,-62.5977 z"
       id="path5074-8"
       inkscape:connector-curvature="0"
       sodipodi:nodetypes="ccccsccc" />
    <path
       style="display:inline;fill:#ffffff;stroke:none;stroke-width:1.07827747"
       d="m 469.69585,1809.6055 c -34.01998,0.6202 -68.78167,2.8871 -100.71012,14.1083 -42.04444,15.3776 -73.9621,50.1228 -82.98313,89.4906 -6.4722,26.0118 -5.87126,53.7456 4.04504,79.025 9.50542,23.3857 29.97492,42.7535 55.06262,53.7349 12.61841,5.7353 26.38874,9.0777 40.26197,11.4444 22.98082,4.2459 46.19912,7.586 69.55983,9.6772 52.20467,4.2645 106.45591,0.3106 154.77198,-18.7444 16.35919,-6.5084 32.3379,-14.7612 44.38409,-26.7076 16.57066,-17.5909 23.89251,-40.2604 28.2996,-62.4104 5.36713,-28.9396 1.86516,-60.0042 -14.77575,-85.7743 -17.138,-26.0108 -47.13028,-44.2053 -79.67201,-52.0684 -32.68424,-8.5105 -66.92349,-10.583 -100.79533,-11.8245 -5.81608,-0.084 -11.63342,-0.064 -17.44879,0.049 z"
       id="path3280-5-9"
       inkscape:connector-curvature="0"
       sodipodi:nodetypes="csssc" />
    <path
       style="color:#000000;display:inline;overflow:visible;visibility:visible;fill:#ffffff;fill-opacity:1;fill-rule:nonzero;stroke:none;stroke-width:1.23214px;marker:none;enable-background:accumulate"
       d="m 1555.6124,284.94746 c 6.0676,-105.76337 71.0968,-182.47388 294.973,-163.46234 119.9204,10.18345 256.0449,16.63628 248.5465,171.56664 -7.4986,154.93009 -203.1001,151.7186 -243.4414,155.49977 -40.3409,3.78143 -230.475,-12.62073 -267.7163,-65.16602 -23.3124,-32.89174 -32.7301,-65.68853 -32.3618,-98.43805 z"
       id="path4546-7"
       inkscape:connector-curvature="0"
       sodipodi:nodetypes="cssssc" />
    <path
       style="fill:#ffffff;fill-rule:evenodd;stroke:none;stroke-width:1px;stroke-linecap:butt;stroke-linejoin:miter;stroke-opacity:1"
       d="m 1583.1971,228.38894 -0.065,25.78758 C 1064.4433,130.64867 897.1794,416.85146 793.5913,670.33743 810.89342,604.71047 848.83107,539.01086 867.11504,495.25305 921.33848,365.48369 1120.9039,126.81475 1583.1971,228.38894 Z"
       id="path1237"
       sodipodi:nodetypes="cccsc" />
    <path
       style="fill:#ffffff;fill-rule:evenodd;stroke:none;stroke-width:1.07745px;stroke-linecap:butt;stroke-linejoin:miter;stroke-opacity:1"
       d="m 792.00008,200.22561 c 33.7121,12.97476 64.18552,21.04152 53.82517,-32.7734 59.67262,73.06177 51.11263,23.02436 60.55332,5.4622 35.47754,51.61057 66.00304,44.25569 92.51203,-10.9244 14.9859,79.59467 46.3453,41.03052 74.0097,29.1319 -0.067,22.38327 -36.304,58.75533 63.962,16.82898 -23.3402,20.21595 -61.89,54.06155 8.0172,33.79483 -11.3289,5.35959 9.1441,9.60416 0.9908,12.75937 -36.4893,14.12075 -43.292,45.94822 12.0303,57.21953 -39.0932,12.56052 -47.9639,43.98583 -1.9312,80.13352 -58.4566,-24.94281 -49.6253,8.03409 -38.8085,23.94457 -57.4032,-32.71188 -65.4347,-19.61526 -60.5532,5.4622 -18.3198,-22.87975 -39.2236,-32.45983 -79.58358,6.55438 9.02795,-23.43417 -34.88368,-22.77173 -75.40616,14.31454 21.33941,-35.68177 -8.79121,-40.48012 -42.33642,-17.95604 -8.84776,-37.9175 -42.07125,-18.66554 -77.37369,5.46231 28.81487,-37.0083 30.90291,-67.92573 -25.23053,-85.57523 54.398,-21.17144 44.4926,-38.24845 23.54851,-54.62242 20.69208,-15.39734 34.18357,-32.16999 -20.18444,-61.90552 31.78763,4.6228 65.63406,10.58278 31.95869,-27.31132 z"
       id="path4582"
       inkscape:connector-curvature="0"
       sodipodi:nodetypes="cccccccscccccccccccc" />
    <path
       style="fill:#ffffff;fill-rule:evenodd;stroke:none;stroke-width:1.14149px;stroke-linecap:butt;stroke-linejoin:miter;stroke-opacity:1"
       d="m 186.64099,269.10219 c 14.16793,-17.9695 21.6656,-57.67395 -26.96962,-49.84375 39.28832,-24.22773 26.02054,-46.39487 -3.9116,-60.30611 73.97307,21.84758 73.30597,-3.1264 61.65626,-34.98976 47.54155,45.23929 40.41961,-2.73478 35.84699,-20.87523 10.75548,16.73933 13.0223,42.92164 49.60085,2.10678 -0.32028,30.13252 -6.17118,65.92523 62.1714,25.78584 -22.50387,36.76194 -23.29348,63.59943 42.00483,60.23151 -28.38205,11.84018 -67.58994,23.8538 -13.96314,34.38016 -34.61657,-0.92979 -57.61576,1.55757 -42.76886,15.17701 -14.37392,-2.5435 -33.83306,-9.95842 -3.30801,30.50934 -20.80242,-14.97453 -46.52652,-38.26005 -39.11492,-5.59088 -18.23798,-14.68676 -19.40407,6.8976 -15.2404,39.80566 -12.94537,-38.21825 -26.75878,-42.54053 -41.59034,-7.10557 6.55708,-27.98121 3.27152,-63.65454 -44.38626,-25.35425 -12.90735,-2.90399 -11.03497,-2.74842 -20.02718,-3.93075 z"
       id="path1213"
       sodipodi:nodetypes="cccccccccccccccc" />
    <path
       style="fill:#ffffff;fill-rule:evenodd;stroke:none;stroke-width:1.28731px;stroke-linecap:butt;stroke-linejoin:miter;stroke-opacity:1"
       d="M 223.92681,451.40352 C 191.03014,380.78428 162.95416,309.9462 234.75229,234.57441 l -10.34265,-15.32374 c -90.31546,91.35161 -49.21656,162.34365 -0.48283,232.15285 z"
       id="path1217"
       sodipodi:nodetypes="cccc" />
    <path
       style="fill:#ffffff;fill-rule:evenodd;stroke:none;stroke-width:1.08499px;stroke-linecap:butt;stroke-linejoin:miter;stroke-opacity:1"
       d="m 1643.7985,1929.1739 c 96.8015,-46.6867 120.9988,-40.2821 80.5755,28.3512 65.4725,-1.176 123.2483,3.9962 149.8904,34.8462 l 15.5883,-26.0596 c -31.2138,-18.9598 -72.3678,-35.221 -134.1445,-30.1606 20.9177,-34.9284 13.3859,-99.1339 -111.9097,-6.9772 z"
       id="path1284"
       sodipodi:nodetypes="cccccc" />
  </g>
  <g
     inkscape:groupmode="layer"
     id="layer1"
     inkscape:label="txt">
    <text
       xml:space="preserve"
       style="font-style:normal;font-variant:normal;font-weight:normal;font-stretch:normal;font-size:81.3623px;line-height:1.25;font-family:Lavi;-inkscape-font-specification:Lavi;text-align:center;letter-spacing:0px;word-spacing:0px;text-anchor:middle;fill:#000000;fill-opacity:1;stroke:none;stroke-width:1.408;stroke-miterlimit:4;stroke-dasharray:none"
       x="316.34204"
       y="221.56798"
       id="text4246-3-2-2-6-3-7-9-3-3-56-9-3-20"
       transform="matrix(0.93887237,0,-0.13753791,1.0651075,0,0)"><tspan
         style="font-style:normal;font-variant:normal;font-weight:normal;font-stretch:normal;font-size:81.3623px;font-family:Lavi;-inkscape-font-specification:Lavi;stroke:#000000;stroke-width:1.408;stroke-miterlimit:4;stroke-dasharray:none;stroke-opacity:1"
         sodipodi:role="line"
         x="316.34204"
         y="221.56798"
         id="tspan334">?!!</tspan></text>
    <text
       xml:space="preserve"
       style="font-style:normal;font-variant:normal;font-weight:normal;font-stretch:normal;font-size:55.08750153px;line-height:1.25;font-family:Lavi;-inkscape-font-specification:Lavi;text-align:center;letter-spacing:0px;word-spacing:0px;text-anchor:middle;fill:#000000;fill-opacity:1;stroke:none;stroke-width:1.22416997"
       x="980.52393"
       y="277.9678"
       id="text4246-3-2-2-6-3-7-9-3-3-56-9-3-20-3"
       transform="scale(0.97385247,1.0268496)"><tspan
         style="font-size:55.08750153px;stroke-width:1.22416997"
         sodipodi:role="line"
         x="980.52393"
         y="277.9678"
         id="tspan888"><tspan
   style="font-weight:bold"
   id="tspan70">EA</tspan> era</tspan><tspan
         style="font-size:55.08750153px;stroke-width:1.22416997"
         sodipodi:role="line"
         x="980.52393"
         y="346.82718"
         id="tspan68">ținta!</tspan></text>
    <text
       xml:space="preserve"
       style="font-style:normal;font-variant:normal;font-weight:normal;font-stretch:normal;font-size:48.80149841px;line-height:1.25;font-family:Lavi;-inkscape-font-specification:Lavi;text-align:center;letter-spacing:0px;word-spacing:0px;text-anchor:middle;fill:#000000;fill-opacity:1;stroke:none;stroke-width:1.08448005"
       x="1829.2006"
       y="208.50026"
       id="text4246-3-2-2-6-3-7-9-3-3-56-9-3-20-3-7"><tspan
         style="font-size:48.80149841px;stroke-width:1.08448005"
         sodipodi:role="line"
         x="1829.2006"
         y="208.50026"
         id="tspan900">Tocmai i-am anulat</tspan><tspan
         style="font-size:48.80149841px;stroke-width:1.08448005"
         sodipodi:role="line"
         x="1836.8258"
         y="269.50214"
         id="tspan914"><tspan
   style="font-style:italic"
   id="tspan88">Vraja Splendorii</tspan> </tspan><tspan
         style="font-size:48.80149841px;stroke-width:1.08448005"
         sodipodi:role="line"
         x="1836.8258"
         y="330.504"
         id="tspan84">care o menține </tspan><tspan
         style="font-size:48.80149841px;stroke-width:1.08448005"
         sodipodi:role="line"
         x="1829.2006"
         y="391.70715"
         id="tspan87">tânără.</tspan></text>
    <text
       xml:space="preserve"
       style="font-style:normal;font-variant:normal;font-weight:normal;font-stretch:normal;font-size:45px;line-height:1.25;font-family:Lavi;-inkscape-font-specification:Lavi;text-align:center;letter-spacing:0px;word-spacing:0px;text-anchor:middle;fill:#000000;fill-opacity:1;stroke:none"
       x="481.82349"
       y="1894.532"
       id="text4246-3-2-2-6-3-7-9-3-3-56-9-3-20-5"><tspan
         style="font-size:45px"
         sodipodi:role="line"
         x="481.82349"
         y="1894.532"
         id="tspan924">Am observat</tspan><tspan
         style="font-size:45px"
         sodipodi:role="line"
         x="488.85474"
         y="1950.782"
         id="tspan97">vraja asta de cum </tspan><tspan
         style="font-size:45px"
         sodipodi:role="line"
         x="481.82349"
         y="2007.032"
         id="tspan101">am ajuns aici.</tspan></text>
    <text
       xml:space="preserve"
       style="font-style:normal;font-variant:normal;font-weight:normal;font-stretch:normal;font-size:45px;line-height:1.25;font-family:Lavi;-inkscape-font-specification:Lavi;text-align:center;letter-spacing:0px;word-spacing:0px;text-anchor:middle;fill:#000000;fill-opacity:1;stroke:none"
       x="2067.7812"
       y="1959.6521"
       id="text4246-3-2-2-6-3-7-9-3-3-56-9-3-20-5-9"><tspan
         style="font-size:45px"
         sodipodi:role="line"
         x="2074.8125"
         y="1959.6521"
         id="tspan948">Așa că ți-am dat </tspan><tspan
         style="font-size:45px"
         sodipodi:role="line"
         x="2067.7812"
         y="2016.0876"
         id="tspan112">un mic exemplu din ceea</tspan><tspan
         style="font-size:45px"
         sodipodi:role="line"
         x="2067.7812"
         y="2072.3376"
         id="tspan114">ce meriți pentru că ai</tspan><tspan
         style="font-size:45px"
         sodipodi:role="line"
         x="2067.7812"
         y="2128.7732"
         id="tspan116">făcut-o pe Shichimi</tspan><tspan
         style="font-size:45px"
         sodipodi:role="line"
         x="2067.7812"
         y="2185.0232"
         id="tspan118">să se lupte cu mine!</tspan></text>
    <text
       xml:space="preserve"
       style="font-style:normal;font-variant:normal;font-weight:normal;font-stretch:normal;font-size:60px;line-height:1.25;font-family:Lavi;-inkscape-font-specification:Lavi;text-align:center;letter-spacing:2px;word-spacing:0px;text-anchor:middle;fill:#000000;fill-opacity:1;stroke:none;stroke-width:1.32287002"
       x="371.23419"
       y="2215.2615"
       id="text4246-3-2-2-6-3-7-9-3-3-56-9-3-20-5-9-0"
       transform="scale(0.860916,1.1615535)"><tspan
         style="font-style:normal;font-variant:normal;font-weight:bold;font-stretch:normal;font-size:60px;font-family:Lavi;-inkscape-font-specification:'Lavi Bold';stroke-width:1.32287002"
         sodipodi:role="line"
         x="372.23419"
         y="2215.2615"
         id="tspan992-6">OBRĂZNICIE!</tspan></text>
    <text
       xml:space="preserve"
       style="font-style:normal;font-variant:normal;font-weight:normal;font-stretch:normal;font-size:58px;line-height:1.25;font-family:Lavi;-inkscape-font-specification:Lavi;text-align:center;letter-spacing:0px;word-spacing:0px;text-anchor:middle;fill:#000000;fill-opacity:1;stroke:none;stroke-width:1.30552995"
       x="330.97919"
       y="2751.8735"
       id="text4246-3-2-2-6-3-7-9-3-3-56-9-3-20-5-2"><tspan
         style="font-size:58px;stroke-width:1.30552995"
         sodipodi:role="line"
         x="330.97919"
         y="2751.8735"
         id="tspan1085">Cum</tspan><tspan
         style="font-size:58px;stroke-width:1.30552995"
         sodipodi:role="line"
         x="330.97919"
         y="2824.3735"
         id="tspan123"><tspan
   style="font-weight:bold"
   id="tspan125">îndrăznești</tspan>,</tspan></text>
    <text
       xml:space="preserve"
       style="font-style:normal;font-variant:normal;font-weight:normal;font-stretch:normal;font-size:50px;line-height:1.25;font-family:Lavi;-inkscape-font-specification:Lavi;text-align:center;letter-spacing:0px;word-spacing:0px;text-anchor:middle;fill:#000000;fill-opacity:1;stroke:none;stroke-width:1.30552995"
       x="323.44345"
       y="2913.9951"
       id="text4246-3-2-2-6-3-7-9-3-3-56-9-3-20-5-2-7"><tspan
         style="font-size:50px;stroke-width:1.30552995"
         sodipodi:role="line"
         x="323.44345"
         y="2913.9951"
         id="tspan959">și în fața</tspan><tspan
         style="font-size:50px;stroke-width:1.30552995"
         sodipodi:role="line"
         x="331.25595"
         y="2976.7014"
         id="tspan132">întregii mele </tspan><tspan
         style="font-size:50px;stroke-width:1.30552995"
         sodipodi:role="line"
         x="323.44345"
         y="3039.2014"
         id="tspan66">școli!</tspan></text>
    <text
       xml:space="preserve"
       style="font-style:normal;font-variant:normal;font-weight:normal;font-stretch:normal;font-size:45px;line-height:1.25;font-family:Lavi;-inkscape-font-specification:Lavi;text-align:center;letter-spacing:0px;word-spacing:0px;text-anchor:middle;fill:#000000;fill-opacity:1;stroke:none"
       x="2149.2981"
       y="2544.0259"
       id="text4246-3-2-2-6-3-7-9-3-3-56-9-3-20-5-9-02"><tspan
         style="font-size:45px"
         sodipodi:role="line"
         x="2149.2981"
         y="2544.0259"
         id="tspan1175">Consideră-te</tspan><tspan
         style="font-size:45px"
         sodipodi:role="line"
         x="2149.2981"
         y="2600.2759"
         id="tspan67">norocoasă!</tspan></text>
    <text
       xml:space="preserve"
       style="font-style:normal;font-variant:normal;font-weight:normal;font-stretch:normal;font-size:45px;line-height:1.25;font-family:Lavi;-inkscape-font-specification:Lavi;text-align:center;letter-spacing:0px;word-spacing:0px;text-anchor:middle;fill:#000000;fill-opacity:1;stroke:none"
       x="2160.4646"
       y="2717.9202"
       id="text4246-3-2-2-6-3-7-9-3-3-56-9-3-20-5-9-02-2"><tspan
         style="font-size:45px"
         sodipodi:role="line"
         x="2160.4646"
         y="2717.9202"
         id="tspan976">Dacă aveam</tspan><tspan
         style="font-size:45px"
         sodipodi:role="line"
         x="2167.4958"
         y="2774.1702"
         id="tspan982">întreaga mea <tspan
   style="font-weight:bold"
   id="tspan82">Rea</tspan>, </tspan><tspan
         style="font-size:45px"
         sodipodi:role="line"
         x="2160.4646"
         y="2830.4202"
         id="tspan78">nu mă opream</tspan><tspan
         style="font-size:45px"
         sodipodi:role="line"
         x="2160.4646"
         y="2886.6702"
         id="tspan80">aici.</tspan></text>
  </g>
</svg>
