<?xml version="1.0" encoding="UTF-8" standalone="no"?>
<!-- Created with Inkscape (http://www.inkscape.org/) -->

<svg
   id="svg2"
   version="1.1"
   inkscape:version="1.1.1 (3bf5ae0d25, 2021-09-20, custom)"
   width="2481"
   height="3503"
   sodipodi:docname="E32P04.svg"
   xmlns:inkscape="http://www.inkscape.org/namespaces/inkscape"
   xmlns:sodipodi="http://sodipodi.sourceforge.net/DTD/sodipodi-0.dtd"
   xmlns:xlink="http://www.w3.org/1999/xlink"
   xmlns="http://www.w3.org/2000/svg"
   xmlns:svg="http://www.w3.org/2000/svg"
   xmlns:rdf="http://www.w3.org/1999/02/22-rdf-syntax-ns#"
   xmlns:cc="http://creativecommons.org/ns#"
   xmlns:dc="http://purl.org/dc/elements/1.1/">
  <metadata
     id="metadata8">
    <rdf:RDF>
      <cc:Work
         rdf:about="">
        <dc:format>image/svg+xml</dc:format>
        <dc:type
           rdf:resource="http://purl.org/dc/dcmitype/StillImage" />
        <dc:title />
      </cc:Work>
    </rdf:RDF>
  </metadata>
  <defs
     id="defs6">
    <filter
       style="color-interpolation-filters:sRGB"
       id="filter4375-4-1-1-1-9-5-8-4"
       inkscape:label="Drop Shadow"
       x="-0.0015551495"
       y="-0.0053207589"
       width="1.0226615"
       height="1.0775338">
      <feFlood
         id="feFlood4377-7-9-0-8-1-7-3-3"
         flood-opacity="1"
         flood-color="rgb(108,125,133)"
         result="flood" />
      <feComposite
         id="feComposite4379-3-8-8-2-77-4-1-07"
         in2="SourceGraphic"
         in="flood"
         operator="in"
         result="composite1" />
      <feMorphology
         id="feMorphology4393-1-0-49-8-9-3-0-8"
         operator="dilate"
         radius="6.2000000000000002"
         result="result3" />
      <feComposite
         id="feComposite4385-9-5-7-0-8-8-7-6"
         in2="result3"
         in="SourceGraphic"
         operator="over"
         result="fbSourceGraphic" />
      <feColorMatrix
         result="fbSourceGraphicAlpha"
         in="fbSourceGraphic"
         values="0 0 0 -1 0 0 0 0 -1 0 0 0 0 -1 0 0 0 0 1 0"
         id="feColorMatrix4544-8" />
      <feTurbulence
         id="feTurbulence4546-8"
         type="fractalNoise"
         numOctaves="3"
         seed="37"
         baseFrequency="0.129 0.0050000000000000001"
         result="turbulence" />
      <feDisplacementMap
         id="feDisplacementMap4548-4"
         in2="turbulence"
         in="fbSourceGraphic"
         scale="6.6"
         yChannelSelector="G"
         xChannelSelector="R"
         result="fbSourceGraphic" />
      <feColorMatrix
         result="fbSourceGraphicAlpha"
         in="fbSourceGraphic"
         values="0 0 0 -1 0 0 0 0 -1 0 0 0 0 -1 0 0 0 0 1 0"
         id="feColorMatrix4670-3" />
      <feFlood
         id="feFlood4672-1"
         flood-opacity="1"
         flood-color="rgb(17,52,65)"
         result="flood"
         in="fbSourceGraphic" />
      <feComposite
         id="feComposite4674-4"
         in2="fbSourceGraphic"
         in="flood"
         operator="in"
         result="composite1" />
      <feGaussianBlur
         id="feGaussianBlur4676-92"
         in="composite1"
         stdDeviation="0"
         result="blur" />
      <feOffset
         id="feOffset4678-0"
         dx="6"
         dy="6"
         result="offset" />
      <feComposite
         id="feComposite4680-68"
         in2="offset"
         in="fbSourceGraphic"
         operator="over"
         result="composite2" />
    </filter>
    <filter
       style="color-interpolation-filters:sRGB"
       id="filter4375-4-1-1-1-9-5-8-4-3"
       inkscape:label="Drop Shadow"
       x="-0.0024672617"
       y="-0.0083453672"
       width="1.0248218"
       height="1.0839582">
      <feFlood
         id="feFlood4377-7-9-0-8-1-7-3-3-6"
         flood-opacity="1"
         flood-color="rgb(108,125,133)"
         result="flood" />
      <feComposite
         id="feComposite4379-3-8-8-2-77-4-1-07-7"
         in2="SourceGraphic"
         in="flood"
         operator="in"
         result="composite1" />
      <feMorphology
         id="feMorphology4393-1-0-49-8-9-3-0-8-5"
         operator="dilate"
         radius="6.2000000000000002"
         result="result3" />
      <feComposite
         id="feComposite4385-9-5-7-0-8-8-7-6-3"
         in2="result3"
         in="SourceGraphic"
         operator="over"
         result="fbSourceGraphic" />
      <feColorMatrix
         result="fbSourceGraphicAlpha"
         in="fbSourceGraphic"
         values="0 0 0 -1 0 0 0 0 -1 0 0 0 0 -1 0 0 0 0 1 0"
         id="feColorMatrix4544-8-5" />
      <feTurbulence
         id="feTurbulence4546-8-6"
         type="fractalNoise"
         numOctaves="3"
         seed="37"
         baseFrequency="0.129 0.0050000000000000001"
         result="turbulence" />
      <feDisplacementMap
         id="feDisplacementMap4548-4-2"
         in2="turbulence"
         in="fbSourceGraphic"
         scale="6.6"
         yChannelSelector="G"
         xChannelSelector="R"
         result="fbSourceGraphic" />
      <feColorMatrix
         result="fbSourceGraphicAlpha"
         in="fbSourceGraphic"
         values="0 0 0 -1 0 0 0 0 -1 0 0 0 0 -1 0 0 0 0 1 0"
         id="feColorMatrix4670-3-9" />
      <feFlood
         id="feFlood4672-1-1"
         flood-opacity="1"
         flood-color="rgb(17,52,65)"
         result="flood"
         in="fbSourceGraphic" />
      <feComposite
         id="feComposite4674-4-2"
         in2="fbSourceGraphic"
         in="flood"
         operator="in"
         result="composite1" />
      <feGaussianBlur
         id="feGaussianBlur4676-92-7"
         in="composite1"
         stdDeviation="0"
         result="blur" />
      <feOffset
         id="feOffset4678-0-0"
         dx="6"
         dy="6"
         result="offset" />
      <feComposite
         id="feComposite4680-68-9"
         in2="offset"
         in="fbSourceGraphic"
         operator="over"
         result="composite2" />
    </filter>
  </defs>
  <sodipodi:namedview
     pagecolor="#ffffff"
     bordercolor="#666666"
     borderopacity="1"
     objecttolerance="10"
     gridtolerance="10"
     guidetolerance="10"
     inkscape:pageopacity="0"
     inkscape:pageshadow="2"
     inkscape:window-width="1888"
     inkscape:window-height="1146"
     id="namedview4"
     showgrid="false"
     inkscape:zoom="0.46000001"
     inkscape:cx="1071.7391"
     inkscape:cy="2296.7391"
     inkscape:window-x="32"
     inkscape:window-y="0"
     inkscape:window-maximized="1"
     inkscape:current-layer="layer1"
     inkscape:snap-global="false"
     inkscape:pagecheckerboard="0" />
  <g
     inkscape:groupmode="layer"
     id="layer2"
     inkscape:label="artwork"
     sodipodi:insensitive="true">
    <image
       xlink:href="../gfx_Pepper-and-Carrot_by-David-Revoy_E32P04.png"
       width="2481"
       height="3503.4727"
       id="image10"
       x="0"
       y="0" />
  </g>
  <g
     inkscape:groupmode="layer"
     id="layer3"
     inkscape:label="speechbubbles"
     style="display:inline">
    <path
       style="display:inline;fill:#ffffff;fill-rule:evenodd;stroke:none;stroke-width:0.81123096px;stroke-linecap:butt;stroke-linejoin:miter;stroke-opacity:1"
       d="m 728.53516,1027.9555 c -1.92058,6.5544 -3.84115,13.1088 -5.76172,19.6633 -10.80737,5.2966 -26.19912,5.902 -38.09571,1.8405 2.95248,7.0904 5.90495,14.1808 8.85743,21.2711 -2.6147,1.5771 -6.53775,2.1581 -9.91211,1.4191 1.85416,4.024 3.70833,8.0479 5.5625,12.0719 -4.60855,2.573 -10.8439,3.8667 -16.85938,3.3998 3.32366,7.1574 6.94789,14.3124 8.42969,21.7621 -2.69535,5.8032 -6.9408,11.2139 -10.98633,16.644 13.53684,1.6977 27.2168,3.0758 40.41602,5.7492 9.70337,5.1275 15.693,13.2553 15.39062,21.4704 11.19531,-3.3019 22.39063,-6.6041 33.58594,-9.9061 5.38253,0.6846 8.31471,5.3622 5.29883,8.3611 12.74289,-4.1626 25.41724,-8.415 38.10351,-12.6515 4.10695,1.4279 7.25533,4.013 8.41211,6.9781 7.45058,-0.9771 14.79433,-2.2655 22.14063,-3.5308 1.38991,1.4945 2.04524,3.2231 2.42187,4.942 10.60391,0.6224 21.58735,0.6105 31.58008,3.3368 4.01547,1.9699 6.77262,4.7845 9.39648,7.5385 10.30576,-7.4188 20.59177,-15.3298 34.52245,-19.8679 8.04197,-2.5387 16.69346,-5.1911 25.84363,-4.6087 5.1118,0.8971 10.22306,1.8102 15.41908,2.4754 7.7336,-2.8132 16.99388,-4.564 25.76758,-3.0385 0.94432,0.9167 3.06508,-0.51 1.73346,-1.1613 -1.69221,-3.7038 -4.40669,-7.1809 -5.7862,-10.9504 3.84166,-4.9961 8.33112,-10.0355 9.01368,-15.7405 -2.11143,-4.2414 -5.95768,-7.9807 -8.47371,-12.1102 -0.54086,-0.7051 -1.57845,-1.606 -0.36473,-2.2629 2.25665,-2.1023 5.47795,-3.7301 9.08844,-4.7052 -5.34212,-4.36 -14.70363,-5.9115 -18.87891,-10.9884 -3.82635,-4.1099 -6.10995,-9.266 -3.77344,-14 7.67771,-7.6959 17.57826,-14.2739 25.76758,-21.7184 -11.26896,4.306 -22.48484,8.6716 -33.71094,13.0258 -2.96548,-0.945 -5.15193,-2.8244 -5.89843,-4.9268 -4.01375,0.46 -7.95756,1.1418 -11.90625,1.7943 -0.55665,-2.001 -0.11976,-4.0476 -0.52735,-6.0579 -2.19664,-0.2687 -4.4545,-0.2652 -6.63281,-0.6066 -0.61341,-5.779 0.7975,-11.5294 1.90625,-17.2442 -8.68034,5.2991 -17.36068,10.5981 -26.04102,15.8971 -4.02357,-0.7327 -7.5707,-2.5331 -9.65429,-4.9151 -14.58906,0.7307 -29.45648,0.3721 -43.71094,2.8677 -8.11108,-0.373 -14.38532,-4.155 -21.45313,-6.3484 -2.40563,-0.9589 -5.33844,-2.4337 -8.22923,-1.3926 -9.24456,2.29 -16.80936,7.2544 -26.87428,8.12 -5.8653,0.6101 -11.90452,0.4046 -17.67188,-0.5089 -6.42457,1.6176 -10.73119,5.6778 -17.45898,6.8921 -8.80823,-0.6161 -15.87924,-5.1069 -19.55078,-10.1877 -3.16586,-3.6333 -6.32099,-7.2708 -9.55859,-10.8766 -0.29558,0.9285 -0.59115,1.857 -0.88672,2.7853 z"
       id="path4508-2"
       inkscape:connector-curvature="0"
       sodipodi:nodetypes="cccccccccccccccccccccccccccc" />
    <path
       style="display:inline;opacity:1;fill:#ffffff;fill-rule:evenodd;stroke:none;stroke-width:1px;stroke-linecap:butt;stroke-linejoin:miter;stroke-opacity:1"
       d="m 1232.4018,1041.2127 c -50.2716,5.6942 -99.4961,17.7102 -149.0566,27.4906 -16.2443,3.0274 -32.4856,6.4771 -49.0334,7.3138 -27.8674,1.7997 -55.81752,0.5765 -83.70319,1.8779 -31.70373,1.116 -63.45592,2.4021 -94.96073,6.3059 -12.00129,1.5369 -23.8923,4.0749 -35.32968,8.0574 -14.69956,4.8219 -28.95873,11.1539 -44.13898,14.3919 -8.25968,1.6756 -16.87794,1.7222 -25.07509,-0.3374 -10.7596,-2.4958 -20.93572,-6.8981 -31.28412,-10.666 -13.71759,-5.23 -27.87124,-9.9766 -42.63207,-10.8825 -17.52114,-1.6165 -35.20254,-2.0954 -52.74398,-0.5311 -14.1515,1.5758 -28.28924,6.1786 -39.51262,15.1684 -12.84906,9.8693 -22.82322,24.1414 -25.65265,40.2688 -1.27746,9.6884 1.31912,19.7672 6.8849,27.7728 0.67219,-10.5849 -2.17144,-21.4525 1.0625,-31.8106 4.3372,-15.0701 16.29647,-27.1362 30.36748,-33.5682 11.89389,-5.571 25.40408,-6.3815 38.3065,-5.114 19.64653,0.787 39.52891,0.029 58.88579,4.0577 18.62559,4.5312 35.23728,14.582 53.3582,20.5503 10.41976,3.2102 21.70042,4.3166 32.36695,1.64 19.04553,-4.0346 36.58663,-12.9001 55.30192,-18.0596 12.43504,-3.5706 25.3649,-5.5175 38.31511,-5.3097 37.76726,-1.0812 75.53995,-2.1833 113.32462,-2.3508 32.59244,0.08 65.21724,1.5823 97.78584,-0.2844 34.3956,-1.6839 68.688,-6.4713 103.1848,-5.2917 8.1876,0.3248 16.7783,0.3919 24.2138,4.3017 5.7439,2.8127 10.051,8.1503 11.8047,14.2786 1.4492,4.1969 1.4605,8.6884 2.352,12.9932 0.6018,2.1839 3.7128,2.0534 5.1858,0.8257 1.3359,-0.8313 1.5858,-2.4429 1.5437,-3.865 4.0897,-23.3572 8.874,-46.6096 11.8375,-70.1495 -0.345,-4.8848 -5.0077,-8.1954 -9.5346,-8.8976 -1.1287,-0.2017 -2.2808,-0.247 -3.4244,-0.1766 z"
       id="path4316-3"
       inkscape:connector-curvature="0"
       sodipodi:nodetypes="ccsccscccccccccccccccccccccccc" />
    <path
       style="display:inline;fill:#ffffff;stroke:none;stroke-width:1.01007"
       d="m 1228.7324,961.92261 c -49.3505,0.61281 -99.2951,6.91333 -145.346,24.78025 -26.5905,10.8759 -51.1495,28.36144 -66.1343,52.58954 -13.3351,23.9497 -15.6242,52.655 -9.6214,78.9573 9.4834,36.2917 41.4583,65.6806 79.0525,74.0486 31.9222,8.6857 65.1759,10.6524 97.9276,14.6903 70.2897,6.6577 140.8798,0.6962 211.236,-1.4447 27.5338,-1.0263 55.1663,-2.1082 82.4128,-6.3096 33.2268,-6.2144 65.3119,-21.3414 88.43,-45.5757 12.8584,-13.7519 21.6628,-31.4093 22.8666,-50.053 2.4979,-22.913 -0.8251,-47.1117 -13.1605,-67.141 -12.5484,-19.4448 -32.7111,-33.1635 -54.2454,-42.03507 -32.5962,-14.30046 -67.9502,-21.61058 -103.2836,-26.1261 -52.2115,-6.0198 -104.8864,-4.57173 -157.3407,-6.18501 -10.9303,-0.1718 -21.8621,-0.21486 -32.7936,-0.19581 z"
       id="path3280-8-2-3"
       inkscape:connector-curvature="0"
       sodipodi:nodetypes="csssc" />
    <path
       style="display:inline;fill:#ffffff;fill-rule:evenodd;stroke:none;stroke-width:0.994697px;stroke-linecap:butt;stroke-linejoin:miter;stroke-opacity:1"
       d="m 1883.518,2216.9799 c 5.0184,8.5791 -5.4303,19.6268 -17.2553,18.3555 -10.5475,0.1321 -19.6149,-4.9045 -27.5858,-9.8007 -2.4793,-1.2869 -5.0128,-2.5082 -7.6007,-3.6541 -3.2332,6.5432 -3.5692,14.3892 -10.3013,19.5407 -9.3643,7.4481 -23.8372,10.1892 -36.6326,7.757 -3.1145,1.3224 -1.8939,5.1662 0.9355,6.213 2.4587,3.4563 -1.651,7.605 -6.1149,8.1744 -10.3121,3.6852 -22.1245,2.4299 -32.6444,5.54 10.62,3.9876 22.1698,6.0678 32.954,9.7323 1.3964,5.5878 -3.9705,10.8262 -10.168,12.9617 2.5079,2.5309 6.1106,4.1836 8.981,6.4339 0.7849,0.6768 2.719,1.3199 2.4464,2.2771 -5.9352,8.2979 -17.4542,13.551 -29.3022,14.5509 11.8517,4.8299 26.4914,4.1549 37.2884,10.7978 5.1658,3.8806 4.9086,10.0511 4.0376,15.2031 -0.4707,3.6748 -1.0403,7.3444 -1.2901,11.0343 3.3958,-0.6816 5.1212,-3.5102 8.3772,-4.4461 8.2481,-4.3046 18.6233,-7.3732 28.5236,-5.2627 5.4037,1.6176 9.5217,5.0313 14.1781,7.5216 14.1169,0.8513 28.8515,-0.06 42.214,4.3197 5.5022,2.9724 9.5884,7.4084 11.9755,12.2951 11.9684,-3.3486 23.4141,-9.0855 36.5144,-8.8893 11.6295,1.0285 23.9434,3.1204 35.2123,-0.4796 13.0984,-3.7393 27.0582,-7.6567 41.1768,-5.6471 11.7755,1.587 23.2186,4.3614 34.8838,6.3508 9.6133,-3.0936 16.9786,-10.1719 27.7365,-11.0327 10.9487,-0.99 22.1437,1.2439 31.5947,5.6277 -5.0506,-8.7563 0.8427,-20.698 12.7972,-23.5062 5.8183,-1.7571 11.9911,-2.5842 17.9121,-4.0814 -4.4312,-3.8198 -11.5286,-5.5673 -14.4325,-10.487 -0.5078,-5.5955 6.3518,-9.7898 5.4995,-15.4223 -2.5153,-3.5395 -8.6673,-4.9104 -9.7637,-9.1677 1.8155,-7.8192 9.996,-13.3602 18.0319,-17.4674 1.5881,-0.8209 3.3808,-1.4041 4.8001,-2.4204 -3.734,-2.6114 -9.0601,-2.4238 -13.5622,-3.6307 -5.9534,-1.0192 -12.731,-2.0264 -16.6742,-6.0574 -2.6742,-4.1458 -2.2099,-9.2862 0.6067,-13.3097 -5.2972,-2.966 -11.9555,-0.9472 -17.8903,-1.3323 -10.2312,0.2544 -21.3883,0.5009 -30.2959,-4.1165 -7.1083,-5.2388 -8.9203,-13.1736 -11.0406,-20.3147 0.1032,-1.0193 -1.5112,-2.1564 -2.4671,-1.0538 -11.3,5.6025 -22.7489,12.1426 -36.401,13.3102 -12.8966,0.1529 -24.7666,-6.5589 -30.6721,-15.3688 -2.7276,-1.9577 -6.4659,0.046 -8.3963,1.8369 -9.7848,5.9074 -20.1878,12.3647 -32.8692,13.3986 -14.1241,0.3148 -26.9764,-5.103 -39.2773,-9.909 -5.4278,-2.2457 -10.8356,-4.5218 -16.2581,-6.7753 0.072,0.1336 0.1457,0.2671 0.2185,0.4006 z"
       id="path4582"
       inkscape:connector-curvature="0"
       sodipodi:nodetypes="ccccccccccccccccccccccccccccccccccccccccccccccc" />
    <path
       style="display:inline;fill:#ffffff;fill-rule:evenodd;stroke:none;stroke-width:1px;stroke-linecap:butt;stroke-linejoin:miter;stroke-opacity:1"
       d="m 1982.1328,2325.6113 c -12.8691,7.4955 -25.7383,14.9909 -38.6074,22.4864 0.7954,19.5281 2.2328,39.6275 -3.7131,58.5597 -1.442,4.7665 -2.884,9.5331 -4.326,14.2996 -1.6554,-3.8605 -5.4614,-7.4211 -9.9258,-6.9336 -6.7867,4.7357 -9.0295,13.3509 -9.9231,21.1392 -2.0838,11.9256 -2.8847,24.0205 -3.8503,36.0737 3.8713,-15.6614 7.4521,-31.5035 13.7676,-46.4082 3.8906,4.0568 6.8647,9.3231 12.1582,11.7598 6.004,-2.9668 8.1205,-9.8641 10.0033,-15.7846 11.8101,-31.5596 23.2778,-63.2456 34.8385,-94.8971 0,-0.1943 -0.2322,-0.3937 -0.4219,-0.2949 z"
       id="path891"
       inkscape:connector-curvature="0"
       inkscape:transform-center-x="1.787008"
       inkscape:transform-center-y="33.226638"
       sodipodi:nodetypes="ccccccccc" />
  </g>
  <g
     inkscape:groupmode="layer"
     id="layer1"
     inkscape:label="txt"
     style="display:inline">
    <path
       style="fill:#ffffff;fill-opacity:1;fill-rule:evenodd;stroke:none;stroke-width:0.945993px;stroke-linecap:butt;stroke-linejoin:miter;stroke-opacity:1"
       d="m 171.00156,2274.8845 c -3.52197,-3.6777 -7.02663,-7.3657 -10.62689,-10.9976 2.0102,4.143 4.02038,8.2857 6.03058,12.4285 -3.06282,-1.9476 -6.12563,-3.8953 -9.18845,-5.843 1.05995,12.1491 -6.05094,23.5614 -14.00492,33.655 -3.64365,8.7204 -7.28729,17.4407 -10.93094,26.1611 -3.27138,1.2367 -7.02938,1.691 -10.62688,1.2536 2.65742,2.8762 5.31485,5.7524 7.97226,8.6286 -2.68417,1.4391 -6.0316,2.1177 -9.2786,1.8576 2.38972,3.1259 4.77944,6.2518 7.16917,9.3775 -7.13143,-0.5387 -14.26285,-1.0777 -21.39426,-1.6165 9.21584,6.8378 19.83395,13.5922 23.67144,23.4292 3.81589,20.8359 9.37161,41.4461 15.00723,62.0221 -6.24887,11.3675 -14.20709,22.0932 -21.88073,32.9012 11.18255,-5.709 22.3651,-11.4179 33.54765,-17.127 -0.49452,3.3582 -2.01189,6.621 -4.39292,9.4508 4.72073,-1.2244 9.44146,-2.4486 14.1622,-3.6729 -0.88401,7.9581 -4.61762,15.616 -10.02091,22.3742 8.25634,-4.6129 13.82763,-11.4361 21.67315,-16.4059 34.99482,15.2765 73.55986,26.3227 113.70635,29.298 35.1267,3.3553 71.4356,3.0211 105.56583,-4.8736 18.39547,-5.5019 34.57128,-14.7774 48.371,-25.5949 8.99363,0.3273 15.82757,5.5856 24.15523,7.576 1.97439,0.67 4.70606,2.0501 6.34833,2.0552 -6.62905,-6.0339 -13.25811,-12.0679 -19.88716,-18.1019 4.19376,-2.8822 8.42191,-5.7729 13.18714,-8.0816 3.45633,1.5184 6.91266,3.0368 10.36899,4.5552 -8.63514,-13.1345 -7.1949,-28.9415 -0.66052,-42.4221 2.07868,-7.021 4.15738,-14.0423 6.23607,-21.0636 5.59738,-2.561 11.44338,-4.7696 17.26554,-7.0006 -5.65523,-0.7868 -11.31047,-1.5738 -16.9657,-2.3606 4.24452,-3.6248 10.23121,-5.8993 16.45405,-6.5611 -4.74797,-1.2091 -9.49597,-2.4182 -14.24395,-3.6273 -0.58347,-22.4394 -11.33104,-43.69 -22.75769,-63.9796 -3.58939,-6.37 -9.04411,-13.0322 -7.00957,-20.2864 4.00028,-8.7908 15.66825,-13.4826 21.0548,-21.6254 -13.40757,3.6454 -26.09124,8.6554 -39.04563,13.1383 -1.5835,-3.1363 -1.36346,-6.7804 0.56406,-9.7959 -21.17876,2.0298 -41.87277,-3.1748 -62.20384,-6.9826 -57.42845,-8.0031 -117.09913,-5.9014 -173.4135,5.9127 -7.94753,1.41 -17.4996,1.8848 -23.92299,-2.755 -3.04495,-2.027 -5.41412,-4.6376 -6.97683,-7.4999 -1.55841,2.7082 -0.62577,5.7287 0.13839,8.4936 -7.44977,-6.8987 -12.27726,-15.18 -18.97867,-22.4833 5.25403,12.0633 10.50806,24.1266 15.76209,36.1899 z"
       id="path4212-3"
       inkscape:connector-curvature="0"
       sodipodi:nodetypes="ccccccccccccccccccccccscccccccccccccccccccccccccccc" />
    <path
       style="display:inline;fill:#ffffff;fill-rule:evenodd;stroke:none;stroke-width:1px;stroke-linecap:butt;stroke-linejoin:miter;stroke-opacity:1"
       d="m 310.70312,2463.291 c -8.21398,3.1565 -12.9353,11.3236 -16.15302,19.0514 -5.6045,14.1172 -7.86723,29.361 -8.43367,44.4712 -0.18011,11.5779 2.49004,23.9731 10.804,32.5225 8.55381,9.0353 21.00841,13.3258 33.20607,14.111 26.62301,3.0258 53.74718,6.7941 78.25045,18.258 2.11816,1.0078 4.24122,2.0052 6.36914,2.9922 -25.92997,-17.4348 -55.94738,-27.1336 -85.46519,-36.5491 -9.15309,-1.9188 -16.58306,-10.2666 -16.96924,-19.6885 -0.54779,-8.5768 2.64096,-16.755 4.47368,-25.0023 3.19319,-12.494 6.66713,-25.528 4.31784,-38.4807 -1.16255,-5.1466 -4.54264,-11.2602 -10.40006,-11.6857 z"
       id="path4186-80"
       inkscape:connector-curvature="0"
       sodipodi:nodetypes="cscssc" />
    <text
       xml:space="preserve"
       style="font-style:normal;font-variant:normal;font-weight:normal;font-stretch:normal;line-height:0%;font-family:Lavi;-inkscape-font-specification:Lavi;text-align:center;letter-spacing:0px;word-spacing:0px;text-anchor:middle;display:inline;fill:#000000;fill-opacity:1;stroke:none"
       x="826.91052"
       y="1106.1595"
       id="text4246-7-6-1-7-6-6"><tspan
         sodipodi:role="line"
         style="font-size:45px;line-height:1.25"
         x="826.91052"
         y="1106.1595"
         id="tspan846">Neverjetno!</tspan></text>
    <text
       xml:space="preserve"
       style="font-style:normal;font-variant:normal;font-weight:normal;font-stretch:normal;line-height:0%;font-family:Lavi;-inkscape-font-specification:Lavi;text-align:center;letter-spacing:0px;word-spacing:0px;text-anchor:middle;display:inline;fill:#000000;fill-opacity:1;stroke:none"
       x="1293.6779"
       y="1043.1625"
       id="text4246-7-6-1-7-6-6-6"><tspan
         sodipodi:role="line"
         style="font-size:45px;line-height:1.25"
         x="1293.6779"
         y="1043.1625"
         id="tspan5007">Več let sem se učila,</tspan><tspan
         sodipodi:role="line"
         style="font-size:45px;line-height:1.25"
         x="1293.6779"
         y="1099.4125"
         id="tspan5011">vendar me nihče ne jemlje</tspan><tspan
         sodipodi:role="line"
         style="font-size:45px;line-height:1.25"
         x="1293.6779"
         y="1155.6625"
         id="tspan79">resno, le zato ker...</tspan></text>
    <text
       xml:space="preserve"
       style="font-style:normal;font-variant:normal;font-weight:normal;font-stretch:normal;font-size:13.4951px;line-height:0%;font-family:Lavi;-inkscape-font-specification:Lavi;text-align:center;letter-spacing:0px;word-spacing:0px;text-anchor:middle;fill:#000000;fill-opacity:1;stroke:none;stroke-width:1"
       x="305.87024"
       y="2322.0815"
       id="text4246-1-3-1"
       transform="scale(0.99789912,1.0021053)"><tspan
         sodipodi:role="line"
         style="font-style:normal;font-variant:normal;font-weight:normal;font-stretch:normal;font-size:45px;line-height:1.25;font-family:Lavi;-inkscape-font-specification:Lavi;stroke-width:1"
         x="305.87024"
         y="2322.0815"
         id="tspan12529">...ker ne</tspan><tspan
         sodipodi:role="line"
         style="font-style:normal;font-variant:normal;font-weight:normal;font-stretch:normal;font-size:45px;line-height:1.25;font-family:Lavi;-inkscape-font-specification:Lavi;stroke-width:1"
         x="305.87024"
         y="2378.3315"
         id="tspan12531">izgledam dovolj</tspan><tspan
         sodipodi:role="line"
         style="font-style:normal;font-variant:normal;font-weight:normal;font-stretch:normal;font-size:45px;line-height:1.25;font-family:Lavi;-inkscape-font-specification:Lavi;stroke-width:1"
         x="305.87024"
         y="2434.5815"
         id="tspan16993">izkušena!</tspan></text>
    <text
       xml:space="preserve"
       style="font-style:normal;font-variant:normal;font-weight:normal;font-stretch:normal;line-height:0%;font-family:Lavi;-inkscape-font-specification:Lavi;letter-spacing:0px;word-spacing:0px;opacity:0.857;fill:#ffffff;fill-opacity:1;stroke:#98b9ca;stroke-width:0.954507;stroke-miterlimit:4;stroke-dasharray:none;stroke-opacity:1;filter:url(#filter4375-4-1-1-1-9-5-8-4)"
       x="787.65729"
       y="1584.5073"
       id="text4580-6-0-9"
       transform="matrix(0.45385441,-0.55441241,0.42180805,1.1015917,515.72693,1608.476)"><tspan
         sodipodi:role="line"
         id="tspan4582-1-1-26"
         x="787.65729"
         y="1584.5073"
         style="font-size:70px;line-height:1.25;fill:#ffffff;fill-opacity:1;stroke:#98b9ca;stroke-width:0.954507;stroke-opacity:1"><tspan
           style="font-size:93.1495px;fill:#ffffff;fill-opacity:1;stroke:#98b9ca;stroke-width:0.954507;stroke-opacity:1"
           id="tspan4315-8-64">PUFF<tspan
   style="font-size:72.148px;stroke-width:0.954507"
   id="tspan1131"> </tspan><tspan
   style="font-size:82.6488px;stroke-width:0.954507"
   id="tspan1133">!</tspan></tspan><tspan
           style="font-size:114.732px;fill:#ffffff;fill-opacity:1;stroke:#98b9ca;stroke-width:0.954507;stroke-opacity:1"
           id="tspan4313-2-9">!</tspan></tspan></text>
    <text
       xml:space="preserve"
       style="font-style:normal;font-variant:normal;font-weight:normal;font-stretch:normal;font-size:15.6747px;line-height:0%;font-family:Lavi;-inkscape-font-specification:Lavi;text-align:center;letter-spacing:0px;word-spacing:0px;text-anchor:middle;display:inline;fill:#000000;fill-opacity:1;stroke:#000000;stroke-width:1.8;stroke-miterlimit:4;stroke-dasharray:none;stroke-opacity:1"
       x="2779.0186"
       y="2023.4807"
       id="text4246-3-7-9-5-1-6-2"
       transform="matrix(0.87277154,0,-0.23842397,1.1457752,0,0)"><tspan
         sodipodi:role="line"
         style="font-size:58.78px;line-height:1.25;stroke:#000000;stroke-width:1.8;stroke-miterlimit:4;stroke-dasharray:none;stroke-opacity:1"
         x="2779.0186"
         y="2023.4807"
         id="tspan1222">KORENČEK!</tspan></text>
    <text
       xml:space="preserve"
       style="font-style:normal;font-variant:normal;font-weight:normal;font-stretch:normal;line-height:0%;font-family:Lavi;-inkscape-font-specification:Lavi;letter-spacing:0px;word-spacing:0px;display:inline;opacity:0.857;fill:#ffffff;fill-opacity:1;stroke:#98b9ca;stroke-width:1.48875;stroke-miterlimit:4;stroke-dasharray:none;stroke-opacity:1;filter:url(#filter4375-4-1-1-1-9-5-8-4-3)"
       x="787.65729"
       y="1584.5073"
       id="text4580-6-0-9-3"
       transform="matrix(0.33769447,-0.30629363,0.31385009,0.60859124,1400.9328,1760.5077)"><tspan
         sodipodi:role="line"
         id="tspan4582-1-1-26-6"
         x="787.65729"
         y="1584.5073"
         style="font-size:70px;line-height:1.25;fill:#ffffff;fill-opacity:1;stroke:#98b9ca;stroke-width:1.48875;stroke-opacity:1"><tspan
           style="font-size:93.1495px;fill:#ffffff;fill-opacity:1;stroke:#98b9ca;stroke-width:1.48875;stroke-opacity:1"
           id="tspan4315-8-64-0">PAFF<tspan
   style="font-size:72.148px;stroke-width:1.48875"
   id="tspan1131-6"> </tspan><tspan
   style="font-size:82.6488px;stroke-width:1.48875"
   id="tspan1133-2">!</tspan></tspan><tspan
           style="font-size:114.732px;fill:#ffffff;fill-opacity:1;stroke:#98b9ca;stroke-width:1.48875;stroke-opacity:1"
           id="tspan4313-2-9-6">!</tspan></tspan></text>
  </g>
</svg>
