<?xml version="1.0" encoding="UTF-8" standalone="no"?>
<!-- Created with Inkscape (http://www.inkscape.org/) -->

<svg
   xmlns:dc="http://purl.org/dc/elements/1.1/"
   xmlns:cc="http://creativecommons.org/ns#"
   xmlns:rdf="http://www.w3.org/1999/02/22-rdf-syntax-ns#"
   xmlns:svg="http://www.w3.org/2000/svg"
   xmlns="http://www.w3.org/2000/svg"
   xmlns:xlink="http://www.w3.org/1999/xlink"
   xmlns:sodipodi="http://sodipodi.sourceforge.net/DTD/sodipodi-0.dtd"
   xmlns:inkscape="http://www.inkscape.org/namespaces/inkscape"
   id="svg2"
   version="1.1"
   inkscape:version="0.92.2 (5c3e80d, 2017-08-06)"
   width="2481"
   height="3503"
   sodipodi:docname="E37P05.svg">
  <metadata
     id="metadata8">
    <rdf:RDF>
      <cc:Work
         rdf:about="">
        <dc:format>image/svg+xml</dc:format>
        <dc:type
           rdf:resource="http://purl.org/dc/dcmitype/StillImage" />
        <dc:title />
      </cc:Work>
    </rdf:RDF>
  </metadata>
  <defs
     id="defs6">
    <filter
       inkscape:label="Magmah-FX"
       inkscape:menu="Distort"
       inkscape:menu-tooltip="Horizontal rippling of edges"
       style="color-interpolation-filters:sRGB"
       id="filter4265-7"
       y="0"
       x="0"
       width="1"
       height="1">
      <feTurbulence
         numOctaves="1"
         baseFrequency="0.002 0.107"
         id="feTurbulence4267-7" />
      <feColorMatrix
         values="5 0 0 0 0 0 0 0 0 0 0 0 0 0 0 0 0 0 4 0 "
         result="result91"
         id="feColorMatrix4269-1" />
      <feDisplacementMap
         yChannelSelector="A"
         xChannelSelector="R"
         scale="14.3"
         in="SourceGraphic"
         in2="result91"
         id="feDisplacementMap4271-2" />
    </filter>
    <filter
       style="color-interpolation-filters:sRGB"
       inkscape:label="Magmah-spell-glow"
       id="filter4751"
       x="-0.033441791"
       y="-0.12562146"
       width="1.0668836"
       height="1.2512429">
      <feFlood
         flood-opacity="1"
         flood-color="rgb(255,255,255)"
         result="flood"
         id="feFlood4753" />
      <feComposite
         in="flood"
         in2="SourceGraphic"
         operator="in"
         result="composite1"
         id="feComposite4755" />
      <feGaussianBlur
         in="composite1"
         stdDeviation="5.4"
         result="blur"
         id="feGaussianBlur4757" />
      <feOffset
         dx="0"
         dy="0"
         result="offset"
         id="feOffset4759" />
      <feComposite
         in="SourceGraphic"
         in2="offset"
         operator="over"
         result="composite2"
         id="feComposite4761" />
    </filter>
    <filter
       inkscape:label="Magmah-FX"
       inkscape:menu="Distort"
       inkscape:menu-tooltip="Horizontal rippling of edges"
       style="color-interpolation-filters:sRGB"
       id="filter4265-7-5"
       y="0"
       x="0"
       width="1"
       height="1">
      <feTurbulence
         numOctaves="1"
         baseFrequency="0.002 0.107"
         id="feTurbulence4267-7-3" />
      <feColorMatrix
         values="5 0 0 0 0 0 0 0 0 0 0 0 0 0 0 0 0 0 4 0 "
         result="result91"
         id="feColorMatrix4269-1-5" />
      <feDisplacementMap
         yChannelSelector="A"
         xChannelSelector="R"
         scale="14.3"
         in="SourceGraphic"
         in2="result91"
         id="feDisplacementMap4271-2-6" />
    </filter>
  </defs>
  <sodipodi:namedview
     pagecolor="#ffffff"
     bordercolor="#666666"
     borderopacity="1"
     objecttolerance="10"
     gridtolerance="10"
     guidetolerance="10"
     inkscape:pageopacity="0"
     inkscape:pageshadow="2"
     inkscape:window-width="1392"
     inkscape:window-height="1044"
     id="namedview4"
     showgrid="false"
     inkscape:zoom="0.56568542"
     inkscape:cx="1237.4723"
     inkscape:cy="1379.9112"
     inkscape:window-x="523"
     inkscape:window-y="1"
     inkscape:window-maximized="0"
     inkscape:current-layer="layer1"
     inkscape:pagecheckerboard="0"
     inkscape:showpageshadow="0"
     inkscape:deskcolor="#d1d1d1" />
  <g
     inkscape:groupmode="layer"
     id="layer2"
     inkscape:label="artwork"
     sodipodi:insensitive="true">
    <image
       sodipodi:absref="C:\Users\Kari\Documents\Pepper and Carrot\Episode 37\fi\../lang/en/./../gfx_Pepper-and-Carrot_by-David-Revoy_E37P05.png"
       xlink:href="../gfx_Pepper-and-Carrot_by-David-Revoy_E37P05.png"
       y="0"
       x="0"
       id="image10"
       height="3503"
       width="2481" />
  </g>
  <g
     inkscape:groupmode="layer"
     id="layer3"
     inkscape:label="speechbubbles"
     style="display:inline">
    <path
       style="fill:#ffffff;stroke:none;stroke-width:0.82924438"
       d="m 401.96583,328.05131 c -38.80894,0.87745 -77.44472,8.371 -112.65556,22.08176 -23.62938,11.41744 -36.08679,37.57841 -26.59359,59.25867 6.19516,14.84132 21.18167,26.07636 38.05179,32.32604 28.83959,11.55249 61.19984,14.65106 92.78576,15.65341 31.53379,0.9798 63.30165,0.5484 94.50425,-3.70855 20.33037,-3.36159 40.12935,-10.74126 55.30763,-22.73243 13.63617,-10.95627 22.67825,-26.80807 20.83174,-42.85162 -1.36242,-12.02368 -9.849,-22.76664 -21.02894,-30.09633 -11.74682,-7.70344 -25.65147,-12.65095 -39.48958,-17.07836 -32.47455,-9.84809 -67.362,-12.8829 -101.7135,-12.85259 z"
       id="path3280-81"
       inkscape:connector-curvature="0"
       sodipodi:nodetypes="csssc" />
    <path
       style="display:inline;fill:#ffffff;stroke:none;stroke-width:0.75896"
       d="M 339.75781 240.44336 C 316.76682 241.59346 293.35873 243.73316 271.79149 252.3479 C 261.04266 256.56779 250.57807 263.17755 244.69984 273.41776 C 236.67359 286.63596 235.41939 304.26229 243.15686 317.89554 C 250.33906 330.05605 263.57624 337.74013 277.2832 340.10938 C 302.49359 345.87739 328.25165 348.6627 353.9245 351.44115 C 382.54722 353.18337 411.89595 348.71169 437.84365 336.18651 C 448.11578 330.86655 457.14717 322.1337 460.67966 310.89345 C 465.82522 296.53591 462.54628 279.11265 451.45945 268.39097 C 444.09492 261.38539 434.68407 257.12625 425.46638 253.14042 C 408.77591 246.38017 390.85196 243.35064 373.01797 241.54703 C 361.9629 240.55842 350.85195 240.33192 339.75781 240.44336 z "
       id="path3280-81-3"
       inkscape:connector-curvature="0"
       sodipodi:nodetypes="csssc" />
    <path
       style="color:#000000;display:inline;overflow:visible;visibility:visible;fill:#ffffff;fill-opacity:1;fill-rule:nonzero;stroke:none;stroke-width:2.02177px;marker:none;enable-background:accumulate"
       d="m 2010.6417,253.23827 c -73.0654,0.51735 -146.9419,5.0691 -217.0609,22.07105 -34.5441,8.63225 -68.298,22.36612 -91.84,44.43704 -23.58,23.56945 -35.8266,54.67468 -29.7703,84.4561 6.7337,20.32368 26.5095,36.48518 49.0474,47.10106 34.3118,16.80597 74.6543,23.73079 114.3006,27.95171 54.1564,5.32787 108.6947,7.86273 163.208,9.62303 80.2813,1.47143 162.2706,-1.72622 238.7765,-22.3995 31.4057,-8.51946 62.3309,-19.80285 87.3099,-37.25304 13.5541,-9.63003 25.6161,-21.97084 27.6785,-36.62014 2.3105,-14.73302 -1.983,-29.58153 -8.012,-43.47851 -10.5621,-23.01855 -31.618,-42.93036 -58.5524,-55.39695 -41.3821,-19.91557 -89.4388,-29.26332 -137.0975,-34.69677 -45.6753,-5.07892 -91.9163,-5.99315 -137.9878,-5.79508 z"
       id="path5026-3"
       inkscape:connector-curvature="0"
       sodipodi:nodetypes="csssc" />
    <path
       style="color:#000000;display:inline;overflow:visible;visibility:visible;fill:#ffffff;fill-opacity:1;fill-rule:nonzero;stroke:none;stroke-width:0.98550212px;marker:none;enable-background:accumulate"
       d="m 1537.3585,896.54291 c -35.7148,0.0593 -72.4101,5.30772 -103.3498,20.37975 -15.6733,7.44645 -28.6442,18.64003 -36.0554,32.10847 -15.2364,26.68216 -10.1161,59.21497 9.8149,83.39637 14.0914,17.6134 36.2701,30.3636 60.6827,37.073 36.3929,9.9407 75.1298,12.4563 113.3174,12.8181 34.9324,-0.026 70.5328,0.2702 104.4164,-7.5742 18.238,-4.236 36.0692,-10.9621 49.5297,-22.0206 16.5712,-13.061 27.1165,-30.8524 29.5575,-49.4417 3.8159,-24.62406 -5.8672,-50.90791 -28.003,-68.45498 -23.0023,-19.09149 -55.0072,-29.4701 -87.1935,-33.35251 -37.2206,-5.11219 -75.1076,-4.58452 -112.7169,-4.9317 z"
       id="path4040-40"
       inkscape:connector-curvature="0"
       sodipodi:nodetypes="zssssz" />
    <path
       style="color:#000000;display:inline;overflow:visible;visibility:visible;fill:#ffffff;fill-opacity:1;fill-rule:nonzero;stroke:none;stroke-width:0.999998px;marker:none;enable-background:accumulate"
       d="m 496.15677,1011.893 c 34.73321,-33.49717 31.89314,-53.50347 31.44376,-68.11357 -4.7651,-0.9949 -12.85059,-4.2577 -12.85059,-4.2577 0,0 1.90835,-28.8086 -1.17233,-39.94541 -3.08071,-11.13686 -17.53582,-8.20897 -17.53582,-8.20897 0,0 -5.18065,55.93348 -10.00914,67.69208 13.18767,2.2293 19.31591,4.9084 24.41808,3.8748 3.16059,8.1805 -2.4061,36.7502 -14.29396,48.95877 z"
       id="path4456-3"
       inkscape:connector-curvature="0" />
    <path
       style="color:#000000;display:inline;overflow:visible;visibility:visible;fill:#ffffff;fill-opacity:1;fill-rule:nonzero;stroke:none;stroke-width:0.80090141px;marker:none;enable-background:accumulate"
       d="m 1200.9413,2275.0588 c -27.6744,0.7598 -56.3134,3.9036 -81.2643,19.2438 -18.2391,11.4286 -33.2046,32.4213 -35.7827,57.1638 -1.6953,27.1568 14.352,53.2223 35.6215,62.407 17.8501,8.23 37.1455,10.1466 55.4954,16.2751 63.3355,16.5954 128.7982,19.5902 193.3616,14.0617 31.2102,-3.0837 62.2854,-9.6482 92.1013,-21.1018 18.0739,-7.5455 36.3168,-17.8167 48.7554,-35.6351 12.3413,-19.2754 11.2945,-48.6662 -2.5428,-66.5267 -11.1804,-15.7056 -28.1477,-22.9997 -44.4496,-28.0879 -29.1902,-9.2878 -59.5347,-11.1801 -89.5366,-13.8806 -57.1832,-4.0381 -114.4981,-3.9286 -171.7592,-3.9193 z"
       id="path4546-6-21"
       inkscape:connector-curvature="0"
       sodipodi:nodetypes="cssssc" />
    <path
       style="color:#000000;display:inline;overflow:visible;visibility:visible;fill:#ffffff;fill-opacity:1;fill-rule:nonzero;stroke:none;stroke-width:0.709511px;marker:none;enable-background:accumulate"
       d="m 660.4671,2264.4761 c -27.46404,0.4961 -55.59723,9.3662 -75.91376,28.3762 -22.04112,21.9967 -34.01798,52.6125 -36.71122,83.3297 -4.6171,37.7827 7.66343,77.1602 32.57258,105.8728 15.45155,15.2221 36.2984,22.7478 56.17199,30.2909 32.63866,11.8813 68.52532,14.0614 102.52252,7.2514 24.74397,-4.2043 49.50975,-14.1162 66.96221,-32.7122 14.29698,-15.5566 20.1952,-36.8488 22.13493,-57.4445 2.21372,-25.3342 0.22348,-50.847 -3.21705,-75.9774 -3.06384,-19.3764 -10.19837,-38.8334 -24.21991,-53.0074 -12.61573,-13.153 -29.86999,-20.4807 -47.17333,-25.1968 -19.78672,-5.3553 -40.22618,-7.7846 -60.59007,-9.6925 -10.82519,-0.8151 -21.68313,-1.1937 -32.53889,-1.0902 z"
       id="path4546-6-21-2"
       inkscape:connector-curvature="0"
       sodipodi:nodetypes="cssssc" />
    <path
       style="color:#000000;display:inline;overflow:visible;visibility:visible;fill:#ffffff;fill-opacity:1;fill-rule:nonzero;stroke:none;stroke-width:1.24776px;marker:none;enable-background:accumulate"
       d="m 459.6053,1891.1682 c -25.78503,-0.1843 -51.98226,-1.2113 -77.35414,8.2206 -14.89066,5.503 -29.5287,16.4906 -39.23287,34.6389 -11.30434,20.7888 -13.8777,49.4611 -9.45774,74.2333 2.0847,11.4957 5.45637,22.5261 10.13464,32.1648 5.10112,10.2673 12.34551,18.2476 20.71394,21.9272 23.99002,13.3419 49.94142,17.2374 75.56787,19.3922 26.83283,1.912 53.77615,1.5576 80.67395,-0.5068 22.72476,-2.2076 45.79131,-6.821 67.10421,-19.9956 12.9036,-8.3042 25.31276,-21.1158 32.03119,-39.8433 9.35157,-25.8894 8.31707,-59.5895 -4.03458,-82.094 -9.94251,-17.2808 -24.8812,-26.0068 -39.56322,-31.5062 -24.26146,-8.935 -49.44455,-11.2556 -74.40874,-14.0389 -14.02766,-1.3934 -28.08049,-2.6936 -42.17451,-2.5922 z"
       id="path4546-6-21-1"
       inkscape:connector-curvature="0"
       sodipodi:nodetypes="cssssc" />
    <path
       style="color:#000000;display:inline;overflow:visible;visibility:visible;fill:#ffffff;fill-opacity:1;fill-rule:nonzero;stroke:none;stroke-width:0.90167px;marker:none;enable-background:accumulate"
       d="m 509.23732,2164.6298 c 3.17414,-79.0368 47.59866,-137.9672 164.14038,-126.1726 62.42608,6.3168 133.28819,9.6749 129.36198,125.4379 -3.92628,115.7632 -105.75118,115.4633 -126.75223,118.7187 -21.00112,3.2572 -130.53858,-5.9959 -149.91784,-44.8311 -12.13101,-24.3097 -17.02871,-48.6962 -16.83229,-73.1529 z"
       id="path4546-6-21-1-9"
       inkscape:connector-curvature="0"
       sodipodi:nodetypes="cssssc" />
    <path
       style="color:#000000;display:inline;overflow:visible;visibility:visible;fill:#ffffff;fill-opacity:1;fill-rule:nonzero;stroke:none;stroke-width:1.1971px;marker:none;enable-background:accumulate"
       d="m 1341.4929,1909.2595 c -27.5618,0.4582 -55.9462,3.1632 -81.2588,17.1764 -12.5256,7.0164 -24.1142,19.5093 -27.0289,36.1571 -2.011,16.5978 7.3755,32.6541 19.5753,39.8816 12.5575,7.4302 26.7271,9.125 40.3274,12.2488 47.3844,8.8731 95.695,12.5507 143.5404,7.2714 16.7633,-2.1389 34.1059,-5.7216 48.5019,-16.7585 9.0671,-7.2007 15.462,-19.0016 16.6354,-31.9393 1.7823,-14.8825 -2.914,-31.5687 -14.0178,-39.759 -14.2163,-11.4438 -31.7223,-14.0896 -48.3325,-16.8855 -29.1521,-4.3915 -58.5332,-6.3032 -87.8924,-7.3341 -3.3497,-0.069 -6.6998,-0.078 -10.05,-0.059 z"
       id="path4546-6-21-1-9-4"
       inkscape:connector-curvature="0"
       sodipodi:nodetypes="cssssc" />
    <path
       style="color:#000000;display:inline;overflow:visible;visibility:visible;fill:#ffffff;fill-opacity:1;fill-rule:nonzero;stroke:none;stroke-width:0.96193px;marker:none;enable-background:accumulate"
       d="m 1217.0653,1985.7656 c -48.72,0.882 -98.2182,2.8713 -145.1541,18.4889 -16.7841,6.8173 -29.3374,22.7322 -35.6945,40.6654 -10.5597,27.1823 -9.0909,60.755 7.3726,84.8351 9.6728,13.9915 24.9653,22.1407 40.5818,24.9674 20.6129,4.8894 41.5345,8.1831 62.4995,10.6435 37.7541,3.8894 75.7096,2.0101 113.5403,1.0065 54.1568,-0.3976 108.4394,2.4619 162.4735,-2.8587 20.189,-1.8225 40.4778,-3.8181 60.2654,-8.678 26.1011,-8.9227 46.4535,-36.1747 47.4467,-66.2485 1.4018,-24.676 -9.4442,-49.1571 -26.8658,-64.6853 -22.3692,-21.3445 -51.9346,-31.1597 -80.9693,-35.023 -38.4737,-4.6848 -77.1542,0.8942 -115.7178,-0.9675 -29.9261,-0.7004 -59.8367,-2.493 -89.7783,-2.1458 z"
       id="path4546-6-21-1-9-4-7"
       inkscape:connector-curvature="0"
       sodipodi:nodetypes="cssssc" />
    <path
       style="color:#000000;display:inline;overflow:visible;visibility:visible;fill:#ffffff;fill-opacity:1;fill-rule:nonzero;stroke:none;stroke-width:1.220276px;marker:none;enable-background:accumulate"
       d="m 982.14908,3066.8417 c 6.48075,-41.6532 70.00702,-70.7879 232.34132,-59.2238 86.9551,6.1939 185.76,11.2087 177.2767,72.2502 -8.4835,61.0415 -150.578,56.2289 -179.9706,56.9907 -29.3928,0.7627 -182.0183,-9.1373 -208.0553,-30.561 -16.29872,-13.4105 -22.50086,-26.5311 -21.59212,-39.4561 z"
       id="path4546-6-21-1-9-4-7-8"
       inkscape:connector-curvature="0"
       sodipodi:nodetypes="cssssc" />
    <path
       style="color:#000000;display:inline;overflow:visible;visibility:visible;fill:#ffffff;fill-opacity:1;fill-rule:nonzero;stroke:none;stroke-width:0.624175px;marker:none;enable-background:accumulate"
       d="m 2225.7983,3151.2322 c 1.6004,-29.4598 24.0001,-51.4252 82.7628,-47.029 31.4764,2.3544 67.2066,3.6062 65.2269,46.7553 -1.9798,43.1489 -53.3219,43.0372 -63.9111,44.2506 -10.5891,1.2141 -65.82,-2.2349 -75.5915,-16.7102 -6.1167,-9.061 -8.5862,-18.1508 -8.4871,-27.2667 z"
       id="path4546-6-21-1-9-4-7-8-4"
       inkscape:connector-curvature="0"
       sodipodi:nodetypes="cssssc" />
    <path
       style="color:#000000;display:inline;overflow:visible;visibility:visible;fill:#ffffff;fill-opacity:1;fill-rule:nonzero;stroke:none;stroke-width:1px;marker:none;enable-background:accumulate"
       d="m 1284.7327,2502.3184 c -35.7282,-19.4322 -47.354,-28.3515 -44.071,-75.6186 3.2834,-47.2663 -14.2412,-48.0483 -14.2412,-48.0483 l -19.1468,25.8436 c 0,0 -0.01,101.2711 77.459,97.8233 z"
       id="path3072-56-6"
       inkscape:connector-curvature="0" />
    <path
       style="color:#000000;display:inline;overflow:visible;visibility:visible;fill:#ffffff;fill-opacity:1;fill-rule:nonzero;stroke:none;stroke-width:1px;marker:none;enable-background:accumulate"
       d="m 1468.6848,2848.0015 c 26.25,171.1132 -108.5575,232.9592 -156.9646,205.9986 -41.3932,-23.0541 -36.6132,25.372 -36.6132,25.372 0,0 -184.8377,-79.9742 -48.5243,-12.9007 136.3134,67.0735 295.373,-29.4851 242.1021,-218.4699 z"
       id="path3072-56-6-7"
       inkscape:connector-curvature="0"
       sodipodi:nodetypes="csczc" />
    <path
       style="color:#000000;display:inline;overflow:visible;visibility:visible;fill:#ffffff;fill-opacity:1;fill-rule:nonzero;stroke:none;stroke-width:1.07752728px;marker:none;enable-background:accumulate"
       d="m 1613.2578,813.11901 c -37.9883,0.55287 -75.9116,2.29116 -113.9008,2.86447 -16.439,0.39741 -33.0538,0.0168 -49.2388,2.24287 -21.971,2.7598 -43.6897,8.49848 -60.0183,18.54537 -17.5306,11.14764 -26.3453,28.1828 -20.1745,43.70992 7.1554,20.13638 33.7689,36.56532 65.1056,40.98971 32.3489,5.87833 66.0329,7.58601 99.4015,9.35939 43.9415,1.73161 88.4629,2.15111 131.8569,-3.31017 26.437,-3.43319 53.104,-8.06557 76.1704,-17.32242 18.9176,-8.27644 29.2496,-23.09936 29.1305,-37.57954 1.0713,-13.80805 -6.1506,-28.40009 -22.57,-37.74937 -18.2616,-10.91861 -42.7225,-16.37632 -66.961,-18.98831 -22.7142,-2.43642 -45.8144,-2.89124 -68.8015,-2.76192 z"
       id="path4546-3"
       inkscape:connector-curvature="0"
       sodipodi:nodetypes="cssssc" />
    <path
       style="color:#000000;display:inline;overflow:visible;visibility:visible;fill:#ffffff;fill-opacity:1;fill-rule:nonzero;stroke:none;stroke-width:0.999998px;marker:none;enable-background:accumulate"
       d="m 2200.3678,3236.6589 c 19.412,3.2287 21.8531,2.1451 26.087,-6.1508 4.2336,-8.2965 7.4345,-21.3989 24.2674,-27.0612 16.8328,-5.6629 26.4772,-1.2243 33.0349,1.2943 -1.1679,-11.6566 8.131,-31.9623 0.9277,-37.4845 -7.2032,-5.5223 17.0343,2.8574 17.0343,2.8574 0,0 12.1095,28.3527 3.5098,41.2194 -8.5996,12.8666 -35.9866,3.6351 -48.1953,5.9287 -12.2087,2.2936 -17.7187,20.2054 -26.9698,23.8183 -9.2511,3.6136 -20.9523,-1.0637 -29.696,-4.4216 z"
       id="path4538-7-1"
       inkscape:connector-curvature="0"
       sodipodi:nodetypes="ccscccsscc" />
    <path
       style="fill:#ffffff;fill-rule:evenodd;stroke:none;stroke-width:0.989952px;stroke-linecap:butt;stroke-linejoin:miter;stroke-opacity:1"
       d="m 563.82903,2593.7899 c 63.64415,46.5419 99.6802,37.8628 99.27382,22.0538 -0.73279,-28.5061 -23.68426,-45.5161 -20.14693,-49.7569 56.87331,-68.1838 45.61583,-44.4564 42.02712,-78.3168 -3.58863,-33.8596 -32.82515,9.9982 -43.47048,25.9957 -10.64526,15.9984 -23.23393,28.0821 -24.13067,46.0989 -0.89678,18.0167 30.31994,32.2197 26.20251,52.3883 -4.11738,20.1676 -79.75537,-18.463 -79.75537,-18.463 z"
       id="path4324-2"
       inkscape:connector-curvature="0"
       sodipodi:nodetypes="cssssssc" />
    <path
       style="fill:#ffffff;fill-rule:evenodd;stroke:none;stroke-width:1px;stroke-linecap:butt;stroke-linejoin:miter;stroke-opacity:1"
       d="m 1641.3607,1592.1712 c 22.6649,-9.5896 43.3488,-24.3392 44.2472,-33.5648 0.8985,-9.2259 -11.1673,-38.3407 15.3399,-36.3802 44.753,7.0521 59.1413,-17.435 71.8681,-40.1028 -10.4456,44.0867 -37.326,59.8862 -66.9409,56.1082 -20.4331,0.5043 27.1628,20.802 -14.1238,65.6767 -34.0791,18.4121 -50.3905,-11.7371 -50.3905,-11.7371 z"
       id="path1085"
       inkscape:connector-curvature="0"
       sodipodi:nodetypes="csccccc" />
    <path
       style="display:inline;fill:#ffffff;fill-rule:evenodd;stroke:none;stroke-width:1px;stroke-linecap:butt;stroke-linejoin:miter;stroke-opacity:1"
       d="m 602.38281,413.81836 c -16.46145,0.69234 -32.53906,10.64863 -39.37482,25.82696 -1.5098,2.80001 -5.28273,3.60587 -7.9531,2.02233 -5.98863,-2.1906 -11.2243,-5.98508 -17.1572,-8.31055 -9.42582,-4.50612 -18.97461,-9.76783 -29.57769,-10.58241 -9.00662,0.914 -17.21994,8.38612 -18.31844,17.45517 0.90457,4.28518 5.9133,5.81752 9.78437,5.505 14.04596,1.22391 26.26568,8.99968 37.96354,16.2261 7.48461,4.90408 17.2879,7.91388 25.94154,4.3397 8.81339,-3.63103 14.02032,-12.22106 18.30372,-20.27104 3.62722,-6.5902 7.0618,-13.9609 13.65799,-18.08996 6.18392,-3.01805 13.32935,-0.5356 18.89819,2.69485 6.80555,3.74446 18.82609,7.48219 26.68995,6.1183 5.30212,-0.83429 11.53306,0.83552 40.82961,-10.13109 -31.99063,6.29792 -54.18708,-2.32452 -64.55229,-8.18195 -4.64584,-2.56145 -9.72444,-4.75296 -15.13537,-4.62141 z"
       id="path1090"
       inkscape:connector-curvature="0"
       sodipodi:nodetypes="cscsccsssssscccc" />
    <path
       style="display:inline;fill:#ffffff;fill-rule:evenodd;stroke:none;stroke-width:1px;stroke-linecap:butt;stroke-linejoin:miter;stroke-opacity:1"
       d="m 1617.1958,451.27144 c -12.9658,3.52999 -22.7273,13.2725 -33.0295,21.31481 -10.56,8.22528 -23.222,15.13886 -36.9698,14.8702 -12.354,-0.48323 -23.8452,-5.64876 -34.869,-10.8028 4.8969,5.51905 11.4884,9.07502 17.4852,13.22715 9.8915,6.03376 21.2993,11.19668 33.1646,9.85413 13.7356,-1.82473 25.2428,-10.16894 36.6713,-17.35003 9.2631,-5.89601 19.3995,-11.88555 30.7279,-11.84241 11.2199,0.46193 21.09,7.36067 28.069,15.7517 16.1165,16.07554 40.6983,22.00557 62.7241,17.44391 18.4525,-3.77253 34.5407,-14.70036 48.0397,-27.44861 7.4725,-7.02323 14.7519,-14.32675 21.1143,-22.37986 2.8972,-4.06459 5.7878,-8.70444 5.7898,-13.83941 -1.3294,-7.64777 -9.2775,-12.55259 -16.6906,-12.40095 -15.99,-1.92544 -32.0375,9.08542 -37.0028,24.21972 -6.8813,13.76612 -18.3165,26.13815 -33.3597,30.75119 -13.1078,4.184 -28.2984,-0.43593 -37.2218,-10.81739 -8.1607,-7.6165 -16.4492,-16.15889 -27.6395,-18.99131 -8.68,-2.75282 -18.0697,-3.47368 -27.0032,-1.56004 z"
       id="path1090-9"
       inkscape:connector-curvature="0"
       sodipodi:nodetypes="cscsccsssssscccccc" />
    <path
       style="display:inline;fill:#ffffff;stroke:none;stroke-width:0.99135"
       d="m 1547.4141,1550.2764 c -17.67,0.1166 -35.4329,-0.07 -52.9368,3.292 -19.8455,3.7615 -39.4884,10.8354 -56.9828,22.906 -18.6005,12.8062 -34.0149,33.3542 -40.6004,58.1366 -3.1628,11.5442 -3.6782,24.1008 -1.1535,35.8965 4.3888,21.7063 17.2832,40.5391 34.0359,50.0978 19.5973,12.8338 42.3897,15.7674 64.3587,15.63 42.4852,1.7866 85.0497,2.4618 127.5088,-0.5599 24.7199,-1.5475 50.1179,-5.003 72.5165,-18.5957 15.7195,-9.6892 28.7409,-27.3953 31.8592,-48.7269 5.6837,-34.942 -10.2089,-72.4285 -36.0792,-89.0728 -23.0999,-15.9276 -49.7016,-22.1458 -75.8476,-25.8622 -22.1291,-2.9982 -44.4342,-3.3164 -66.6788,-3.1414 z"
       id="path3280-8-3"
       inkscape:connector-curvature="0"
       sodipodi:nodetypes="csssc" />
    <path
       style="fill:#ffffff;fill-rule:evenodd;stroke:none;stroke-width:1.1479156px;stroke-linecap:butt;stroke-linejoin:miter;stroke-opacity:1"
       d="m 367.91486,761.5608 c -34.85535,1.79515 -69.88683,2.66681 -104.40697,7.95082 -15.42953,3.09291 -31.38126,6.90855 -44.10246,16.1815 -10.96788,10.44655 -18.63729,23.50187 -25.47104,36.60688 -5.86123,14.74002 -4.34165,30.97601 -0.8203,46.04545 2.52202,13.89024 8.30983,28.04855 20.03817,37.26767 12.13337,10.7655 27.11442,20.01048 44.10376,21.18155 16.27567,1.20679 32.60473,-0.23472 48.89789,0.45828 76.79419,0.13516 153.81951,0.71935 230.27508,-7.12753 12.43162,-1.85695 24.17797,-8.77888 30.44271,-19.26913 7.08296,-9.54595 15.06361,-19.57176 15.84763,-31.6715 0.88215,-11.36805 0.0552,-22.77495 0.0922,-34.15923 -0.27226,-7.3192 0.36733,-14.82565 -1.75972,-21.94938 -2.45877,-8.29822 -8.17079,-15.33835 -14.98851,-20.88675 -13.91965,-12.17325 -32.25942,-18.96153 -50.83963,-21.42492 -32.96154,-5.90031 -66.49764,-8.4944 -100.01453,-8.93815 -15.76254,-0.30084 -31.52928,-0.27893 -47.29423,-0.26556 z"
       id="path1299"
       inkscape:connector-curvature="0" />
    <path
       style="fill:#ffffff;fill-opacity:1;fill-rule:evenodd;stroke:none;stroke-width:1.07011187px;stroke-linecap:butt;stroke-linejoin:miter;stroke-opacity:1"
       d="m 910.95781,922.38419 c -9.32502,0.86734 -16.33912,7.06793 -21.43713,13.30501 -4.64067,5.15329 -12.8881,6.20817 -20.03437,6.08783 -9.76479,0.22173 -17.91661,6.16177 -22.97191,12.8845 -2.96107,3.55077 -3.84273,8.00224 -3.57356,12.27282 -0.54834,6.67297 -6.57434,11.93324 -7.3738,18.52713 0.17395,6.3875 7.13244,10.535 8.5884,16.59892 1.51788,4.5169 2.38624,9.9862 7.39042,12.7515 7.0386,3.1882 15.7754,-0.2253 22.62294,3.5487 4.92502,2.9316 9.11366,6.6895 13.94118,9.748 5.07284,3.4669 10.96478,6.0294 17.31241,7.2675 14.4425,3.3373 29.53848,0.9185 43.80674,-1.867 19.69455,-3.5707 39.79849,-5.4628 59.92987,-5.6211 5.9633,-0.3583 11.1379,-3.1437 15.9251,-5.9562 5.4618,-2.8443 12.0813,-4.4438 18.44,-3.1727 6.6091,0.7524 13.9158,2.4968 20.1549,-0.3939 8.324,-4.7571 11.7282,-13.1958 16.3971,-20.35492 3.7293,-6.1287 7.9114,-12.97344 6.1189,-20.0904 -2.5042,-5.88049 -9.873,-8.27678 -14.9669,-12.17595 -8.6334,-7.58527 -7.5793,-19.54532 -15.6551,-27.42615 -7.7827,-7.78732 -20.3083,-10.83932 -31.9596,-10.57648 -9.044,0.18336 -17.7879,2.5898 -25.93961,5.78799 -6.09759,1.83563 -13.66999,1.6179 -18.48518,-2.47125 -4.78214,-3.22883 -10.5762,-6.67829 -17.01694,-5.53162 -8.97174,0.94699 -16.848,6.65075 -26.18928,5.44371 -9.12091,-1.16006 -15.44798,-8.87024 -25.02458,-8.58594 z"
       id="path4367-3"
       inkscape:connector-curvature="0"
       sodipodi:nodetypes="ccccccccccccccccccccccc" />
    <path
       style="color:#000000;display:inline;overflow:visible;visibility:visible;fill:#ffffff;fill-opacity:1;fill-rule:nonzero;stroke:none;stroke-width:1px;marker:none;enable-background:accumulate"
       d="m 925.04404,987.51508 c 0.43093,17.40692 10.57358,33.58462 24.60302,43.46732 4.0486,3.4474 7.8177,7.2049 11.522,11.0151 -9.5441,6.7343 -21.87387,8.4934 -30.69728,16.3868 -3.00333,7.8153 2.07856,16.9291 9.5442,19.9766 7.90108,4.1347 17.55078,5.3387 23.93238,12.0527 5.8472,7.0001 1.9231,19.0861 -6.6504,21.789 -11.2727,5.778 -17.95023,20.1486 -13.54258,32.3069 4.13098,10.8528 14.58748,18.0402 25.44518,21.0937 5.2942,1.6139 10.7387,2.647 16.1286,3.8787 -10.8778,-5.5071 -22.4207,-11.1561 -29.8066,-21.25 -5.866,-8.2804 -2.1755,-21.8742 7.6733,-25.1751 6.0663,-1.8597 13.149,-3.1903 17.0207,-8.7544 8.18221,-11.235 4.0413,-29.3207 -8.5309,-35.4929 -6.8306,-3.5643 -14.777,-5.4022 -20.3877,-10.9819 -1.6954,-3.9526 2.6275,-8.2401 6.5884,-7.513 7.4263,-1.7714 15.8041,-2.1777 21.7723,-7.5012 4.4591,-5.1824 3.2488,-13.2448 -0.7338,-18.3354 -8.0405,-15.3899 -15.424,-31.1229 -23.8906,-46.28912 -6.1584,-1.4328 -12.54059,-0.9451 -18.78997,-1.6404 -3.73928,-0.2117 -7.47855,-0.4233 -11.21782,-0.635 0.006,0.5339 0.0117,1.0677 0.0176,1.6016 z"
       id="path5058"
       inkscape:connector-curvature="0"
       sodipodi:nodetypes="cscsssssccsssccsccccc" />
    <path
       style="display:inline;fill:#ffffff;stroke:none;stroke-width:1"
       d="m 1571.4018,1191.6392 c 13.4807,-8.3202 19.4484,-23.3927 17.65,-33.0755 -8.8182,-22.1676 -14.651,-36.255 -2.7595,-61.9827 4.6158,-9.7523 4.136,-55.5565 4.136,-55.5565 0,0 -27.4173,28.8158 -35.0946,40.6428 -7.678,11.8285 -3.0663,7.9917 -4.8155,13.4555 -1.7483,5.4625 -1.3553,24.9485 0.8987,35.296 4.6362,17.6704 24.7701,36.2388 6.7072,51.624 -38.2054,28.7903 -15.6246,82.4307 39.9278,44.9299 -67.6745,16.2702 -41.7605,-26.0079 -26.6503,-35.3336 z"
       id="path3023-0"
       inkscape:connector-curvature="0"
       sodipodi:nodetypes="scccsscccss" />
    <path
       style="display:inline;fill:#ffffff;fill-rule:evenodd;stroke:none;stroke-width:1px;stroke-linecap:butt;stroke-linejoin:miter;stroke-opacity:1"
       d="m 464.88133,1910.6914 c -28.8926,-2.0653 -70.7911,12.6625 -46.4898,55.1642 -53.0586,-27.852 -127.5213,-37.8514 -145.041,8.545 -2.9485,-56.7468 -38.5111,-41.338 -67.8631,-27.673 27.9346,-23.2981 -23.4398,-34.7771 -50.9437,-35.2783 56.996,-50.2966 26.119,-64.931 2.7943,-82.6311 57.4315,11.9803 42.9826,-15.1235 49.4459,-30.8559 49.812,33.8557 85.2527,24.5077 112.648,-9.0266 15.1349,17.4028 20.6066,54.0871 73.5776,-4.0088 -18.8313,49.4071 7.2124,43.5524 49.0134,18.2945 -6.2541,16.8237 -45.124,43.2233 21.271,38.72 -41.1448,16.9717 -49.3548,38.642 1.5874,68.75 z"
       id="path4584-8"
       inkscape:connector-curvature="0"
       sodipodi:nodetypes="cccccccccccc" />
    <path
       style="fill:#ffffff;fill-rule:evenodd;stroke:none;stroke-width:0.999993px;stroke-linecap:butt;stroke-linejoin:miter;stroke-opacity:1"
       d="m 1088.4402,1861.1551 c 12.6082,4.62 30.6985,12.1275 32.8912,20.213 2.1928,8.0848 13.7047,23.1004 9.8674,36.3833 -3.8373,13.2822 -14.8011,26.5651 -25.2166,34.0733 -10.4157,7.5075 -30.1504,13.2822 -42.7587,14.4376 -12.6083,1.1553 -44.9513,-6.9301 -54.2706,-4.6201 -9.3192,2.31 -43.30683,3.4647 -60.30065,-2.31 -16.99383,-5.7755 -36.1804,-27.1432 -38.92135,-40.4262 -2.74096,-13.2829 9.31917,-39.848 11.51191,-46.7781 2.1928,-6.9308 11.51198,-9.2409 11.51198,-9.2409 26.0186,-3.9635 117.34611,-7.6933 155.68541,-1.7319 z"
       id="path1099"
       inkscape:connector-curvature="0"
       sodipodi:nodetypes="ccccccccccc" />
    <path
       style="color:#000000;display:inline;overflow:visible;visibility:visible;fill:#ffffff;fill-opacity:1;fill-rule:nonzero;stroke:none;stroke-width:1.07409298px;marker:none;enable-background:accumulate"
       d="m 1434.4791,2048.88 c -6.1735,9.4417 -12.8586,18.7271 -21.3633,25.4951 -7.1273,-1.2878 -12.0489,-10.2867 -10.3261,-18.4021 -11.7639,2.8593 -19.3768,14.8423 -29.4861,21.4396 -15.5183,12.0843 -32.9473,22.4919 -51.7561,23.8091 -17.4488,-3.4117 -30.6221,-23.6154 -28.7325,-44.0819 -5.1485,-0.5935 -8.4395,5.3094 -10.4466,9.9839 -5.835,8.537 -11.8729,17.8671 -20.8795,22.0613 -8.0254,-0.5423 -13.2636,-12.2056 -9.0489,-20.2886 -2.3512,-3.7301 -7.4161,-0.8258 -8.5037,2.9315 -12.5317,12.4601 -25.5076,25.8487 -41.7795,30.8649 -18.7752,3.8797 -37.4882,-2.8829 -53.9939,-12.1342 -3.9633,-1.9165 -8.1182,-3.2605 -12.219,-4.7507 -6.7757,9.4562 -8.5145,23.0933 -17.6074,30.43 -9.833,7.7349 -22.3956,9.6335 -33.6718,6.8418 -5.6311,2.8441 -5.8687,10.7797 -8.6853,16.1539 -7.5384,13.6969 -21.7353,20.6388 -35.2088,21.4952 -5.3875,1.0106 -10.7751,2.0212 -16.1626,3.0318 10.1761,5.8992 21.3839,9.7833 30.4629,17.9015 -2.841,8.4388 -11.1242,11.8376 -18.2334,12.8726 -14.256,1.9017 -28.6585,1.5421 -42.82557,4.6415 -2.51196,0.3598 -5.02433,0.7239 -7.52306,1.2164 26.71663,2.6969 53.51363,7.7454 78.27343,19.4352 4.9468,11.8324 -3.7029,27.4725 -14.9062,28.7924 -6.1075,3.6045 -12.2149,7.2088 -18.3223,10.8135 14.8137,-0.4694 29.8414,-2.2677 44.4277,1.0053 9.2962,13.7349 6.6613,36.1022 -5.4609,47.2409 0.7653,4.3883 5.9555,4.0022 8.3978,1.5967 11.7123,-3.25 24.7705,-5.2923 35.7273,1.1695 17.032,12.6817 26.3466,34.5457 41.7134,49.338 1.2554,1.2701 2.601,3.6556 4.3074,3.4903 13.5224,-28.0894 44.5326,-42.4368 70.6879,-34.3095 8.8677,2.1364 17.2446,6.1259 25.4885,10.2523 11.61,-4.3908 19.4152,-17.2223 31.4152,-20.6182 12.6776,-5.9736 27.5332,-8.3908 40.1059,-1.8555 6.8602,5.4135 10.5011,15.061 18.1742,19.2884 7.5113,-2.3089 9.8117,-12.4223 16.2785,-16.5811 15.4337,-13.4364 37.3605,-13.8349 53.5121,-3.3137 6.0871,2.2176 12.1407,-2.6642 16.1337,-7.7426 13.6057,-12.736 31.4332,-16.6968 48.2842,-17.4852 5.1356,-0.2523 10.2681,-0.1272 15.395,0.015 1.3055,-4.354 -2.8452,-6.8196 -4.9868,-9.4022 -5.1616,-5.1696 -10.5612,-12.3151 -9.304,-20.946 1.6337,-11.2341 10.5998,-18.98 19.4837,-22.3653 5.6889,-2.4459 11.6207,-4.0955 17.1411,-7.0877 -5.4632,-5.6774 -12.3931,-8.9728 -18.37,-13.8395 -5.845,-4.351 -11.9118,-8.8312 -16.6212,-14.6671 -0.4446,-12.5741 8.3563,-23.7379 18.3994,-27.5317 4.653,-3.3762 9.2179,-6.987 13.2422,-11.3432 -10.9491,-1.5965 -22.4832,-2.412 -32.1563,-8.9059 -6.0825,-12.6866 -3.6568,-29.3251 3.9512,-40.9007 0.6871,-2.9586 -2.5744,-3.8742 -4.4656,-3.1805 -11.7843,-0.3494 -24.5833,-0.76 -34.3333,-9.0374 -9.9224,-9.6871 -12.9013,-25.8782 -11.5847,-40.5091 0.4088,-5.4613 1.3406,-10.9846 0.6101,-16.4294 -0.8828,1.3671 -1.7656,2.734 -2.6484,4.1011 z"
       id="path3549-3-7-5"
       inkscape:connector-curvature="0"
       sodipodi:nodetypes="cccccccccccccccccccc" />
    <path
       style="color:#000000;display:inline;overflow:visible;visibility:visible;fill:#ffffff;fill-opacity:1;fill-rule:nonzero;stroke:none;stroke-width:1px;marker:none;enable-background:accumulate"
       d="m 1215.9045,3102.4019 c -35.4901,1.0127 -71.3907,2.3026 -105.9431,13.293 -13.2375,4.504 -26.1502,13.6969 -33.2961,28.54 -10.5249,20.9979 -11.021,48.1413 -3.4047,70.6368 7.0343,21.7902 20.9827,40.9136 39.1726,48.9857 23.9245,10.5885 49.7029,10.9262 74.8256,11.303 14.3208,0.09 28.6368,0.5429 42.9549,0.8295 40.5334,0.5215 81.2461,-3.0065 120.9711,-13.2119 10.1832,-3.132 20.3171,-9.7458 25.7996,-21.1583 7.6002,-14.4665 10.3794,-31.6967 12.655,-48.4189 1.5762,-15.0588 -0.6114,-31.1141 -7.8437,-43.6735 -10.5753,-19.9832 -28.6838,-32.7789 -47.605,-36.7438 -20.525,-4.8818 -41.5328,-4.3959 -62.2691,-6.9623 -18.6423,-1.7278 -37.3041,-3.6794 -56.0171,-3.4193 z"
       id="path3330-06"
       inkscape:connector-curvature="0"
       sodipodi:nodetypes="zsssssz" />
    <path
       style="color:#000000;display:inline;overflow:visible;visibility:visible;fill:#ffffff;fill-opacity:1;fill-rule:nonzero;stroke:none;stroke-width:1.06337631px;marker:none;enable-background:accumulate"
       d="m 1291.0303,3245.8924 c -40.429,0.7733 -81.3255,1.7584 -120.6861,10.1515 -15.0798,3.4395 -29.7895,10.4599 -37.9299,21.7952 -11.9894,16.0354 -12.5548,36.7641 -3.8785,53.9432 8.0131,16.6406 23.9027,31.2445 44.6239,37.409 27.254,8.0861 56.6198,8.344 85.2384,8.6317 16.3138,0.068 32.6222,0.4146 48.9328,0.6335 46.174,0.3982 92.5523,-2.296 137.8055,-10.0896 11.6004,-2.3918 23.1444,-7.4425 29.3898,-16.158 8.6581,-11.0476 11.824,-24.2057 14.4161,-36.976 1.7957,-11.5 -0.6964,-23.761 -8.935,-33.3522 -12.0471,-15.2605 -32.6756,-25.0322 -54.23,-28.0602 -23.3811,-3.728 -47.3125,-3.357 -70.9343,-5.3169 -21.2368,-1.3194 -42.4956,-2.8098 -63.8127,-2.6112 z"
       id="path3330-06-3"
       inkscape:connector-curvature="0"
       sodipodi:nodetypes="zsssssz" />
    <path
       style="color:#000000;display:inline;overflow:visible;visibility:visible;fill:#ffffff;fill-opacity:1;fill-rule:nonzero;stroke:none;stroke-width:1px;marker:none;enable-background:accumulate"
       d="m 1039.2669,1903.8172 c 12.9493,3.5313 53.5872,20.5771 12.2952,22.1787 58.4932,34.8788 36.4599,48.5856 29.0728,56.6372 16.1722,-2.9028 43.2767,3.6912 37.948,25.997 15.5796,-3.3105 37.1138,30.9541 46.9488,47.7121 5.4751,-22.5128 14.7633,-26.7531 33.5882,14.6671 -5.0222,-31.6407 -8.5325,-61.1815 35.5765,-24.5631 -1.3396,-11.6529 -37.505,-38.8648 55.2875,-27.1762 -32.7571,-19.6367 -52.8115,-40.7758 2.6164,-68.3558 -25.4958,-7.917 -44.0058,-20.0077 -15.9196,-44.1161 -24.7104,-4.752 -32.1598,-33.2989 -29.3536,-43.8776 -22.4857,21.5457 -39.1208,21.0346 -47.2071,-7.7103 -38.5962,48.8917 -38.9502,9.3578 -52.5793,1.7385 -9.2198,38.1114 -32.9734,21.426 -54.7012,14.9485 7.6586,43.5652 -27.838,29.7409 -53.5726,31.92 z"
       id="path3549-3-8"
       inkscape:connector-curvature="0"
       sodipodi:nodetypes="ccccccccccccccc" />
  </g>
  <g
     inkscape:groupmode="layer"
     id="layer1"
     inkscape:label="txt"
     style="display:inline">
    <text
       xml:space="preserve"
       style="font-style:normal;font-variant:normal;font-weight:normal;font-stretch:normal;font-size:45.3333px;line-height:125%;font-family:Lavi;-inkscape-font-specification:Lavi;text-align:center;letter-spacing:0px;word-spacing:0px;text-anchor:middle;fill:#000000;fill-opacity:1;stroke:none"
       x="352.83478"
       y="308.57437"
       id="text4246-70-2-2-2-7-4-9-6"><tspan
         sodipodi:role="line"
         style="font-size:45.3333px"
         x="352.83478"
         y="308.57437"
         id="tspan9933-2-7">Hmm...</tspan></text>
    <text
       xml:space="preserve"
       style="font-style:normal;font-variant:normal;font-weight:normal;font-stretch:normal;font-size:45.33330154px;line-height:125%;font-family:Lavi;-inkscape-font-specification:Lavi;text-align:center;letter-spacing:0px;word-spacing:0px;text-anchor:middle;fill:#000000;fill-opacity:1;stroke:none"
       x="415.25522"
       y="407.0365"
       id="text4246-70-2-2-2-7-4-9"><tspan
         sodipodi:role="line"
         style="font-size:45.33330154px"
         x="415.25522"
         y="407.0365"
         id="tspan9933-2">Ymmärrän...</tspan></text>
    <text
       xml:space="preserve"
       style="font-style:normal;font-variant:normal;font-weight:normal;font-stretch:normal;font-size:45.33330154px;line-height:125%;font-family:Lavi;-inkscape-font-specification:Lavi;text-align:center;letter-spacing:0px;word-spacing:0px;text-anchor:middle;fill:#000000;fill-opacity:1;stroke:none"
       x="2003.085"
       y="328.43054"
       id="text4246-70-2-2-2-7-4-9-7"><tspan
         sodipodi:role="line"
         style="font-size:45.33330154px"
         x="2003.085"
         y="328.43054"
         id="tspan1077">... ja nyt olet siis täällä</tspan><tspan
         sodipodi:role="line"
         style="font-size:45.33330154px"
         x="2003.085"
         y="385.09717"
         id="tspan1083">saadaksesi Feeniksin paran-</tspan><tspan
         sodipodi:role="line"
         style="font-size:45.33330154px"
         x="2003.085"
         y="441.76379"
         id="tspan3817">tavia kyyneleitä, niinkö?</tspan></text>
    <text
       xml:space="preserve"
       style="font-style:normal;font-variant:normal;font-weight:normal;font-stretch:normal;font-size:45.33330154px;line-height:125%;font-family:Lavi;-inkscape-font-specification:Lavi;text-align:center;letter-spacing:0px;word-spacing:0px;text-anchor:middle;fill:#000000;fill-opacity:1;stroke:none"
       x="388.54419"
       y="830.83826"
       id="text4246-70-2-2-2-7-4-9-9"><tspan
         sodipodi:role="line"
         style="font-size:45.33330154px"
         x="388.54419"
         y="830.83826"
         id="tspan12869">Niin, se on ainoa</tspan><tspan
         sodipodi:role="line"
         style="font-style:normal;font-variant:normal;font-weight:bold;font-stretch:normal;font-size:45.33330154px;font-family:Lavi;-inkscape-font-specification:'Lavi Bold'"
         x="388.54419"
         y="887.50488"
         id="tspan1215">mahdollisuuteni.</tspan></text>
    <text
       xml:space="preserve"
       style="font-style:normal;font-variant:normal;font-weight:normal;font-stretch:normal;font-size:45.33330154px;line-height:125%;font-family:Lavi;-inkscape-font-specification:Lavi;text-align:center;letter-spacing:0px;word-spacing:0px;text-anchor:middle;fill:#000000;fill-opacity:1;stroke:none"
       x="956.3031"
       y="994.32025"
       id="text4246-70-2-2-2-7-4-9-9-3"><tspan
         sodipodi:role="line"
         style="font-style:italic;font-variant:normal;font-weight:normal;font-stretch:normal;font-size:45.33330154px;font-family:Lavi;-inkscape-font-specification:'Lavi Italic'"
         x="956.3031"
         y="994.32025"
         id="tspan12869-7">*huokaus*</tspan></text>
    <text
       xml:space="preserve"
       style="font-style:normal;font-variant:normal;font-weight:normal;font-stretch:normal;font-size:45.33330154px;line-height:125%;font-family:Lavi;-inkscape-font-specification:Lavi;text-align:center;letter-spacing:0px;word-spacing:0px;text-anchor:middle;fill:#000000;fill-opacity:1;stroke:none"
       x="1573.2738"
       y="881.7182"
       id="text4246-70-2-2-2-7-4-9-9-6-6"><tspan
         sodipodi:role="line"
         style="font-size:45.33330154px"
         x="1573.2738"
         y="881.7182"
         id="tspan1351">No, mitä odotat?</tspan></text>
    <text
       xml:space="preserve"
       style="font-style:normal;font-variant:normal;font-weight:normal;font-stretch:normal;font-size:45.33330154px;line-height:125%;font-family:Lavi;-inkscape-font-specification:Lavi;text-align:center;letter-spacing:0px;word-spacing:0px;text-anchor:middle;fill:#000000;fill-opacity:1;stroke:none"
       x="1574.7235"
       y="968.19611"
       id="text4246-70-2-2-2-7-4-9-9-6"><tspan
         sodipodi:role="line"
         style="font-size:45.33330154px"
         x="1574.7235"
         y="968.19611"
         id="tspan35611">Yritä saada</tspan><tspan
         sodipodi:role="line"
         style="font-size:45.33330154px"
         x="1574.7235"
         y="1024.8628"
         id="tspan1358"> minut itkemään.</tspan></text>
    <text
       xml:space="preserve"
       style="font-style:normal;font-variant:normal;font-weight:normal;font-stretch:normal;font-size:45.33330154px;line-height:125%;font-family:Lavi;-inkscape-font-specification:Lavi;text-align:center;letter-spacing:0px;word-spacing:0px;text-anchor:middle;fill:#000000;fill-opacity:1;stroke:none"
       x="1564.7095"
       y="1636.3534"
       id="text4246-70-2-2-2-7-4-9-9-6-5"><tspan
         sodipodi:role="line"
         style="font-style:normal;font-variant:normal;font-weight:bold;font-stretch:normal;font-size:45.33330154px;font-family:Lavi;-inkscape-font-specification:'Lavi Bold'"
         x="1564.7095"
         y="1636.3534"
         id="tspan1669"><tspan
           id="tspan3821"
           style="font-weight:normal;font-size:45.33330154px;-inkscape-font-specification:Lavi">Saat minuutin</tspan></tspan><tspan
         sodipodi:role="line"
         style="font-style:normal;font-variant:normal;font-weight:bold;font-stretch:normal;font-size:45.33330154px;font-family:Lavi;-inkscape-font-specification:'Lavi Bold'"
         x="1564.7095"
         y="1693.02"
         id="tspan3823"><tspan
   style="font-weight:normal;font-size:45.33330154px;-inkscape-font-specification:Lavi"
   id="tspan3825">aikaa</tspan>!</tspan></text>
    <text
       xml:space="preserve"
       style="font-style:normal;font-variant:normal;font-weight:normal;font-stretch:normal;font-size:55.95809937px;line-height:125%;font-family:Lavi;-inkscape-font-specification:Lavi;text-align:center;letter-spacing:0px;word-spacing:0px;text-anchor:middle;fill:#000000;fill-opacity:1;stroke:none;stroke-width:1"
       x="311.79352"
       y="1889.1261"
       id="text4246-70-2-2-2-7-4-9-9-6-1"><tspan
         sodipodi:role="line"
         style="font-style:normal;font-variant:normal;font-weight:bold;font-stretch:normal;font-size:55.95809937px;font-family:Lavi;-inkscape-font-specification:'Lavi Bold';stroke-width:1"
         x="311.79352"
         y="1889.1261"
         id="tspan40668">Mitä?!</tspan></text>
    <text
       xml:space="preserve"
       style="font-style:normal;font-variant:normal;font-weight:normal;font-stretch:normal;font-size:49.22159958px;line-height:125%;font-family:Lavi;-inkscape-font-specification:Lavi;text-align:center;letter-spacing:0px;word-spacing:0px;text-anchor:middle;fill:#000000;fill-opacity:1;stroke:none;stroke-width:1"
       x="472.64255"
       y="1972.0665"
       id="text4246-70-2-2-2-7-4-9-9-6-1-2-2"><tspan
         sodipodi:role="line"
         style="font-style:normal;font-variant:normal;font-weight:bold;font-stretch:normal;font-size:49.22159958px;font-family:Lavi;-inkscape-font-specification:'Lavi Bold';stroke-width:1"
         x="472.64255"
         y="1972.0665"
         id="tspan1798">Saada sinut</tspan><tspan
         sodipodi:role="line"
         style="font-style:normal;font-variant:normal;font-weight:bold;font-stretch:normal;font-size:49.22159958px;font-family:Lavi;-inkscape-font-specification:'Lavi Bold';stroke-width:1"
         x="472.64255"
         y="2033.5935"
         id="tspan3829">itkemään?!</tspan></text>
    <text
       xml:space="preserve"
       style="font-style:normal;font-variant:normal;font-weight:normal;font-stretch:normal;font-size:45.33330154px;line-height:125%;font-family:Lavi;-inkscape-font-specification:Lavi;text-align:center;letter-spacing:0px;word-spacing:0px;text-anchor:middle;fill:#000000;fill-opacity:1;stroke:none"
       x="663.1972"
       y="2124.0947"
       id="text4246-70-2-2-2-7-4-9-9-6-1-2"><tspan
         sodipodi:role="line"
         style="font-size:45.33330154px"
         x="663.1972"
         y="2124.0947"
         id="tspan53928">Mutta en</tspan><tspan
         sodipodi:role="line"
         style="font-size:45.33330154px"
         x="671.16595"
         y="2180.7612"
         id="tspan3831">tiennyt, </tspan><tspan
         sodipodi:role="line"
         style="font-size:45.33330154px"
         x="663.1972"
         y="2237.428"
         id="tspan1813">että ...</tspan></text>
    <text
       xml:space="preserve"
       style="font-style:normal;font-variant:normal;font-weight:normal;font-stretch:normal;font-size:49.26810074px;line-height:125%;font-family:Lavi;-inkscape-font-specification:Lavi;text-align:center;letter-spacing:0px;word-spacing:0px;text-anchor:middle;fill:#000000;fill-opacity:1;stroke:none;stroke-width:1"
       x="707.3999"
       y="2316.5879"
       id="text4246-70-2-2-2-7-4-9-9-6-1-2-27"
       transform="scale(0.98652379,1.0136603)"><tspan
         sodipodi:role="line"
         style="font-size:49.26810074px;stroke-width:1"
         x="707.3999"
         y="2316.5879"
         id="tspan1134">Siis ...</tspan><tspan
         sodipodi:role="line"
         style="font-style:normal;font-variant:normal;font-weight:bold;font-stretch:normal;font-size:49.26810074px;font-family:Lavi;-inkscape-font-specification:'Lavi Bold';stroke-width:1"
         x="707.3999"
         y="2378.1731"
         id="tspan1825">vain yksi</tspan><tspan
         sodipodi:role="line"
         style="font-style:normal;font-variant:normal;font-weight:bold;font-stretch:normal;font-size:49.26810074px;font-family:Lavi;-inkscape-font-specification:'Lavi Bold';stroke-width:1"
         x="707.3999"
         y="2439.7581"
         id="tspan3838">minuutti?!</tspan></text>
    <text
       xml:space="preserve"
       style="font-style:normal;font-variant:normal;font-weight:normal;font-stretch:normal;font-size:48.11569977px;line-height:125%;font-family:Lavi;-inkscape-font-specification:Lavi;text-align:center;letter-spacing:0px;word-spacing:0px;text-anchor:middle;fill:#000000;fill-opacity:1;stroke:none;stroke-width:1"
       x="1017.1918"
       y="1924.8142"
       id="text4246-70-2-2-2-7-4-9-9-6-1-2-3"><tspan
         sodipodi:role="line"
         style="font-size:48.11569977px;stroke-width:1"
         x="1017.1918"
         y="1924.8142"
         id="tspan44044-5">Öh...</tspan></text>
    <text
       xml:space="preserve"
       style="font-style:normal;font-variant:normal;font-weight:normal;font-stretch:normal;font-size:51.9425px;line-height:125%;font-family:Lavi;-inkscape-font-specification:Lavi;text-align:center;letter-spacing:0px;word-spacing:0px;text-anchor:middle;fill:#000000;fill-opacity:1;stroke:none;stroke-width:1"
       x="1187.4293"
       y="1953.7235"
       id="text4246-70-2-2-2-7-4-9-9-6-1-2-3-9-6"><tspan
         sodipodi:role="line"
         style="font-style:normal;font-variant:normal;font-weight:bold;font-stretch:normal;font-size:51.9425px;font-family:Lavi;-inkscape-font-specification:'Lavi Bold';stroke-width:1"
         x="1187.4293"
         y="1953.7235"
         id="tspan62775-6">OK!</tspan></text>
    <text
       xml:space="preserve"
       style="font-style:normal;font-variant:normal;font-weight:normal;font-stretch:normal;font-size:40.54169846px;line-height:125%;font-family:Lavi;-inkscape-font-specification:Lavi;text-align:center;letter-spacing:0px;word-spacing:0px;text-anchor:middle;fill:#000000;fill-opacity:1;stroke:none;stroke-width:1"
       x="1377.374"
       y="1972.0564"
       id="text4246-70-2-2-2-7-4-9-9-6-1-2-3-9-6-0"><tspan
         sodipodi:role="line"
         style="font-size:40.54169846px;stroke-width:1"
         x="1377.374"
         y="1972.0564"
         id="tspan62775-6-2">Odotahan.</tspan></text>
    <text
       xml:space="preserve"
       style="font-style:normal;font-variant:normal;font-weight:normal;font-stretch:normal;font-size:45.33330154px;line-height:125%;font-family:Lavi;-inkscape-font-specification:Lavi;text-align:center;letter-spacing:0px;word-spacing:0px;text-anchor:middle;fill:#000000;fill-opacity:1;stroke:none"
       x="1272.5657"
       y="2045.3505"
       id="text4246-70-2-2-2-7-4-9-9-6-1-2-3-9"><tspan
         sodipodi:role="line"
         style="font-size:45.33330154px"
         x="1280.5344"
         y="2045.3505"
         id="tspan85354">Hmm... Ajattele </tspan><tspan
         sodipodi:role="line"
         style="font-size:45.33330154px"
         x="1272.5657"
         y="2102.0168"
         id="tspan2077">maailman nälänhätää<tspan
   style="font-style:normal;font-variant:normal;font-weight:bold;font-stretch:normal;font-family:Lavi;-inkscape-font-specification:'Lavi Bold'"
   id="tspan2079">.</tspan></tspan></text>
    <text
       xml:space="preserve"
       style="font-style:normal;font-variant:normal;font-weight:normal;font-stretch:normal;font-size:45.33330154px;line-height:125%;font-family:Lavi;-inkscape-font-specification:Lavi;text-align:center;letter-spacing:0px;word-spacing:0px;text-anchor:middle;fill:#000000;fill-opacity:1;stroke:none"
       x="1270.5133"
       y="2179.5574"
       id="text4246-70-2-2-2-7-4-9-9-6-1-2-3-9-2"><tspan
         sodipodi:role="line"
         style="font-size:45.33330154px"
         x="1270.5133"
         y="2179.5574"
         id="tspan62775-9">Eikun odotaodota!</tspan></text>
    <text
       xml:space="preserve"
       style="font-style:normal;font-variant:normal;font-weight:normal;font-stretch:normal;font-size:45.33330154px;line-height:125%;font-family:Lavi;-inkscape-font-specification:Lavi;text-align:center;letter-spacing:0px;word-spacing:0px;text-anchor:middle;fill:#000000;fill-opacity:1;stroke:none"
       x="1273.4349"
       y="2231.5811"
       id="text4246-70-2-2-2-7-4-9-9-6-1-2-3-9-2-2"><tspan
         sodipodi:role="line"
         style="font-size:45.33330154px"
         x="1273.4349"
         y="2231.5811"
         id="tspan2208">Keksin parempaa:</tspan></text>
    <text
       xml:space="preserve"
       style="font-style:normal;font-variant:normal;font-weight:normal;font-stretch:normal;font-size:45.33330154px;line-height:125%;font-family:Lavi;-inkscape-font-specification:Lavi;text-align:center;letter-spacing:0px;word-spacing:0px;text-anchor:middle;fill:#000000;fill-opacity:1;stroke:none"
       x="1298.7916"
       y="2297.4265"
       id="text4246-70-2-2-2-7-4-9-9-6-1-2-3-9-2-7-6"><tspan
         sodipodi:role="line"
         style="font-style:normal;font-variant:normal;font-weight:bold;font-stretch:normal;font-size:45.33330154px;font-family:Lavi;-inkscape-font-specification:'Lavi Bold'"
         x="1298.7916"
         y="2297.4265"
         id="tspan70880-2">Ajattele kaikkea,</tspan><tspan
         sodipodi:role="line"
         style="font-style:normal;font-variant:normal;font-weight:bold;font-stretch:normal;font-size:45.33330154px;font-family:Lavi;-inkscape-font-specification:'Lavi Bold'"
         x="1298.7916"
         y="2354.0933"
         id="tspan3844">mitä olet</tspan><tspan
         sodipodi:role="line"
         style="font-style:normal;font-variant:normal;font-weight:bold;font-stretch:normal;font-size:45.33330154px;font-family:Lavi;-inkscape-font-specification:'Lavi Bold'"
         x="1298.7916"
         y="2410.7598"
         id="tspan3852">menettänyt.</tspan></text>
    <text
       xml:space="preserve"
       style="font-style:normal;font-variant:normal;font-weight:normal;font-stretch:normal;font-size:45.33330154px;line-height:125%;font-family:Lavi;-inkscape-font-specification:Lavi;text-align:center;letter-spacing:0px;word-spacing:0px;text-anchor:middle;fill:#000000;fill-opacity:1;stroke:none"
       x="1184.426"
       y="3080.6577"
       id="text4246-70-2-2-2-7-4-9-9-6-1-2-3-9-2-7"><tspan
         sodipodi:role="line"
         style="font-size:45.33330154px"
         x="1184.426"
         y="3080.6577"
         id="tspan70880">Eikö vielä mitään?</tspan></text>
    <text
       xml:space="preserve"
       style="font-style:normal;font-variant:normal;font-weight:normal;font-stretch:normal;font-size:45.33330154px;line-height:125%;font-family:Lavi;-inkscape-font-specification:Lavi;text-align:center;letter-spacing:0px;word-spacing:0px;text-anchor:middle;fill:#000000;fill-opacity:1;stroke:none"
       x="1226.6511"
       y="3169.509"
       id="text4246-70-2-2-2-7-4-9-9-6-1-2-3-9-2-7-9"><tspan
         sodipodi:role="line"
         style="font-style:normal;font-variant:normal;font-weight:bold;font-stretch:normal;font-size:45.33330154px;font-family:Lavi;-inkscape-font-specification:'Lavi Bold'"
         x="1226.6511"
         y="3169.509"
         id="tspan80607">Hylättyjä</tspan><tspan
         sodipodi:role="line"
         style="font-style:normal;font-variant:normal;font-weight:bold;font-stretch:normal;font-size:45.33330154px;font-family:Lavi;-inkscape-font-specification:'Lavi Bold'"
         x="1226.6511"
         y="3226.1755"
         id="tspan2463">lemmikkejä?!</tspan></text>
    <text
       xml:space="preserve"
       style="font-style:normal;font-variant:normal;font-weight:normal;font-stretch:normal;font-size:31.99909973px;line-height:125%;font-family:Lavi;-inkscape-font-specification:Lavi;text-align:center;letter-spacing:0px;word-spacing:0px;text-anchor:middle;fill:#000000;fill-opacity:1;stroke:none;stroke-width:0.99999899"
       x="1309.0375"
       y="3310.5249"
       id="text4246-70-2-2-2-7-4-9-9-6-1-2-3-9-2-7-9-1"><tspan
         sodipodi:role="line"
         style="font-size:31.99909973px;stroke-width:0.99999899"
         x="1309.0375"
         y="3310.5249"
         id="tspan2470">Lemmikkien hylkääminen</tspan><tspan
         sodipodi:role="line"
         style="font-size:31.99909973px;stroke-width:0.99999899"
         x="1309.0375"
         y="3350.5237"
         id="tspan1820">on niin surullista ...</tspan></text>
    <text
       xml:space="preserve"
       style="font-style:normal;font-variant:normal;font-weight:normal;font-stretch:normal;font-size:45.3333px;line-height:125%;font-family:Lavi;-inkscape-font-specification:Lavi;text-align:center;letter-spacing:0px;word-spacing:0px;text-anchor:middle;fill:#000000;fill-opacity:1;stroke:none"
       x="2305.2185"
       y="3151.553"
       id="text4246-70-2-2-2-7-4-9-9-6-1-2-3-9-2-7-9-5"><tspan
         sodipodi:role="line"
         style="font-size:45.3333px"
         x="2305.2185"
         y="3151.553"
         id="tspan80607-3">...</tspan></text>
  </g>
</svg>
