<?xml version="1.0" encoding="UTF-8" standalone="no"?>
<!-- Created with Inkscape (http://www.inkscape.org/) -->

<svg
   xmlns:dc="http://purl.org/dc/elements/1.1/"
   xmlns:cc="http://creativecommons.org/ns#"
   xmlns:rdf="http://www.w3.org/1999/02/22-rdf-syntax-ns#"
   xmlns:svg="http://www.w3.org/2000/svg"
   xmlns="http://www.w3.org/2000/svg"
   xmlns:xlink="http://www.w3.org/1999/xlink"
   xmlns:sodipodi="http://sodipodi.sourceforge.net/DTD/sodipodi-0.dtd"
   xmlns:inkscape="http://www.inkscape.org/namespaces/inkscape"
   id="svg2"
   version="1.1"
   inkscape:version="0.92.2 (5c3e80d, 2017-08-06)"
   width="2481"
   height="3503"
   sodipodi:docname="E37P03.svg">
  <metadata
     id="metadata8">
    <rdf:RDF>
      <cc:Work
         rdf:about="">
        <dc:format>image/svg+xml</dc:format>
        <dc:type
           rdf:resource="http://purl.org/dc/dcmitype/StillImage" />
        <dc:title />
      </cc:Work>
    </rdf:RDF>
  </metadata>
  <defs
     id="defs6" />
  <sodipodi:namedview
     pagecolor="#ffffff"
     bordercolor="#666666"
     borderopacity="1"
     objecttolerance="10"
     gridtolerance="10"
     guidetolerance="10"
     inkscape:pageopacity="0"
     inkscape:pageshadow="2"
     inkscape:window-width="1301"
     inkscape:window-height="1021"
     id="namedview4"
     showgrid="false"
     inkscape:zoom="0.52900002"
     inkscape:cx="1243.7217"
     inkscape:cy="2807.1833"
     inkscape:window-x="613"
     inkscape:window-y="-2"
     inkscape:window-maximized="0"
     inkscape:current-layer="layer3"
     inkscape:pagecheckerboard="0"
     inkscape:showpageshadow="0"
     inkscape:deskcolor="#d1d1d1" />
  <g
     inkscape:groupmode="layer"
     id="layer2"
     inkscape:label="artwork"
     sodipodi:insensitive="true">
    <image
       sodipodi:absref="C:\Users\Kari\Documents\Pepper and Carrot\Episode 37\fi\../lang/en/./../gfx_Pepper-and-Carrot_by-David-Revoy_E37P03.png"
       xlink:href="../gfx_Pepper-and-Carrot_by-David-Revoy_E37P03.png"
       y="0"
       x="0"
       id="image10"
       height="3503"
       width="2481" />
  </g>
  <g
     inkscape:groupmode="layer"
     id="layer3"
     inkscape:label="speechbubbles">
    <path
       style="fill:#ffffff;stroke:none"
       d="m 360.81076,483.27055 c -24.56923,-19.74397 -22.57209,-29.32044 -19.38779,-40.05561 3.18412,-10.73531 7.28186,-20.14814 3.61763,-26.41179 -3.66404,-6.26351 -11.74206,-11.72395 -18.29755,-14.98031 -6.55548,-3.25646 -0.45551,-10.46603 0.21288,-18.13003 0.66831,-7.66412 -10.65562,-47.81818 -10.65562,-47.81818 0,0 -16.12893,27.00135 -18.3493,36.73423 -2.22054,9.73275 -3.08233,13.28039 -2.88893,17.39675 0.19358,4.1165 2.17394,14.17648 7.99925,19.25288 5.82532,5.0764 13.79112,7.01762 19.0679,9.86162 5.27689,2.84391 3.98478,11.55697 3.32674,20.195 -0.65814,8.63801 0.27632,15.01927 9.71886,26.19244 8.09394,9.57758 25.63593,17.763 25.63593,17.763 z"
       id="path3023-2"
       inkscape:connector-curvature="0"
       sodipodi:nodetypes="csssscssssssc" />
    <path
       style="color:#000000;display:inline;overflow:visible;visibility:visible;fill:#ffffff;fill-opacity:1;fill-rule:nonzero;stroke:none;stroke-width:0.999998px;marker:none;enable-background:accumulate"
       d="m 403.42298,834.07226 c -16.6818,-24.82678 6.70933,-94.25013 56.4409,-100.94979 -22.32483,1.35916 -74.47842,-5.24564 -96.28686,102.62894 -9.86485,48.79671 26.31789,-1.15111 26.31789,-1.15111 z"
       id="path4035-4"
       inkscape:connector-curvature="0"
       sodipodi:nodetypes="ccscc" />
    <path
       style="color:#000000;display:inline;overflow:visible;visibility:visible;fill:#ffffff;fill-opacity:1;fill-rule:nonzero;stroke:none;stroke-width:0.83558512px;marker:none;enable-background:accumulate"
       d="m 290.51835,764.37371 c -34.6537,0.51335 -69.48142,8.35316 -98.83379,24.20097 -19.6941,11.27248 -34.06108,29.01519 -39.26322,48.69418 -6.03967,21.70457 -1.84217,45.84638 13.65874,64.11864 12.65972,14.65345 32.1792,24.01362 52.44994,29.03738 22.53441,5.56913 46.21002,5.7238 69.48045,6.36161 26.36042,0.45896 52.80371,-0.24213 78.98011,-3.0179 22.71734,-3.11974 45.45073,-9.64299 63.42589,-22.18397 14.50025,-10.67609 22.41308,-26.85752 23.09474,-42.98095 2.98097,-30.14249 -12.04283,-61.68777 -40.62865,-80.15721 -17.52515,-11.43341 -39.27575,-16.92892 -60.82209,-19.8864 -20.30985,-2.96007 -40.93705,-4.34221 -61.54212,-4.18635 z"
       id="path4040-4-5-3"
       inkscape:connector-curvature="0"
       sodipodi:nodetypes="zssssz" />
    <path
       style="color:#000000;display:inline;overflow:visible;visibility:visible;fill:#ffffff;fill-opacity:1;fill-rule:nonzero;stroke:none;stroke-width:1.09002566px;marker:none;enable-background:accumulate"
       d="m 275.55971,121.3812 c -35.65088,0.42651 -71.80798,3.25915 -105.71439,14.03225 -16.29588,5.15125 -31.5044,13.382 -43.74734,24.60312 -15.69314,14.13079 -26.624976,32.92009 -29.459749,53.05378 -3.558771,21.69058 -1.46282,43.69178 0.07395,65.45218 1.940965,19.47794 7.325499,39.51165 20.870039,55.04256 17.73535,20.99127 44.79889,33.94219 72.76317,39.19052 31.9774,6.32214 64.86774,5.68836 97.38594,6.18735 32.53134,-0.12298 65.36405,-0.47152 97.33619,-6.60892 27.89759,-5.8368 55.31867,-16.36352 76.8308,-34.0854 16.06974,-14.44176 24.01889,-34.9973 25.87203,-55.28478 3.75154,-28.61116 3.11698,-58.47365 -8.08616,-85.71233 -10.31248,-24.75506 -31.02461,-45.82741 -57.23432,-56.98393 -26.10217,-11.68371 -55.34801,-15.0562 -83.93958,-17.2672 -20.93892,-1.51536 -41.95819,-1.67764 -62.9506,-1.6192 z"
       id="path4040-4-5-3-5"
       inkscape:connector-curvature="0"
       sodipodi:nodetypes="zssssz" />
    <path
       style="display:inline;fill:#ffffff;stroke:none;stroke-width:1.01856"
       d="m 1372.5254,123.51953 c -49.0999,0.40617 -98.8591,6.64811 -144.6858,25.03838 -22.42,9.07708 -39.9322,28.11364 -49.6266,50.016 -5.787,12.8048 -8.5445,26.79015 -9.0565,40.7888 -1.5478,23.1199 1.8324,47.55822 14.8496,67.21746 12.9635,19.23993 33.686,31.55093 54.9012,39.83371 38.9659,15.60249 81.156,23.25833 123.1223,22.07801 38.3334,-1.53179 75.8506,-10.72042 114.1171,-13.02056 43.3862,-3.50776 87.2968,-4.49918 129.795,-14.81556 16.3525,-3.50551 31.3942,-13.04546 41.0145,-26.79384 8.0005,-11.01375 11.7541,-24.37021 14.6104,-37.49384 4.2366,-21.58647 3.3274,-44.2787 -3.0936,-65.34013 -7.9185,-23.36708 -25.2443,-43.07285 -46.8166,-54.86138 -29.9719,-17.65084 -64.9605,-23.35061 -98.981,-27.51709 -46.4966,-5.47922 -93.4123,-5.11327 -140.15,-5.12996 z"
       id="path3280-8-2"
       inkscape:connector-curvature="0"
       sodipodi:nodetypes="csssc" />
    <path
       style="color:#000000;display:inline;overflow:visible;visibility:visible;fill:#ffffff;fill-opacity:1;fill-rule:nonzero;stroke:none;stroke-width:1.1275878px;marker:none;enable-background:accumulate"
       d="m 1492.8899,316.34535 c -37.6248,0.51602 -75.6925,9.93842 -107.1075,30.17657 -28.7864,19.78102 -47.8369,52.72635 -48.0382,86.85006 -0.083,28.25586 14.7218,55.7726 37.8081,73.1568 19.6961,15.11937 43.9912,23.47236 68.3758,28.71024 38.247,8.51871 77.7339,11.9784 116.954,9.91791 24.9676,-1.21266 49.7276,-4.79463 74.3269,-8.91906 17.9314,-3.15322 35.8925,-7.66127 51.817,-16.40883 15.4106,-8.20285 28.7363,-20.24316 37.1923,-35.13424 12.7635,-22.14712 15.7559,-48.74051 10.691,-73.37672 -6.0368,-28.58934 -25.1112,-54.79951 -52.0846,-68.73557 -22.7597,-12.3343 -48.7452,-17.63154 -74.4006,-21.0738 -35.4784,-4.44757 -71.3271,-4.48282 -107.039,-5.16647 -2.8318,-0.009 -5.6635,-7.8e-4 -8.4952,0.003 z"
       id="path3365-7"
       inkscape:connector-curvature="0"
       sodipodi:nodetypes="cscsccc" />
    <path
       style="fill:#ffffff;fill-rule:evenodd;stroke:none;stroke-width:0.999999px;stroke-linecap:butt;stroke-linejoin:miter;stroke-opacity:1"
       d="m 1615.4482,493.17881 c -6.3324,4.61753 23.1312,48.65505 53.6406,67.52901 38.9988,24.12578 112.2777,14.3494 131.5101,5.98579 -39.7827,19.67647 -151.2589,38.53306 -215.4148,-49.39071 -15.2092,-20.84384 30.2641,-24.12409 30.2641,-24.12409 z"
       id="path1357"
       inkscape:connector-curvature="0"
       inkscape:transform-center-x="-30.354172"
       inkscape:transform-center-y="-147.57618"
       sodipodi:nodetypes="cscsc" />
    <path
       style="color:#000000;display:inline;overflow:visible;visibility:visible;fill:#ffffff;fill-opacity:1;fill-rule:nonzero;stroke:none;stroke-width:1.60941184px;marker:none;enable-background:accumulate"
       d="m 67.716345,2770.3285 c 6.097007,-33.7255 77.245555,-58.3416 261.639955,-51.8341 98.7714,3.4857 210.94227,5.8138 203.15648,55.2201 -7.78586,49.4067 -169.03045,47.9949 -202.33154,49.1212 -33.30124,1.1266 -206.63796,-4.2072 -236.800705,-21.0421 -18.881045,-10.5383 -26.30667,-21.0192 -25.66419,-31.4651 z"
       id="path4546-6-5"
       inkscape:connector-curvature="0"
       sodipodi:nodetypes="cssssc" />
    <path
       style="color:#000000;display:inline;overflow:visible;visibility:visible;fill:#ffffff;fill-opacity:1;fill-rule:nonzero;stroke:none;stroke-width:1.65534687px;marker:none;enable-background:accumulate"
       d="m 830.34882,3230.3551 c 5.08631,-72.4835 64.44054,-125.3888 218.26768,-111.4026 82.398,7.4914 175.9743,12.4949 169.4793,118.6795 -6.4951,106.1854 -141.0103,103.1513 -168.7912,105.5719 -27.7807,2.4214 -172.38329,-9.0423 -197.54593,-45.224 -15.75114,-22.6489 -21.94581,-45.1745 -21.40985,-67.6248 z"
       id="path4546-6-5-2"
       inkscape:connector-curvature="0"
       sodipodi:nodetypes="cssssc" />
    <path
       style="fill:#ffffff;fill-rule:evenodd;stroke:none;stroke-width:1px;stroke-linecap:butt;stroke-linejoin:miter;stroke-opacity:1"
       d="m 1373.2637,3271.7707 c 22.5866,-17.8161 34.5507,-17.0035 58.8747,-18.7273 24.3239,-1.7244 84.3852,-5.6068 108.13,-1.0095 23.745,4.5978 46.3316,9.7705 52.123,16.0922 5.7914,6.3217 19.6908,24.7127 19.6908,32.7588 0,8.0461 8.108,34.4827 -6.9497,51.7245 -15.0577,17.2414 -30.1154,29.8854 -57.3351,29.3105 -27.2198,-0.5748 -64.8641,0 -82.8176,0.5749 -17.9534,0.5741 -72.972,-6.8972 -82.8174,-21.8393 -9.8454,-14.9426 -23.7449,-37.3566 -21.4283,-50.0006 2.3166,-12.6435 12.5296,-38.8842 12.5296,-38.8842 z"
       id="path1289"
       inkscape:connector-curvature="0"
       sodipodi:nodetypes="csssssssscc" />
    <path
       style="fill:#ffffff;fill-rule:evenodd;stroke:none;stroke-width:1px;stroke-linecap:butt;stroke-linejoin:miter;stroke-opacity:1"
       d="m 1520.7213,3290.478 c 0,0 0.2613,-30.8716 9.7849,-41.8248 9.5236,-10.953 35.9725,-32.826 61.189,-35.0384 -49.4537,-3.6057 -69.9603,11.1043 -78.3427,19.1018 -8.3839,7.9982 -32.4023,48.2786 -32.4023,48.2786 z"
       id="path1367-3"
       inkscape:connector-curvature="0" />
    <path
       style="color:#000000;display:inline;overflow:visible;visibility:visible;fill:#ffffff;fill-opacity:1;fill-rule:nonzero;stroke:none;stroke-width:1px;marker:none;enable-background:accumulate"
       d="m 371.05804,2770.2315 c -13.44223,35.2759 -28.63005,94.9961 57.30853,115.005 -17.80709,4.5085 -119.29491,-9.1273 -91.99905,-114.8163 7.92058,-30.6682 15.69642,-16.5134 23.06049,-15.8694 7.36416,0.6441 11.63003,15.6807 11.63003,15.6807 z"
       id="path4064-5"
       inkscape:connector-curvature="0"
       sodipodi:nodetypes="ccszc" />
    <path
       style="color:#000000;display:inline;overflow:visible;visibility:visible;fill:#ffffff;fill-opacity:1;fill-rule:nonzero;stroke:none;stroke-width:1px;marker:none;enable-background:accumulate"
       d="m 985.81867,3194.6677 c 41.23993,-57.572 33.73823,-151.8082 -50.60213,-153.341 81.57176,24.5899 42.90889,109.9963 14.4588,139.3816 -19.62934,16.6806 36.14333,13.9594 36.14333,13.9594 z"
       id="path3978-4"
       inkscape:connector-curvature="0"
       sodipodi:nodetypes="cccc" />
  </g>
  <g
     inkscape:groupmode="layer"
     id="layer1"
     inkscape:label="txt">
    <text
       xml:space="preserve"
       style="font-style:normal;font-variant:normal;font-weight:normal;font-stretch:normal;font-size:45.33330154px;line-height:125%;font-family:Lavi;-inkscape-font-specification:Lavi;text-align:center;letter-spacing:0px;word-spacing:0px;text-anchor:middle;fill:#000000;fill-opacity:1;stroke:none"
       x="290.60724"
       y="216.41437"
       id="text4246-70-2-2-2-7-4-9-9-6-1-2-3-9-2-7-9-3"><tspan
         sodipodi:role="line"
         style="font-size:45.33330154px"
         x="290.60724"
         y="216.41437"
         id="tspan1047">He ovat todellakin</tspan><tspan
         sodipodi:role="line"
         style="font-size:45.33330154px"
         x="290.60724"
         y="273.08099"
         id="tspan3736">ripustaneet näitä</tspan><tspan
         sodipodi:role="line"
         style="font-size:45.33330154px"
         x="290.60724"
         y="329.74762"
         id="tspan1051">kaikkialle.</tspan></text>
    <text
       xml:space="preserve"
       style="font-style:normal;font-variant:normal;font-weight:normal;font-stretch:normal;font-size:45.33330154px;line-height:125%;font-family:Lavi;-inkscape-font-specification:Lavi;text-align:center;letter-spacing:0px;word-spacing:0px;text-anchor:middle;fill:#000000;fill-opacity:1;stroke:none"
       x="297.66208"
       y="832.55078"
       id="text4246-70-2-2-2-7-4-9-9-6-1-2-3-9-2-7-9-3-3"><tspan
         sodipodi:role="line"
         style="font-size:45.33330154px"
         x="297.66208"
         y="832.55078"
         id="tspan3752">Jopa aivan</tspan><tspan
         sodipodi:role="line"
         style="font-size:45.33330154px"
         x="297.66208"
         y="889.21741"
         id="tspan3756">syrjäkyliin.</tspan></text>
    <text
       xml:space="preserve"
       style="font-style:normal;font-variant:normal;font-weight:normal;font-stretch:normal;font-size:45.33330154px;line-height:125%;font-family:Lavi;-inkscape-font-specification:Lavi;text-align:center;letter-spacing:0px;word-spacing:0px;text-anchor:middle;fill:#000000;fill-opacity:1;stroke:none"
       x="1423.1024"
       y="199.99611"
       id="text4246-70-2-2-2-7-4-9-9-6-1-2-3-9-2-7-9-3-6"><tspan
         sodipodi:role="line"
         style="font-size:45.33330154px"
         x="1423.1024"
         y="199.99611"
         id="tspan1169">Tulehan, häivytään</tspan><tspan
         sodipodi:role="line"
         style="font-size:45.33330154px"
         x="1423.1024"
         y="256.66272"
         id="tspan3760">täältä ennen kuin joku</tspan><tspan
         sodipodi:role="line"
         style="font-size:45.33330154px"
         x="1423.1024"
         y="313.32935"
         id="tspan1175">tunnistaa meidät.</tspan></text>
    <text
       xml:space="preserve"
       style="font-style:normal;font-variant:normal;font-weight:normal;font-stretch:normal;font-size:45.33330154px;line-height:125%;font-family:Lavi;-inkscape-font-specification:Lavi;text-align:center;letter-spacing:0px;word-spacing:0px;text-anchor:middle;fill:#000000;fill-opacity:1;stroke:none"
       x="1535.2148"
       y="394.40094"
       id="text4246-70-2-2-2-7-4-9-9-6-1-2-3-9-2-7-9-3-6-7"><tspan
         sodipodi:role="line"
         style="font-size:45.33330154px"
         x="1535.2148"
         y="394.40094"
         id="tspan617">Meillä on juuri</tspan><tspan
         sodipodi:role="line"
         style="font-size:45.33330154px"
         x="1535.2148"
         y="451.06757"
         id="tspan3769">nyt suurempiakin</tspan><tspan
         sodipodi:role="line"
         style="font-size:45.33330154px"
         x="1535.2148"
         y="507.73419"
         id="tspan1237">huolia ...</tspan></text>
    <text
       xml:space="preserve"
       style="font-style:normal;font-variant:normal;font-weight:normal;font-stretch:normal;font-size:45.33330154px;line-height:125%;font-family:Lavi;-inkscape-font-specification:Lavi;text-align:center;letter-spacing:0px;word-spacing:0px;text-anchor:middle;fill:#000000;fill-opacity:1;stroke:none"
       x="305.57468"
       y="2781.9722"
       id="text4246-70-2-2-2-7-4-9-9-6-1-2-3-9-2-7-9-3-6-7-3"><tspan
         sodipodi:role="line"
         style="font-size:45.33330154px"
         x="305.57468"
         y="2781.9722"
         id="tspan62644">Valosta päätellen...</tspan></text>
    <text
       xml:space="preserve"
       style="font-style:normal;font-variant:normal;font-weight:normal;font-stretch:normal;font-size:45.33330154px;line-height:125%;font-family:Lavi;-inkscape-font-specification:Lavi;text-align:center;letter-spacing:0px;word-spacing:0px;text-anchor:middle;fill:#000000;fill-opacity:1;stroke:none"
       x="1022.1557"
       y="3187.2583"
       id="text4246-70-2-2-2-7-4-9-9-6-1-2-3-9-2-7-9-3-6-7-3-6"><tspan
         sodipodi:role="line"
         style="font-size:45.33330154px"
         x="1022.1557"
         y="3187.2583"
         id="tspan121879">...meidän täy-</tspan><tspan
         sodipodi:role="line"
         style="font-size:45.33330154px"
         x="1022.1557"
         y="3243.9248"
         id="tspan3778">tynee olla lähellä</tspan><tspan
         sodipodi:role="line"
         style="font-size:45.33330154px"
         x="1022.1557"
         y="3300.5916"
         id="tspan1298">sen pesää.</tspan></text>
    <text
       xml:space="preserve"
       style="font-style:normal;font-variant:normal;font-weight:normal;font-stretch:normal;font-size:48.525px;line-height:125%;font-family:Lavi;-inkscape-font-specification:Lavi;text-align:center;letter-spacing:0px;word-spacing:0px;text-anchor:middle;fill:#000000;fill-opacity:1;stroke:none;stroke-width:1"
       x="1490.6833"
       y="3328.5591"
       id="text4246-70-2-2-2-7-4-9-9-6-1-2-3-9-2-7-9-3-6-7-3-6-7"><tspan
         sodipodi:role="line"
         style="font-style:normal;font-variant:normal;font-weight:bold;font-stretch:normal;font-size:48.525px;font-family:Lavi;-inkscape-font-specification:'Lavi Bold';stroke-width:1"
         x="1490.6833"
         y="3328.5591"
         id="tspan121879-0">Bingo!</tspan></text>
  </g>
</svg>
